<?xml version="1.0" encoding="utf-8"  standalone="no"?>
<svg 
 viewBox="0 0 1280 720"
 xmlns="http://www.w3.org/2000/svg"
 xmlns:xlink="http://www.w3.org/1999/xlink"
>

<title>Gnuplot</title>
<desc>Produced by GNUPLOT 5.2 patchlevel 8 </desc>

<g id="gnuplot_canvas">

<rect x="0" y="0" width="1280" height="720" fill="none"/>
<defs>

	<circle id='gpDot' r='0.5' stroke-width='0.5' stroke='currentColor'/>
	<path id='gpPt0' stroke-width='0.222' stroke='currentColor' d='M-1,0 h2 M0,-1 v2'/>
	<path id='gpPt1' stroke-width='0.222' stroke='currentColor' d='M-1,-1 L1,1 M1,-1 L-1,1'/>
	<path id='gpPt2' stroke-width='0.222' stroke='currentColor' d='M-1,0 L1,0 M0,-1 L0,1 M-1,-1 L1,1 M-1,1 L1,-1'/>
	<rect id='gpPt3' stroke-width='0.222' stroke='currentColor' x='-1' y='-1' width='2' height='2'/>
	<rect id='gpPt4' stroke-width='0.222' stroke='currentColor' fill='currentColor' x='-1' y='-1' width='2' height='2'/>
	<circle id='gpPt5' stroke-width='0.222' stroke='currentColor' cx='0' cy='0' r='1'/>
	<use xlink:href='#gpPt5' id='gpPt6' fill='currentColor' stroke='none'/>
	<path id='gpPt7' stroke-width='0.222' stroke='currentColor' d='M0,-1.33 L-1.33,0.67 L1.33,0.67 z'/>
	<use xlink:href='#gpPt7' id='gpPt8' fill='currentColor' stroke='none'/>
	<use xlink:href='#gpPt7' id='gpPt9' stroke='currentColor' transform='rotate(180)'/>
	<use xlink:href='#gpPt9' id='gpPt10' fill='currentColor' stroke='none'/>
	<use xlink:href='#gpPt3' id='gpPt11' stroke='currentColor' transform='rotate(45)'/>
	<use xlink:href='#gpPt11' id='gpPt12' fill='currentColor' stroke='none'/>
	<path id='gpPt13' stroke-width='0.222' stroke='currentColor' d='M0,1.330 L1.265,0.411 L0.782,-1.067 L-0.782,-1.076 L-1.265,0.411 z'/>
	<use xlink:href='#gpPt13' id='gpPt14' fill='currentColor' stroke='none'/>
	<filter id='textbox' filterUnits='objectBoundingBox' x='0' y='0' height='1' width='1'>
	  <feFlood flood-color='white' flood-opacity='1' result='bgnd'/>
	  <feComposite in='SourceGraphic' in2='bgnd' operator='atop'/>
	</filter>
	<filter id='greybox' filterUnits='objectBoundingBox' x='0' y='0' height='1' width='1'>
	  <feFlood flood-color='lightgrey' flood-opacity='1' result='grey'/>
	  <feComposite in='SourceGraphic' in2='grey' operator='atop'/>
	</filter>
</defs>
<g fill="none" color="white" stroke="currentColor" stroke-width="1.00" stroke-linecap="butt" stroke-linejoin="miter">
</g>
<g fill="none" color="black" stroke="currentColor" stroke-width="1.00" stroke-linecap="butt" stroke-linejoin="miter">
	<path stroke='black'  d='M63.6,662.4 L72.6,662.4  '/>	<g transform="translate(55.3,666.3)" stroke="none" fill="black" font-family="Helvetica" font-size="12.00"  text-anchor="end">
		<text><tspan font-family="Helvetica" > 0</tspan></text>
	</g>
</g>
<g fill="none" color="black" stroke="currentColor" stroke-width="1.00" stroke-linecap="butt" stroke-linejoin="miter">
	<path stroke='black'  d='M63.6,525.4 L72.6,525.4  '/>	<g transform="translate(55.3,529.3)" stroke="none" fill="black" font-family="Helvetica" font-size="12.00"  text-anchor="end">
		<text><tspan font-family="Helvetica" > 5</tspan></text>
	</g>
</g>
<g fill="none" color="black" stroke="currentColor" stroke-width="1.00" stroke-linecap="butt" stroke-linejoin="miter">
	<path stroke='black'  d='M63.6,388.4 L72.6,388.4  '/>	<g transform="translate(55.3,392.3)" stroke="none" fill="black" font-family="Helvetica" font-size="12.00"  text-anchor="end">
		<text><tspan font-family="Helvetica" > 10</tspan></text>
	</g>
</g>
<g fill="none" color="black" stroke="currentColor" stroke-width="1.00" stroke-linecap="butt" stroke-linejoin="miter">
	<path stroke='black'  d='M63.6,251.4 L72.6,251.4  '/>	<g transform="translate(55.3,255.3)" stroke="none" fill="black" font-family="Helvetica" font-size="12.00"  text-anchor="end">
		<text><tspan font-family="Helvetica" > 15</tspan></text>
	</g>
</g>
<g fill="none" color="black" stroke="currentColor" stroke-width="1.00" stroke-linecap="butt" stroke-linejoin="miter">
	<path stroke='black'  d='M63.6,114.4 L72.6,114.4  '/>	<g transform="translate(55.3,118.3)" stroke="none" fill="black" font-family="Helvetica" font-size="12.00"  text-anchor="end">
		<text><tspan font-family="Helvetica" > 20</tspan></text>
	</g>
</g>
<g fill="none" color="black" stroke="currentColor" stroke-width="1.00" stroke-linecap="butt" stroke-linejoin="miter">
	<path stroke='black'  d='M201.6,662.4 L201.6,653.4  '/>	<g transform="translate(201.6,684.3)" stroke="none" fill="black" font-family="Helvetica" font-size="12.00"  text-anchor="middle">
		<text><tspan font-family="Helvetica" > 4.45</tspan></text>
	</g>
</g>
<g fill="none" color="black" stroke="currentColor" stroke-width="1.00" stroke-linecap="butt" stroke-linejoin="miter">
	<path stroke='black'  d='M374.7,662.4 L374.7,653.4  '/>	<g transform="translate(374.7,684.3)" stroke="none" fill="black" font-family="Helvetica" font-size="12.00"  text-anchor="middle">
		<text><tspan font-family="Helvetica" > 4.5</tspan></text>
	</g>
</g>
<g fill="none" color="black" stroke="currentColor" stroke-width="1.00" stroke-linecap="butt" stroke-linejoin="miter">
	<path stroke='black'  d='M547.8,662.4 L547.8,653.4  '/>	<g transform="translate(547.8,684.3)" stroke="none" fill="black" font-family="Helvetica" font-size="12.00"  text-anchor="middle">
		<text><tspan font-family="Helvetica" > 4.55</tspan></text>
	</g>
</g>
<g fill="none" color="black" stroke="currentColor" stroke-width="1.00" stroke-linecap="butt" stroke-linejoin="miter">
	<path stroke='black'  d='M720.9,662.4 L720.9,653.4  '/>	<g transform="translate(720.9,684.3)" stroke="none" fill="black" font-family="Helvetica" font-size="12.00"  text-anchor="middle">
		<text><tspan font-family="Helvetica" > 4.6</tspan></text>
	</g>
</g>
<g fill="none" color="black" stroke="currentColor" stroke-width="1.00" stroke-linecap="butt" stroke-linejoin="miter">
	<path stroke='black'  d='M894.0,662.4 L894.0,653.4  '/>	<g transform="translate(894.0,684.3)" stroke="none" fill="black" font-family="Helvetica" font-size="12.00"  text-anchor="middle">
		<text><tspan font-family="Helvetica" > 4.65</tspan></text>
	</g>
</g>
<g fill="none" color="black" stroke="currentColor" stroke-width="1.00" stroke-linecap="butt" stroke-linejoin="miter">
	<path stroke='black'  d='M1012.2,662.4 L1003.2,662.4  '/>	<g transform="translate(1020.5,666.3)" stroke="none" fill="black" font-family="Helvetica" font-size="12.00"  text-anchor="start">
		<text><tspan font-family="Helvetica" > 0</tspan></text>
	</g>
</g>
<g fill="none" color="black" stroke="currentColor" stroke-width="1.00" stroke-linecap="butt" stroke-linejoin="miter">
	<path stroke='black'  d='M1012.2,575.5 L1003.2,575.5  '/>	<g transform="translate(1020.5,579.4)" stroke="none" fill="black" font-family="Helvetica" font-size="12.00"  text-anchor="start">
		<text><tspan font-family="Helvetica" > 5</tspan></text>
	</g>
</g>
<g fill="none" color="black" stroke="currentColor" stroke-width="1.00" stroke-linecap="butt" stroke-linejoin="miter">
	<path stroke='black'  d='M1012.2,488.6 L1003.2,488.6  '/>	<g transform="translate(1020.5,492.5)" stroke="none" fill="black" font-family="Helvetica" font-size="12.00"  text-anchor="start">
		<text><tspan font-family="Helvetica" > 10</tspan></text>
	</g>
</g>
<g fill="none" color="black" stroke="currentColor" stroke-width="1.00" stroke-linecap="butt" stroke-linejoin="miter">
	<path stroke='black'  d='M1012.2,401.7 L1003.2,401.7  '/>	<g transform="translate(1020.5,405.6)" stroke="none" fill="black" font-family="Helvetica" font-size="12.00"  text-anchor="start">
		<text><tspan font-family="Helvetica" > 15</tspan></text>
	</g>
</g>
<g fill="none" color="black" stroke="currentColor" stroke-width="1.00" stroke-linecap="butt" stroke-linejoin="miter">
	<path stroke='black'  d='M1012.2,314.8 L1003.2,314.8  '/>	<g transform="translate(1020.5,318.7)" stroke="none" fill="black" font-family="Helvetica" font-size="12.00"  text-anchor="start">
		<text><tspan font-family="Helvetica" > 20</tspan></text>
	</g>
</g>
<g fill="none" color="black" stroke="currentColor" stroke-width="1.00" stroke-linecap="butt" stroke-linejoin="miter">
	<path stroke='black'  d='M1012.2,227.9 L1003.2,227.9  '/>	<g transform="translate(1020.5,231.8)" stroke="none" fill="black" font-family="Helvetica" font-size="12.00"  text-anchor="start">
		<text><tspan font-family="Helvetica" > 25</tspan></text>
	</g>
</g>
<g fill="none" color="black" stroke="currentColor" stroke-width="1.00" stroke-linecap="butt" stroke-linejoin="miter">
	<path stroke='black'  d='M1012.2,141.0 L1003.2,141.0  '/>	<g transform="translate(1020.5,144.9)" stroke="none" fill="black" font-family="Helvetica" font-size="12.00"  text-anchor="start">
		<text><tspan font-family="Helvetica" > 30</tspan></text>
	</g>
</g>
<g fill="none" color="black" stroke="currentColor" stroke-width="1.00" stroke-linecap="butt" stroke-linejoin="miter">
	<path stroke='black'  d='M1012.2,54.1 L1003.2,54.1  '/>	<g transform="translate(1020.5,58.0)" stroke="none" fill="black" font-family="Helvetica" font-size="12.00"  text-anchor="start">
		<text><tspan font-family="Helvetica" > 35</tspan></text>
	</g>
</g>
<g fill="none" color="black" stroke="currentColor" stroke-width="1.00" stroke-linecap="butt" stroke-linejoin="miter">
</g>
<g fill="none" color="black" stroke="currentColor" stroke-width="1.00" stroke-linecap="butt" stroke-linejoin="miter">
	<path stroke='black'  d='M63.6,54.1 L63.6,662.4 L1012.2,662.4 L1012.2,54.1 L63.6,54.1 Z  '/></g>
<g fill="none" color="black" stroke="currentColor" stroke-width="1.00" stroke-linecap="butt" stroke-linejoin="miter">
	<g transform="translate(19.0,358.3) rotate(270)" stroke="none" fill="black" font-family="Helvetica" font-size="12.00"  text-anchor="middle">
		<text><tspan font-family="Helvetica" >Iterations (x 10</tspan><tspan font-family="Helvetica"  font-size="9.6" dy="-6.00px">3</tspan><tspan font-family="Helvetica"  font-size="12.0" dy="6.00px">)</tspan></text>
	</g>
</g>
<g fill="none" color="black" stroke="currentColor" stroke-width="1.00" stroke-linecap="butt" stroke-linejoin="miter">
	<g transform="translate(1066.6,358.3) rotate(270)" stroke="none" fill="black" font-family="Helvetica" font-size="12.00"  text-anchor="middle">
		<text><tspan font-family="Helvetica" >Density (a.u.)</tspan></text>
	</g>
</g>
<g fill="none" color="black" stroke="currentColor" stroke-width="1.00" stroke-linecap="butt" stroke-linejoin="miter">
	<g transform="translate(537.9,711.3)" stroke="none" fill="black" font-family="Helvetica" font-size="12.00"  text-anchor="middle">
		<text><tspan font-family="Helvetica" >Average time (us)</tspan></text>
	</g>
</g>
<g fill="none" color="black" stroke="currentColor" stroke-width="1.00" stroke-linecap="butt" stroke-linejoin="miter">
	<g transform="translate(537.9,31.0)" stroke="none" fill="black" font-family="Helvetica" font-size="12.00"  text-anchor="middle">
		<text><tspan font-family="Helvetica" >bench_group/blake3/1536</tspan></text>
	</g>
</g>
<g fill="none" color="black" stroke="currentColor" stroke-width="1.00" stroke-linecap="butt" stroke-linejoin="miter">
</g>
	<g id="gnuplot_plot_1" ><title>PDF</title>
<g fill="none" color="black" stroke="currentColor" stroke-width="1.00" stroke-linecap="butt" stroke-linejoin="miter">
	<g transform="translate(1147.1,67.0)" stroke="none" fill="black" font-family="Helvetica" font-size="12.00"  text-anchor="start">
		<text><tspan font-family="Helvetica" >PDF</tspan></text>
	</g>
</g>
<g fill="none" color="black" stroke="currentColor" stroke-width="1.00" stroke-linecap="butt" stroke-linejoin="miter">
	<g stroke='none' shape-rendering='crispEdges'>
		<polygon fill = 'rgb( 31, 120, 180)' fill-opacity = '0.250000' points = '1096.6,67.6 1138.8,67.6 1138.8,58.6 1096.6,58.6 '/>
		<polygon fill = 'rgb( 31, 120, 180)' fill-opacity = '0.250000' points = '63.6,662.2 65.5,662.2 67.4,662.2 69.3,662.1 71.2,662.1 73.1,662.0 75.0,661.9 76.9,661.9 78.8,661.8 80.7,661.7 82.6,661.5 84.5,661.4 86.4,661.2 88.3,661.1 90.2,660.9 92.1,660.6
94.0,660.4 95.9,660.1 97.8,659.8 99.7,659.4 101.6,659.0 103.5,658.6 105.4,658.1 107.3,657.6 109.2,657.0 111.1,656.4 113.0,655.8 114.9,655.0 116.8,654.2 118.7,653.4 120.6,652.4 122.5,651.5
124.4,650.4 126.3,649.2 128.2,648.0 130.1,646.7 132.0,645.3 133.9,643.8 135.8,642.1 137.7,640.4 139.6,638.6 141.5,636.6 143.4,634.4 145.3,632.2 147.2,629.7 149.1,627.1 151.0,624.3 152.9,621.3
154.8,618.1 156.7,614.6 158.7,610.8 160.6,606.7 162.5,602.4 164.4,597.7 166.3,592.6 168.2,587.1 170.1,581.2 172.0,574.9 173.9,568.1 175.8,560.8 177.7,552.9 179.6,544.6 181.5,535.6 183.4,526.1
185.3,516.0 187.2,505.3 189.1,493.9 191.0,482.0 192.9,469.5 194.8,456.3 196.7,442.6 198.6,428.4 200.5,413.6 202.4,398.3 204.3,382.7 206.2,366.6 208.1,350.3 210.0,333.7 211.9,317.0 213.8,300.2
215.7,283.4 217.6,266.8 219.5,250.3 221.4,234.2 223.3,218.5 225.2,203.3 227.1,188.7 229.0,174.8 230.9,161.8 232.8,149.8 234.7,138.7 236.6,128.8 238.5,120.0 240.4,112.5 242.3,106.2 244.2,101.4
246.1,97.9 248.0,95.9 249.9,95.3 251.8,96.1 253.7,98.4 255.6,102.1 257.5,107.1 259.4,113.5 261.3,121.2 263.2,130.1 265.1,140.1 267.0,151.2 268.9,163.3 270.8,176.3 272.7,190.0 274.6,204.5
276.5,219.6 278.4,235.1 280.3,251.0 282.2,267.3 284.1,283.7 286.0,300.2 287.9,316.7 289.8,333.2 291.7,349.5 293.6,365.5 295.5,381.3 297.4,396.7 299.3,411.7 301.2,426.3 303.1,440.3 305.0,453.8
306.9,466.7 308.8,479.1 310.7,490.8 312.6,501.9 314.5,512.4 316.4,522.3 318.3,531.6 320.2,540.2 322.1,548.2 324.0,555.7 325.9,562.6 327.8,568.9 329.7,574.7 331.6,580.0 333.5,584.8 335.4,589.1
337.3,593.0 339.2,596.5 341.1,599.7 343.0,602.4 344.9,604.9 346.8,607.0 348.8,608.9 350.7,610.5 352.6,611.9 354.5,613.1 356.4,614.2 358.3,615.1 360.2,615.8 362.1,616.5 364.0,617.0 365.9,617.5
367.8,618.0 369.7,618.4 371.6,618.8 373.5,619.1 375.4,619.5 377.3,619.9 379.2,620.3 381.1,620.8 383.0,621.3 384.9,621.8 386.8,622.4 388.7,623.0 390.6,623.7 392.5,624.4 394.4,625.2 396.3,626.1
398.2,627.0 400.1,627.9 402.0,628.9 403.9,629.9 405.8,631.0 407.7,632.1 409.6,633.2 411.5,634.4 413.4,635.6 415.3,636.8 417.2,638.0 419.1,639.2 421.0,640.3 422.9,641.5 424.8,642.7 426.7,643.9
428.6,645.0 430.5,646.1 432.4,647.2 434.3,648.2 436.2,649.2 438.1,650.2 440.0,651.1 441.9,652.0 443.8,652.8 445.7,653.6 447.6,654.4 449.5,655.1 451.4,655.8 453.3,656.4 455.2,657.0 457.1,657.5
459.0,658.0 460.9,658.5 462.8,658.9 464.7,659.3 466.6,659.6 468.5,659.9 470.4,660.2 472.3,660.5 474.2,660.7 476.1,660.9 478.0,661.1 479.9,661.3 481.8,661.4 483.7,661.6 485.6,661.7 487.5,661.8
489.4,661.9 491.3,662.0 493.2,662.0 495.1,662.1 497.0,662.1 498.9,662.2 500.8,662.2 502.7,662.2 504.6,662.3 506.5,662.3 508.4,662.3 510.3,662.3 512.2,662.3 514.1,662.3 516.0,662.4 517.9,662.4
519.8,662.4 521.7,662.4 523.6,662.4 525.5,662.4 527.4,662.4 529.3,662.4 531.2,662.4 533.1,662.4 535.0,662.4 536.9,662.4 538.9,662.4 540.8,662.4 542.7,662.4 544.6,662.4 546.5,662.4 548.4,662.4
550.3,662.4 552.2,662.4 554.1,662.4 556.0,662.4 557.9,662.4 559.8,662.4 561.7,662.4 563.6,662.4 565.5,662.4 567.4,662.4 569.3,662.4 571.2,662.4 573.1,662.4 575.0,662.4 576.9,662.4 578.8,662.4
580.7,662.4 582.6,662.4 584.5,662.4 586.4,662.4 588.3,662.4 590.2,662.4 592.1,662.4 594.0,662.4 595.9,662.4 597.8,662.4 599.7,662.4 601.6,662.4 603.5,662.4 605.4,662.4 607.3,662.4 609.2,662.4
611.1,662.4 613.0,662.4 614.9,662.4 616.8,662.4 618.7,662.4 620.6,662.4 622.5,662.4 624.4,662.4 626.3,662.4 628.2,662.4 630.1,662.4 632.0,662.4 633.9,662.4 635.8,662.4 637.7,662.4 639.6,662.4
641.5,662.4 643.4,662.4 645.3,662.4 647.2,662.4 649.1,662.4 651.0,662.4 652.9,662.4 654.8,662.4 656.7,662.4 658.6,662.4 660.5,662.4 662.4,662.4 664.3,662.4 666.2,662.4 668.1,662.4 670.0,662.4
671.9,662.4 673.8,662.4 675.7,662.4 677.6,662.4 679.5,662.4 681.4,662.4 683.3,662.4 685.2,662.4 687.1,662.4 689.0,662.4 690.9,662.4 692.8,662.4 694.7,662.4 696.6,662.4 698.5,662.4 700.4,662.4
702.3,662.4 704.2,662.4 706.1,662.4 708.0,662.4 709.9,662.4 711.8,662.4 713.7,662.4 715.6,662.4 717.5,662.4 719.4,662.4 721.3,662.4 723.2,662.4 725.1,662.4 727.0,662.4 729.0,662.4 730.9,662.4
732.8,662.4 734.7,662.4 736.6,662.4 738.5,662.4 740.4,662.4 742.3,662.4 744.2,662.4 746.1,662.4 748.0,662.4 749.9,662.4 751.8,662.4 753.7,662.4 755.6,662.4 757.5,662.4 759.4,662.4 761.3,662.4
763.2,662.4 765.1,662.4 767.0,662.4 768.9,662.4 770.8,662.4 772.7,662.4 774.6,662.4 776.5,662.4 778.4,662.4 780.3,662.4 782.2,662.4 784.1,662.4 786.0,662.4 787.9,662.4 789.8,662.4 791.7,662.4
793.6,662.4 795.5,662.4 797.4,662.4 799.3,662.4 801.2,662.4 803.1,662.4 805.0,662.4 806.9,662.4 808.8,662.4 810.7,662.4 812.6,662.3 814.5,662.3 816.4,662.3 818.3,662.3 820.2,662.3 822.1,662.3
824.0,662.2 825.9,662.2 827.8,662.2 829.7,662.2 831.6,662.1 833.5,662.1 835.4,662.0 837.3,662.0 839.2,661.9 841.1,661.8 843.0,661.7 844.9,661.6 846.8,661.6 848.7,661.4 850.6,661.3 852.5,661.2
854.4,661.1 856.3,660.9 858.2,660.7 860.1,660.6 862.0,660.4 863.9,660.2 865.8,660.0 867.7,659.8 869.6,659.5 871.5,659.3 873.4,659.1 875.3,658.8 877.2,658.6 879.1,658.3 881.0,658.1 882.9,657.8
884.8,657.5 886.7,657.3 888.6,657.0 890.5,656.8 892.4,656.5 894.3,656.3 896.2,656.1 898.1,655.9 900.0,655.7 901.9,655.6 903.8,655.4 905.7,655.3 907.6,655.2 909.5,655.1 911.4,655.1 913.3,655.0
915.2,655.0 917.1,655.1 919.1,655.1 921.0,655.2 922.9,655.3 924.8,655.4 926.7,655.5 928.6,655.7 930.5,655.9 932.4,656.1 934.3,656.3 936.2,656.5 938.1,656.7 940.0,657.0 941.9,657.2 943.8,657.5
945.7,657.7 947.6,658.0 949.5,658.3 951.4,658.5 953.3,658.8 955.2,659.0 957.1,659.3 959.0,659.5 960.9,659.7 962.8,659.9 964.7,660.2 966.6,660.3 968.5,660.5 970.4,660.7 972.3,660.9 974.2,661.0
976.1,661.2 978.0,661.3 979.9,661.4 981.8,661.5 983.7,661.6 985.6,661.7 987.5,661.8 989.4,661.9 991.3,661.9 993.2,662.0 995.1,662.1 997.0,662.1 998.9,662.1 1000.8,662.2 1002.7,662.2 1004.6,662.2
1006.5,662.3 1008.4,662.3 1010.3,662.3 1012.2,662.3 1012.2,662.4 1010.3,662.4 1008.4,662.4 1006.5,662.4 1004.6,662.4 1002.7,662.4 1000.8,662.4 998.9,662.4 997.0,662.4 995.1,662.4 993.2,662.4 991.3,662.4
989.4,662.4 987.5,662.4 985.6,662.4 983.7,662.4 981.8,662.4 979.9,662.4 978.0,662.4 976.1,662.4 974.2,662.4 972.3,662.4 970.4,662.4 968.5,662.4 966.6,662.4 964.7,662.4 962.8,662.4 960.9,662.4
959.0,662.4 957.1,662.4 955.2,662.4 953.3,662.4 951.4,662.4 949.5,662.4 947.6,662.4 945.7,662.4 943.8,662.4 941.9,662.4 940.0,662.4 938.1,662.4 936.2,662.4 934.3,662.4 932.4,662.4 930.5,662.4
928.6,662.4 926.7,662.4 924.8,662.4 922.9,662.4 921.0,662.4 919.1,662.4 917.1,662.4 915.2,662.4 913.3,662.4 911.4,662.4 909.5,662.4 907.6,662.4 905.7,662.4 903.8,662.4 901.9,662.4 900.0,662.4
898.1,662.4 896.2,662.4 894.3,662.4 892.4,662.4 890.5,662.4 888.6,662.4 886.7,662.4 884.8,662.4 882.9,662.4 881.0,662.4 879.1,662.4 877.2,662.4 875.3,662.4 873.4,662.4 871.5,662.4 869.6,662.4
867.7,662.4 865.8,662.4 863.9,662.4 862.0,662.4 860.1,662.4 858.2,662.4 856.3,662.4 854.4,662.4 852.5,662.4 850.6,662.4 848.7,662.4 846.8,662.4 844.9,662.4 843.0,662.4 841.1,662.4 839.2,662.4
837.3,662.4 835.4,662.4 833.5,662.4 831.6,662.4 829.7,662.4 827.8,662.4 825.9,662.4 824.0,662.4 822.1,662.4 820.2,662.4 818.3,662.4 816.4,662.4 814.5,662.4 812.6,662.4 810.7,662.4 808.8,662.4
806.9,662.4 805.0,662.4 803.1,662.4 801.2,662.4 799.3,662.4 797.4,662.4 795.5,662.4 793.6,662.4 791.7,662.4 789.8,662.4 787.9,662.4 786.0,662.4 784.1,662.4 782.2,662.4 780.3,662.4 778.4,662.4
776.5,662.4 774.6,662.4 772.7,662.4 770.8,662.4 768.9,662.4 767.0,662.4 765.1,662.4 763.2,662.4 761.3,662.4 759.4,662.4 757.5,662.4 755.6,662.4 753.7,662.4 751.8,662.4 749.9,662.4 748.0,662.4
746.1,662.4 744.2,662.4 742.3,662.4 740.4,662.4 738.5,662.4 736.6,662.4 734.7,662.4 732.8,662.4 730.9,662.4 729.0,662.4 727.0,662.4 725.1,662.4 723.2,662.4 721.3,662.4 719.4,662.4 717.5,662.4
715.6,662.4 713.7,662.4 711.8,662.4 709.9,662.4 708.0,662.4 706.1,662.4 704.2,662.4 702.3,662.4 700.4,662.4 698.5,662.4 696.6,662.4 694.7,662.4 692.8,662.4 690.9,662.4 689.0,662.4 687.1,662.4
685.2,662.4 683.3,662.4 681.4,662.4 679.5,662.4 677.6,662.4 675.7,662.4 673.8,662.4 671.9,662.4 670.0,662.4 668.1,662.4 666.2,662.4 664.3,662.4 662.4,662.4 660.5,662.4 658.6,662.4 656.7,662.4
654.8,662.4 652.9,662.4 651.0,662.4 649.1,662.4 647.2,662.4 645.3,662.4 643.4,662.4 641.5,662.4 639.6,662.4 637.7,662.4 635.8,662.4 633.9,662.4 632.0,662.4 630.1,662.4 628.2,662.4 626.3,662.4
624.4,662.4 622.5,662.4 620.6,662.4 618.7,662.4 616.8,662.4 614.9,662.4 613.0,662.4 611.1,662.4 609.2,662.4 607.3,662.4 605.4,662.4 603.5,662.4 601.6,662.4 599.7,662.4 597.8,662.4 595.9,662.4
594.0,662.4 592.1,662.4 590.2,662.4 588.3,662.4 586.4,662.4 584.5,662.4 582.6,662.4 580.7,662.4 578.8,662.4 576.9,662.4 575.0,662.4 573.1,662.4 571.2,662.4 569.3,662.4 567.4,662.4 565.5,662.4
563.6,662.4 561.7,662.4 559.8,662.4 557.9,662.4 556.0,662.4 554.1,662.4 552.2,662.4 550.3,662.4 548.4,662.4 546.5,662.4 544.6,662.4 542.7,662.4 540.8,662.4 538.9,662.4 536.9,662.4 535.0,662.4
533.1,662.4 531.2,662.4 529.3,662.4 527.4,662.4 525.5,662.4 523.6,662.4 521.7,662.4 519.8,662.4 517.9,662.4 516.0,662.4 514.1,662.4 512.2,662.4 510.3,662.4 508.4,662.4 506.5,662.4 504.6,662.4
502.7,662.4 500.8,662.4 498.9,662.4 497.0,662.4 495.1,662.4 493.2,662.4 491.3,662.4 489.4,662.4 487.5,662.4 485.6,662.4 483.7,662.4 481.8,662.4 479.9,662.4 478.0,662.4 476.1,662.4 474.2,662.4
472.3,662.4 470.4,662.4 468.5,662.4 466.6,662.4 464.7,662.4 462.8,662.4 460.9,662.4 459.0,662.4 457.1,662.4 455.2,662.4 453.3,662.4 451.4,662.4 449.5,662.4 447.6,662.4 445.7,662.4 443.8,662.4
441.9,662.4 440.0,662.4 438.1,662.4 436.2,662.4 434.3,662.4 432.4,662.4 430.5,662.4 428.6,662.4 426.7,662.4 424.8,662.4 422.9,662.4 421.0,662.4 419.1,662.4 417.2,662.4 415.3,662.4 413.4,662.4
411.5,662.4 409.6,662.4 407.7,662.4 405.8,662.4 403.9,662.4 402.0,662.4 400.1,662.4 398.2,662.4 396.3,662.4 394.4,662.4 392.5,662.4 390.6,662.4 388.7,662.4 386.8,662.4 384.9,662.4 383.0,662.4
381.1,662.4 379.2,662.4 377.3,662.4 375.4,662.4 373.5,662.4 371.6,662.4 369.7,662.4 367.8,662.4 365.9,662.4 364.0,662.4 362.1,662.4 360.2,662.4 358.3,662.4 356.4,662.4 354.5,662.4 352.6,662.4
350.7,662.4 348.8,662.4 346.8,662.4 344.9,662.4 343.0,662.4 341.1,662.4 339.2,662.4 337.3,662.4 335.4,662.4 333.5,662.4 331.6,662.4 329.7,662.4 327.8,662.4 325.9,662.4 324.0,662.4 322.1,662.4
320.2,662.4 318.3,662.4 316.4,662.4 314.5,662.4 312.6,662.4 310.7,662.4 308.8,662.4 306.9,662.4 305.0,662.4 303.1,662.4 301.2,662.4 299.3,662.4 297.4,662.4 295.5,662.4 293.6,662.4 291.7,662.4
289.8,662.4 287.9,662.4 286.0,662.4 284.1,662.4 282.2,662.4 280.3,662.4 278.4,662.4 276.5,662.4 274.6,662.4 272.7,662.4 270.8,662.4 268.9,662.4 267.0,662.4 265.1,662.4 263.2,662.4 261.3,662.4
259.4,662.4 257.5,662.4 255.6,662.4 253.7,662.4 251.8,662.4 249.9,662.4 248.0,662.4 246.1,662.4 244.2,662.4 242.3,662.4 240.4,662.4 238.5,662.4 236.6,662.4 234.7,662.4 232.8,662.4 230.9,662.4
229.0,662.4 227.1,662.4 225.2,662.4 223.3,662.4 221.4,662.4 219.5,662.4 217.6,662.4 215.7,662.4 213.8,662.4 211.9,662.4 210.0,662.4 208.1,662.4 206.2,662.4 204.3,662.4 202.4,662.4 200.5,662.4
198.6,662.4 196.7,662.4 194.8,662.4 192.9,662.4 191.0,662.4 189.1,662.4 187.2,662.4 185.3,662.4 183.4,662.4 181.5,662.4 179.6,662.4 177.7,662.4 175.8,662.4 173.9,662.4 172.0,662.4 170.1,662.4
168.2,662.4 166.3,662.4 164.4,662.4 162.5,662.4 160.6,662.4 158.7,662.4 156.7,662.4 154.8,662.4 152.9,662.4 151.0,662.4 149.1,662.4 147.2,662.4 145.3,662.4 143.4,662.4 141.5,662.4 139.6,662.4
137.7,662.4 135.8,662.4 133.9,662.4 132.0,662.4 130.1,662.4 128.2,662.4 126.3,662.4 124.4,662.4 122.5,662.4 120.6,662.4 118.7,662.4 116.8,662.4 114.9,662.4 113.0,662.4 111.1,662.4 109.2,662.4
107.3,662.4 105.4,662.4 103.5,662.4 101.6,662.4 99.7,662.4 97.8,662.4 95.9,662.4 94.0,662.4 92.1,662.4 90.2,662.4 88.3,662.4 86.4,662.4 84.5,662.4 82.6,662.4 80.7,662.4 78.8,662.4
76.9,662.4 75.0,662.4 73.1,662.4 71.2,662.4 69.3,662.4 67.4,662.4 65.5,662.4 63.6,662.4 '/>
	</g>
</g>
	</g>
	<g id="gnuplot_plot_2" ><title>Mean</title>
<g fill="none" color="white" stroke="rgb( 31, 120, 180)" stroke-width="2.00" stroke-linecap="butt" stroke-linejoin="miter">
</g>
<g fill="none" color="black" stroke="currentColor" stroke-width="2.00" stroke-linecap="butt" stroke-linejoin="miter">
	<g transform="translate(1147.1,85.0)" stroke="none" fill="black" font-family="Helvetica" font-size="12.00"  text-anchor="start">
		<text><tspan font-family="Helvetica" >Mean</tspan></text>
	</g>
</g>
<g fill="none" color="black" stroke="currentColor" stroke-width="2.00" stroke-linecap="butt" stroke-linejoin="miter">
	<path stroke='rgb( 31, 120, 180)'  d='M1096.6,81.1 L1138.8,81.1 M263.1,662.4 L263.1,54.1  '/></g>
	</g>
	<g id="gnuplot_plot_3" ><title>"Clean" sample</title>
<g fill="none" color="white" stroke="rgb( 31, 120, 180)" stroke-width="1.00" stroke-linecap="butt" stroke-linejoin="miter">
</g>
<g fill="none" color="black" stroke="currentColor" stroke-width="1.00" stroke-linecap="butt" stroke-linejoin="miter">
	<g transform="translate(1147.1,103.0)" stroke="none" fill="black" font-family="Helvetica" font-size="12.00"  text-anchor="start">
		<text><tspan font-family="Helvetica" >"Clean" sample</tspan></text>
	</g>
</g>
<g fill="none" color="black" stroke="currentColor" stroke-width="1.00" stroke-linecap="butt" stroke-linejoin="miter">
	<use xlink:href='#gpPt6' transform='translate(276.7,625.9) scale(3.38)' color='rgb( 31, 120, 180)'/>
	<use xlink:href='#gpPt6' transform='translate(269.0,613.7) scale(3.38)' color='rgb( 31, 120, 180)'/>
	<use xlink:href='#gpPt6' transform='translate(243.5,589.4) scale(3.38)' color='rgb( 31, 120, 180)'/>
	<use xlink:href='#gpPt6' transform='translate(269.5,583.3) scale(3.38)' color='rgb( 31, 120, 180)'/>
	<use xlink:href='#gpPt6' transform='translate(303.0,577.2) scale(3.38)' color='rgb( 31, 120, 180)'/>
	<use xlink:href='#gpPt6' transform='translate(214.1,571.2) scale(3.38)' color='rgb( 31, 120, 180)'/>
	<use xlink:href='#gpPt6' transform='translate(273.6,565.1) scale(3.38)' color='rgb( 31, 120, 180)'/>
	<use xlink:href='#gpPt6' transform='translate(293.0,552.9) scale(3.38)' color='rgb( 31, 120, 180)'/>
	<use xlink:href='#gpPt6' transform='translate(269.4,546.8) scale(3.38)' color='rgb( 31, 120, 180)'/>
	<use xlink:href='#gpPt6' transform='translate(297.1,540.7) scale(3.38)' color='rgb( 31, 120, 180)'/>
	<use xlink:href='#gpPt6' transform='translate(251.2,534.7) scale(3.38)' color='rgb( 31, 120, 180)'/>
	<use xlink:href='#gpPt6' transform='translate(234.1,528.6) scale(3.38)' color='rgb( 31, 120, 180)'/>
	<use xlink:href='#gpPt6' transform='translate(241.5,522.5) scale(3.38)' color='rgb( 31, 120, 180)'/>
	<use xlink:href='#gpPt6' transform='translate(206.2,516.4) scale(3.38)' color='rgb( 31, 120, 180)'/>
	<use xlink:href='#gpPt6' transform='translate(243.6,510.3) scale(3.38)' color='rgb( 31, 120, 180)'/>
	<use xlink:href='#gpPt6' transform='translate(275.1,504.2) scale(3.38)' color='rgb( 31, 120, 180)'/>
	<use xlink:href='#gpPt6' transform='translate(206.0,498.2) scale(3.38)' color='rgb( 31, 120, 180)'/>
	<use xlink:href='#gpPt6' transform='translate(233.8,492.1) scale(3.38)' color='rgb( 31, 120, 180)'/>
	<use xlink:href='#gpPt6' transform='translate(218.5,486.0) scale(3.38)' color='rgb( 31, 120, 180)'/>
	<use xlink:href='#gpPt6' transform='translate(225.1,479.9) scale(3.38)' color='rgb( 31, 120, 180)'/>
	<use xlink:href='#gpPt6' transform='translate(255.8,473.8) scale(3.38)' color='rgb( 31, 120, 180)'/>
	<use xlink:href='#gpPt6' transform='translate(250.2,467.7) scale(3.38)' color='rgb( 31, 120, 180)'/>
	<use xlink:href='#gpPt6' transform='translate(227.9,461.7) scale(3.38)' color='rgb( 31, 120, 180)'/>
	<use xlink:href='#gpPt6' transform='translate(238.5,455.6) scale(3.38)' color='rgb( 31, 120, 180)'/>
	<use xlink:href='#gpPt6' transform='translate(257.7,449.5) scale(3.38)' color='rgb( 31, 120, 180)'/>
	<use xlink:href='#gpPt6' transform='translate(235.4,443.4) scale(3.38)' color='rgb( 31, 120, 180)'/>
	<use xlink:href='#gpPt6' transform='translate(262.8,437.3) scale(3.38)' color='rgb( 31, 120, 180)'/>
	<use xlink:href='#gpPt6' transform='translate(262.0,431.2) scale(3.38)' color='rgb( 31, 120, 180)'/>
	<use xlink:href='#gpPt6' transform='translate(285.0,425.2) scale(3.38)' color='rgb( 31, 120, 180)'/>
	<use xlink:href='#gpPt6' transform='translate(268.3,419.1) scale(3.38)' color='rgb( 31, 120, 180)'/>
	<use xlink:href='#gpPt6' transform='translate(235.7,413.0) scale(3.38)' color='rgb( 31, 120, 180)'/>
	<use xlink:href='#gpPt6' transform='translate(264.4,406.9) scale(3.38)' color='rgb( 31, 120, 180)'/>
	<use xlink:href='#gpPt6' transform='translate(298.0,400.8) scale(3.38)' color='rgb( 31, 120, 180)'/>
	<use xlink:href='#gpPt6' transform='translate(258.9,394.7) scale(3.38)' color='rgb( 31, 120, 180)'/>
	<use xlink:href='#gpPt6' transform='translate(252.6,388.7) scale(3.38)' color='rgb( 31, 120, 180)'/>
	<use xlink:href='#gpPt6' transform='translate(264.2,382.6) scale(3.38)' color='rgb( 31, 120, 180)'/>
	<use xlink:href='#gpPt6' transform='translate(250.4,376.5) scale(3.38)' color='rgb( 31, 120, 180)'/>
	<use xlink:href='#gpPt6' transform='translate(247.0,370.4) scale(3.38)' color='rgb( 31, 120, 180)'/>
	<use xlink:href='#gpPt6' transform='translate(242.8,364.3) scale(3.38)' color='rgb( 31, 120, 180)'/>
	<use xlink:href='#gpPt6' transform='translate(226.8,358.3) scale(3.38)' color='rgb( 31, 120, 180)'/>
	<use xlink:href='#gpPt6' transform='translate(231.0,352.2) scale(3.38)' color='rgb( 31, 120, 180)'/>
	<use xlink:href='#gpPt6' transform='translate(239.1,340.0) scale(3.38)' color='rgb( 31, 120, 180)'/>
	<use xlink:href='#gpPt6' transform='translate(244.0,333.9) scale(3.38)' color='rgb( 31, 120, 180)'/>
	<use xlink:href='#gpPt6' transform='translate(250.0,327.8) scale(3.38)' color='rgb( 31, 120, 180)'/>
	<use xlink:href='#gpPt6' transform='translate(223.6,321.8) scale(3.38)' color='rgb( 31, 120, 180)'/>
	<use xlink:href='#gpPt6' transform='translate(232.4,315.7) scale(3.38)' color='rgb( 31, 120, 180)'/>
	<use xlink:href='#gpPt6' transform='translate(243.2,309.6) scale(3.38)' color='rgb( 31, 120, 180)'/>
	<use xlink:href='#gpPt6' transform='translate(274.5,303.5) scale(3.38)' color='rgb( 31, 120, 180)'/>
	<use xlink:href='#gpPt6' transform='translate(253.9,297.4) scale(3.38)' color='rgb( 31, 120, 180)'/>
	<use xlink:href='#gpPt6' transform='translate(240.6,291.3) scale(3.38)' color='rgb( 31, 120, 180)'/>
	<use xlink:href='#gpPt6' transform='translate(258.2,285.3) scale(3.38)' color='rgb( 31, 120, 180)'/>
	<use xlink:href='#gpPt6' transform='translate(269.8,279.2) scale(3.38)' color='rgb( 31, 120, 180)'/>
	<use xlink:href='#gpPt6' transform='translate(249.6,273.1) scale(3.38)' color='rgb( 31, 120, 180)'/>
	<use xlink:href='#gpPt6' transform='translate(231.4,267.0) scale(3.38)' color='rgb( 31, 120, 180)'/>
	<use xlink:href='#gpPt6' transform='translate(238.7,260.9) scale(3.38)' color='rgb( 31, 120, 180)'/>
	<use xlink:href='#gpPt6' transform='translate(258.9,254.8) scale(3.38)' color='rgb( 31, 120, 180)'/>
	<use xlink:href='#gpPt6' transform='translate(241.3,248.8) scale(3.38)' color='rgb( 31, 120, 180)'/>
	<use xlink:href='#gpPt6' transform='translate(259.0,242.7) scale(3.38)' color='rgb( 31, 120, 180)'/>
	<use xlink:href='#gpPt6' transform='translate(235.1,236.6) scale(3.38)' color='rgb( 31, 120, 180)'/>
	<use xlink:href='#gpPt6' transform='translate(255.7,230.5) scale(3.38)' color='rgb( 31, 120, 180)'/>
	<use xlink:href='#gpPt6' transform='translate(246.4,224.4) scale(3.38)' color='rgb( 31, 120, 180)'/>
	<use xlink:href='#gpPt6' transform='translate(253.4,218.3) scale(3.38)' color='rgb( 31, 120, 180)'/>
	<use xlink:href='#gpPt6' transform='translate(299.1,212.3) scale(3.38)' color='rgb( 31, 120, 180)'/>
	<use xlink:href='#gpPt6' transform='translate(241.2,200.1) scale(3.38)' color='rgb( 31, 120, 180)'/>
	<use xlink:href='#gpPt6' transform='translate(247.8,194.0) scale(3.38)' color='rgb( 31, 120, 180)'/>
	<use xlink:href='#gpPt6' transform='translate(260.7,187.9) scale(3.38)' color='rgb( 31, 120, 180)'/>
	<use xlink:href='#gpPt6' transform='translate(267.7,181.8) scale(3.38)' color='rgb( 31, 120, 180)'/>
	<use xlink:href='#gpPt6' transform='translate(251.3,175.8) scale(3.38)' color='rgb( 31, 120, 180)'/>
	<use xlink:href='#gpPt6' transform='translate(259.4,169.7) scale(3.38)' color='rgb( 31, 120, 180)'/>
	<use xlink:href='#gpPt6' transform='translate(248.5,163.6) scale(3.38)' color='rgb( 31, 120, 180)'/>
	<use xlink:href='#gpPt6' transform='translate(231.1,157.5) scale(3.38)' color='rgb( 31, 120, 180)'/>
	<use xlink:href='#gpPt6' transform='translate(250.9,151.4) scale(3.38)' color='rgb( 31, 120, 180)'/>
	<use xlink:href='#gpPt6' transform='translate(249.1,145.3) scale(3.38)' color='rgb( 31, 120, 180)'/>
	<use xlink:href='#gpPt6' transform='translate(250.2,139.3) scale(3.38)' color='rgb( 31, 120, 180)'/>
	<use xlink:href='#gpPt6' transform='translate(243.7,133.2) scale(3.38)' color='rgb( 31, 120, 180)'/>
	<use xlink:href='#gpPt6' transform='translate(270.7,127.1) scale(3.38)' color='rgb( 31, 120, 180)'/>
	<use xlink:href='#gpPt6' transform='translate(250.6,121.0) scale(3.38)' color='rgb( 31, 120, 180)'/>
	<use xlink:href='#gpPt6' transform='translate(252.4,114.9) scale(3.38)' color='rgb( 31, 120, 180)'/>
	<use xlink:href='#gpPt6' transform='translate(251.2,108.8) scale(3.38)' color='rgb( 31, 120, 180)'/>
	<use xlink:href='#gpPt6' transform='translate(266.2,102.8) scale(3.38)' color='rgb( 31, 120, 180)'/>
	<use xlink:href='#gpPt6' transform='translate(240.1,96.7) scale(3.38)' color='rgb( 31, 120, 180)'/>
	<use xlink:href='#gpPt6' transform='translate(240.4,90.6) scale(3.38)' color='rgb( 31, 120, 180)'/>
	<use xlink:href='#gpPt6' transform='translate(237.8,84.5) scale(3.38)' color='rgb( 31, 120, 180)'/>
	<use xlink:href='#gpPt6' transform='translate(231.0,78.4) scale(3.38)' color='rgb( 31, 120, 180)'/>
	<use xlink:href='#gpPt6' transform='translate(247.1,72.3) scale(3.38)' color='rgb( 31, 120, 180)'/>
	<use xlink:href='#gpPt6' transform='translate(248.5,66.3) scale(3.38)' color='rgb( 31, 120, 180)'/>
	<use xlink:href='#gpPt6' transform='translate(246.3,60.2) scale(3.38)' color='rgb( 31, 120, 180)'/>
	<use xlink:href='#gpPt6' transform='translate(257.3,54.1) scale(3.38)' color='rgb( 31, 120, 180)'/>
	<use xlink:href='#gpPt6' transform='translate(1117.7,99.1) scale(3.38)' color='rgb( 31, 120, 180)'/>
</g>
	</g>
	<g id="gnuplot_plot_4" ><title>Mild outliers</title>
<g fill="none" color="black" stroke="currentColor" stroke-width="1.00" stroke-linecap="butt" stroke-linejoin="miter">
	<g transform="translate(1147.1,121.0)" stroke="none" fill="black" font-family="Helvetica" font-size="12.00"  text-anchor="start">
		<text><tspan font-family="Helvetica" >Mild outliers</tspan></text>
	</g>
</g>
<g fill="none" color="black" stroke="currentColor" stroke-width="1.00" stroke-linecap="butt" stroke-linejoin="miter">
	<use xlink:href='#gpPt6' transform='translate(161.3,650.2) scale(3.38)' color='rgb(255, 127,   0)'/>
	<use xlink:href='#gpPt6' transform='translate(173.0,644.2) scale(3.38)' color='rgb(255, 127,   0)'/>
	<use xlink:href='#gpPt6' transform='translate(193.8,632.0) scale(3.38)' color='rgb(255, 127,   0)'/>
	<use xlink:href='#gpPt6' transform='translate(166.5,619.8) scale(3.38)' color='rgb(255, 127,   0)'/>
	<use xlink:href='#gpPt6' transform='translate(317.2,346.1) scale(3.38)' color='rgb(255, 127,   0)'/>
	<use xlink:href='#gpPt6' transform='translate(1117.7,117.1) scale(3.38)' color='rgb(255, 127,   0)'/>
</g>
	</g>
	<g id="gnuplot_plot_5" ><title>Severe outliers</title>
<g fill="none" color="black" stroke="currentColor" stroke-width="1.00" stroke-linecap="butt" stroke-linejoin="miter">
	<g transform="translate(1147.1,139.0)" stroke="none" fill="black" font-family="Helvetica" font-size="12.00"  text-anchor="start">
		<text><tspan font-family="Helvetica" >Severe outliers</tspan></text>
	</g>
</g>
<g fill="none" color="black" stroke="currentColor" stroke-width="1.00" stroke-linecap="butt" stroke-linejoin="miter">
	<use xlink:href='#gpPt6' transform='translate(914.5,656.3) scale(3.38)' color='rgb(227,  26,  28)'/>
	<use xlink:href='#gpPt6' transform='translate(383.3,638.1) scale(3.38)' color='rgb(227,  26,  28)'/>
	<use xlink:href='#gpPt6' transform='translate(377.3,607.7) scale(3.38)' color='rgb(227,  26,  28)'/>
	<use xlink:href='#gpPt6' transform='translate(407.9,601.6) scale(3.38)' color='rgb(227,  26,  28)'/>
	<use xlink:href='#gpPt6' transform='translate(397.9,595.5) scale(3.38)' color='rgb(227,  26,  28)'/>
	<use xlink:href='#gpPt6' transform='translate(360.5,559.0) scale(3.38)' color='rgb(227,  26,  28)'/>
	<use xlink:href='#gpPt6' transform='translate(361.1,206.2) scale(3.38)' color='rgb(227,  26,  28)'/>
	<use xlink:href='#gpPt6' transform='translate(1117.7,135.1) scale(3.38)' color='rgb(227,  26,  28)'/>
</g>
	</g>
	<g id="gnuplot_plot_6" ><title>gnuplot_plot_6</title>
<g fill="none" color="white" stroke="rgb(227,  26,  28)" stroke-width="2.00" stroke-linecap="butt" stroke-linejoin="miter">
</g>
<g fill="none" color="black" stroke="currentColor" stroke-width="2.00" stroke-linecap="butt" stroke-linejoin="miter">
	<path stroke='rgb(255, 127,   0)'  d='M197.6,662.4 L197.6,54.1  '/></g>
	</g>
	<g id="gnuplot_plot_7" ><title>gnuplot_plot_7</title>
<g fill="none" color="black" stroke="currentColor" stroke-width="2.00" stroke-linecap="butt" stroke-linejoin="miter">
	<path stroke='rgb(255, 127,   0)'  d='M308.0,662.4 L308.0,54.1  '/></g>
	</g>
	<g id="gnuplot_plot_8" ><title>gnuplot_plot_8</title>
<g fill="none" color="black" stroke="currentColor" stroke-width="2.00" stroke-linecap="butt" stroke-linejoin="miter">
	<path stroke='rgb(227,  26,  28)'  d='M156.2,662.4 L156.2,54.1  '/></g>
	</g>
	<g id="gnuplot_plot_9" ><title>gnuplot_plot_9</title>
<g fill="none" color="black" stroke="currentColor" stroke-width="2.00" stroke-linecap="butt" stroke-linejoin="miter">
	<path stroke='rgb(227,  26,  28)'  d='M349.4,662.4 L349.4,54.1  '/></g>
	</g>
<g fill="none" color="black" stroke="currentColor" stroke-width="2.00" stroke-linecap="butt" stroke-linejoin="miter">
</g>
<g fill="none" color="black" stroke="black" stroke-width="1.00" stroke-linecap="butt" stroke-linejoin="miter">
</g>
<g fill="none" color="black" stroke="currentColor" stroke-width="1.00" stroke-linecap="butt" stroke-linejoin="miter">
	<path stroke='black'  d='M63.6,54.1 L63.6,662.4 L1012.2,662.4 L1012.2,54.1 L63.6,54.1 Z  '/></g>
<g fill="none" color="black" stroke="currentColor" stroke-width="1.00" stroke-linecap="butt" stroke-linejoin="miter">
</g>
</g>
</svg>

