<?xml version="1.0" encoding="utf-8"  standalone="no"?>
<svg 
 viewBox="0 0 1280 720"
 xmlns="http://www.w3.org/2000/svg"
 xmlns:xlink="http://www.w3.org/1999/xlink"
>

<title>Gnuplot</title>
<desc>Produced by GNUPLOT 5.2 patchlevel 8 </desc>

<g id="gnuplot_canvas">

<rect x="0" y="0" width="1280" height="720" fill="none"/>
<defs>

	<circle id='gpDot' r='0.5' stroke-width='0.5' stroke='currentColor'/>
	<path id='gpPt0' stroke-width='0.222' stroke='currentColor' d='M-1,0 h2 M0,-1 v2'/>
	<path id='gpPt1' stroke-width='0.222' stroke='currentColor' d='M-1,-1 L1,1 M1,-1 L-1,1'/>
	<path id='gpPt2' stroke-width='0.222' stroke='currentColor' d='M-1,0 L1,0 M0,-1 L0,1 M-1,-1 L1,1 M-1,1 L1,-1'/>
	<rect id='gpPt3' stroke-width='0.222' stroke='currentColor' x='-1' y='-1' width='2' height='2'/>
	<rect id='gpPt4' stroke-width='0.222' stroke='currentColor' fill='currentColor' x='-1' y='-1' width='2' height='2'/>
	<circle id='gpPt5' stroke-width='0.222' stroke='currentColor' cx='0' cy='0' r='1'/>
	<use xlink:href='#gpPt5' id='gpPt6' fill='currentColor' stroke='none'/>
	<path id='gpPt7' stroke-width='0.222' stroke='currentColor' d='M0,-1.33 L-1.33,0.67 L1.33,0.67 z'/>
	<use xlink:href='#gpPt7' id='gpPt8' fill='currentColor' stroke='none'/>
	<use xlink:href='#gpPt7' id='gpPt9' stroke='currentColor' transform='rotate(180)'/>
	<use xlink:href='#gpPt9' id='gpPt10' fill='currentColor' stroke='none'/>
	<use xlink:href='#gpPt3' id='gpPt11' stroke='currentColor' transform='rotate(45)'/>
	<use xlink:href='#gpPt11' id='gpPt12' fill='currentColor' stroke='none'/>
	<path id='gpPt13' stroke-width='0.222' stroke='currentColor' d='M0,1.330 L1.265,0.411 L0.782,-1.067 L-0.782,-1.076 L-1.265,0.411 z'/>
	<use xlink:href='#gpPt13' id='gpPt14' fill='currentColor' stroke='none'/>
	<filter id='textbox' filterUnits='objectBoundingBox' x='0' y='0' height='1' width='1'>
	  <feFlood flood-color='white' flood-opacity='1' result='bgnd'/>
	  <feComposite in='SourceGraphic' in2='bgnd' operator='atop'/>
	</filter>
	<filter id='greybox' filterUnits='objectBoundingBox' x='0' y='0' height='1' width='1'>
	  <feFlood flood-color='lightgrey' flood-opacity='1' result='grey'/>
	  <feComposite in='SourceGraphic' in2='grey' operator='atop'/>
	</filter>
</defs>
<g fill="none" color="white" stroke="currentColor" stroke-width="1.00" stroke-linecap="butt" stroke-linejoin="miter">
</g>
<g fill="none" color="black" stroke="currentColor" stroke-width="1.00" stroke-linecap="butt" stroke-linejoin="miter">
	<path stroke='black'  d='M80.2,662.4 L89.2,662.4  '/>	<g transform="translate(71.9,666.3)" stroke="none" fill="black" font-family="Helvetica" font-size="12.00"  text-anchor="end">
		<text><tspan font-family="Helvetica" > 0</tspan></text>
	</g>
</g>
<g fill="none" color="black" stroke="currentColor" stroke-width="1.00" stroke-linecap="butt" stroke-linejoin="miter">
	<path stroke='black'  d='M80.2,594.8 L89.2,594.8  '/>	<g transform="translate(71.9,598.7)" stroke="none" fill="black" font-family="Helvetica" font-size="12.00"  text-anchor="end">
		<text><tspan font-family="Helvetica" > 1000</tspan></text>
	</g>
</g>
<g fill="none" color="black" stroke="currentColor" stroke-width="1.00" stroke-linecap="butt" stroke-linejoin="miter">
	<path stroke='black'  d='M80.2,527.2 L89.2,527.2  '/>	<g transform="translate(71.9,531.1)" stroke="none" fill="black" font-family="Helvetica" font-size="12.00"  text-anchor="end">
		<text><tspan font-family="Helvetica" > 2000</tspan></text>
	</g>
</g>
<g fill="none" color="black" stroke="currentColor" stroke-width="1.00" stroke-linecap="butt" stroke-linejoin="miter">
	<path stroke='black'  d='M80.2,459.6 L89.2,459.6  '/>	<g transform="translate(71.9,463.5)" stroke="none" fill="black" font-family="Helvetica" font-size="12.00"  text-anchor="end">
		<text><tspan font-family="Helvetica" > 3000</tspan></text>
	</g>
</g>
<g fill="none" color="black" stroke="currentColor" stroke-width="1.00" stroke-linecap="butt" stroke-linejoin="miter">
	<path stroke='black'  d='M80.2,392.0 L89.2,392.0  '/>	<g transform="translate(71.9,395.9)" stroke="none" fill="black" font-family="Helvetica" font-size="12.00"  text-anchor="end">
		<text><tspan font-family="Helvetica" > 4000</tspan></text>
	</g>
</g>
<g fill="none" color="black" stroke="currentColor" stroke-width="1.00" stroke-linecap="butt" stroke-linejoin="miter">
	<path stroke='black'  d='M80.2,324.5 L89.2,324.5  '/>	<g transform="translate(71.9,328.4)" stroke="none" fill="black" font-family="Helvetica" font-size="12.00"  text-anchor="end">
		<text><tspan font-family="Helvetica" > 5000</tspan></text>
	</g>
</g>
<g fill="none" color="black" stroke="currentColor" stroke-width="1.00" stroke-linecap="butt" stroke-linejoin="miter">
	<path stroke='black'  d='M80.2,256.9 L89.2,256.9  '/>	<g transform="translate(71.9,260.8)" stroke="none" fill="black" font-family="Helvetica" font-size="12.00"  text-anchor="end">
		<text><tspan font-family="Helvetica" > 6000</tspan></text>
	</g>
</g>
<g fill="none" color="black" stroke="currentColor" stroke-width="1.00" stroke-linecap="butt" stroke-linejoin="miter">
	<path stroke='black'  d='M80.2,189.3 L89.2,189.3  '/>	<g transform="translate(71.9,193.2)" stroke="none" fill="black" font-family="Helvetica" font-size="12.00"  text-anchor="end">
		<text><tspan font-family="Helvetica" > 7000</tspan></text>
	</g>
</g>
<g fill="none" color="black" stroke="currentColor" stroke-width="1.00" stroke-linecap="butt" stroke-linejoin="miter">
	<path stroke='black'  d='M80.2,121.7 L89.2,121.7  '/>	<g transform="translate(71.9,125.6)" stroke="none" fill="black" font-family="Helvetica" font-size="12.00"  text-anchor="end">
		<text><tspan font-family="Helvetica" > 8000</tspan></text>
	</g>
</g>
<g fill="none" color="black" stroke="currentColor" stroke-width="1.00" stroke-linecap="butt" stroke-linejoin="miter">
	<path stroke='black'  d='M80.2,54.1 L89.2,54.1  '/>	<g transform="translate(71.9,58.0)" stroke="none" fill="black" font-family="Helvetica" font-size="12.00"  text-anchor="end">
		<text><tspan font-family="Helvetica" > 9000</tspan></text>
	</g>
</g>
<g fill="none" color="black" stroke="currentColor" stroke-width="1.00" stroke-linecap="butt" stroke-linejoin="miter">
	<path stroke='black'  d='M253.9,662.4 L253.9,653.4  '/>	<g transform="translate(253.9,684.3)" stroke="none" fill="black" font-family="Helvetica" font-size="12.00"  text-anchor="middle">
		<text><tspan font-family="Helvetica" >-70.035</tspan></text>
	</g>
</g>
<g fill="none" color="black" stroke="currentColor" stroke-width="1.00" stroke-linecap="butt" stroke-linejoin="miter">
	<path stroke='black'  d='M448.6,662.4 L448.6,653.4  '/>	<g transform="translate(448.6,684.3)" stroke="none" fill="black" font-family="Helvetica" font-size="12.00"  text-anchor="middle">
		<text><tspan font-family="Helvetica" >-70.03</tspan></text>
	</g>
</g>
<g fill="none" color="black" stroke="currentColor" stroke-width="1.00" stroke-linecap="butt" stroke-linejoin="miter">
	<path stroke='black'  d='M643.4,662.4 L643.4,653.4  '/>	<g transform="translate(643.4,684.3)" stroke="none" fill="black" font-family="Helvetica" font-size="12.00"  text-anchor="middle">
		<text><tspan font-family="Helvetica" >-70.025</tspan></text>
	</g>
</g>
<g fill="none" color="black" stroke="currentColor" stroke-width="1.00" stroke-linecap="butt" stroke-linejoin="miter">
	<path stroke='black'  d='M838.1,662.4 L838.1,653.4  '/>	<g transform="translate(838.1,684.3)" stroke="none" fill="black" font-family="Helvetica" font-size="12.00"  text-anchor="middle">
		<text><tspan font-family="Helvetica" >-70.02</tspan></text>
	</g>
</g>
<g fill="none" color="black" stroke="currentColor" stroke-width="1.00" stroke-linecap="butt" stroke-linejoin="miter">
</g>
<g fill="none" color="black" stroke="currentColor" stroke-width="1.00" stroke-linecap="butt" stroke-linejoin="miter">
	<path stroke='black'  d='M80.2,54.1 L80.2,662.4 L1013.6,662.4 L1013.6,54.1 L80.2,54.1 Z  '/></g>
<g fill="none" color="black" stroke="currentColor" stroke-width="1.00" stroke-linecap="butt" stroke-linejoin="miter">
	<g transform="translate(19.0,358.3) rotate(270)" stroke="none" fill="black" font-family="Helvetica" font-size="12.00"  text-anchor="middle">
		<text><tspan font-family="Helvetica" >Density (a.u.)</tspan></text>
	</g>
</g>
<g fill="none" color="black" stroke="currentColor" stroke-width="1.00" stroke-linecap="butt" stroke-linejoin="miter">
	<g transform="translate(546.9,711.3)" stroke="none" fill="black" font-family="Helvetica" font-size="12.00"  text-anchor="middle">
		<text><tspan font-family="Helvetica" >Relative change (%)</tspan></text>
	</g>
</g>
<g fill="none" color="black" stroke="currentColor" stroke-width="1.00" stroke-linecap="butt" stroke-linejoin="miter">
	<g transform="translate(546.9,31.0)" stroke="none" fill="black" font-family="Helvetica" font-size="12.00"  text-anchor="middle">
		<text><tspan font-family="Helvetica" >bench_group/blake3/163840: mean</tspan></text>
	</g>
</g>
<g fill="none" color="black" stroke="currentColor" stroke-width="1.00" stroke-linecap="butt" stroke-linejoin="miter">
</g>
	<g id="gnuplot_plot_1" ><title>Bootstrap distribution</title>
<g fill="none" color="white" stroke="currentColor" stroke-width="2.00" stroke-linecap="butt" stroke-linejoin="miter">
</g>
<g fill="none" color="black" stroke="currentColor" stroke-width="2.00" stroke-linecap="butt" stroke-linejoin="miter">
	<g transform="translate(1089.0,67.0)" stroke="none" fill="black" font-family="Helvetica" font-size="12.00"  text-anchor="start">
		<text><tspan font-family="Helvetica" >Bootstrap distribution</tspan></text>
	</g>
</g>
<g fill="none" color="black" stroke="currentColor" stroke-width="2.00" stroke-linecap="butt" stroke-linejoin="miter">
	<path stroke='rgb( 31, 120, 180)'  d='M1038.5,63.1 L1080.7,63.1 M80.2,624.7 L82.1,623.7 L83.9,622.6 L85.8,621.6 L87.7,620.6 L89.6,619.6
		L91.4,618.6 L93.3,617.6 L95.2,616.7 L97.0,615.7 L98.9,614.8 L100.8,613.8 L102.6,612.9 L104.5,611.9
		L106.4,611.0 L108.3,610.1 L110.1,609.2 L112.0,608.3 L113.9,607.4 L115.7,606.5 L117.6,605.6 L119.5,604.7
		L121.4,603.9 L123.2,603.1 L125.1,602.3 L127.0,601.5 L128.8,600.7 L130.7,599.9 L132.6,599.2 L134.4,598.5
		L136.3,597.7 L138.2,597.1 L140.1,596.4 L141.9,595.7 L143.8,595.0 L145.7,594.4 L147.5,593.7 L149.4,593.1
		L151.3,592.4 L153.2,591.8 L155.0,591.2 L156.9,590.5 L158.8,589.9 L160.6,589.3 L162.5,588.6 L164.4,588.0
		L166.2,587.3 L168.1,586.6 L170.0,586.0 L171.9,585.3 L173.7,584.6 L175.6,583.8 L177.5,583.1 L179.3,582.3
		L181.2,581.5 L183.1,580.7 L185.0,579.9 L186.8,579.0 L188.7,578.2 L190.6,577.3 L192.4,576.3 L194.3,575.4
		L196.2,574.4 L198.0,573.3 L199.9,572.3 L201.8,571.2 L203.7,570.1 L205.5,568.9 L207.4,567.7 L209.3,566.4
		L211.1,565.1 L213.0,563.7 L214.9,562.3 L216.7,560.8 L218.6,559.2 L220.5,557.6 L222.4,555.9 L224.2,554.1
		L226.1,552.2 L228.0,550.3 L229.8,548.2 L231.7,546.1 L233.6,543.8 L235.5,541.4 L237.3,539.0 L239.2,536.4
		L241.1,533.7 L242.9,530.9 L244.8,528.0 L246.7,525.0 L248.5,521.9 L250.4,518.7 L252.3,515.5 L254.2,512.1
		L256.0,508.7 L257.9,505.2 L259.8,501.6 L261.6,498.0 L263.5,494.4 L265.4,490.7 L267.3,487.0 L269.1,483.3
		L271.0,479.5 L272.9,475.8 L274.7,472.1 L276.6,468.4 L278.5,464.7 L280.3,461.0 L282.2,457.3 L284.1,453.6
		L286.0,449.9 L287.8,446.3 L289.7,442.7 L291.6,439.0 L293.4,435.4 L295.3,431.8 L297.2,428.1 L299.1,424.5
		L300.9,420.9 L302.8,417.2 L304.7,413.5 L306.5,409.9 L308.4,406.2 L310.3,402.5 L312.1,398.8 L314.0,395.1
		L315.9,391.4 L317.8,387.6 L319.6,383.9 L321.5,380.2 L323.4,376.6 L325.2,372.9 L327.1,369.2 L329.0,365.6
		L330.9,362.0 L332.7,358.5 L334.6,355.0 L336.5,351.5 L338.3,348.1 L340.2,344.7 L342.1,341.4 L343.9,338.1
		L345.8,334.9 L347.7,331.7 L349.6,328.5 L351.4,325.5 L353.3,322.4 L355.2,319.4 L357.0,316.5 L358.9,313.6
		L360.8,310.7 L362.7,307.9 L364.5,305.1 L366.4,302.3 L368.3,299.5 L370.1,296.8 L372.0,294.0 L373.9,291.2
		L375.7,288.4 L377.6,285.6 L379.5,282.7 L381.4,279.8 L383.2,276.8 L385.1,273.7 L387.0,270.6 L388.8,267.4
		L390.7,264.1 L392.6,260.7 L394.5,257.2 L396.3,253.6 L398.2,250.0 L400.1,246.3 L401.9,242.4 L403.8,238.6
		L405.7,234.6 L407.5,230.6 L409.4,226.6 L411.3,222.6 L413.2,218.5 L415.0,214.5 L416.9,210.5 L418.8,206.5
		L420.6,202.5 L422.5,198.6 L424.4,194.7 L426.3,190.8 L428.1,187.0 L430.0,183.3 L431.9,179.6 L433.7,175.9
		L435.6,172.3 L437.5,168.7 L439.3,165.2 L441.2,161.7 L443.1,158.2 L445.0,154.7 L446.8,151.3 L448.7,147.8
		L450.6,144.5 L452.4,141.1 L454.3,137.8 L456.2,134.5 L458.0,131.2 L459.9,128.0 L461.8,124.9 L463.7,121.9
		L465.5,118.9 L467.4,116.0 L469.3,113.2 L471.1,110.5 L473.0,107.9 L474.9,105.3 L476.8,102.9 L478.6,100.6
		L480.5,98.4 L482.4,96.4 L484.2,94.4 L486.1,92.5 L488.0,90.7 L489.8,89.0 L491.7,87.5 L493.6,86.0
		L495.5,84.6 L497.3,83.3 L499.2,82.0 L501.1,80.9 L502.9,79.8 L504.8,78.9 L506.7,78.0 L508.6,77.2
		L510.4,76.4 L512.3,75.8 L514.2,75.2 L516.0,74.8 L517.9,74.4 L519.8,74.1 L521.6,74.0 L523.5,73.9
		L525.4,73.9 L527.3,74.1 L529.1,74.4 L531.0,74.8 L532.9,75.3 L534.7,75.9 L536.6,76.6 L538.5,77.4
		L540.4,78.4 L542.2,79.4 L544.1,80.5 L546.0,81.6 L547.8,82.9 L549.7,84.1 L551.6,85.5 L553.4,86.8
		L555.3,88.3 L557.2,89.7 L559.1,91.1 L560.9,92.6 L562.8,94.1 L564.7,95.6 L566.5,97.1 L568.4,98.6
		L570.3,100.1 L572.2,101.6 L574.0,103.1 L575.9,104.7 L577.8,106.2 L579.6,107.8 L581.5,109.5 L583.4,111.1
		L585.2,112.8 L587.1,114.5 L589.0,116.3 L590.9,118.1 L592.7,120.0 L594.6,121.9 L596.5,123.9 L598.3,126.0
		L600.2,128.1 L602.1,130.2 L604.0,132.4 L605.8,134.6 L607.7,136.8 L609.6,139.1 L611.4,141.4 L613.3,143.7
		L615.2,146.0 L617.0,148.3 L618.9,150.6 L620.8,152.9 L622.7,155.2 L624.5,157.5 L626.4,159.7 L628.3,162.0
		L630.1,164.2 L632.0,166.4 L633.9,168.6 L635.8,170.8 L637.6,173.1 L639.5,175.3 L641.4,177.5 L643.2,179.7
		L645.1,182.0 L647.0,184.3 L648.8,186.7 L650.7,189.1 L652.6,191.5 L654.5,194.1 L656.3,196.7 L658.2,199.3
		L660.1,202.1 L661.9,205.0 L663.8,208.0 L665.7,211.1 L667.5,214.3 L669.4,217.7 L671.3,221.2 L673.2,224.8
		L675.0,228.6 L676.9,232.5 L678.8,236.6 L680.6,240.8 L682.5,245.1 L684.4,249.6 L686.3,254.2 L688.1,258.8
		L690.0,263.6 L691.9,268.4 L693.7,273.3 L695.6,278.3 L697.5,283.2 L699.3,288.2 L701.2,293.2 L703.1,298.2
		L705.0,303.2 L706.8,308.2 L708.7,313.1 L710.6,317.9 L712.4,322.8 L714.3,327.5 L716.2,332.2 L718.1,336.9
		L719.9,341.5 L721.8,346.0 L723.7,350.4 L725.5,354.8 L727.4,359.1 L729.3,363.4 L731.1,367.6 L733.0,371.7
		L734.9,375.7 L736.8,379.7 L738.6,383.6 L740.5,387.4 L742.4,391.1 L744.2,394.8 L746.1,398.4 L748.0,401.9
		L749.9,405.2 L751.7,408.5 L753.6,411.7 L755.5,414.7 L757.3,417.7 L759.2,420.5 L761.1,423.3 L762.9,425.9
		L764.8,428.4 L766.7,430.8 L768.6,433.1 L770.4,435.4 L772.3,437.5 L774.2,439.6 L776.0,441.7 L777.9,443.7
		L779.8,445.6 L781.7,447.6 L783.5,449.5 L785.4,451.5 L787.3,453.4 L789.1,455.4 L791.0,457.4 L792.9,459.4
		L794.7,461.5 L796.6,463.6 L798.5,465.7 L800.4,467.8 L802.2,469.9 L804.1,472.1 L806.0,474.2 L807.8,476.4
		L809.7,478.6 L811.6,480.7 L813.5,482.8 L815.3,484.9 L817.2,487.0 L819.1,489.0 L820.9,491.0 L822.8,493.0
		L824.7,494.9 L826.5,496.8 L828.4,498.7 L830.3,500.5 L832.2,502.3 L834.0,504.0 L835.9,505.7 L837.8,507.4
		L839.6,509.1 L841.5,510.7 L843.4,512.3 L845.3,513.9 L847.1,515.5 L849.0,517.0 L850.9,518.6 L852.7,520.1
		L854.6,521.6 L856.5,523.1 L858.3,524.6 L860.2,526.1 L862.1,527.6 L864.0,529.1 L865.8,530.7 L867.7,532.2
		L869.6,533.7 L871.4,535.2 L873.3,536.8 L875.2,538.4 L877.1,539.9 L878.9,541.5 L880.8,543.1 L882.7,544.8
		L884.5,546.4 L886.4,548.1 L888.3,549.8 L890.1,551.5 L892.0,553.2 L893.9,554.9 L895.8,556.7 L897.6,558.4
		L899.5,560.2 L901.4,561.9 L903.2,563.7 L905.1,565.5 L907.0,567.2 L908.8,569.0 L910.7,570.7 L912.6,572.4
		L914.5,574.1 L916.3,575.8 L918.2,577.4 L920.1,579.0 L921.9,580.6 L923.8,582.1 L925.7,583.6 L927.6,585.1
		L929.4,586.5 L931.3,587.9 L933.2,589.3 L935.0,590.6 L936.9,591.8 L938.8,593.1 L940.6,594.3 L942.5,595.4
		L944.4,596.5 L946.3,597.6 L948.1,598.7 L950.0,599.7 L951.9,600.7 L953.7,601.7 L955.6,602.6 L957.5,603.5
		L959.4,604.4 L961.2,605.3 L963.1,606.1 L965.0,606.9 L966.8,607.7 L968.7,608.5 L970.6,609.2 L972.4,609.9
		L974.3,610.6 L976.2,611.3 L978.1,612.0 L979.9,612.6 L981.8,613.3 L983.7,613.9 L985.5,614.5 L987.4,615.1
		L989.3,615.7 L991.2,616.3 L993.0,616.9 L994.9,617.5 L996.8,618.1 L998.6,618.8 L1000.5,619.4 L1002.4,620.0
		L1004.2,620.7 L1006.1,621.3 L1008.0,622.0 L1009.9,622.7 L1011.7,623.4 L1013.6,624.1  '/></g>
	</g>
	<g id="gnuplot_plot_2" ><title>Confidence interval</title>
<g fill="none" color="white" stroke="rgb( 31, 120, 180)" stroke-width="1.00" stroke-linecap="butt" stroke-linejoin="miter">
</g>
<g fill="none" color="black" stroke="currentColor" stroke-width="1.00" stroke-linecap="butt" stroke-linejoin="miter">
	<g transform="translate(1089.0,85.0)" stroke="none" fill="black" font-family="Helvetica" font-size="12.00"  text-anchor="start">
		<text><tspan font-family="Helvetica" >Confidence interval</tspan></text>
	</g>
</g>
<g fill="none" color="black" stroke="currentColor" stroke-width="1.00" stroke-linecap="butt" stroke-linejoin="miter">
	<g stroke='none' shape-rendering='crispEdges'>
		<polygon fill = 'rgb( 31, 120, 180)' fill-opacity = '0.250000' points = '1038.5,85.6 1080.7,85.6 1080.7,76.6 1038.5,76.6 '/>
		<polygon fill = 'rgb( 31, 120, 180)' fill-opacity = '0.250000' points = '166.2,587.3 168.1,586.6 170.0,586.0 171.9,585.3 173.7,584.6 175.6,583.8 177.5,583.1 179.3,582.3 181.2,581.5 183.1,580.7 185.0,579.9 186.8,579.0 188.7,578.2 190.6,577.3 192.4,576.3 194.3,575.4
196.2,574.4 198.0,573.3 199.9,572.3 201.8,571.2 203.7,570.1 205.5,568.9 207.4,567.7 209.3,566.4 211.1,565.1 213.0,563.7 214.9,562.3 216.7,560.8 218.6,559.2 220.5,557.6 222.4,555.9 224.2,554.1
226.1,552.2 228.0,550.3 229.8,548.2 231.7,546.1 233.6,543.8 235.5,541.4 237.3,539.0 239.2,536.4 241.1,533.7 242.9,530.9 244.8,528.0 246.7,525.0 248.5,521.9 250.4,518.7 252.3,515.5 254.2,512.1
256.0,508.7 257.9,505.2 259.8,501.6 261.6,498.0 263.5,494.4 265.4,490.7 267.3,487.0 269.1,483.3 271.0,479.5 272.9,475.8 274.7,472.1 276.6,468.4 278.5,464.7 280.3,461.0 282.2,457.3 284.1,453.6
286.0,449.9 287.8,446.3 289.7,442.7 291.6,439.0 293.4,435.4 295.3,431.8 297.2,428.1 299.1,424.5 300.9,420.9 302.8,417.2 304.7,413.5 306.5,409.9 308.4,406.2 310.3,402.5 312.1,398.8 314.0,395.1
315.9,391.4 317.8,387.6 319.6,383.9 321.5,380.2 323.4,376.6 325.2,372.9 327.1,369.2 329.0,365.6 330.9,362.0 332.7,358.5 334.6,355.0 336.5,351.5 338.3,348.1 340.2,344.7 342.1,341.4 343.9,338.1
345.8,334.9 347.7,331.7 349.6,328.5 351.4,325.5 353.3,322.4 355.2,319.4 357.0,316.5 358.9,313.6 360.8,310.7 362.7,307.9 364.5,305.1 366.4,302.3 368.3,299.5 370.1,296.8 372.0,294.0 373.9,291.2
375.7,288.4 377.6,285.6 379.5,282.7 381.4,279.8 383.2,276.8 385.1,273.7 387.0,270.6 388.8,267.4 390.7,264.1 392.6,260.7 394.5,257.2 396.3,253.6 398.2,250.0 400.1,246.3 401.9,242.4 403.8,238.6
405.7,234.6 407.5,230.6 409.4,226.6 411.3,222.6 413.2,218.5 415.0,214.5 416.9,210.5 418.8,206.5 420.6,202.5 422.5,198.6 424.4,194.7 426.3,190.8 428.1,187.0 430.0,183.3 431.9,179.6 433.7,175.9
435.6,172.3 437.5,168.7 439.3,165.2 441.2,161.7 443.1,158.2 445.0,154.7 446.8,151.3 448.7,147.8 450.6,144.5 452.4,141.1 454.3,137.8 456.2,134.5 458.0,131.2 459.9,128.0 461.8,124.9 463.7,121.9
465.5,118.9 467.4,116.0 469.3,113.2 471.1,110.5 473.0,107.9 474.9,105.3 476.8,102.9 478.6,100.6 480.5,98.4 482.4,96.4 484.2,94.4 486.1,92.5 488.0,90.7 489.8,89.0 491.7,87.5 493.6,86.0
495.5,84.6 497.3,83.3 499.2,82.0 501.1,80.9 502.9,79.8 504.8,78.9 506.7,78.0 508.6,77.2 510.4,76.4 512.3,75.8 514.2,75.2 516.0,74.8 517.9,74.4 519.8,74.1 521.6,74.0 523.5,73.9
525.4,73.9 527.3,74.1 529.1,74.4 531.0,74.8 532.9,75.3 534.7,75.9 536.6,76.6 538.5,77.4 540.4,78.4 542.2,79.4 544.1,80.5 546.0,81.6 547.8,82.9 549.7,84.1 551.6,85.5 553.4,86.8
555.3,88.3 557.2,89.7 559.1,91.1 560.9,92.6 562.8,94.1 564.7,95.6 566.5,97.1 568.4,98.6 570.3,100.1 572.2,101.6 574.0,103.1 575.9,104.7 577.8,106.2 579.6,107.8 581.5,109.5 583.4,111.1
585.2,112.8 587.1,114.5 589.0,116.3 590.9,118.1 592.7,120.0 594.6,121.9 596.5,123.9 598.3,126.0 600.2,128.1 602.1,130.2 604.0,132.4 605.8,134.6 607.7,136.8 609.6,139.1 611.4,141.4 613.3,143.7
615.2,146.0 617.0,148.3 618.9,150.6 620.8,152.9 622.7,155.2 624.5,157.5 626.4,159.7 628.3,162.0 630.1,164.2 632.0,166.4 633.9,168.6 635.8,170.8 637.6,173.1 639.5,175.3 641.4,177.5 643.2,179.7
645.1,182.0 647.0,184.3 648.8,186.7 650.7,189.1 652.6,191.5 654.5,194.1 656.3,196.7 658.2,199.3 660.1,202.1 661.9,205.0 663.8,208.0 665.7,211.1 667.5,214.3 669.4,217.7 671.3,221.2 673.2,224.8
675.0,228.6 676.9,232.5 678.8,236.6 680.6,240.8 682.5,245.1 684.4,249.6 686.3,254.2 688.1,258.8 690.0,263.6 691.9,268.4 693.7,273.3 695.6,278.3 697.5,283.2 699.3,288.2 701.2,293.2 703.1,298.2
705.0,303.2 706.8,308.2 708.7,313.1 710.6,317.9 712.4,322.8 714.3,327.5 716.2,332.2 718.1,336.9 719.9,341.5 721.8,346.0 723.7,350.4 725.5,354.8 727.4,359.1 729.3,363.4 731.1,367.6 733.0,371.7
734.9,375.7 736.8,379.7 738.6,383.6 740.5,387.4 742.4,391.1 744.2,394.8 746.1,398.4 748.0,401.9 749.9,405.2 751.7,408.5 753.6,411.7 755.5,414.7 757.3,417.7 759.2,420.5 761.1,423.3 762.9,425.9
764.8,428.4 766.7,430.8 768.6,433.1 770.4,435.4 772.3,437.5 774.2,439.6 776.0,441.7 777.9,443.7 779.8,445.6 781.7,447.6 783.5,449.5 785.4,451.5 787.3,453.4 789.1,455.4 791.0,457.4 792.9,459.4
794.7,461.5 796.6,463.6 798.5,465.7 800.4,467.8 802.2,469.9 804.1,472.1 806.0,474.2 807.8,476.4 809.7,478.6 811.6,480.7 813.5,482.8 815.3,484.9 817.2,487.0 819.1,489.0 820.9,491.0 822.8,493.0
824.7,494.9 826.5,496.8 828.4,498.7 830.3,500.5 832.2,502.3 834.0,504.0 835.9,505.7 837.8,507.4 839.6,509.1 841.5,510.7 843.4,512.3 845.3,513.9 847.1,515.5 849.0,517.0 850.9,518.6 852.7,520.1
854.6,521.6 856.5,523.1 858.3,524.6 860.2,526.1 862.1,527.6 864.0,529.1 865.8,530.7 867.7,532.2 869.6,533.7 871.4,535.2 873.3,536.8 875.2,538.4 877.1,539.9 878.9,541.5 880.8,543.1 882.7,544.8
884.5,546.4 886.4,548.1 888.3,549.8 890.1,551.5 892.0,553.2 893.9,554.9 895.8,556.7 897.6,558.4 899.5,560.2 901.4,561.9 903.2,563.7 905.1,565.5 907.0,567.2 908.8,569.0 910.7,570.7 912.6,572.4
914.5,574.1 916.3,575.8 918.2,577.4 920.1,579.0 921.9,580.6 923.8,582.1 925.7,583.6 925.7,662.4 923.8,662.4 921.9,662.4 920.1,662.4 918.2,662.4 916.3,662.4 914.5,662.4 912.6,662.4 910.7,662.4
908.8,662.4 907.0,662.4 905.1,662.4 903.2,662.4 901.4,662.4 899.5,662.4 897.6,662.4 895.8,662.4 893.9,662.4 892.0,662.4 890.1,662.4 888.3,662.4 886.4,662.4 884.5,662.4 882.7,662.4 880.8,662.4
878.9,662.4 877.1,662.4 875.2,662.4 873.3,662.4 871.4,662.4 869.6,662.4 867.7,662.4 865.8,662.4 864.0,662.4 862.1,662.4 860.2,662.4 858.3,662.4 856.5,662.4 854.6,662.4 852.7,662.4 850.9,662.4
849.0,662.4 847.1,662.4 845.3,662.4 843.4,662.4 841.5,662.4 839.6,662.4 837.8,662.4 835.9,662.4 834.0,662.4 832.2,662.4 830.3,662.4 828.4,662.4 826.5,662.4 824.7,662.4 822.8,662.4 820.9,662.4
819.1,662.4 817.2,662.4 815.3,662.4 813.5,662.4 811.6,662.4 809.7,662.4 807.8,662.4 806.0,662.4 804.1,662.4 802.2,662.4 800.4,662.4 798.5,662.4 796.6,662.4 794.7,662.4 792.9,662.4 791.0,662.4
789.1,662.4 787.3,662.4 785.4,662.4 783.5,662.4 781.7,662.4 779.8,662.4 777.9,662.4 776.0,662.4 774.2,662.4 772.3,662.4 770.4,662.4 768.6,662.4 766.7,662.4 764.8,662.4 762.9,662.4 761.1,662.4
759.2,662.4 757.3,662.4 755.5,662.4 753.6,662.4 751.7,662.4 749.9,662.4 748.0,662.4 746.1,662.4 744.2,662.4 742.4,662.4 740.5,662.4 738.6,662.4 736.8,662.4 734.9,662.4 733.0,662.4 731.1,662.4
729.3,662.4 727.4,662.4 725.5,662.4 723.7,662.4 721.8,662.4 719.9,662.4 718.1,662.4 716.2,662.4 714.3,662.4 712.4,662.4 710.6,662.4 708.7,662.4 706.8,662.4 705.0,662.4 703.1,662.4 701.2,662.4
699.3,662.4 697.5,662.4 695.6,662.4 693.7,662.4 691.9,662.4 690.0,662.4 688.1,662.4 686.3,662.4 684.4,662.4 682.5,662.4 680.6,662.4 678.8,662.4 676.9,662.4 675.0,662.4 673.2,662.4 671.3,662.4
669.4,662.4 667.5,662.4 665.7,662.4 663.8,662.4 661.9,662.4 660.1,662.4 658.2,662.4 656.3,662.4 654.5,662.4 652.6,662.4 650.7,662.4 648.8,662.4 647.0,662.4 645.1,662.4 643.2,662.4 641.4,662.4
639.5,662.4 637.6,662.4 635.8,662.4 633.9,662.4 632.0,662.4 630.1,662.4 628.3,662.4 626.4,662.4 624.5,662.4 622.7,662.4 620.8,662.4 618.9,662.4 617.0,662.4 615.2,662.4 613.3,662.4 611.4,662.4
609.6,662.4 607.7,662.4 605.8,662.4 604.0,662.4 602.1,662.4 600.2,662.4 598.3,662.4 596.5,662.4 594.6,662.4 592.7,662.4 590.9,662.4 589.0,662.4 587.1,662.4 585.2,662.4 583.4,662.4 581.5,662.4
579.6,662.4 577.8,662.4 575.9,662.4 574.0,662.4 572.2,662.4 570.3,662.4 568.4,662.4 566.5,662.4 564.7,662.4 562.8,662.4 560.9,662.4 559.1,662.4 557.2,662.4 555.3,662.4 553.4,662.4 551.6,662.4
549.7,662.4 547.8,662.4 546.0,662.4 544.1,662.4 542.2,662.4 540.4,662.4 538.5,662.4 536.6,662.4 534.7,662.4 532.9,662.4 531.0,662.4 529.1,662.4 527.3,662.4 525.4,662.4 523.5,662.4 521.6,662.4
519.8,662.4 517.9,662.4 516.0,662.4 514.2,662.4 512.3,662.4 510.4,662.4 508.6,662.4 506.7,662.4 504.8,662.4 502.9,662.4 501.1,662.4 499.2,662.4 497.3,662.4 495.5,662.4 493.6,662.4 491.7,662.4
489.8,662.4 488.0,662.4 486.1,662.4 484.2,662.4 482.4,662.4 480.5,662.4 478.6,662.4 476.8,662.4 474.9,662.4 473.0,662.4 471.1,662.4 469.3,662.4 467.4,662.4 465.5,662.4 463.7,662.4 461.8,662.4
459.9,662.4 458.0,662.4 456.2,662.4 454.3,662.4 452.4,662.4 450.6,662.4 448.7,662.4 446.8,662.4 445.0,662.4 443.1,662.4 441.2,662.4 439.3,662.4 437.5,662.4 435.6,662.4 433.7,662.4 431.9,662.4
430.0,662.4 428.1,662.4 426.3,662.4 424.4,662.4 422.5,662.4 420.6,662.4 418.8,662.4 416.9,662.4 415.0,662.4 413.2,662.4 411.3,662.4 409.4,662.4 407.5,662.4 405.7,662.4 403.8,662.4 401.9,662.4
400.1,662.4 398.2,662.4 396.3,662.4 394.5,662.4 392.6,662.4 390.7,662.4 388.8,662.4 387.0,662.4 385.1,662.4 383.2,662.4 381.4,662.4 379.5,662.4 377.6,662.4 375.7,662.4 373.9,662.4 372.0,662.4
370.1,662.4 368.3,662.4 366.4,662.4 364.5,662.4 362.7,662.4 360.8,662.4 358.9,662.4 357.0,662.4 355.2,662.4 353.3,662.4 351.4,662.4 349.6,662.4 347.7,662.4 345.8,662.4 343.9,662.4 342.1,662.4
340.2,662.4 338.3,662.4 336.5,662.4 334.6,662.4 332.7,662.4 330.9,662.4 329.0,662.4 327.1,662.4 325.2,662.4 323.4,662.4 321.5,662.4 319.6,662.4 317.8,662.4 315.9,662.4 314.0,662.4 312.1,662.4
310.3,662.4 308.4,662.4 306.5,662.4 304.7,662.4 302.8,662.4 300.9,662.4 299.1,662.4 297.2,662.4 295.3,662.4 293.4,662.4 291.6,662.4 289.7,662.4 287.8,662.4 286.0,662.4 284.1,662.4 282.2,662.4
280.3,662.4 278.5,662.4 276.6,662.4 274.7,662.4 272.9,662.4 271.0,662.4 269.1,662.4 267.3,662.4 265.4,662.4 263.5,662.4 261.6,662.4 259.8,662.4 257.9,662.4 256.0,662.4 254.2,662.4 252.3,662.4
250.4,662.4 248.5,662.4 246.7,662.4 244.8,662.4 242.9,662.4 241.1,662.4 239.2,662.4 237.3,662.4 235.5,662.4 233.6,662.4 231.7,662.4 229.8,662.4 228.0,662.4 226.1,662.4 224.2,662.4 222.4,662.4
220.5,662.4 218.6,662.4 216.7,662.4 214.9,662.4 213.0,662.4 211.1,662.4 209.3,662.4 207.4,662.4 205.5,662.4 203.7,662.4 201.8,662.4 199.9,662.4 198.0,662.4 196.2,662.4 194.3,662.4 192.4,662.4
190.6,662.4 188.7,662.4 186.8,662.4 185.0,662.4 183.1,662.4 181.2,662.4 179.3,662.4 177.5,662.4 175.6,662.4 173.7,662.4 171.9,662.4 170.0,662.4 168.1,662.4 166.2,662.4 '/>
	</g>
</g>
	</g>
	<g id="gnuplot_plot_3" ><title>Point estimate</title>
<g fill="none" color="white" stroke="rgb( 31, 120, 180)" stroke-width="2.00" stroke-linecap="butt" stroke-linejoin="miter">
</g>
<g fill="none" color="black" stroke="currentColor" stroke-width="2.00" stroke-linecap="butt" stroke-linejoin="miter">
	<g transform="translate(1089.0,103.0)" stroke="none" fill="black" font-family="Helvetica" font-size="12.00"  text-anchor="start">
		<text><tspan font-family="Helvetica" >Point estimate</tspan></text>
	</g>
</g>
<g fill="none" color="black" stroke="currentColor" stroke-width="2.00" stroke-linecap="butt" stroke-linejoin="miter">
	<path stroke='rgb( 31, 120, 180)'  d='M1038.5,99.1 L1080.7,99.1 M554.3,662.4 L554.3,87.5  '/></g>
	</g>
	<g id="gnuplot_plot_4" ><title>Noise threshold</title>
<g fill="none" color="white" stroke="rgb( 31, 120, 180)" stroke-width="1.00" stroke-linecap="butt" stroke-linejoin="miter">
</g>
<g fill="none" color="black" stroke="currentColor" stroke-width="1.00" stroke-linecap="butt" stroke-linejoin="miter">
	<g transform="translate(1089.0,121.0)" stroke="none" fill="black" font-family="Helvetica" font-size="12.00"  text-anchor="start">
		<text><tspan font-family="Helvetica" >Noise threshold</tspan></text>
	</g>
</g>
<g fill="none" color="black" stroke="currentColor" stroke-width="1.00" stroke-linecap="butt" stroke-linejoin="miter">
	<g stroke='none' shape-rendering='crispEdges'>
		<polygon fill = 'rgb(227,  26,  28)' fill-opacity = '0.100000' points = '1038.5,121.6 1080.7,121.6 1080.7,112.6 1038.5,112.6 '/>
		<polygon fill = 'rgb(227,  26,  28)' fill-opacity = '0.100000' points = '546.9,54.1 546.9,54.1 546.9,662.4 546.9,662.4 '/>
	</g>
</g>
	</g>
<g fill="none" color="white" stroke="rgb(227,  26,  28)" stroke-width="2.00" stroke-linecap="butt" stroke-linejoin="miter">
</g>
<g fill="none" color="black" stroke="currentColor" stroke-width="2.00" stroke-linecap="butt" stroke-linejoin="miter">
</g>
<g fill="none" color="black" stroke="black" stroke-width="1.00" stroke-linecap="butt" stroke-linejoin="miter">
</g>
<g fill="none" color="black" stroke="currentColor" stroke-width="1.00" stroke-linecap="butt" stroke-linejoin="miter">
	<path stroke='black'  d='M80.2,54.1 L80.2,662.4 L1013.6,662.4 L1013.6,54.1 L80.2,54.1 Z  '/></g>
<g fill="none" color="black" stroke="currentColor" stroke-width="1.00" stroke-linecap="butt" stroke-linejoin="miter">
</g>
</g>
</svg>

