group,function,value,throughput_num,throughput_type,sample_measured_value,unit,iteration_count
bench_group,blake3,640,640,bytes,995954.0,ns,549
bench_group,blake3,640,640,bytes,1982047.0,ns,1098
bench_group,blake3,640,640,bytes,2975712.0,ns,1647
bench_group,blake3,640,640,bytes,3966238.0,ns,2196
bench_group,blake3,640,640,bytes,4958966.0,ns,2745
bench_group,blake3,640,640,bytes,5952441.0,ns,3294
bench_group,blake3,640,640,bytes,6943893.0,ns,3843
bench_group,blake3,640,640,bytes,7946565.0,ns,4392
bench_group,blake3,640,640,bytes,8928497.0,ns,4941
bench_group,blake3,640,640,bytes,9926357.0,ns,5490
bench_group,blake3,640,640,bytes,10928879.0,ns,6039
bench_group,blake3,640,640,bytes,11896389.0,ns,6588
bench_group,blake3,640,640,bytes,12888908.0,ns,7137
bench_group,blake3,640,640,bytes,13879078.0,ns,7686
bench_group,blake3,640,640,bytes,14869525.0,ns,8235
bench_group,blake3,640,640,bytes,15868326.0,ns,8784
bench_group,blake3,640,640,bytes,16848940.0,ns,9333
bench_group,blake3,640,640,bytes,17848873.0,ns,9882
bench_group,blake3,640,640,bytes,18842002.0,ns,10431
bench_group,blake3,640,640,bytes,19824255.0,ns,10980
bench_group,blake3,640,640,bytes,20823051.0,ns,11529
bench_group,blake3,640,640,bytes,21809106.0,ns,12078
bench_group,blake3,640,640,bytes,22797303.0,ns,12627
bench_group,blake3,640,640,bytes,23788111.0,ns,13176
bench_group,blake3,640,640,bytes,24787733.0,ns,13725
bench_group,blake3,640,640,bytes,25813701.0,ns,14274
bench_group,blake3,640,640,bytes,26803486.0,ns,14823
bench_group,blake3,640,640,bytes,27776023.0,ns,15372
bench_group,blake3,640,640,bytes,28748277.0,ns,15921
bench_group,blake3,640,640,bytes,29741596.0,ns,16470
bench_group,blake3,640,640,bytes,30736496.0,ns,17019
bench_group,blake3,640,640,bytes,31739298.0,ns,17568
bench_group,blake3,640,640,bytes,32714553.0,ns,18117
bench_group,blake3,640,640,bytes,33709071.0,ns,18666
bench_group,blake3,640,640,bytes,34693337.0,ns,19215
bench_group,blake3,640,640,bytes,35702119.0,ns,19764
bench_group,blake3,640,640,bytes,36702304.0,ns,20313
bench_group,blake3,640,640,bytes,37708018.0,ns,20862
bench_group,blake3,640,640,bytes,38685561.0,ns,21411
bench_group,blake3,640,640,bytes,39654180.0,ns,21960
bench_group,blake3,640,640,bytes,40647378.0,ns,22509
bench_group,blake3,640,640,bytes,41638880.0,ns,23058
bench_group,blake3,640,640,bytes,42627129.0,ns,23607
bench_group,blake3,640,640,bytes,43634103.0,ns,24156
bench_group,blake3,640,640,bytes,44642415.0,ns,24705
bench_group,blake3,640,640,bytes,45600711.0,ns,25254
bench_group,blake3,640,640,bytes,46590182.0,ns,25803
bench_group,blake3,640,640,bytes,47588973.0,ns,26352
bench_group,blake3,640,640,bytes,48587689.0,ns,26901
bench_group,blake3,640,640,bytes,49571070.0,ns,27450
bench_group,blake3,640,640,bytes,50562198.0,ns,27999
bench_group,blake3,640,640,bytes,51543542.0,ns,28548
bench_group,blake3,640,640,bytes,52554357.0,ns,29097
bench_group,blake3,640,640,bytes,53542261.0,ns,29646
bench_group,blake3,640,640,bytes,54520224.0,ns,30195
bench_group,blake3,640,640,bytes,55557697.0,ns,30744
bench_group,blake3,640,640,bytes,56502610.0,ns,31293
bench_group,blake3,640,640,bytes,57505922.0,ns,31842
bench_group,blake3,640,640,bytes,58482811.0,ns,32391
bench_group,blake3,640,640,bytes,59486524.0,ns,32940
bench_group,blake3,640,640,bytes,60478946.0,ns,33489
bench_group,blake3,640,640,bytes,61460581.0,ns,34038
bench_group,blake3,640,640,bytes,62456457.0,ns,34587
bench_group,blake3,640,640,bytes,63445196.0,ns,35136
bench_group,blake3,640,640,bytes,64442627.0,ns,35685
bench_group,blake3,640,640,bytes,65470360.0,ns,36234
bench_group,blake3,640,640,bytes,66478574.0,ns,36783
bench_group,blake3,640,640,bytes,67403611.0,ns,37332
bench_group,blake3,640,640,bytes,68408563.0,ns,37881
bench_group,blake3,640,640,bytes,69389512.0,ns,38430
bench_group,blake3,640,640,bytes,70388469.0,ns,38979
bench_group,blake3,640,640,bytes,71370249.0,ns,39528
bench_group,blake3,640,640,bytes,72379822.0,ns,40077
bench_group,blake3,640,640,bytes,73387821.0,ns,40626
bench_group,blake3,640,640,bytes,74364459.0,ns,41175
bench_group,blake3,640,640,bytes,75339702.0,ns,41724
bench_group,blake3,640,640,bytes,76325398.0,ns,42273
bench_group,blake3,640,640,bytes,77332211.0,ns,42822
bench_group,blake3,640,640,bytes,78311320.0,ns,43371
bench_group,blake3,640,640,bytes,79300596.0,ns,43920
bench_group,blake3,640,640,bytes,80304994.0,ns,44469
bench_group,blake3,640,640,bytes,81287376.0,ns,45018
bench_group,blake3,640,640,bytes,82321550.0,ns,45567
bench_group,blake3,640,640,bytes,83271637.0,ns,46116
bench_group,blake3,640,640,bytes,84261121.0,ns,46665
bench_group,blake3,640,640,bytes,85256774.0,ns,47214
bench_group,blake3,640,640,bytes,86305002.0,ns,47763
bench_group,blake3,640,640,bytes,87239620.0,ns,48312
bench_group,blake3,640,640,bytes,88240115.0,ns,48861
bench_group,blake3,640,640,bytes,89222762.0,ns,49410
bench_group,blake3,640,640,bytes,90205630.0,ns,49959
bench_group,blake3,640,640,bytes,91197111.0,ns,50508
bench_group,blake3,640,640,bytes,92218358.0,ns,51057
bench_group,blake3,640,640,bytes,93196378.0,ns,51606
bench_group,blake3,640,640,bytes,94182671.0,ns,52155
bench_group,blake3,640,640,bytes,95171778.0,ns,52704
bench_group,blake3,640,640,bytes,96157576.0,ns,53253
bench_group,blake3,640,640,bytes,97150858.0,ns,53802
bench_group,blake3,640,640,bytes,98138798.0,ns,54351
bench_group,blake3,640,640,bytes,99139016.0,ns,54900
