<?xml version="1.0" encoding="utf-8"  standalone="no"?>
<svg 
 viewBox="0 0 450 300"
 xmlns="http://www.w3.org/2000/svg"
 xmlns:xlink="http://www.w3.org/1999/xlink"
>

<title>Gnuplot</title>
<desc>Produced by GNUPLOT 5.2 patchlevel 8 </desc>

<g id="gnuplot_canvas">

<rect x="0" y="0" width="450" height="300" fill="none"/>
<defs>

	<circle id='gpDot' r='0.5' stroke-width='0.5' stroke='currentColor'/>
	<path id='gpPt0' stroke-width='0.222' stroke='currentColor' d='M-1,0 h2 M0,-1 v2'/>
	<path id='gpPt1' stroke-width='0.222' stroke='currentColor' d='M-1,-1 L1,1 M1,-1 L-1,1'/>
	<path id='gpPt2' stroke-width='0.222' stroke='currentColor' d='M-1,0 L1,0 M0,-1 L0,1 M-1,-1 L1,1 M-1,1 L1,-1'/>
	<rect id='gpPt3' stroke-width='0.222' stroke='currentColor' x='-1' y='-1' width='2' height='2'/>
	<rect id='gpPt4' stroke-width='0.222' stroke='currentColor' fill='currentColor' x='-1' y='-1' width='2' height='2'/>
	<circle id='gpPt5' stroke-width='0.222' stroke='currentColor' cx='0' cy='0' r='1'/>
	<use xlink:href='#gpPt5' id='gpPt6' fill='currentColor' stroke='none'/>
	<path id='gpPt7' stroke-width='0.222' stroke='currentColor' d='M0,-1.33 L-1.33,0.67 L1.33,0.67 z'/>
	<use xlink:href='#gpPt7' id='gpPt8' fill='currentColor' stroke='none'/>
	<use xlink:href='#gpPt7' id='gpPt9' stroke='currentColor' transform='rotate(180)'/>
	<use xlink:href='#gpPt9' id='gpPt10' fill='currentColor' stroke='none'/>
	<use xlink:href='#gpPt3' id='gpPt11' stroke='currentColor' transform='rotate(45)'/>
	<use xlink:href='#gpPt11' id='gpPt12' fill='currentColor' stroke='none'/>
	<path id='gpPt13' stroke-width='0.222' stroke='currentColor' d='M0,1.330 L1.265,0.411 L0.782,-1.067 L-0.782,-1.076 L-1.265,0.411 z'/>
	<use xlink:href='#gpPt13' id='gpPt14' fill='currentColor' stroke='none'/>
	<filter id='textbox' filterUnits='objectBoundingBox' x='0' y='0' height='1' width='1'>
	  <feFlood flood-color='white' flood-opacity='1' result='bgnd'/>
	  <feComposite in='SourceGraphic' in2='bgnd' operator='atop'/>
	</filter>
	<filter id='greybox' filterUnits='objectBoundingBox' x='0' y='0' height='1' width='1'>
	  <feFlood flood-color='lightgrey' flood-opacity='1' result='grey'/>
	  <feComposite in='SourceGraphic' in2='grey' operator='atop'/>
	</filter>
</defs>
<g fill="none" color="white" stroke="currentColor" stroke-width="1.00" stroke-linecap="butt" stroke-linejoin="miter">
</g>
<g fill="none" color="black" stroke="currentColor" stroke-width="1.00" stroke-linecap="butt" stroke-linejoin="miter">
</g>
<g fill="none" color="black" stroke="black" stroke-width="0.50" stroke-linecap="butt" stroke-linejoin="miter">
</g>
<g fill="none" color="gray" stroke="currentColor" stroke-width="0.50" stroke-linecap="butt" stroke-linejoin="miter">
	<path stroke='gray' stroke-dasharray='2,4' class="gridline"  d='M71.9,224.4 L425.0,224.4  '/></g>
<g fill="none" color="gray" stroke="gray" stroke-width="1.00" stroke-linecap="butt" stroke-linejoin="miter">
</g>
<g fill="none" color="black" stroke="currentColor" stroke-width="1.00" stroke-linecap="butt" stroke-linejoin="miter">
	<path stroke='black'  d='M71.9,224.4 L80.9,224.4  '/>	<g transform="translate(63.6,228.3)" stroke="none" fill="black" font-family="Helvetica" font-size="12.00"  text-anchor="end">
		<text><tspan font-family="Helvetica" > 0</tspan></text>
	</g>
</g>
<g fill="none" color="black" stroke="currentColor" stroke-width="1.00" stroke-linecap="butt" stroke-linejoin="miter">
</g>
<g fill="none" color="black" stroke="black" stroke-width="0.50" stroke-linecap="butt" stroke-linejoin="miter">
</g>
<g fill="none" color="gray" stroke="currentColor" stroke-width="0.50" stroke-linecap="butt" stroke-linejoin="miter">
	<path stroke='gray' stroke-dasharray='2,4' class="gridline"  d='M71.9,203.8 L425.0,203.8  '/></g>
<g fill="none" color="gray" stroke="gray" stroke-width="1.00" stroke-linecap="butt" stroke-linejoin="miter">
</g>
<g fill="none" color="black" stroke="currentColor" stroke-width="1.00" stroke-linecap="butt" stroke-linejoin="miter">
	<path stroke='black'  d='M71.9,203.8 L80.9,203.8  '/>	<g transform="translate(63.6,207.7)" stroke="none" fill="black" font-family="Helvetica" font-size="12.00"  text-anchor="end">
		<text><tspan font-family="Helvetica" > 10</tspan></text>
	</g>
</g>
<g fill="none" color="black" stroke="currentColor" stroke-width="1.00" stroke-linecap="butt" stroke-linejoin="miter">
</g>
<g fill="none" color="black" stroke="black" stroke-width="0.50" stroke-linecap="butt" stroke-linejoin="miter">
</g>
<g fill="none" color="gray" stroke="currentColor" stroke-width="0.50" stroke-linecap="butt" stroke-linejoin="miter">
	<path stroke='gray' stroke-dasharray='2,4' class="gridline"  d='M71.9,183.1 L425.0,183.1  '/></g>
<g fill="none" color="gray" stroke="gray" stroke-width="1.00" stroke-linecap="butt" stroke-linejoin="miter">
</g>
<g fill="none" color="black" stroke="currentColor" stroke-width="1.00" stroke-linecap="butt" stroke-linejoin="miter">
	<path stroke='black'  d='M71.9,183.1 L80.9,183.1  '/>	<g transform="translate(63.6,187.0)" stroke="none" fill="black" font-family="Helvetica" font-size="12.00"  text-anchor="end">
		<text><tspan font-family="Helvetica" > 20</tspan></text>
	</g>
</g>
<g fill="none" color="black" stroke="currentColor" stroke-width="1.00" stroke-linecap="butt" stroke-linejoin="miter">
</g>
<g fill="none" color="black" stroke="black" stroke-width="0.50" stroke-linecap="butt" stroke-linejoin="miter">
</g>
<g fill="none" color="gray" stroke="currentColor" stroke-width="0.50" stroke-linecap="butt" stroke-linejoin="miter">
	<path stroke='gray' stroke-dasharray='2,4' class="gridline"  d='M71.9,162.5 L425.0,162.5  '/></g>
<g fill="none" color="gray" stroke="gray" stroke-width="1.00" stroke-linecap="butt" stroke-linejoin="miter">
</g>
<g fill="none" color="black" stroke="currentColor" stroke-width="1.00" stroke-linecap="butt" stroke-linejoin="miter">
	<path stroke='black'  d='M71.9,162.5 L80.9,162.5  '/>	<g transform="translate(63.6,166.4)" stroke="none" fill="black" font-family="Helvetica" font-size="12.00"  text-anchor="end">
		<text><tspan font-family="Helvetica" > 30</tspan></text>
	</g>
</g>
<g fill="none" color="black" stroke="currentColor" stroke-width="1.00" stroke-linecap="butt" stroke-linejoin="miter">
</g>
<g fill="none" color="black" stroke="black" stroke-width="0.50" stroke-linecap="butt" stroke-linejoin="miter">
</g>
<g fill="none" color="gray" stroke="currentColor" stroke-width="0.50" stroke-linecap="butt" stroke-linejoin="miter">
	<path stroke='gray' stroke-dasharray='2,4' class="gridline"  d='M71.9,141.9 L425.0,141.9  '/></g>
<g fill="none" color="gray" stroke="gray" stroke-width="1.00" stroke-linecap="butt" stroke-linejoin="miter">
</g>
<g fill="none" color="black" stroke="currentColor" stroke-width="1.00" stroke-linecap="butt" stroke-linejoin="miter">
	<path stroke='black'  d='M71.9,141.9 L80.9,141.9  '/>	<g transform="translate(63.6,145.8)" stroke="none" fill="black" font-family="Helvetica" font-size="12.00"  text-anchor="end">
		<text><tspan font-family="Helvetica" > 40</tspan></text>
	</g>
</g>
<g fill="none" color="black" stroke="currentColor" stroke-width="1.00" stroke-linecap="butt" stroke-linejoin="miter">
</g>
<g fill="none" color="black" stroke="black" stroke-width="0.50" stroke-linecap="butt" stroke-linejoin="miter">
</g>
<g fill="none" color="gray" stroke="currentColor" stroke-width="0.50" stroke-linecap="butt" stroke-linejoin="miter">
	<path stroke='gray' stroke-dasharray='2,4' class="gridline"  d='M71.9,121.2 L425.0,121.2  '/></g>
<g fill="none" color="gray" stroke="gray" stroke-width="1.00" stroke-linecap="butt" stroke-linejoin="miter">
</g>
<g fill="none" color="black" stroke="currentColor" stroke-width="1.00" stroke-linecap="butt" stroke-linejoin="miter">
	<path stroke='black'  d='M71.9,121.2 L80.9,121.2  '/>	<g transform="translate(63.6,125.1)" stroke="none" fill="black" font-family="Helvetica" font-size="12.00"  text-anchor="end">
		<text><tspan font-family="Helvetica" > 50</tspan></text>
	</g>
</g>
<g fill="none" color="black" stroke="currentColor" stroke-width="1.00" stroke-linecap="butt" stroke-linejoin="miter">
</g>
<g fill="none" color="black" stroke="black" stroke-width="0.50" stroke-linecap="butt" stroke-linejoin="miter">
</g>
<g fill="none" color="gray" stroke="currentColor" stroke-width="0.50" stroke-linecap="butt" stroke-linejoin="miter">
	<path stroke='gray' stroke-dasharray='2,4' class="gridline"  d='M71.9,100.6 L425.0,100.6  '/></g>
<g fill="none" color="gray" stroke="gray" stroke-width="1.00" stroke-linecap="butt" stroke-linejoin="miter">
</g>
<g fill="none" color="black" stroke="currentColor" stroke-width="1.00" stroke-linecap="butt" stroke-linejoin="miter">
	<path stroke='black'  d='M71.9,100.6 L80.9,100.6  '/>	<g transform="translate(63.6,104.5)" stroke="none" fill="black" font-family="Helvetica" font-size="12.00"  text-anchor="end">
		<text><tspan font-family="Helvetica" > 60</tspan></text>
	</g>
</g>
<g fill="none" color="black" stroke="currentColor" stroke-width="1.00" stroke-linecap="butt" stroke-linejoin="miter">
</g>
<g fill="none" color="black" stroke="black" stroke-width="0.50" stroke-linecap="butt" stroke-linejoin="miter">
</g>
<g fill="none" color="gray" stroke="currentColor" stroke-width="0.50" stroke-linecap="butt" stroke-linejoin="miter">
	<path stroke='gray' stroke-dasharray='2,4' class="gridline"  d='M71.9,80.0 L425.0,80.0  '/></g>
<g fill="none" color="gray" stroke="gray" stroke-width="1.00" stroke-linecap="butt" stroke-linejoin="miter">
</g>
<g fill="none" color="black" stroke="currentColor" stroke-width="1.00" stroke-linecap="butt" stroke-linejoin="miter">
	<path stroke='black'  d='M71.9,80.0 L80.9,80.0  '/>	<g transform="translate(63.6,83.9)" stroke="none" fill="black" font-family="Helvetica" font-size="12.00"  text-anchor="end">
		<text><tspan font-family="Helvetica" > 70</tspan></text>
	</g>
</g>
<g fill="none" color="black" stroke="currentColor" stroke-width="1.00" stroke-linecap="butt" stroke-linejoin="miter">
</g>
<g fill="none" color="black" stroke="black" stroke-width="0.50" stroke-linecap="butt" stroke-linejoin="miter">
</g>
<g fill="none" color="gray" stroke="currentColor" stroke-width="0.50" stroke-linecap="butt" stroke-linejoin="miter">
	<path stroke='gray' stroke-dasharray='2,4' class="gridline"  d='M71.9,59.4 L425.0,59.4  '/></g>
<g fill="none" color="gray" stroke="gray" stroke-width="1.00" stroke-linecap="butt" stroke-linejoin="miter">
</g>
<g fill="none" color="black" stroke="currentColor" stroke-width="1.00" stroke-linecap="butt" stroke-linejoin="miter">
	<path stroke='black'  d='M71.9,59.4 L80.9,59.4  '/>	<g transform="translate(63.6,63.3)" stroke="none" fill="black" font-family="Helvetica" font-size="12.00"  text-anchor="end">
		<text><tspan font-family="Helvetica" > 80</tspan></text>
	</g>
</g>
<g fill="none" color="black" stroke="currentColor" stroke-width="1.00" stroke-linecap="butt" stroke-linejoin="miter">
</g>
<g fill="none" color="black" stroke="black" stroke-width="0.50" stroke-linecap="butt" stroke-linejoin="miter">
</g>
<g fill="none" color="gray" stroke="currentColor" stroke-width="0.50" stroke-linecap="butt" stroke-linejoin="miter">
	<path stroke='gray' stroke-dasharray='2,4' class="gridline"  d='M71.9,38.7 L425.0,38.7  '/></g>
<g fill="none" color="gray" stroke="gray" stroke-width="1.00" stroke-linecap="butt" stroke-linejoin="miter">
</g>
<g fill="none" color="black" stroke="currentColor" stroke-width="1.00" stroke-linecap="butt" stroke-linejoin="miter">
	<path stroke='black'  d='M71.9,38.7 L80.9,38.7  '/>	<g transform="translate(63.6,42.6)" stroke="none" fill="black" font-family="Helvetica" font-size="12.00"  text-anchor="end">
		<text><tspan font-family="Helvetica" > 90</tspan></text>
	</g>
</g>
<g fill="none" color="black" stroke="currentColor" stroke-width="1.00" stroke-linecap="butt" stroke-linejoin="miter">
</g>
<g fill="none" color="black" stroke="black" stroke-width="0.50" stroke-linecap="butt" stroke-linejoin="miter">
</g>
<g fill="none" color="gray" stroke="currentColor" stroke-width="0.50" stroke-linecap="butt" stroke-linejoin="miter">
	<path stroke='gray' stroke-dasharray='2,4' class="gridline"  d='M71.9,18.1 L425.0,18.1  '/></g>
<g fill="none" color="gray" stroke="gray" stroke-width="1.00" stroke-linecap="butt" stroke-linejoin="miter">
</g>
<g fill="none" color="black" stroke="currentColor" stroke-width="1.00" stroke-linecap="butt" stroke-linejoin="miter">
	<path stroke='black'  d='M71.9,18.1 L80.9,18.1  '/>	<g transform="translate(63.6,22.0)" stroke="none" fill="black" font-family="Helvetica" font-size="12.00"  text-anchor="end">
		<text><tspan font-family="Helvetica" > 100</tspan></text>
	</g>
</g>
<g fill="none" color="black" stroke="currentColor" stroke-width="1.00" stroke-linecap="butt" stroke-linejoin="miter">
</g>
<g fill="none" color="black" stroke="black" stroke-width="0.50" stroke-linecap="butt" stroke-linejoin="miter">
</g>
<g fill="none" color="gray" stroke="currentColor" stroke-width="0.50" stroke-linecap="butt" stroke-linejoin="miter">
	<path stroke='gray' stroke-dasharray='2,4' class="gridline"  d='M71.9,224.4 L71.9,18.1  '/></g>
<g fill="none" color="gray" stroke="gray" stroke-width="1.00" stroke-linecap="butt" stroke-linejoin="miter">
</g>
<g fill="none" color="black" stroke="currentColor" stroke-width="1.00" stroke-linecap="butt" stroke-linejoin="miter">
	<path stroke='black'  d='M71.9,224.4 L71.9,215.4  '/>	<g transform="translate(71.9,246.3)" stroke="none" fill="black" font-family="Helvetica" font-size="12.00"  text-anchor="middle">
		<text><tspan font-family="Helvetica" > 0</tspan></text>
	</g>
</g>
<g fill="none" color="black" stroke="currentColor" stroke-width="1.00" stroke-linecap="butt" stroke-linejoin="miter">
</g>
<g fill="none" color="black" stroke="black" stroke-width="0.50" stroke-linecap="butt" stroke-linejoin="miter">
</g>
<g fill="none" color="gray" stroke="currentColor" stroke-width="0.50" stroke-linecap="butt" stroke-linejoin="miter">
	<path stroke='gray' stroke-dasharray='2,4' class="gridline"  d='M130.8,224.4 L130.8,18.1  '/></g>
<g fill="none" color="gray" stroke="gray" stroke-width="1.00" stroke-linecap="butt" stroke-linejoin="miter">
</g>
<g fill="none" color="black" stroke="currentColor" stroke-width="1.00" stroke-linecap="butt" stroke-linejoin="miter">
	<path stroke='black'  d='M130.8,224.4 L130.8,215.4  '/>	<g transform="translate(130.8,246.3)" stroke="none" fill="black" font-family="Helvetica" font-size="12.00"  text-anchor="middle">
		<text><tspan font-family="Helvetica" > 20</tspan></text>
	</g>
</g>
<g fill="none" color="black" stroke="currentColor" stroke-width="1.00" stroke-linecap="butt" stroke-linejoin="miter">
</g>
<g fill="none" color="black" stroke="black" stroke-width="0.50" stroke-linecap="butt" stroke-linejoin="miter">
</g>
<g fill="none" color="gray" stroke="currentColor" stroke-width="0.50" stroke-linecap="butt" stroke-linejoin="miter">
	<path stroke='gray' stroke-dasharray='2,4' class="gridline"  d='M189.6,224.4 L189.6,18.1  '/></g>
<g fill="none" color="gray" stroke="gray" stroke-width="1.00" stroke-linecap="butt" stroke-linejoin="miter">
</g>
<g fill="none" color="black" stroke="currentColor" stroke-width="1.00" stroke-linecap="butt" stroke-linejoin="miter">
	<path stroke='black'  d='M189.6,224.4 L189.6,215.4  '/>	<g transform="translate(189.6,246.3)" stroke="none" fill="black" font-family="Helvetica" font-size="12.00"  text-anchor="middle">
		<text><tspan font-family="Helvetica" > 40</tspan></text>
	</g>
</g>
<g fill="none" color="black" stroke="currentColor" stroke-width="1.00" stroke-linecap="butt" stroke-linejoin="miter">
</g>
<g fill="none" color="black" stroke="black" stroke-width="0.50" stroke-linecap="butt" stroke-linejoin="miter">
</g>
<g fill="none" color="gray" stroke="currentColor" stroke-width="0.50" stroke-linecap="butt" stroke-linejoin="miter">
	<path stroke='gray' stroke-dasharray='2,4' class="gridline"  d='M248.5,224.4 L248.5,18.1  '/></g>
<g fill="none" color="gray" stroke="gray" stroke-width="1.00" stroke-linecap="butt" stroke-linejoin="miter">
</g>
<g fill="none" color="black" stroke="currentColor" stroke-width="1.00" stroke-linecap="butt" stroke-linejoin="miter">
	<path stroke='black'  d='M248.5,224.4 L248.5,215.4  '/>	<g transform="translate(248.5,246.3)" stroke="none" fill="black" font-family="Helvetica" font-size="12.00"  text-anchor="middle">
		<text><tspan font-family="Helvetica" > 60</tspan></text>
	</g>
</g>
<g fill="none" color="black" stroke="currentColor" stroke-width="1.00" stroke-linecap="butt" stroke-linejoin="miter">
</g>
<g fill="none" color="black" stroke="black" stroke-width="0.50" stroke-linecap="butt" stroke-linejoin="miter">
</g>
<g fill="none" color="gray" stroke="currentColor" stroke-width="0.50" stroke-linecap="butt" stroke-linejoin="miter">
	<path stroke='gray' stroke-dasharray='2,4' class="gridline"  d='M307.3,224.4 L307.3,18.1  '/></g>
<g fill="none" color="gray" stroke="gray" stroke-width="1.00" stroke-linecap="butt" stroke-linejoin="miter">
</g>
<g fill="none" color="black" stroke="currentColor" stroke-width="1.00" stroke-linecap="butt" stroke-linejoin="miter">
	<path stroke='black'  d='M307.3,224.4 L307.3,215.4  '/>	<g transform="translate(307.3,246.3)" stroke="none" fill="black" font-family="Helvetica" font-size="12.00"  text-anchor="middle">
		<text><tspan font-family="Helvetica" > 80</tspan></text>
	</g>
</g>
<g fill="none" color="black" stroke="currentColor" stroke-width="1.00" stroke-linecap="butt" stroke-linejoin="miter">
</g>
<g fill="none" color="black" stroke="black" stroke-width="0.50" stroke-linecap="butt" stroke-linejoin="miter">
</g>
<g fill="none" color="gray" stroke="currentColor" stroke-width="0.50" stroke-linecap="butt" stroke-linejoin="miter">
	<path stroke='gray' stroke-dasharray='2,4' class="gridline"  d='M366.2,224.4 L366.2,18.1  '/></g>
<g fill="none" color="gray" stroke="gray" stroke-width="1.00" stroke-linecap="butt" stroke-linejoin="miter">
</g>
<g fill="none" color="black" stroke="currentColor" stroke-width="1.00" stroke-linecap="butt" stroke-linejoin="miter">
	<path stroke='black'  d='M366.2,224.4 L366.2,215.4  '/>	<g transform="translate(366.2,246.3)" stroke="none" fill="black" font-family="Helvetica" font-size="12.00"  text-anchor="middle">
		<text><tspan font-family="Helvetica" > 100</tspan></text>
	</g>
</g>
<g fill="none" color="black" stroke="currentColor" stroke-width="1.00" stroke-linecap="butt" stroke-linejoin="miter">
</g>
<g fill="none" color="black" stroke="black" stroke-width="0.50" stroke-linecap="butt" stroke-linejoin="miter">
</g>
<g fill="none" color="gray" stroke="currentColor" stroke-width="0.50" stroke-linecap="butt" stroke-linejoin="miter">
	<path stroke='gray' stroke-dasharray='2,4' class="gridline"  d='M425.0,224.4 L425.0,18.1  '/></g>
<g fill="none" color="gray" stroke="gray" stroke-width="1.00" stroke-linecap="butt" stroke-linejoin="miter">
</g>
<g fill="none" color="black" stroke="currentColor" stroke-width="1.00" stroke-linecap="butt" stroke-linejoin="miter">
	<path stroke='black'  d='M425.0,224.4 L425.0,215.4  '/>	<g transform="translate(425.0,246.3)" stroke="none" fill="black" font-family="Helvetica" font-size="12.00"  text-anchor="middle">
		<text><tspan font-family="Helvetica" > 120</tspan></text>
	</g>
</g>
<g fill="none" color="black" stroke="currentColor" stroke-width="1.00" stroke-linecap="butt" stroke-linejoin="miter">
</g>
<g fill="none" color="black" stroke="currentColor" stroke-width="1.00" stroke-linecap="butt" stroke-linejoin="miter">
	<path stroke='black'  d='M71.9,18.1 L71.9,224.4 L425.0,224.4 L425.0,18.1 L71.9,18.1 Z  '/></g>
<g fill="none" color="black" stroke="currentColor" stroke-width="1.00" stroke-linecap="butt" stroke-linejoin="miter">
	<g transform="translate(19.0,121.3) rotate(270)" stroke="none" fill="black" font-family="Helvetica" font-size="12.00"  text-anchor="middle">
		<text><tspan font-family="Helvetica" >Total sample time (ms)</tspan></text>
	</g>
</g>
<g fill="none" color="black" stroke="currentColor" stroke-width="1.00" stroke-linecap="butt" stroke-linejoin="miter">
	<g transform="translate(248.4,273.3)" stroke="none" fill="black" font-family="Helvetica" font-size="12.00"  text-anchor="middle">
		<text><tspan font-family="Helvetica" >Iterations (x 10</tspan><tspan font-family="Helvetica"  font-size="9.6" dy="-6.00px">3</tspan><tspan font-family="Helvetica"  font-size="12.0" dy="6.00px">)</tspan></text>
	</g>
</g>
<g fill="none" color="black" stroke="currentColor" stroke-width="1.00" stroke-linecap="butt" stroke-linejoin="miter">
</g>
	<g id="gnuplot_plot_1" ><title>Sample</title>
<g fill="none" color="black" stroke="currentColor" stroke-width="1.00" stroke-linecap="butt" stroke-linejoin="miter">
	<use xlink:href='#gpPt6' transform='translate(75.0,222.4) scale(2.25)' color='rgb( 31, 120, 180)'/>
	<use xlink:href='#gpPt6' transform='translate(78.1,220.3) scale(2.25)' color='rgb( 31, 120, 180)'/>
	<use xlink:href='#gpPt6' transform='translate(81.3,218.3) scale(2.25)' color='rgb( 31, 120, 180)'/>
	<use xlink:href='#gpPt6' transform='translate(84.4,216.2) scale(2.25)' color='rgb( 31, 120, 180)'/>
	<use xlink:href='#gpPt6' transform='translate(87.5,214.2) scale(2.25)' color='rgb( 31, 120, 180)'/>
	<use xlink:href='#gpPt6' transform='translate(90.6,212.1) scale(2.25)' color='rgb( 31, 120, 180)'/>
	<use xlink:href='#gpPt6' transform='translate(93.8,210.1) scale(2.25)' color='rgb( 31, 120, 180)'/>
	<use xlink:href='#gpPt6' transform='translate(96.9,208.0) scale(2.25)' color='rgb( 31, 120, 180)'/>
	<use xlink:href='#gpPt6' transform='translate(100.0,206.0) scale(2.25)' color='rgb( 31, 120, 180)'/>
	<use xlink:href='#gpPt6' transform='translate(103.1,203.9) scale(2.25)' color='rgb( 31, 120, 180)'/>
	<use xlink:href='#gpPt6' transform='translate(106.2,201.9) scale(2.25)' color='rgb( 31, 120, 180)'/>
	<use xlink:href='#gpPt6' transform='translate(109.4,199.8) scale(2.25)' color='rgb( 31, 120, 180)'/>
	<use xlink:href='#gpPt6' transform='translate(112.5,197.8) scale(2.25)' color='rgb( 31, 120, 180)'/>
	<use xlink:href='#gpPt6' transform='translate(115.6,195.8) scale(2.25)' color='rgb( 31, 120, 180)'/>
	<use xlink:href='#gpPt6' transform='translate(118.7,193.8) scale(2.25)' color='rgb( 31, 120, 180)'/>
	<use xlink:href='#gpPt6' transform='translate(121.9,191.7) scale(2.25)' color='rgb( 31, 120, 180)'/>
	<use xlink:href='#gpPt6' transform='translate(125.0,189.7) scale(2.25)' color='rgb( 31, 120, 180)'/>
	<use xlink:href='#gpPt6' transform='translate(128.1,187.6) scale(2.25)' color='rgb( 31, 120, 180)'/>
	<use xlink:href='#gpPt6' transform='translate(131.2,185.6) scale(2.25)' color='rgb( 31, 120, 180)'/>
	<use xlink:href='#gpPt6' transform='translate(134.3,183.5) scale(2.25)' color='rgb( 31, 120, 180)'/>
	<use xlink:href='#gpPt6' transform='translate(137.5,181.5) scale(2.25)' color='rgb( 31, 120, 180)'/>
	<use xlink:href='#gpPt6' transform='translate(140.6,179.4) scale(2.25)' color='rgb( 31, 120, 180)'/>
	<use xlink:href='#gpPt6' transform='translate(143.7,177.4) scale(2.25)' color='rgb( 31, 120, 180)'/>
	<use xlink:href='#gpPt6' transform='translate(146.8,175.4) scale(2.25)' color='rgb( 31, 120, 180)'/>
	<use xlink:href='#gpPt6' transform='translate(149.9,173.3) scale(2.25)' color='rgb( 31, 120, 180)'/>
	<use xlink:href='#gpPt6' transform='translate(153.1,171.3) scale(2.25)' color='rgb( 31, 120, 180)'/>
	<use xlink:href='#gpPt6' transform='translate(156.2,169.2) scale(2.25)' color='rgb( 31, 120, 180)'/>
	<use xlink:href='#gpPt6' transform='translate(159.3,167.2) scale(2.25)' color='rgb( 31, 120, 180)'/>
	<use xlink:href='#gpPt6' transform='translate(162.4,165.2) scale(2.25)' color='rgb( 31, 120, 180)'/>
	<use xlink:href='#gpPt6' transform='translate(165.6,163.1) scale(2.25)' color='rgb( 31, 120, 180)'/>
	<use xlink:href='#gpPt6' transform='translate(168.7,161.1) scale(2.25)' color='rgb( 31, 120, 180)'/>
	<use xlink:href='#gpPt6' transform='translate(171.8,159.0) scale(2.25)' color='rgb( 31, 120, 180)'/>
	<use xlink:href='#gpPt6' transform='translate(174.9,157.0) scale(2.25)' color='rgb( 31, 120, 180)'/>
	<use xlink:href='#gpPt6' transform='translate(178.0,154.9) scale(2.25)' color='rgb( 31, 120, 180)'/>
	<use xlink:href='#gpPt6' transform='translate(181.2,152.9) scale(2.25)' color='rgb( 31, 120, 180)'/>
	<use xlink:href='#gpPt6' transform='translate(184.3,150.9) scale(2.25)' color='rgb( 31, 120, 180)'/>
	<use xlink:href='#gpPt6' transform='translate(187.4,148.8) scale(2.25)' color='rgb( 31, 120, 180)'/>
	<use xlink:href='#gpPt6' transform='translate(190.5,146.8) scale(2.25)' color='rgb( 31, 120, 180)'/>
	<use xlink:href='#gpPt6' transform='translate(193.7,144.7) scale(2.25)' color='rgb( 31, 120, 180)'/>
	<use xlink:href='#gpPt6' transform='translate(196.8,142.6) scale(2.25)' color='rgb( 31, 120, 180)'/>
	<use xlink:href='#gpPt6' transform='translate(199.9,140.6) scale(2.25)' color='rgb( 31, 120, 180)'/>
	<use xlink:href='#gpPt6' transform='translate(203.0,138.6) scale(2.25)' color='rgb( 31, 120, 180)'/>
	<use xlink:href='#gpPt6' transform='translate(206.1,136.5) scale(2.25)' color='rgb( 31, 120, 180)'/>
	<use xlink:href='#gpPt6' transform='translate(209.3,134.5) scale(2.25)' color='rgb( 31, 120, 180)'/>
	<use xlink:href='#gpPt6' transform='translate(212.4,132.5) scale(2.25)' color='rgb( 31, 120, 180)'/>
	<use xlink:href='#gpPt6' transform='translate(215.5,130.4) scale(2.25)' color='rgb( 31, 120, 180)'/>
	<use xlink:href='#gpPt6' transform='translate(218.6,128.4) scale(2.25)' color='rgb( 31, 120, 180)'/>
	<use xlink:href='#gpPt6' transform='translate(221.8,126.3) scale(2.25)' color='rgb( 31, 120, 180)'/>
	<use xlink:href='#gpPt6' transform='translate(224.9,124.3) scale(2.25)' color='rgb( 31, 120, 180)'/>
	<use xlink:href='#gpPt6' transform='translate(228.0,122.1) scale(2.25)' color='rgb( 31, 120, 180)'/>
	<use xlink:href='#gpPt6' transform='translate(231.1,120.2) scale(2.25)' color='rgb( 31, 120, 180)'/>
	<use xlink:href='#gpPt6' transform='translate(234.2,118.2) scale(2.25)' color='rgb( 31, 120, 180)'/>
	<use xlink:href='#gpPt6' transform='translate(237.4,116.1) scale(2.25)' color='rgb( 31, 120, 180)'/>
	<use xlink:href='#gpPt6' transform='translate(240.5,114.1) scale(2.25)' color='rgb( 31, 120, 180)'/>
	<use xlink:href='#gpPt6' transform='translate(243.6,112.0) scale(2.25)' color='rgb( 31, 120, 180)'/>
	<use xlink:href='#gpPt6' transform='translate(246.7,110.0) scale(2.25)' color='rgb( 31, 120, 180)'/>
	<use xlink:href='#gpPt6' transform='translate(249.9,108.0) scale(2.25)' color='rgb( 31, 120, 180)'/>
	<use xlink:href='#gpPt6' transform='translate(253.0,105.9) scale(2.25)' color='rgb( 31, 120, 180)'/>
	<use xlink:href='#gpPt6' transform='translate(256.1,103.9) scale(2.25)' color='rgb( 31, 120, 180)'/>
	<use xlink:href='#gpPt6' transform='translate(259.2,101.8) scale(2.25)' color='rgb( 31, 120, 180)'/>
	<use xlink:href='#gpPt6' transform='translate(262.3,99.8) scale(2.25)' color='rgb( 31, 120, 180)'/>
	<use xlink:href='#gpPt6' transform='translate(265.5,97.7) scale(2.25)' color='rgb( 31, 120, 180)'/>
	<use xlink:href='#gpPt6' transform='translate(268.6,95.7) scale(2.25)' color='rgb( 31, 120, 180)'/>
	<use xlink:href='#gpPt6' transform='translate(271.7,93.7) scale(2.25)' color='rgb( 31, 120, 180)'/>
	<use xlink:href='#gpPt6' transform='translate(274.8,91.6) scale(2.25)' color='rgb( 31, 120, 180)'/>
	<use xlink:href='#gpPt6' transform='translate(278.0,89.5) scale(2.25)' color='rgb( 31, 120, 180)'/>
	<use xlink:href='#gpPt6' transform='translate(281.1,87.5) scale(2.25)' color='rgb( 31, 120, 180)'/>
	<use xlink:href='#gpPt6' transform='translate(284.2,85.5) scale(2.25)' color='rgb( 31, 120, 180)'/>
	<use xlink:href='#gpPt6' transform='translate(287.3,83.5) scale(2.25)' color='rgb( 31, 120, 180)'/>
	<use xlink:href='#gpPt6' transform='translate(290.4,81.3) scale(2.25)' color='rgb( 31, 120, 180)'/>
	<use xlink:href='#gpPt6' transform='translate(293.6,79.4) scale(2.25)' color='rgb( 31, 120, 180)'/>
	<use xlink:href='#gpPt6' transform='translate(296.7,77.3) scale(2.25)' color='rgb( 31, 120, 180)'/>
	<use xlink:href='#gpPt6' transform='translate(299.8,75.2) scale(2.25)' color='rgb( 31, 120, 180)'/>
	<use xlink:href='#gpPt6' transform='translate(302.9,73.2) scale(2.25)' color='rgb( 31, 120, 180)'/>
	<use xlink:href='#gpPt6' transform='translate(306.0,71.0) scale(2.25)' color='rgb( 31, 120, 180)'/>
	<use xlink:href='#gpPt6' transform='translate(309.2,69.1) scale(2.25)' color='rgb( 31, 120, 180)'/>
	<use xlink:href='#gpPt6' transform='translate(312.3,67.1) scale(2.25)' color='rgb( 31, 120, 180)'/>
	<use xlink:href='#gpPt6' transform='translate(315.4,65.0) scale(2.25)' color='rgb( 31, 120, 180)'/>
	<use xlink:href='#gpPt6' transform='translate(318.5,63.0) scale(2.25)' color='rgb( 31, 120, 180)'/>
	<use xlink:href='#gpPt6' transform='translate(321.7,61.0) scale(2.25)' color='rgb( 31, 120, 180)'/>
	<use xlink:href='#gpPt6' transform='translate(324.8,58.9) scale(2.25)' color='rgb( 31, 120, 180)'/>
	<use xlink:href='#gpPt6' transform='translate(327.9,56.7) scale(2.25)' color='rgb( 31, 120, 180)'/>
	<use xlink:href='#gpPt6' transform='translate(331.0,54.8) scale(2.25)' color='rgb( 31, 120, 180)'/>
	<use xlink:href='#gpPt6' transform='translate(334.1,52.8) scale(2.25)' color='rgb( 31, 120, 180)'/>
	<use xlink:href='#gpPt6' transform='translate(337.3,50.8) scale(2.25)' color='rgb( 31, 120, 180)'/>
	<use xlink:href='#gpPt6' transform='translate(340.4,48.7) scale(2.25)' color='rgb( 31, 120, 180)'/>
	<use xlink:href='#gpPt6' transform='translate(343.5,46.7) scale(2.25)' color='rgb( 31, 120, 180)'/>
	<use xlink:href='#gpPt6' transform='translate(346.6,44.6) scale(2.25)' color='rgb( 31, 120, 180)'/>
	<use xlink:href='#gpPt6' transform='translate(349.8,42.5) scale(2.25)' color='rgb( 31, 120, 180)'/>
	<use xlink:href='#gpPt6' transform='translate(352.9,40.5) scale(2.25)' color='rgb( 31, 120, 180)'/>
	<use xlink:href='#gpPt6' transform='translate(356.0,38.5) scale(2.25)' color='rgb( 31, 120, 180)'/>
	<use xlink:href='#gpPt6' transform='translate(359.1,36.4) scale(2.25)' color='rgb( 31, 120, 180)'/>
	<use xlink:href='#gpPt6' transform='translate(362.2,34.3) scale(2.25)' color='rgb( 31, 120, 180)'/>
	<use xlink:href='#gpPt6' transform='translate(365.4,32.3) scale(2.25)' color='rgb( 31, 120, 180)'/>
	<use xlink:href='#gpPt6' transform='translate(368.5,30.3) scale(2.25)' color='rgb( 31, 120, 180)'/>
	<use xlink:href='#gpPt6' transform='translate(371.6,28.2) scale(2.25)' color='rgb( 31, 120, 180)'/>
	<use xlink:href='#gpPt6' transform='translate(374.7,26.2) scale(2.25)' color='rgb( 31, 120, 180)'/>
	<use xlink:href='#gpPt6' transform='translate(377.9,24.2) scale(2.25)' color='rgb( 31, 120, 180)'/>
	<use xlink:href='#gpPt6' transform='translate(381.0,22.1) scale(2.25)' color='rgb( 31, 120, 180)'/>
	<use xlink:href='#gpPt6' transform='translate(384.1,20.1) scale(2.25)' color='rgb( 31, 120, 180)'/>
</g>
	</g>
	<g id="gnuplot_plot_2" ><title>Linear regression</title>
<g fill="none" color="white" stroke="rgb( 31, 120, 180)" stroke-width="2.00" stroke-linecap="butt" stroke-linejoin="miter">
</g>
<g fill="none" color="black" stroke="currentColor" stroke-width="2.00" stroke-linecap="butt" stroke-linejoin="miter">
	<path stroke='rgb( 31, 120, 180)'  d='M71.9,224.4 L384.1,20.1  '/></g>
	</g>
	<g id="gnuplot_plot_3" ><title>Confidence interval</title>
<g fill="none" color="white" stroke="rgb( 31, 120, 180)" stroke-width="1.00" stroke-linecap="butt" stroke-linejoin="miter">
</g>
<g fill="none" color="black" stroke="currentColor" stroke-width="1.00" stroke-linecap="butt" stroke-linejoin="miter">
	<g stroke='none' shape-rendering='crispEdges'>
		<polygon fill = 'rgb( 31, 120, 180)' fill-opacity = '0.250000' points = '71.9,224.4 71.9,224.4 71.9,224.4 '/>
		<polygon fill = 'rgb( 31, 120, 180)' fill-opacity = '0.250000' points = '71.9,224.4 384.1,20.1 384.1,20.1 '/>
	</g>
</g>
	</g>
<g fill="none" color="white" stroke="rgb( 31, 120, 180)" stroke-width="2.00" stroke-linecap="butt" stroke-linejoin="miter">
</g>
<g fill="none" color="black" stroke="currentColor" stroke-width="2.00" stroke-linecap="butt" stroke-linejoin="miter">
</g>
<g fill="none" color="black" stroke="black" stroke-width="1.00" stroke-linecap="butt" stroke-linejoin="miter">
</g>
<g fill="none" color="black" stroke="currentColor" stroke-width="1.00" stroke-linecap="butt" stroke-linejoin="miter">
	<path stroke='black'  d='M71.9,18.1 L71.9,224.4 L425.0,224.4 L425.0,18.1 L71.9,18.1 Z  '/></g>
<g fill="none" color="black" stroke="currentColor" stroke-width="1.00" stroke-linecap="butt" stroke-linejoin="miter">
</g>
</g>
</svg>

