<?xml version="1.0" encoding="utf-8"  standalone="no"?>
<svg 
 viewBox="0 0 1280 720"
 xmlns="http://www.w3.org/2000/svg"
 xmlns:xlink="http://www.w3.org/1999/xlink"
>

<title>Gnuplot</title>
<desc>Produced by GNUPLOT 5.2 patchlevel 8 </desc>

<g id="gnuplot_canvas">

<rect x="0" y="0" width="1280" height="720" fill="none"/>
<defs>

	<circle id='gpDot' r='0.5' stroke-width='0.5' stroke='currentColor'/>
	<path id='gpPt0' stroke-width='0.222' stroke='currentColor' d='M-1,0 h2 M0,-1 v2'/>
	<path id='gpPt1' stroke-width='0.222' stroke='currentColor' d='M-1,-1 L1,1 M1,-1 L-1,1'/>
	<path id='gpPt2' stroke-width='0.222' stroke='currentColor' d='M-1,0 L1,0 M0,-1 L0,1 M-1,-1 L1,1 M-1,1 L1,-1'/>
	<rect id='gpPt3' stroke-width='0.222' stroke='currentColor' x='-1' y='-1' width='2' height='2'/>
	<rect id='gpPt4' stroke-width='0.222' stroke='currentColor' fill='currentColor' x='-1' y='-1' width='2' height='2'/>
	<circle id='gpPt5' stroke-width='0.222' stroke='currentColor' cx='0' cy='0' r='1'/>
	<use xlink:href='#gpPt5' id='gpPt6' fill='currentColor' stroke='none'/>
	<path id='gpPt7' stroke-width='0.222' stroke='currentColor' d='M0,-1.33 L-1.33,0.67 L1.33,0.67 z'/>
	<use xlink:href='#gpPt7' id='gpPt8' fill='currentColor' stroke='none'/>
	<use xlink:href='#gpPt7' id='gpPt9' stroke='currentColor' transform='rotate(180)'/>
	<use xlink:href='#gpPt9' id='gpPt10' fill='currentColor' stroke='none'/>
	<use xlink:href='#gpPt3' id='gpPt11' stroke='currentColor' transform='rotate(45)'/>
	<use xlink:href='#gpPt11' id='gpPt12' fill='currentColor' stroke='none'/>
	<path id='gpPt13' stroke-width='0.222' stroke='currentColor' d='M0,1.330 L1.265,0.411 L0.782,-1.067 L-0.782,-1.076 L-1.265,0.411 z'/>
	<use xlink:href='#gpPt13' id='gpPt14' fill='currentColor' stroke='none'/>
	<filter id='textbox' filterUnits='objectBoundingBox' x='0' y='0' height='1' width='1'>
	  <feFlood flood-color='white' flood-opacity='1' result='bgnd'/>
	  <feComposite in='SourceGraphic' in2='bgnd' operator='atop'/>
	</filter>
	<filter id='greybox' filterUnits='objectBoundingBox' x='0' y='0' height='1' width='1'>
	  <feFlood flood-color='lightgrey' flood-opacity='1' result='grey'/>
	  <feComposite in='SourceGraphic' in2='grey' operator='atop'/>
	</filter>
</defs>
<g fill="none" color="white" stroke="currentColor" stroke-width="1.00" stroke-linecap="butt" stroke-linejoin="miter">
</g>
<g fill="none" color="black" stroke="currentColor" stroke-width="1.00" stroke-linecap="butt" stroke-linejoin="miter">
	<path stroke='black'  d='M55.3,662.4 L64.3,662.4  '/>	<g transform="translate(47.0,666.3)" stroke="none" fill="black" font-family="Helvetica" font-size="12.00"  text-anchor="end">
		<text><tspan font-family="Helvetica" > 0</tspan></text>
	</g>
</g>
<g fill="none" color="black" stroke="currentColor" stroke-width="1.00" stroke-linecap="butt" stroke-linejoin="miter">
	<path stroke='black'  d='M55.3,594.8 L64.3,594.8  '/>	<g transform="translate(47.0,598.7)" stroke="none" fill="black" font-family="Helvetica" font-size="12.00"  text-anchor="end">
		<text><tspan font-family="Helvetica" > 1</tspan></text>
	</g>
</g>
<g fill="none" color="black" stroke="currentColor" stroke-width="1.00" stroke-linecap="butt" stroke-linejoin="miter">
	<path stroke='black'  d='M55.3,527.2 L64.3,527.2  '/>	<g transform="translate(47.0,531.1)" stroke="none" fill="black" font-family="Helvetica" font-size="12.00"  text-anchor="end">
		<text><tspan font-family="Helvetica" > 2</tspan></text>
	</g>
</g>
<g fill="none" color="black" stroke="currentColor" stroke-width="1.00" stroke-linecap="butt" stroke-linejoin="miter">
	<path stroke='black'  d='M55.3,459.6 L64.3,459.6  '/>	<g transform="translate(47.0,463.5)" stroke="none" fill="black" font-family="Helvetica" font-size="12.00"  text-anchor="end">
		<text><tspan font-family="Helvetica" > 3</tspan></text>
	</g>
</g>
<g fill="none" color="black" stroke="currentColor" stroke-width="1.00" stroke-linecap="butt" stroke-linejoin="miter">
	<path stroke='black'  d='M55.3,392.0 L64.3,392.0  '/>	<g transform="translate(47.0,395.9)" stroke="none" fill="black" font-family="Helvetica" font-size="12.00"  text-anchor="end">
		<text><tspan font-family="Helvetica" > 4</tspan></text>
	</g>
</g>
<g fill="none" color="black" stroke="currentColor" stroke-width="1.00" stroke-linecap="butt" stroke-linejoin="miter">
	<path stroke='black'  d='M55.3,324.5 L64.3,324.5  '/>	<g transform="translate(47.0,328.4)" stroke="none" fill="black" font-family="Helvetica" font-size="12.00"  text-anchor="end">
		<text><tspan font-family="Helvetica" > 5</tspan></text>
	</g>
</g>
<g fill="none" color="black" stroke="currentColor" stroke-width="1.00" stroke-linecap="butt" stroke-linejoin="miter">
	<path stroke='black'  d='M55.3,256.9 L64.3,256.9  '/>	<g transform="translate(47.0,260.8)" stroke="none" fill="black" font-family="Helvetica" font-size="12.00"  text-anchor="end">
		<text><tspan font-family="Helvetica" > 6</tspan></text>
	</g>
</g>
<g fill="none" color="black" stroke="currentColor" stroke-width="1.00" stroke-linecap="butt" stroke-linejoin="miter">
	<path stroke='black'  d='M55.3,189.3 L64.3,189.3  '/>	<g transform="translate(47.0,193.2)" stroke="none" fill="black" font-family="Helvetica" font-size="12.00"  text-anchor="end">
		<text><tspan font-family="Helvetica" > 7</tspan></text>
	</g>
</g>
<g fill="none" color="black" stroke="currentColor" stroke-width="1.00" stroke-linecap="butt" stroke-linejoin="miter">
	<path stroke='black'  d='M55.3,121.7 L64.3,121.7  '/>	<g transform="translate(47.0,125.6)" stroke="none" fill="black" font-family="Helvetica" font-size="12.00"  text-anchor="end">
		<text><tspan font-family="Helvetica" > 8</tspan></text>
	</g>
</g>
<g fill="none" color="black" stroke="currentColor" stroke-width="1.00" stroke-linecap="butt" stroke-linejoin="miter">
	<path stroke='black'  d='M55.3,54.1 L64.3,54.1  '/>	<g transform="translate(47.0,58.0)" stroke="none" fill="black" font-family="Helvetica" font-size="12.00"  text-anchor="end">
		<text><tspan font-family="Helvetica" > 9</tspan></text>
	</g>
</g>
<g fill="none" color="black" stroke="currentColor" stroke-width="1.00" stroke-linecap="butt" stroke-linejoin="miter">
	<path stroke='black'  d='M71.1,662.4 L71.1,653.4  '/>	<g transform="translate(71.1,684.3)" stroke="none" fill="black" font-family="Helvetica" font-size="12.00"  text-anchor="middle">
		<text><tspan font-family="Helvetica" > 404.9</tspan></text>
	</g>
</g>
<g fill="none" color="black" stroke="currentColor" stroke-width="1.00" stroke-linecap="butt" stroke-linejoin="miter">
	<path stroke='black'  d='M257.3,662.4 L257.3,653.4  '/>	<g transform="translate(257.3,684.3)" stroke="none" fill="black" font-family="Helvetica" font-size="12.00"  text-anchor="middle">
		<text><tspan font-family="Helvetica" > 405</tspan></text>
	</g>
</g>
<g fill="none" color="black" stroke="currentColor" stroke-width="1.00" stroke-linecap="butt" stroke-linejoin="miter">
	<path stroke='black'  d='M443.4,662.4 L443.4,653.4  '/>	<g transform="translate(443.4,684.3)" stroke="none" fill="black" font-family="Helvetica" font-size="12.00"  text-anchor="middle">
		<text><tspan font-family="Helvetica" > 405.1</tspan></text>
	</g>
</g>
<g fill="none" color="black" stroke="currentColor" stroke-width="1.00" stroke-linecap="butt" stroke-linejoin="miter">
	<path stroke='black'  d='M629.6,662.4 L629.6,653.4  '/>	<g transform="translate(629.6,684.3)" stroke="none" fill="black" font-family="Helvetica" font-size="12.00"  text-anchor="middle">
		<text><tspan font-family="Helvetica" > 405.2</tspan></text>
	</g>
</g>
<g fill="none" color="black" stroke="currentColor" stroke-width="1.00" stroke-linecap="butt" stroke-linejoin="miter">
	<path stroke='black'  d='M815.8,662.4 L815.8,653.4  '/>	<g transform="translate(815.8,684.3)" stroke="none" fill="black" font-family="Helvetica" font-size="12.00"  text-anchor="middle">
		<text><tspan font-family="Helvetica" > 405.3</tspan></text>
	</g>
</g>
<g fill="none" color="black" stroke="currentColor" stroke-width="1.00" stroke-linecap="butt" stroke-linejoin="miter">
	<path stroke='black'  d='M1001.9,662.4 L1001.9,653.4  '/>	<g transform="translate(1001.9,684.3)" stroke="none" fill="black" font-family="Helvetica" font-size="12.00"  text-anchor="middle">
		<text><tspan font-family="Helvetica" > 405.4</tspan></text>
	</g>
</g>
<g fill="none" color="black" stroke="currentColor" stroke-width="1.00" stroke-linecap="butt" stroke-linejoin="miter">
</g>
<g fill="none" color="black" stroke="currentColor" stroke-width="1.00" stroke-linecap="butt" stroke-linejoin="miter">
	<path stroke='black'  d='M55.3,54.1 L55.3,662.4 L1013.6,662.4 L1013.6,54.1 L55.3,54.1 Z  '/></g>
<g fill="none" color="black" stroke="currentColor" stroke-width="1.00" stroke-linecap="butt" stroke-linejoin="miter">
	<g transform="translate(19.0,358.3) rotate(270)" stroke="none" fill="black" font-family="Helvetica" font-size="12.00"  text-anchor="middle">
		<text><tspan font-family="Helvetica" >Density (a.u.)</tspan></text>
	</g>
</g>
<g fill="none" color="black" stroke="currentColor" stroke-width="1.00" stroke-linecap="butt" stroke-linejoin="miter">
	<g transform="translate(534.4,711.3)" stroke="none" fill="black" font-family="Helvetica" font-size="12.00"  text-anchor="middle">
		<text><tspan font-family="Helvetica" >Average time (ns)</tspan></text>
	</g>
</g>
<g fill="none" color="black" stroke="currentColor" stroke-width="1.00" stroke-linecap="butt" stroke-linejoin="miter">
	<g transform="translate(534.4,31.0)" stroke="none" fill="black" font-family="Helvetica" font-size="12.00"  text-anchor="middle">
		<text><tspan font-family="Helvetica" >bench_group/blake3/128: median</tspan></text>
	</g>
</g>
<g fill="none" color="black" stroke="currentColor" stroke-width="1.00" stroke-linecap="butt" stroke-linejoin="miter">
</g>
	<g id="gnuplot_plot_1" ><title>Bootstrap distribution</title>
<g fill="none" color="white" stroke="currentColor" stroke-width="2.00" stroke-linecap="butt" stroke-linejoin="miter">
</g>
<g fill="none" color="black" stroke="currentColor" stroke-width="2.00" stroke-linecap="butt" stroke-linejoin="miter">
	<g transform="translate(1089.0,67.0)" stroke="none" fill="black" font-family="Helvetica" font-size="12.00"  text-anchor="start">
		<text><tspan font-family="Helvetica" >Bootstrap distribution</tspan></text>
	</g>
</g>
<g fill="none" color="black" stroke="currentColor" stroke-width="2.00" stroke-linecap="butt" stroke-linejoin="miter">
	<path stroke='rgb( 31, 120, 180)'  d='M1038.5,63.1 L1080.7,63.1 M55.3,653.9 L57.2,653.6 L59.1,653.3 L61.1,652.9 L63.0,652.6 L64.9,652.3
		L66.8,651.9 L68.7,651.6 L70.7,651.2 L72.6,650.8 L74.5,650.4 L76.4,649.9 L78.3,649.5 L80.3,649.0
		L82.2,648.4 L84.1,647.8 L86.0,647.1 L87.9,646.3 L89.9,645.5 L91.8,644.5 L93.7,643.5 L95.6,642.3
		L97.5,641.0 L99.5,639.5 L101.4,637.9 L103.3,636.1 L105.2,634.1 L107.2,632.0 L109.1,629.7 L111.0,627.2
		L112.9,624.5 L114.8,621.6 L116.8,618.6 L118.7,615.4 L120.6,612.1 L122.5,608.6 L124.4,605.0 L126.4,601.4
		L128.3,597.7 L130.2,593.9 L132.1,590.2 L134.0,586.5 L136.0,582.8 L137.9,579.1 L139.8,575.6 L141.7,572.2
		L143.6,568.9 L145.6,565.7 L147.5,562.7 L149.4,559.9 L151.3,557.2 L153.2,554.7 L155.2,552.3 L157.1,550.1
		L159.0,548.1 L160.9,546.2 L162.8,544.5 L164.8,542.9 L166.7,541.4 L168.6,540.0 L170.5,538.7 L172.4,537.5
		L174.4,536.3 L176.3,535.2 L178.2,534.2 L180.1,533.2 L182.0,532.2 L184.0,531.2 L185.9,530.1 L187.8,529.1
		L189.7,528.0 L191.7,526.8 L193.6,525.5 L195.5,524.0 L197.4,522.4 L199.3,520.5 L201.3,518.4 L203.2,515.8
		L205.1,512.9 L207.0,509.5 L208.9,505.5 L210.9,500.9 L212.8,495.5 L214.7,489.3 L216.6,482.2 L218.5,474.1
		L220.5,464.9 L222.4,454.6 L224.3,443.0 L226.2,430.3 L228.1,416.2 L230.1,400.9 L232.0,384.3 L233.9,366.5
		L235.8,347.6 L237.7,327.8 L239.7,307.1 L241.6,285.8 L243.5,264.0 L245.4,242.1 L247.3,220.3 L249.3,198.8
		L251.2,178.1 L253.1,158.3 L255.0,139.9 L256.9,123.0 L258.9,108.0 L260.8,95.1 L262.7,84.5 L264.6,76.4
		L266.5,70.8 L268.5,68.0 L270.4,67.7 L272.3,70.1 L274.2,75.0 L276.2,82.3 L278.1,91.7 L280.0,103.1
		L281.9,116.2 L283.8,130.8 L285.8,146.5 L287.7,163.1 L289.6,180.2 L291.5,197.6 L293.4,215.0 L295.4,232.2
		L297.3,248.9 L299.2,265.1 L301.1,280.4 L303.0,294.9 L305.0,308.3 L306.9,320.8 L308.8,332.1 L310.7,342.4
		L312.6,351.6 L314.6,359.9 L316.5,367.2 L318.4,373.7 L320.3,379.4 L322.2,384.5 L324.2,389.1 L326.1,393.3
		L328.0,397.2 L329.9,400.9 L331.8,404.6 L333.8,408.3 L335.7,412.3 L337.6,416.5 L339.5,421.1 L341.4,426.1
		L343.4,431.6 L345.3,437.5 L347.2,444.1 L349.1,451.1 L351.0,458.7 L353.0,466.7 L354.9,475.2 L356.8,484.1
		L358.7,493.2 L360.7,502.6 L362.6,512.2 L364.5,521.7 L366.4,531.2 L368.3,540.6 L370.3,549.7 L372.2,558.5
		L374.1,566.9 L376.0,574.9 L377.9,582.3 L379.9,589.1 L381.8,595.3 L383.7,600.9 L385.6,605.7 L387.5,610.0
		L389.5,613.5 L391.4,616.3 L393.3,618.5 L395.2,620.1 L397.1,621.0 L399.1,621.3 L401.0,621.0 L402.9,620.1
		L404.8,618.7 L406.7,616.8 L408.7,614.5 L410.6,611.6 L412.5,608.4 L414.4,604.7 L416.3,600.7 L418.3,596.4
		L420.2,591.8 L422.1,587.0 L424.0,582.0 L425.9,576.8 L427.9,571.6 L429.8,566.4 L431.7,561.2 L433.6,556.2
		L435.5,551.4 L437.5,546.8 L439.4,542.7 L441.3,538.9 L443.2,535.7 L445.1,533.0 L447.1,531.0 L449.0,529.5
		L450.9,528.8 L452.8,528.7 L454.8,529.4 L456.7,530.7 L458.6,532.8 L460.5,535.4 L462.4,538.7 L464.4,542.4
		L466.3,546.7 L468.2,551.3 L470.1,556.3 L472.0,561.5 L474.0,566.9 L475.9,572.4 L477.8,577.9 L479.7,583.4
		L481.6,588.7 L483.6,593.8 L485.5,598.7 L487.4,603.3 L489.3,607.6 L491.2,611.5 L493.2,614.9 L495.1,617.9
		L497.0,620.4 L498.9,622.4 L500.8,623.9 L502.8,624.8 L504.7,625.1 L506.6,624.8 L508.5,623.8 L510.4,622.2
		L512.4,620.0 L514.3,617.1 L516.2,613.5 L518.1,609.2 L520.0,604.2 L522.0,598.6 L523.9,592.3 L525.8,585.4
		L527.7,577.9 L529.6,570.0 L531.6,561.5 L533.5,552.8 L535.4,543.7 L537.3,534.4 L539.3,525.1 L541.2,515.7
		L543.1,506.5 L545.0,497.5 L546.9,488.9 L548.9,480.7 L550.8,473.1 L552.7,466.0 L554.6,459.7 L556.5,454.1
		L558.5,449.3 L560.4,445.2 L562.3,442.0 L564.2,439.6 L566.1,438.0 L568.1,437.1 L570.0,436.9 L571.9,437.3
		L573.8,438.2 L575.7,439.7 L577.7,441.5 L579.6,443.7 L581.5,446.2 L583.4,448.8 L585.3,451.6 L587.3,454.4
		L589.2,457.2 L591.1,460.0 L593.0,462.7 L594.9,465.4 L596.9,467.9 L598.8,470.2 L600.7,472.4 L602.6,474.5
		L604.5,476.4 L606.5,478.2 L608.4,479.9 L610.3,481.4 L612.2,482.9 L614.1,484.3 L616.1,485.6 L618.0,486.9
		L619.9,488.2 L621.8,489.5 L623.8,490.9 L625.7,492.3 L627.6,493.8 L629.5,495.4 L631.4,497.1 L633.4,499.0
		L635.3,501.0 L637.2,503.1 L639.1,505.4 L641.0,507.9 L643.0,510.4 L644.9,513.2 L646.8,516.0 L648.7,518.9
		L650.6,521.9 L652.6,525.0 L654.5,528.1 L656.4,531.1 L658.3,534.2 L660.2,537.1 L662.2,540.0 L664.1,542.7
		L666.0,545.2 L667.9,547.6 L669.8,549.8 L671.8,551.8 L673.7,553.5 L675.6,555.1 L677.5,556.4 L679.4,557.6
		L681.4,558.6 L683.3,559.4 L685.2,560.1 L687.1,560.7 L689.0,561.2 L691.0,561.7 L692.9,562.2 L694.8,562.6
		L696.7,563.0 L698.6,563.5 L700.6,563.9 L702.5,564.4 L704.4,564.9 L706.3,565.4 L708.2,565.9 L710.2,566.3
		L712.1,566.6 L714.0,566.8 L715.9,566.8 L717.9,566.7 L719.8,566.4 L721.7,565.8 L723.6,565.0 L725.5,564.0
		L727.5,562.6 L729.4,561.0 L731.3,559.2 L733.2,557.1 L735.1,554.7 L737.1,552.2 L739.0,549.6 L740.9,546.8
		L742.8,544.0 L744.7,541.3 L746.7,538.6 L748.6,536.0 L750.5,533.6 L752.4,531.4 L754.3,529.5 L756.3,527.9
		L758.2,526.7 L760.1,525.8 L762.0,525.4 L763.9,525.3 L765.9,525.7 L767.8,526.5 L769.7,527.7 L771.6,529.2
		L773.5,531.2 L775.5,533.4 L777.4,536.0 L779.3,538.8 L781.2,541.9 L783.1,545.1 L785.1,548.4 L787.0,551.8
		L788.9,555.3 L790.8,558.8 L792.7,562.3 L794.7,565.7 L796.6,569.1 L798.5,572.3 L800.4,575.5 L802.4,578.5
		L804.3,581.3 L806.2,584.0 L808.1,586.5 L810.0,588.9 L812.0,591.1 L813.9,593.1 L815.8,595.0 L817.7,596.7
		L819.6,598.3 L821.6,599.7 L823.5,601.0 L825.4,602.2 L827.3,603.2 L829.2,604.2 L831.2,605.1 L833.1,605.9
		L835.0,606.6 L836.9,607.3 L838.8,608.0 L840.8,608.6 L842.7,609.2 L844.6,609.8 L846.5,610.5 L848.4,611.2
		L850.4,611.9 L852.3,612.7 L854.2,613.6 L856.1,614.6 L858.0,615.6 L860.0,616.8 L861.9,618.0 L863.8,619.4
		L865.7,620.8 L867.6,622.3 L869.6,623.9 L871.5,625.5 L873.4,627.2 L875.3,628.9 L877.2,630.7 L879.2,632.4
		L881.1,634.0 L883.0,635.7 L884.9,637.2 L886.9,638.7 L888.8,640.1 L890.7,641.4 L892.6,642.6 L894.5,643.6
		L896.5,644.5 L898.4,645.3 L900.3,646.0 L902.2,646.5 L904.1,646.9 L906.1,647.2 L908.0,647.4 L909.9,647.5
		L911.8,647.6 L913.7,647.5 L915.7,647.4 L917.6,647.3 L919.5,647.1 L921.4,647.0 L923.3,646.8 L925.3,646.6
		L927.2,646.5 L929.1,646.4 L931.0,646.3 L932.9,646.3 L934.9,646.3 L936.8,646.4 L938.7,646.5 L940.6,646.6
		L942.5,646.8 L944.5,647.1 L946.4,647.4 L948.3,647.7 L950.2,648.0 L952.1,648.3 L954.1,648.7 L956.0,649.1
		L957.9,649.4 L959.8,649.7 L961.7,650.1 L963.7,650.4 L965.6,650.6 L967.5,650.9 L969.4,651.1 L971.4,651.3
		L973.3,651.4 L975.2,651.6 L977.1,651.7 L979.0,651.7 L981.0,651.7 L982.9,651.7 L984.8,651.7 L986.7,651.7
		L988.6,651.6 L990.6,651.6 L992.5,651.5 L994.4,651.4 L996.3,651.3 L998.2,651.2 L1000.2,651.2 L1002.1,651.1
		L1004.0,651.0 L1005.9,650.9 L1007.8,650.8 L1009.8,650.8 L1011.7,650.7 L1013.6,650.7  '/></g>
	</g>
	<g id="gnuplot_plot_2" ><title>Confidence interval</title>
<g fill="none" color="white" stroke="rgb( 31, 120, 180)" stroke-width="1.00" stroke-linecap="butt" stroke-linejoin="miter">
</g>
<g fill="none" color="black" stroke="currentColor" stroke-width="1.00" stroke-linecap="butt" stroke-linejoin="miter">
	<g transform="translate(1089.0,85.0)" stroke="none" fill="black" font-family="Helvetica" font-size="12.00"  text-anchor="start">
		<text><tspan font-family="Helvetica" >Confidence interval</tspan></text>
	</g>
</g>
<g fill="none" color="black" stroke="currentColor" stroke-width="1.00" stroke-linecap="butt" stroke-linejoin="miter">
	<g stroke='none' shape-rendering='crispEdges'>
		<polygon fill = 'rgb( 31, 120, 180)' fill-opacity = '0.250000' points = '1038.5,85.6 1080.7,85.6 1080.7,76.6 1038.5,76.6 '/>
		<polygon fill = 'rgb( 31, 120, 180)' fill-opacity = '0.250000' points = '143.6,568.9 145.6,565.7 147.5,562.7 149.4,559.9 151.3,557.2 153.2,554.7 155.2,552.3 157.1,550.1 159.0,548.1 160.9,546.2 162.8,544.5 164.8,542.9 166.7,541.4 168.6,540.0 170.5,538.7 172.4,537.5
174.4,536.3 176.3,535.2 178.2,534.2 180.1,533.2 182.0,532.2 184.0,531.2 185.9,530.1 187.8,529.1 189.7,528.0 191.7,526.8 193.6,525.5 195.5,524.0 197.4,522.4 199.3,520.5 201.3,518.4 203.2,515.8
205.1,512.9 207.0,509.5 208.9,505.5 210.9,500.9 212.8,495.5 214.7,489.3 216.6,482.2 218.5,474.1 220.5,464.9 222.4,454.6 224.3,443.0 226.2,430.3 228.1,416.2 230.1,400.9 232.0,384.3 233.9,366.5
235.8,347.6 237.7,327.8 239.7,307.1 241.6,285.8 243.5,264.0 245.4,242.1 247.3,220.3 249.3,198.8 251.2,178.1 253.1,158.3 255.0,139.9 256.9,123.0 258.9,108.0 260.8,95.1 262.7,84.5 264.6,76.4
266.5,70.8 268.5,68.0 270.4,67.7 272.3,70.1 274.2,75.0 276.2,82.3 278.1,91.7 280.0,103.1 281.9,116.2 283.8,130.8 285.8,146.5 287.7,163.1 289.6,180.2 291.5,197.6 293.4,215.0 295.4,232.2
297.3,248.9 299.2,265.1 301.1,280.4 303.0,294.9 305.0,308.3 306.9,320.8 308.8,332.1 310.7,342.4 312.6,351.6 314.6,359.9 316.5,367.2 318.4,373.7 320.3,379.4 322.2,384.5 324.2,389.1 326.1,393.3
328.0,397.2 329.9,400.9 331.8,404.6 333.8,408.3 335.7,412.3 337.6,416.5 339.5,421.1 341.4,426.1 343.4,431.6 345.3,437.5 347.2,444.1 349.1,451.1 351.0,458.7 353.0,466.7 354.9,475.2 356.8,484.1
358.7,493.2 360.7,502.6 362.6,512.2 364.5,521.7 366.4,531.2 368.3,540.6 370.3,549.7 372.2,558.5 374.1,566.9 376.0,574.9 377.9,582.3 379.9,589.1 381.8,595.3 383.7,600.9 385.6,605.7 387.5,610.0
389.5,613.5 391.4,616.3 393.3,618.5 395.2,620.1 397.1,621.0 399.1,621.3 401.0,621.0 402.9,620.1 404.8,618.7 406.7,616.8 408.7,614.5 410.6,611.6 412.5,608.4 414.4,604.7 416.3,600.7 418.3,596.4
420.2,591.8 422.1,587.0 424.0,582.0 425.9,576.8 427.9,571.6 429.8,566.4 431.7,561.2 433.6,556.2 435.5,551.4 437.5,546.8 439.4,542.7 441.3,538.9 443.2,535.7 445.1,533.0 447.1,531.0 449.0,529.5
450.9,528.8 452.8,528.7 454.8,529.4 456.7,530.7 458.6,532.8 460.5,535.4 462.4,538.7 464.4,542.4 466.3,546.7 468.2,551.3 470.1,556.3 472.0,561.5 474.0,566.9 475.9,572.4 477.8,577.9 479.7,583.4
481.6,588.7 483.6,593.8 485.5,598.7 487.4,603.3 489.3,607.6 491.2,611.5 493.2,614.9 495.1,617.9 497.0,620.4 498.9,622.4 500.8,623.9 502.8,624.8 504.7,625.1 506.6,624.8 508.5,623.8 510.4,622.2
512.4,620.0 514.3,617.1 516.2,613.5 518.1,609.2 520.0,604.2 522.0,598.6 523.9,592.3 525.8,585.4 527.7,577.9 529.6,570.0 531.6,561.5 533.5,552.8 535.4,543.7 537.3,534.4 539.3,525.1 541.2,515.7
543.1,506.5 545.0,497.5 546.9,488.9 548.9,480.7 550.8,473.1 552.7,466.0 554.6,459.7 556.5,454.1 558.5,449.3 560.4,445.2 562.3,442.0 564.2,439.6 566.1,438.0 568.1,437.1 570.0,436.9 571.9,437.3
573.8,438.2 575.7,439.7 577.7,441.5 579.6,443.7 581.5,446.2 583.4,448.8 585.3,451.6 587.3,454.4 589.2,457.2 591.1,460.0 593.0,462.7 594.9,465.4 596.9,467.9 598.8,470.2 600.7,472.4 602.6,474.5
604.5,476.4 606.5,478.2 608.4,479.9 610.3,481.4 612.2,482.9 614.1,484.3 616.1,485.6 618.0,486.9 619.9,488.2 621.8,489.5 623.8,490.9 625.7,492.3 627.6,493.8 629.5,495.4 631.4,497.1 633.4,499.0
635.3,501.0 637.2,503.1 639.1,505.4 641.0,507.9 643.0,510.4 644.9,513.2 646.8,516.0 648.7,518.9 650.6,521.9 652.6,525.0 654.5,528.1 656.4,531.1 658.3,534.2 660.2,537.1 662.2,540.0 664.1,542.7
666.0,545.2 667.9,547.6 669.8,549.8 671.8,551.8 673.7,553.5 675.6,555.1 677.5,556.4 679.4,557.6 681.4,558.6 683.3,559.4 685.2,560.1 687.1,560.7 689.0,561.2 691.0,561.7 692.9,562.2 694.8,562.6
696.7,563.0 698.6,563.5 700.6,563.9 702.5,564.4 704.4,564.9 706.3,565.4 708.2,565.9 710.2,566.3 712.1,566.6 714.0,566.8 715.9,566.8 717.9,566.7 719.8,566.4 721.7,565.8 723.6,565.0 725.5,564.0
727.5,562.6 729.4,561.0 731.3,559.2 733.2,557.1 735.1,554.7 737.1,552.2 739.0,549.6 740.9,546.8 742.8,544.0 744.7,541.3 746.7,538.6 748.6,536.0 750.5,533.6 752.4,531.4 754.3,529.5 756.3,527.9
758.2,526.7 760.1,525.8 762.0,525.4 763.9,525.3 765.9,525.7 767.8,526.5 769.7,527.7 771.6,529.2 773.5,531.2 775.5,533.4 777.4,536.0 779.3,538.8 781.2,541.9 783.1,545.1 785.1,548.4 787.0,551.8
788.9,555.3 790.8,558.8 792.7,562.3 794.7,565.7 796.6,569.1 798.5,572.3 800.4,575.5 802.4,578.5 804.3,581.3 806.2,584.0 808.1,586.5 810.0,588.9 812.0,591.1 813.9,593.1 815.8,595.0 817.7,596.7
819.6,598.3 821.6,599.7 823.5,601.0 825.4,602.2 827.3,603.2 829.2,604.2 831.2,605.1 833.1,605.9 835.0,606.6 836.9,607.3 838.8,608.0 840.8,608.6 842.7,609.2 844.6,609.8 846.5,610.5 848.4,611.2
850.4,611.9 852.3,612.7 854.2,613.6 856.1,614.6 858.0,615.6 860.0,616.8 861.9,618.0 863.8,619.4 865.7,620.8 867.6,622.3 869.6,623.9 871.5,625.5 873.4,627.2 875.3,628.9 877.2,630.7 879.2,632.4
881.1,634.0 883.0,635.7 884.9,637.2 886.9,638.7 888.8,640.1 890.7,641.4 892.6,642.6 894.5,643.6 896.5,644.5 898.4,645.3 900.3,646.0 902.2,646.5 904.1,646.9 906.1,647.2 908.0,647.4 909.9,647.5
911.8,647.6 913.7,647.5 915.7,647.4 917.6,647.3 919.5,647.1 921.4,647.0 923.3,646.8 923.3,662.4 921.4,662.4 919.5,662.4 917.6,662.4 915.7,662.4 913.7,662.4 911.8,662.4 909.9,662.4 908.0,662.4
906.1,662.4 904.1,662.4 902.2,662.4 900.3,662.4 898.4,662.4 896.5,662.4 894.5,662.4 892.6,662.4 890.7,662.4 888.8,662.4 886.9,662.4 884.9,662.4 883.0,662.4 881.1,662.4 879.2,662.4 877.2,662.4
875.3,662.4 873.4,662.4 871.5,662.4 869.6,662.4 867.6,662.4 865.7,662.4 863.8,662.4 861.9,662.4 860.0,662.4 858.0,662.4 856.1,662.4 854.2,662.4 852.3,662.4 850.4,662.4 848.4,662.4 846.5,662.4
844.6,662.4 842.7,662.4 840.8,662.4 838.8,662.4 836.9,662.4 835.0,662.4 833.1,662.4 831.2,662.4 829.2,662.4 827.3,662.4 825.4,662.4 823.5,662.4 821.6,662.4 819.6,662.4 817.7,662.4 815.8,662.4
813.9,662.4 812.0,662.4 810.0,662.4 808.1,662.4 806.2,662.4 804.3,662.4 802.4,662.4 800.4,662.4 798.5,662.4 796.6,662.4 794.7,662.4 792.7,662.4 790.8,662.4 788.9,662.4 787.0,662.4 785.1,662.4
783.1,662.4 781.2,662.4 779.3,662.4 777.4,662.4 775.5,662.4 773.5,662.4 771.6,662.4 769.7,662.4 767.8,662.4 765.9,662.4 763.9,662.4 762.0,662.4 760.1,662.4 758.2,662.4 756.3,662.4 754.3,662.4
752.4,662.4 750.5,662.4 748.6,662.4 746.7,662.4 744.7,662.4 742.8,662.4 740.9,662.4 739.0,662.4 737.1,662.4 735.1,662.4 733.2,662.4 731.3,662.4 729.4,662.4 727.5,662.4 725.5,662.4 723.6,662.4
721.7,662.4 719.8,662.4 717.9,662.4 715.9,662.4 714.0,662.4 712.1,662.4 710.2,662.4 708.2,662.4 706.3,662.4 704.4,662.4 702.5,662.4 700.6,662.4 698.6,662.4 696.7,662.4 694.8,662.4 692.9,662.4
691.0,662.4 689.0,662.4 687.1,662.4 685.2,662.4 683.3,662.4 681.4,662.4 679.4,662.4 677.5,662.4 675.6,662.4 673.7,662.4 671.8,662.4 669.8,662.4 667.9,662.4 666.0,662.4 664.1,662.4 662.2,662.4
660.2,662.4 658.3,662.4 656.4,662.4 654.5,662.4 652.6,662.4 650.6,662.4 648.7,662.4 646.8,662.4 644.9,662.4 643.0,662.4 641.0,662.4 639.1,662.4 637.2,662.4 635.3,662.4 633.4,662.4 631.4,662.4
629.5,662.4 627.6,662.4 625.7,662.4 623.8,662.4 621.8,662.4 619.9,662.4 618.0,662.4 616.1,662.4 614.1,662.4 612.2,662.4 610.3,662.4 608.4,662.4 606.5,662.4 604.5,662.4 602.6,662.4 600.7,662.4
598.8,662.4 596.9,662.4 594.9,662.4 593.0,662.4 591.1,662.4 589.2,662.4 587.3,662.4 585.3,662.4 583.4,662.4 581.5,662.4 579.6,662.4 577.7,662.4 575.7,662.4 573.8,662.4 571.9,662.4 570.0,662.4
568.1,662.4 566.1,662.4 564.2,662.4 562.3,662.4 560.4,662.4 558.5,662.4 556.5,662.4 554.6,662.4 552.7,662.4 550.8,662.4 548.9,662.4 546.9,662.4 545.0,662.4 543.1,662.4 541.2,662.4 539.3,662.4
537.3,662.4 535.4,662.4 533.5,662.4 531.6,662.4 529.6,662.4 527.7,662.4 525.8,662.4 523.9,662.4 522.0,662.4 520.0,662.4 518.1,662.4 516.2,662.4 514.3,662.4 512.4,662.4 510.4,662.4 508.5,662.4
506.6,662.4 504.7,662.4 502.8,662.4 500.8,662.4 498.9,662.4 497.0,662.4 495.1,662.4 493.2,662.4 491.2,662.4 489.3,662.4 487.4,662.4 485.5,662.4 483.6,662.4 481.6,662.4 479.7,662.4 477.8,662.4
475.9,662.4 474.0,662.4 472.0,662.4 470.1,662.4 468.2,662.4 466.3,662.4 464.4,662.4 462.4,662.4 460.5,662.4 458.6,662.4 456.7,662.4 454.8,662.4 452.8,662.4 450.9,662.4 449.0,662.4 447.1,662.4
445.1,662.4 443.2,662.4 441.3,662.4 439.4,662.4 437.5,662.4 435.5,662.4 433.6,662.4 431.7,662.4 429.8,662.4 427.9,662.4 425.9,662.4 424.0,662.4 422.1,662.4 420.2,662.4 418.3,662.4 416.3,662.4
414.4,662.4 412.5,662.4 410.6,662.4 408.7,662.4 406.7,662.4 404.8,662.4 402.9,662.4 401.0,662.4 399.1,662.4 397.1,662.4 395.2,662.4 393.3,662.4 391.4,662.4 389.5,662.4 387.5,662.4 385.6,662.4
383.7,662.4 381.8,662.4 379.9,662.4 377.9,662.4 376.0,662.4 374.1,662.4 372.2,662.4 370.3,662.4 368.3,662.4 366.4,662.4 364.5,662.4 362.6,662.4 360.7,662.4 358.7,662.4 356.8,662.4 354.9,662.4
353.0,662.4 351.0,662.4 349.1,662.4 347.2,662.4 345.3,662.4 343.4,662.4 341.4,662.4 339.5,662.4 337.6,662.4 335.7,662.4 333.8,662.4 331.8,662.4 329.9,662.4 328.0,662.4 326.1,662.4 324.2,662.4
322.2,662.4 320.3,662.4 318.4,662.4 316.5,662.4 314.6,662.4 312.6,662.4 310.7,662.4 308.8,662.4 306.9,662.4 305.0,662.4 303.0,662.4 301.1,662.4 299.2,662.4 297.3,662.4 295.4,662.4 293.4,662.4
291.5,662.4 289.6,662.4 287.7,662.4 285.8,662.4 283.8,662.4 281.9,662.4 280.0,662.4 278.1,662.4 276.2,662.4 274.2,662.4 272.3,662.4 270.4,662.4 268.5,662.4 266.5,662.4 264.6,662.4 262.7,662.4
260.8,662.4 258.9,662.4 256.9,662.4 255.0,662.4 253.1,662.4 251.2,662.4 249.3,662.4 247.3,662.4 245.4,662.4 243.5,662.4 241.6,662.4 239.7,662.4 237.7,662.4 235.8,662.4 233.9,662.4 232.0,662.4
230.1,662.4 228.1,662.4 226.2,662.4 224.3,662.4 222.4,662.4 220.5,662.4 218.5,662.4 216.6,662.4 214.7,662.4 212.8,662.4 210.9,662.4 208.9,662.4 207.0,662.4 205.1,662.4 203.2,662.4 201.3,662.4
199.3,662.4 197.4,662.4 195.5,662.4 193.6,662.4 191.7,662.4 189.7,662.4 187.8,662.4 185.9,662.4 184.0,662.4 182.0,662.4 180.1,662.4 178.2,662.4 176.3,662.4 174.4,662.4 172.4,662.4 170.5,662.4
168.6,662.4 166.7,662.4 164.8,662.4 162.8,662.4 160.9,662.4 159.0,662.4 157.1,662.4 155.2,662.4 153.2,662.4 151.3,662.4 149.4,662.4 147.5,662.4 145.6,662.4 143.6,662.4 '/>
	</g>
</g>
	</g>
	<g id="gnuplot_plot_3" ><title>Point estimate</title>
<g fill="none" color="white" stroke="rgb( 31, 120, 180)" stroke-width="2.00" stroke-linecap="butt" stroke-linejoin="miter">
</g>
<g fill="none" color="black" stroke="currentColor" stroke-width="2.00" stroke-linecap="butt" stroke-linejoin="miter">
	<g transform="translate(1089.0,103.0)" stroke="none" fill="black" font-family="Helvetica" font-size="12.00"  text-anchor="start">
		<text><tspan font-family="Helvetica" >Point estimate</tspan></text>
	</g>
</g>
<g fill="none" color="black" stroke="currentColor" stroke-width="2.00" stroke-linecap="butt" stroke-linejoin="miter">
	<path stroke='rgb( 31, 120, 180)'  d='M1038.5,99.1 L1080.7,99.1 M344.1,662.4 L344.1,433.7  '/></g>
	</g>
<g fill="none" color="black" stroke="currentColor" stroke-width="2.00" stroke-linecap="butt" stroke-linejoin="miter">
</g>
<g fill="none" color="black" stroke="black" stroke-width="1.00" stroke-linecap="butt" stroke-linejoin="miter">
</g>
<g fill="none" color="black" stroke="currentColor" stroke-width="1.00" stroke-linecap="butt" stroke-linejoin="miter">
	<path stroke='black'  d='M55.3,54.1 L55.3,662.4 L1013.6,662.4 L1013.6,54.1 L55.3,54.1 Z  '/></g>
<g fill="none" color="black" stroke="currentColor" stroke-width="1.00" stroke-linecap="butt" stroke-linejoin="miter">
</g>
</g>
</svg>

