<?xml version="1.0" encoding="utf-8"  standalone="no"?>
<svg 
 viewBox="0 0 1280 720"
 xmlns="http://www.w3.org/2000/svg"
 xmlns:xlink="http://www.w3.org/1999/xlink"
>

<title>Gnuplot</title>
<desc>Produced by GNUPLOT 5.2 patchlevel 8 </desc>

<g id="gnuplot_canvas">

<rect x="0" y="0" width="1280" height="720" fill="none"/>
<defs>

	<circle id='gpDot' r='0.5' stroke-width='0.5' stroke='currentColor'/>
	<path id='gpPt0' stroke-width='0.222' stroke='currentColor' d='M-1,0 h2 M0,-1 v2'/>
	<path id='gpPt1' stroke-width='0.222' stroke='currentColor' d='M-1,-1 L1,1 M1,-1 L-1,1'/>
	<path id='gpPt2' stroke-width='0.222' stroke='currentColor' d='M-1,0 L1,0 M0,-1 L0,1 M-1,-1 L1,1 M-1,1 L1,-1'/>
	<rect id='gpPt3' stroke-width='0.222' stroke='currentColor' x='-1' y='-1' width='2' height='2'/>
	<rect id='gpPt4' stroke-width='0.222' stroke='currentColor' fill='currentColor' x='-1' y='-1' width='2' height='2'/>
	<circle id='gpPt5' stroke-width='0.222' stroke='currentColor' cx='0' cy='0' r='1'/>
	<use xlink:href='#gpPt5' id='gpPt6' fill='currentColor' stroke='none'/>
	<path id='gpPt7' stroke-width='0.222' stroke='currentColor' d='M0,-1.33 L-1.33,0.67 L1.33,0.67 z'/>
	<use xlink:href='#gpPt7' id='gpPt8' fill='currentColor' stroke='none'/>
	<use xlink:href='#gpPt7' id='gpPt9' stroke='currentColor' transform='rotate(180)'/>
	<use xlink:href='#gpPt9' id='gpPt10' fill='currentColor' stroke='none'/>
	<use xlink:href='#gpPt3' id='gpPt11' stroke='currentColor' transform='rotate(45)'/>
	<use xlink:href='#gpPt11' id='gpPt12' fill='currentColor' stroke='none'/>
	<path id='gpPt13' stroke-width='0.222' stroke='currentColor' d='M0,1.330 L1.265,0.411 L0.782,-1.067 L-0.782,-1.076 L-1.265,0.411 z'/>
	<use xlink:href='#gpPt13' id='gpPt14' fill='currentColor' stroke='none'/>
	<filter id='textbox' filterUnits='objectBoundingBox' x='0' y='0' height='1' width='1'>
	  <feFlood flood-color='white' flood-opacity='1' result='bgnd'/>
	  <feComposite in='SourceGraphic' in2='bgnd' operator='atop'/>
	</filter>
	<filter id='greybox' filterUnits='objectBoundingBox' x='0' y='0' height='1' width='1'>
	  <feFlood flood-color='lightgrey' flood-opacity='1' result='grey'/>
	  <feComposite in='SourceGraphic' in2='grey' operator='atop'/>
	</filter>
</defs>
<g fill="none" color="white" stroke="currentColor" stroke-width="1.00" stroke-linecap="butt" stroke-linejoin="miter">
</g>
<g fill="none" color="black" stroke="currentColor" stroke-width="1.00" stroke-linecap="butt" stroke-linejoin="miter">
	<path stroke='black'  d='M88.5,662.4 L97.5,662.4  '/>	<g transform="translate(80.2,666.3)" stroke="none" fill="black" font-family="Helvetica" font-size="12.00"  text-anchor="end">
		<text><tspan font-family="Helvetica" > 0</tspan></text>
	</g>
</g>
<g fill="none" color="black" stroke="currentColor" stroke-width="1.00" stroke-linecap="butt" stroke-linejoin="miter">
	<path stroke='black'  d='M88.5,561.0 L97.5,561.0  '/>	<g transform="translate(80.2,564.9)" stroke="none" fill="black" font-family="Helvetica" font-size="12.00"  text-anchor="end">
		<text><tspan font-family="Helvetica" > 0.002</tspan></text>
	</g>
</g>
<g fill="none" color="black" stroke="currentColor" stroke-width="1.00" stroke-linecap="butt" stroke-linejoin="miter">
	<path stroke='black'  d='M88.5,459.6 L97.5,459.6  '/>	<g transform="translate(80.2,463.5)" stroke="none" fill="black" font-family="Helvetica" font-size="12.00"  text-anchor="end">
		<text><tspan font-family="Helvetica" > 0.004</tspan></text>
	</g>
</g>
<g fill="none" color="black" stroke="currentColor" stroke-width="1.00" stroke-linecap="butt" stroke-linejoin="miter">
	<path stroke='black'  d='M88.5,358.2 L97.5,358.2  '/>	<g transform="translate(80.2,362.1)" stroke="none" fill="black" font-family="Helvetica" font-size="12.00"  text-anchor="end">
		<text><tspan font-family="Helvetica" > 0.006</tspan></text>
	</g>
</g>
<g fill="none" color="black" stroke="currentColor" stroke-width="1.00" stroke-linecap="butt" stroke-linejoin="miter">
	<path stroke='black'  d='M88.5,256.9 L97.5,256.9  '/>	<g transform="translate(80.2,260.8)" stroke="none" fill="black" font-family="Helvetica" font-size="12.00"  text-anchor="end">
		<text><tspan font-family="Helvetica" > 0.008</tspan></text>
	</g>
</g>
<g fill="none" color="black" stroke="currentColor" stroke-width="1.00" stroke-linecap="butt" stroke-linejoin="miter">
	<path stroke='black'  d='M88.5,155.5 L97.5,155.5  '/>	<g transform="translate(80.2,159.4)" stroke="none" fill="black" font-family="Helvetica" font-size="12.00"  text-anchor="end">
		<text><tspan font-family="Helvetica" > 0.01</tspan></text>
	</g>
</g>
<g fill="none" color="black" stroke="currentColor" stroke-width="1.00" stroke-linecap="butt" stroke-linejoin="miter">
	<path stroke='black'  d='M88.5,54.1 L97.5,54.1  '/>	<g transform="translate(80.2,58.0)" stroke="none" fill="black" font-family="Helvetica" font-size="12.00"  text-anchor="end">
		<text><tspan font-family="Helvetica" > 0.012</tspan></text>
	</g>
</g>
<g fill="none" color="black" stroke="currentColor" stroke-width="1.00" stroke-linecap="butt" stroke-linejoin="miter">
	<path stroke='black'  d='M149.9,662.4 L149.9,653.4  '/>	<g transform="translate(149.9,684.3)" stroke="none" fill="black" font-family="Helvetica" font-size="12.00"  text-anchor="middle">
		<text><tspan font-family="Helvetica" > 160</tspan></text>
	</g>
</g>
<g fill="none" color="black" stroke="currentColor" stroke-width="1.00" stroke-linecap="butt" stroke-linejoin="miter">
	<path stroke='black'  d='M261.5,662.4 L261.5,653.4  '/>	<g transform="translate(261.5,684.3)" stroke="none" fill="black" font-family="Helvetica" font-size="12.00"  text-anchor="middle">
		<text><tspan font-family="Helvetica" > 180</tspan></text>
	</g>
</g>
<g fill="none" color="black" stroke="currentColor" stroke-width="1.00" stroke-linecap="butt" stroke-linejoin="miter">
	<path stroke='black'  d='M373.1,662.4 L373.1,653.4  '/>	<g transform="translate(373.1,684.3)" stroke="none" fill="black" font-family="Helvetica" font-size="12.00"  text-anchor="middle">
		<text><tspan font-family="Helvetica" > 200</tspan></text>
	</g>
</g>
<g fill="none" color="black" stroke="currentColor" stroke-width="1.00" stroke-linecap="butt" stroke-linejoin="miter">
	<path stroke='black'  d='M484.7,662.4 L484.7,653.4  '/>	<g transform="translate(484.7,684.3)" stroke="none" fill="black" font-family="Helvetica" font-size="12.00"  text-anchor="middle">
		<text><tspan font-family="Helvetica" > 220</tspan></text>
	</g>
</g>
<g fill="none" color="black" stroke="currentColor" stroke-width="1.00" stroke-linecap="butt" stroke-linejoin="miter">
	<path stroke='black'  d='M596.4,662.4 L596.4,653.4  '/>	<g transform="translate(596.4,684.3)" stroke="none" fill="black" font-family="Helvetica" font-size="12.00"  text-anchor="middle">
		<text><tspan font-family="Helvetica" > 240</tspan></text>
	</g>
</g>
<g fill="none" color="black" stroke="currentColor" stroke-width="1.00" stroke-linecap="butt" stroke-linejoin="miter">
	<path stroke='black'  d='M708.0,662.4 L708.0,653.4  '/>	<g transform="translate(708.0,684.3)" stroke="none" fill="black" font-family="Helvetica" font-size="12.00"  text-anchor="middle">
		<text><tspan font-family="Helvetica" > 260</tspan></text>
	</g>
</g>
<g fill="none" color="black" stroke="currentColor" stroke-width="1.00" stroke-linecap="butt" stroke-linejoin="miter">
	<path stroke='black'  d='M819.6,662.4 L819.6,653.4  '/>	<g transform="translate(819.6,684.3)" stroke="none" fill="black" font-family="Helvetica" font-size="12.00"  text-anchor="middle">
		<text><tspan font-family="Helvetica" > 280</tspan></text>
	</g>
</g>
<g fill="none" color="black" stroke="currentColor" stroke-width="1.00" stroke-linecap="butt" stroke-linejoin="miter">
	<path stroke='black'  d='M931.2,662.4 L931.2,653.4  '/>	<g transform="translate(931.2,684.3)" stroke="none" fill="black" font-family="Helvetica" font-size="12.00"  text-anchor="middle">
		<text><tspan font-family="Helvetica" > 300</tspan></text>
	</g>
</g>
<g fill="none" color="black" stroke="currentColor" stroke-width="1.00" stroke-linecap="butt" stroke-linejoin="miter">
</g>
<g fill="none" color="black" stroke="currentColor" stroke-width="1.00" stroke-linecap="butt" stroke-linejoin="miter">
	<path stroke='black'  d='M88.5,54.1 L88.5,662.4 L1013.6,662.4 L1013.6,54.1 L88.5,54.1 Z  '/></g>
<g fill="none" color="black" stroke="currentColor" stroke-width="1.00" stroke-linecap="butt" stroke-linejoin="miter">
	<g transform="translate(19.0,358.3) rotate(270)" stroke="none" fill="black" font-family="Helvetica" font-size="12.00"  text-anchor="middle">
		<text><tspan font-family="Helvetica" >Density (a.u.)</tspan></text>
	</g>
</g>
<g fill="none" color="black" stroke="currentColor" stroke-width="1.00" stroke-linecap="butt" stroke-linejoin="miter">
	<g transform="translate(551.0,711.3)" stroke="none" fill="black" font-family="Helvetica" font-size="12.00"  text-anchor="middle">
		<text><tspan font-family="Helvetica" >Average time (ns)</tspan></text>
	</g>
</g>
<g fill="none" color="black" stroke="currentColor" stroke-width="1.00" stroke-linecap="butt" stroke-linejoin="miter">
	<g transform="translate(551.0,31.0)" stroke="none" fill="black" font-family="Helvetica" font-size="12.00"  text-anchor="middle">
		<text><tspan font-family="Helvetica" >bench_group/blake3/163840: SD</tspan></text>
	</g>
</g>
<g fill="none" color="black" stroke="currentColor" stroke-width="1.00" stroke-linecap="butt" stroke-linejoin="miter">
</g>
	<g id="gnuplot_plot_1" ><title>Bootstrap distribution</title>
<g fill="none" color="white" stroke="currentColor" stroke-width="2.00" stroke-linecap="butt" stroke-linejoin="miter">
</g>
<g fill="none" color="black" stroke="currentColor" stroke-width="2.00" stroke-linecap="butt" stroke-linejoin="miter">
	<g transform="translate(1089.0,67.0)" stroke="none" fill="black" font-family="Helvetica" font-size="12.00"  text-anchor="start">
		<text><tspan font-family="Helvetica" >Bootstrap distribution</tspan></text>
	</g>
</g>
<g fill="none" color="black" stroke="currentColor" stroke-width="2.00" stroke-linecap="butt" stroke-linejoin="miter">
	<path stroke='rgb( 31, 120, 180)'  d='M1038.5,63.1 L1080.7,63.1 M88.5,628.3 L90.4,627.3 L92.2,626.3 L94.1,625.3 L95.9,624.3 L97.8,623.2
		L99.6,622.1 L101.5,621.0 L103.3,619.8 L105.2,618.6 L107.0,617.4 L108.9,616.1 L110.7,614.8 L112.6,613.5
		L114.5,612.1 L116.3,610.7 L118.2,609.2 L120.0,607.8 L121.9,606.2 L123.7,604.7 L125.6,603.1 L127.4,601.5
		L129.3,599.9 L131.1,598.2 L133.0,596.5 L134.8,594.8 L136.7,593.0 L138.6,591.3 L140.4,589.5 L142.3,587.6
		L144.1,585.8 L146.0,583.9 L147.8,582.0 L149.7,580.1 L151.5,578.1 L153.4,576.2 L155.2,574.2 L157.1,572.1
		L158.9,570.1 L160.8,568.1 L162.7,566.0 L164.5,563.9 L166.4,561.8 L168.2,559.6 L170.1,557.5 L171.9,555.3
		L173.8,553.1 L175.6,550.9 L177.5,548.6 L179.3,546.3 L181.2,544.1 L183.0,541.7 L184.9,539.4 L186.8,537.0
		L188.6,534.7 L190.5,532.2 L192.3,529.8 L194.2,527.3 L196.0,524.8 L197.9,522.3 L199.7,519.7 L201.6,517.2
		L203.4,514.5 L205.3,511.9 L207.2,509.2 L209.0,506.5 L210.9,503.8 L212.7,501.1 L214.6,498.3 L216.4,495.5
		L218.3,492.7 L220.1,489.9 L222.0,487.0 L223.8,484.1 L225.7,481.2 L227.5,478.3 L229.4,475.4 L231.3,472.4
		L233.1,469.4 L235.0,466.4 L236.8,463.3 L238.7,460.3 L240.5,457.2 L242.4,454.1 L244.2,451.0 L246.1,447.8
		L247.9,444.7 L249.8,441.5 L251.6,438.3 L253.5,435.1 L255.4,431.9 L257.2,428.7 L259.1,425.5 L260.9,422.2
		L262.8,419.0 L264.6,415.8 L266.5,412.5 L268.3,409.3 L270.2,406.1 L272.0,402.8 L273.9,399.6 L275.7,396.4
		L277.6,393.1 L279.5,389.9 L281.3,386.6 L283.2,383.4 L285.0,380.1 L286.9,376.8 L288.7,373.5 L290.6,370.2
		L292.4,366.9 L294.3,363.5 L296.1,360.2 L298.0,356.8 L299.8,353.5 L301.7,350.1 L303.6,346.7 L305.4,343.3
		L307.3,339.9 L309.1,336.4 L311.0,333.0 L312.8,329.6 L314.7,326.1 L316.5,322.7 L318.4,319.2 L320.2,315.8
		L322.1,312.3 L323.9,308.9 L325.8,305.5 L327.7,302.0 L329.5,298.6 L331.4,295.2 L333.2,291.8 L335.1,288.5
		L336.9,285.1 L338.8,281.8 L340.6,278.5 L342.5,275.2 L344.3,271.9 L346.2,268.7 L348.0,265.5 L349.9,262.3
		L351.8,259.1 L353.6,256.0 L355.5,252.9 L357.3,249.8 L359.2,246.7 L361.0,243.7 L362.9,240.7 L364.7,237.8
		L366.6,234.9 L368.4,232.1 L370.3,229.3 L372.1,226.5 L374.0,223.9 L375.9,221.3 L377.7,218.7 L379.6,216.3
		L381.4,213.9 L383.3,211.5 L385.1,209.3 L387.0,207.1 L388.8,204.9 L390.7,202.8 L392.5,200.8 L394.4,198.7
		L396.2,196.7 L398.1,194.7 L400.0,192.7 L401.8,190.7 L403.7,188.7 L405.5,186.6 L407.4,184.5 L409.2,182.4
		L411.1,180.3 L412.9,178.1 L414.8,175.9 L416.6,173.7 L418.5,171.4 L420.3,169.0 L422.2,166.7 L424.1,164.3
		L425.9,161.9 L427.8,159.5 L429.6,157.1 L431.5,154.7 L433.3,152.3 L435.2,149.9 L437.0,147.5 L438.9,145.1
		L440.7,142.8 L442.6,140.5 L444.5,138.2 L446.3,136.0 L448.2,133.8 L450.0,131.7 L451.9,129.6 L453.7,127.6
		L455.6,125.7 L457.4,123.8 L459.3,121.9 L461.1,120.2 L463.0,118.5 L464.8,116.8 L466.7,115.3 L468.6,113.7
		L470.4,112.3 L472.3,110.8 L474.1,109.4 L476.0,108.1 L477.8,106.8 L479.7,105.5 L481.5,104.2 L483.4,103.0
		L485.2,101.8 L487.1,100.6 L488.9,99.5 L490.8,98.4 L492.7,97.3 L494.5,96.3 L496.4,95.3 L498.2,94.4
		L500.1,93.5 L501.9,92.7 L503.8,92.0 L505.6,91.3 L507.5,90.7 L509.3,90.2 L511.2,89.8 L513.0,89.5
		L514.9,89.2 L516.8,89.1 L518.6,89.0 L520.5,89.1 L522.3,89.2 L524.2,89.4 L526.0,89.7 L527.9,90.1
		L529.7,90.6 L531.6,91.2 L533.4,91.9 L535.3,92.6 L537.1,93.5 L539.0,94.4 L540.9,95.4 L542.7,96.5
		L544.6,97.7 L546.4,98.9 L548.3,100.3 L550.1,101.7 L552.0,103.2 L553.8,104.8 L555.7,106.4 L557.5,108.1
		L559.4,109.9 L561.2,111.7 L563.1,113.6 L565.0,115.6 L566.8,117.6 L568.7,119.6 L570.5,121.7 L572.4,123.8
		L574.2,125.9 L576.1,128.0 L577.9,130.2 L579.8,132.3 L581.6,134.5 L583.5,136.6 L585.3,138.8 L587.2,140.9
		L589.1,143.0 L590.9,145.1 L592.8,147.2 L594.6,149.2 L596.5,151.2 L598.3,153.1 L600.2,155.0 L602.0,156.9
		L603.9,158.7 L605.7,160.5 L607.6,162.2 L609.4,163.9 L611.3,165.5 L613.2,167.2 L615.0,168.7 L616.9,170.3
		L618.7,171.8 L620.6,173.3 L622.4,174.9 L624.3,176.4 L626.1,177.9 L628.0,179.4 L629.8,181.0 L631.7,182.5
		L633.5,184.1 L635.4,185.8 L637.3,187.5 L639.1,189.3 L641.0,191.1 L642.8,193.0 L644.7,194.9 L646.5,197.0
		L648.4,199.1 L650.2,201.3 L652.1,203.6 L653.9,205.9 L655.8,208.4 L657.6,210.9 L659.5,213.5 L661.4,216.2
		L663.2,218.9 L665.1,221.7 L666.9,224.5 L668.8,227.3 L670.6,230.2 L672.5,233.1 L674.3,236.1 L676.2,239.0
		L678.0,242.0 L679.9,244.9 L681.8,247.8 L683.6,250.8 L685.5,253.7 L687.3,256.6 L689.2,259.4 L691.0,262.3
		L692.9,265.1 L694.7,268.0 L696.6,270.8 L698.4,273.6 L700.3,276.5 L702.1,279.3 L704.0,282.1 L705.9,285.0
		L707.7,287.8 L709.6,290.7 L711.4,293.6 L713.3,296.5 L715.1,299.4 L717.0,302.4 L718.8,305.4 L720.7,308.4
		L722.5,311.5 L724.4,314.5 L726.2,317.6 L728.1,320.7 L730.0,323.9 L731.8,327.0 L733.7,330.2 L735.5,333.4
		L737.4,336.6 L739.2,339.9 L741.1,343.1 L742.9,346.3 L744.8,349.6 L746.6,352.8 L748.5,356.1 L750.3,359.3
		L752.2,362.6 L754.1,365.8 L755.9,369.0 L757.8,372.2 L759.6,375.4 L761.5,378.5 L763.3,381.7 L765.2,384.8
		L767.0,387.8 L768.9,390.8 L770.7,393.8 L772.6,396.8 L774.4,399.7 L776.3,402.5 L778.2,405.3 L780.0,408.1
		L781.9,410.8 L783.7,413.5 L785.6,416.1 L787.4,418.6 L789.3,421.2 L791.1,423.6 L793.0,426.1 L794.8,428.5
		L796.7,430.9 L798.5,433.3 L800.4,435.7 L802.3,438.0 L804.1,440.4 L806.0,442.7 L807.8,445.1 L809.7,447.4
		L811.5,449.8 L813.4,452.1 L815.2,454.5 L817.1,456.9 L818.9,459.3 L820.8,461.8 L822.6,464.2 L824.5,466.7
		L826.4,469.1 L828.2,471.6 L830.1,474.1 L831.9,476.6 L833.8,479.1 L835.6,481.6 L837.5,484.1 L839.3,486.6
		L841.2,489.1 L843.0,491.6 L844.9,494.0 L846.7,496.5 L848.6,498.9 L850.5,501.4 L852.3,503.8 L854.2,506.1
		L856.0,508.5 L857.9,510.8 L859.7,513.1 L861.6,515.3 L863.4,517.5 L865.3,519.6 L867.1,521.7 L869.0,523.8
		L870.8,525.8 L872.7,527.7 L874.6,529.6 L876.4,531.5 L878.3,533.4 L880.1,535.2 L882.0,537.0 L883.8,538.7
		L885.7,540.5 L887.5,542.2 L889.4,544.0 L891.2,545.7 L893.1,547.5 L894.9,549.2 L896.8,551.0 L898.7,552.7
		L900.5,554.5 L902.4,556.3 L904.2,558.0 L906.1,559.8 L907.9,561.6 L909.8,563.3 L911.6,565.1 L913.5,566.8
		L915.3,568.5 L917.2,570.2 L919.1,571.8 L920.9,573.4 L922.8,575.0 L924.6,576.6 L926.5,578.1 L928.3,579.6
		L930.2,581.1 L932.0,582.6 L933.9,584.0 L935.7,585.4 L937.6,586.8 L939.4,588.1 L941.3,589.5 L943.2,590.9
		L945.0,592.2 L946.9,593.5 L948.7,594.8 L950.6,596.2 L952.4,597.5 L954.3,598.8 L956.1,600.1 L958.0,601.4
		L959.8,602.7 L961.7,603.9 L963.5,605.2 L965.4,606.4 L967.3,607.6 L969.1,608.8 L971.0,610.0 L972.8,611.1
		L974.7,612.2 L976.5,613.3 L978.4,614.3 L980.2,615.3 L982.1,616.2 L983.9,617.1 L985.8,618.0 L987.6,618.8
		L989.5,619.6 L991.4,620.4 L993.2,621.1 L995.1,621.8 L996.9,622.5 L998.8,623.1 L1000.6,623.8 L1002.5,624.4
		L1004.3,625.0 L1006.2,625.6 L1008.0,626.1 L1009.9,626.7 L1011.7,627.3 L1013.6,627.9  '/></g>
	</g>
	<g id="gnuplot_plot_2" ><title>Confidence interval</title>
<g fill="none" color="white" stroke="rgb( 31, 120, 180)" stroke-width="1.00" stroke-linecap="butt" stroke-linejoin="miter">
</g>
<g fill="none" color="black" stroke="currentColor" stroke-width="1.00" stroke-linecap="butt" stroke-linejoin="miter">
	<g transform="translate(1089.0,85.0)" stroke="none" fill="black" font-family="Helvetica" font-size="12.00"  text-anchor="start">
		<text><tspan font-family="Helvetica" >Confidence interval</tspan></text>
	</g>
</g>
<g fill="none" color="black" stroke="currentColor" stroke-width="1.00" stroke-linecap="butt" stroke-linejoin="miter">
	<g stroke='none' shape-rendering='crispEdges'>
		<polygon fill = 'rgb( 31, 120, 180)' fill-opacity = '0.250000' points = '1038.5,85.6 1080.7,85.6 1080.7,76.6 1038.5,76.6 '/>
		<polygon fill = 'rgb( 31, 120, 180)' fill-opacity = '0.250000' points = '173.8,553.1 175.6,550.9 177.5,548.6 179.3,546.3 181.2,544.1 183.0,541.7 184.9,539.4 186.8,537.0 188.6,534.7 190.5,532.2 192.3,529.8 194.2,527.3 196.0,524.8 197.9,522.3 199.7,519.7 201.6,517.2
203.4,514.5 205.3,511.9 207.2,509.2 209.0,506.5 210.9,503.8 212.7,501.1 214.6,498.3 216.4,495.5 218.3,492.7 220.1,489.9 222.0,487.0 223.8,484.1 225.7,481.2 227.5,478.3 229.4,475.4 231.3,472.4
233.1,469.4 235.0,466.4 236.8,463.3 238.7,460.3 240.5,457.2 242.4,454.1 244.2,451.0 246.1,447.8 247.9,444.7 249.8,441.5 251.6,438.3 253.5,435.1 255.4,431.9 257.2,428.7 259.1,425.5 260.9,422.2
262.8,419.0 264.6,415.8 266.5,412.5 268.3,409.3 270.2,406.1 272.0,402.8 273.9,399.6 275.7,396.4 277.6,393.1 279.5,389.9 281.3,386.6 283.2,383.4 285.0,380.1 286.9,376.8 288.7,373.5 290.6,370.2
292.4,366.9 294.3,363.5 296.1,360.2 298.0,356.8 299.8,353.5 301.7,350.1 303.6,346.7 305.4,343.3 307.3,339.9 309.1,336.4 311.0,333.0 312.8,329.6 314.7,326.1 316.5,322.7 318.4,319.2 320.2,315.8
322.1,312.3 323.9,308.9 325.8,305.5 327.7,302.0 329.5,298.6 331.4,295.2 333.2,291.8 335.1,288.5 336.9,285.1 338.8,281.8 340.6,278.5 342.5,275.2 344.3,271.9 346.2,268.7 348.0,265.5 349.9,262.3
351.8,259.1 353.6,256.0 355.5,252.9 357.3,249.8 359.2,246.7 361.0,243.7 362.9,240.7 364.7,237.8 366.6,234.9 368.4,232.1 370.3,229.3 372.1,226.5 374.0,223.9 375.9,221.3 377.7,218.7 379.6,216.3
381.4,213.9 383.3,211.5 385.1,209.3 387.0,207.1 388.8,204.9 390.7,202.8 392.5,200.8 394.4,198.7 396.2,196.7 398.1,194.7 400.0,192.7 401.8,190.7 403.7,188.7 405.5,186.6 407.4,184.5 409.2,182.4
411.1,180.3 412.9,178.1 414.8,175.9 416.6,173.7 418.5,171.4 420.3,169.0 422.2,166.7 424.1,164.3 425.9,161.9 427.8,159.5 429.6,157.1 431.5,154.7 433.3,152.3 435.2,149.9 437.0,147.5 438.9,145.1
440.7,142.8 442.6,140.5 444.5,138.2 446.3,136.0 448.2,133.8 450.0,131.7 451.9,129.6 453.7,127.6 455.6,125.7 457.4,123.8 459.3,121.9 461.1,120.2 463.0,118.5 464.8,116.8 466.7,115.3 468.6,113.7
470.4,112.3 472.3,110.8 474.1,109.4 476.0,108.1 477.8,106.8 479.7,105.5 481.5,104.2 483.4,103.0 485.2,101.8 487.1,100.6 488.9,99.5 490.8,98.4 492.7,97.3 494.5,96.3 496.4,95.3 498.2,94.4
500.1,93.5 501.9,92.7 503.8,92.0 505.6,91.3 507.5,90.7 509.3,90.2 511.2,89.8 513.0,89.5 514.9,89.2 516.8,89.1 518.6,89.0 520.5,89.1 522.3,89.2 524.2,89.4 526.0,89.7 527.9,90.1
529.7,90.6 531.6,91.2 533.4,91.9 535.3,92.6 537.1,93.5 539.0,94.4 540.9,95.4 542.7,96.5 544.6,97.7 546.4,98.9 548.3,100.3 550.1,101.7 552.0,103.2 553.8,104.8 555.7,106.4 557.5,108.1
559.4,109.9 561.2,111.7 563.1,113.6 565.0,115.6 566.8,117.6 568.7,119.6 570.5,121.7 572.4,123.8 574.2,125.9 576.1,128.0 577.9,130.2 579.8,132.3 581.6,134.5 583.5,136.6 585.3,138.8 587.2,140.9
589.1,143.0 590.9,145.1 592.8,147.2 594.6,149.2 596.5,151.2 598.3,153.1 600.2,155.0 602.0,156.9 603.9,158.7 605.7,160.5 607.6,162.2 609.4,163.9 611.3,165.5 613.2,167.2 615.0,168.7 616.9,170.3
618.7,171.8 620.6,173.3 622.4,174.9 624.3,176.4 626.1,177.9 628.0,179.4 629.8,181.0 631.7,182.5 633.5,184.1 635.4,185.8 637.3,187.5 639.1,189.3 641.0,191.1 642.8,193.0 644.7,194.9 646.5,197.0
648.4,199.1 650.2,201.3 652.1,203.6 653.9,205.9 655.8,208.4 657.6,210.9 659.5,213.5 661.4,216.2 663.2,218.9 665.1,221.7 666.9,224.5 668.8,227.3 670.6,230.2 672.5,233.1 674.3,236.1 676.2,239.0
678.0,242.0 679.9,244.9 681.8,247.8 683.6,250.8 685.5,253.7 687.3,256.6 689.2,259.4 691.0,262.3 692.9,265.1 694.7,268.0 696.6,270.8 698.4,273.6 700.3,276.5 702.1,279.3 704.0,282.1 705.9,285.0
707.7,287.8 709.6,290.7 711.4,293.6 713.3,296.5 715.1,299.4 717.0,302.4 718.8,305.4 720.7,308.4 722.5,311.5 724.4,314.5 726.2,317.6 728.1,320.7 730.0,323.9 731.8,327.0 733.7,330.2 735.5,333.4
737.4,336.6 739.2,339.9 741.1,343.1 742.9,346.3 744.8,349.6 746.6,352.8 748.5,356.1 750.3,359.3 752.2,362.6 754.1,365.8 755.9,369.0 757.8,372.2 759.6,375.4 761.5,378.5 763.3,381.7 765.2,384.8
767.0,387.8 768.9,390.8 770.7,393.8 772.6,396.8 774.4,399.7 776.3,402.5 778.2,405.3 780.0,408.1 781.9,410.8 783.7,413.5 785.6,416.1 787.4,418.6 789.3,421.2 791.1,423.6 793.0,426.1 794.8,428.5
796.7,430.9 798.5,433.3 800.4,435.7 802.3,438.0 804.1,440.4 806.0,442.7 807.8,445.1 809.7,447.4 811.5,449.8 813.4,452.1 815.2,454.5 817.1,456.9 818.9,459.3 820.8,461.8 822.6,464.2 824.5,466.7
826.4,469.1 828.2,471.6 830.1,474.1 831.9,476.6 833.8,479.1 835.6,481.6 837.5,484.1 839.3,486.6 841.2,489.1 843.0,491.6 844.9,494.0 846.7,496.5 848.6,498.9 850.5,501.4 852.3,503.8 854.2,506.1
856.0,508.5 857.9,510.8 859.7,513.1 861.6,515.3 863.4,517.5 865.3,519.6 867.1,521.7 869.0,523.8 870.8,525.8 872.7,527.7 874.6,529.6 876.4,531.5 878.3,533.4 880.1,535.2 882.0,537.0 883.8,538.7
885.7,540.5 887.5,542.2 889.4,544.0 891.2,545.7 893.1,547.5 894.9,549.2 896.8,551.0 898.7,552.7 900.5,554.5 902.4,556.3 904.2,558.0 906.1,559.8 907.9,561.6 909.8,563.3 911.6,565.1 913.5,566.8
915.3,568.5 917.2,570.2 919.1,571.8 920.9,573.4 922.8,575.0 924.6,576.6 926.5,578.1 926.5,662.4 924.6,662.4 922.8,662.4 920.9,662.4 919.1,662.4 917.2,662.4 915.3,662.4 913.5,662.4 911.6,662.4
909.8,662.4 907.9,662.4 906.1,662.4 904.2,662.4 902.4,662.4 900.5,662.4 898.7,662.4 896.8,662.4 894.9,662.4 893.1,662.4 891.2,662.4 889.4,662.4 887.5,662.4 885.7,662.4 883.8,662.4 882.0,662.4
880.1,662.4 878.3,662.4 876.4,662.4 874.6,662.4 872.7,662.4 870.8,662.4 869.0,662.4 867.1,662.4 865.3,662.4 863.4,662.4 861.6,662.4 859.7,662.4 857.9,662.4 856.0,662.4 854.2,662.4 852.3,662.4
850.5,662.4 848.6,662.4 846.7,662.4 844.9,662.4 843.0,662.4 841.2,662.4 839.3,662.4 837.5,662.4 835.6,662.4 833.8,662.4 831.9,662.4 830.1,662.4 828.2,662.4 826.4,662.4 824.5,662.4 822.6,662.4
820.8,662.4 818.9,662.4 817.1,662.4 815.2,662.4 813.4,662.4 811.5,662.4 809.7,662.4 807.8,662.4 806.0,662.4 804.1,662.4 802.3,662.4 800.4,662.4 798.5,662.4 796.7,662.4 794.8,662.4 793.0,662.4
791.1,662.4 789.3,662.4 787.4,662.4 785.6,662.4 783.7,662.4 781.9,662.4 780.0,662.4 778.2,662.4 776.3,662.4 774.4,662.4 772.6,662.4 770.7,662.4 768.9,662.4 767.0,662.4 765.2,662.4 763.3,662.4
761.5,662.4 759.6,662.4 757.8,662.4 755.9,662.4 754.1,662.4 752.2,662.4 750.3,662.4 748.5,662.4 746.6,662.4 744.8,662.4 742.9,662.4 741.1,662.4 739.2,662.4 737.4,662.4 735.5,662.4 733.7,662.4
731.8,662.4 730.0,662.4 728.1,662.4 726.2,662.4 724.4,662.4 722.5,662.4 720.7,662.4 718.8,662.4 717.0,662.4 715.1,662.4 713.3,662.4 711.4,662.4 709.6,662.4 707.7,662.4 705.9,662.4 704.0,662.4
702.1,662.4 700.3,662.4 698.4,662.4 696.6,662.4 694.7,662.4 692.9,662.4 691.0,662.4 689.2,662.4 687.3,662.4 685.5,662.4 683.6,662.4 681.8,662.4 679.9,662.4 678.0,662.4 676.2,662.4 674.3,662.4
672.5,662.4 670.6,662.4 668.8,662.4 666.9,662.4 665.1,662.4 663.2,662.4 661.4,662.4 659.5,662.4 657.6,662.4 655.8,662.4 653.9,662.4 652.1,662.4 650.2,662.4 648.4,662.4 646.5,662.4 644.7,662.4
642.8,662.4 641.0,662.4 639.1,662.4 637.3,662.4 635.4,662.4 633.5,662.4 631.7,662.4 629.8,662.4 628.0,662.4 626.1,662.4 624.3,662.4 622.4,662.4 620.6,662.4 618.7,662.4 616.9,662.4 615.0,662.4
613.2,662.4 611.3,662.4 609.4,662.4 607.6,662.4 605.7,662.4 603.9,662.4 602.0,662.4 600.2,662.4 598.3,662.4 596.5,662.4 594.6,662.4 592.8,662.4 590.9,662.4 589.1,662.4 587.2,662.4 585.3,662.4
583.5,662.4 581.6,662.4 579.8,662.4 577.9,662.4 576.1,662.4 574.2,662.4 572.4,662.4 570.5,662.4 568.7,662.4 566.8,662.4 565.0,662.4 563.1,662.4 561.2,662.4 559.4,662.4 557.5,662.4 555.7,662.4
553.8,662.4 552.0,662.4 550.1,662.4 548.3,662.4 546.4,662.4 544.6,662.4 542.7,662.4 540.9,662.4 539.0,662.4 537.1,662.4 535.3,662.4 533.4,662.4 531.6,662.4 529.7,662.4 527.9,662.4 526.0,662.4
524.2,662.4 522.3,662.4 520.5,662.4 518.6,662.4 516.8,662.4 514.9,662.4 513.0,662.4 511.2,662.4 509.3,662.4 507.5,662.4 505.6,662.4 503.8,662.4 501.9,662.4 500.1,662.4 498.2,662.4 496.4,662.4
494.5,662.4 492.7,662.4 490.8,662.4 488.9,662.4 487.1,662.4 485.2,662.4 483.4,662.4 481.5,662.4 479.7,662.4 477.8,662.4 476.0,662.4 474.1,662.4 472.3,662.4 470.4,662.4 468.6,662.4 466.7,662.4
464.8,662.4 463.0,662.4 461.1,662.4 459.3,662.4 457.4,662.4 455.6,662.4 453.7,662.4 451.9,662.4 450.0,662.4 448.2,662.4 446.3,662.4 444.5,662.4 442.6,662.4 440.7,662.4 438.9,662.4 437.0,662.4
435.2,662.4 433.3,662.4 431.5,662.4 429.6,662.4 427.8,662.4 425.9,662.4 424.1,662.4 422.2,662.4 420.3,662.4 418.5,662.4 416.6,662.4 414.8,662.4 412.9,662.4 411.1,662.4 409.2,662.4 407.4,662.4
405.5,662.4 403.7,662.4 401.8,662.4 400.0,662.4 398.1,662.4 396.2,662.4 394.4,662.4 392.5,662.4 390.7,662.4 388.8,662.4 387.0,662.4 385.1,662.4 383.3,662.4 381.4,662.4 379.6,662.4 377.7,662.4
375.9,662.4 374.0,662.4 372.1,662.4 370.3,662.4 368.4,662.4 366.6,662.4 364.7,662.4 362.9,662.4 361.0,662.4 359.2,662.4 357.3,662.4 355.5,662.4 353.6,662.4 351.8,662.4 349.9,662.4 348.0,662.4
346.2,662.4 344.3,662.4 342.5,662.4 340.6,662.4 338.8,662.4 336.9,662.4 335.1,662.4 333.2,662.4 331.4,662.4 329.5,662.4 327.7,662.4 325.8,662.4 323.9,662.4 322.1,662.4 320.2,662.4 318.4,662.4
316.5,662.4 314.7,662.4 312.8,662.4 311.0,662.4 309.1,662.4 307.3,662.4 305.4,662.4 303.6,662.4 301.7,662.4 299.8,662.4 298.0,662.4 296.1,662.4 294.3,662.4 292.4,662.4 290.6,662.4 288.7,662.4
286.9,662.4 285.0,662.4 283.2,662.4 281.3,662.4 279.5,662.4 277.6,662.4 275.7,662.4 273.9,662.4 272.0,662.4 270.2,662.4 268.3,662.4 266.5,662.4 264.6,662.4 262.8,662.4 260.9,662.4 259.1,662.4
257.2,662.4 255.4,662.4 253.5,662.4 251.6,662.4 249.8,662.4 247.9,662.4 246.1,662.4 244.2,662.4 242.4,662.4 240.5,662.4 238.7,662.4 236.8,662.4 235.0,662.4 233.1,662.4 231.3,662.4 229.4,662.4
227.5,662.4 225.7,662.4 223.8,662.4 222.0,662.4 220.1,662.4 218.3,662.4 216.4,662.4 214.6,662.4 212.7,662.4 210.9,662.4 209.0,662.4 207.2,662.4 205.3,662.4 203.4,662.4 201.6,662.4 199.7,662.4
197.9,662.4 196.0,662.4 194.2,662.4 192.3,662.4 190.5,662.4 188.6,662.4 186.8,662.4 184.9,662.4 183.0,662.4 181.2,662.4 179.3,662.4 177.5,662.4 175.6,662.4 173.8,662.4 '/>
	</g>
</g>
	</g>
	<g id="gnuplot_plot_3" ><title>Point estimate</title>
<g fill="none" color="white" stroke="rgb( 31, 120, 180)" stroke-width="2.00" stroke-linecap="butt" stroke-linejoin="miter">
</g>
<g fill="none" color="black" stroke="currentColor" stroke-width="2.00" stroke-linecap="butt" stroke-linejoin="miter">
	<g transform="translate(1089.0,103.0)" stroke="none" fill="black" font-family="Helvetica" font-size="12.00"  text-anchor="start">
		<text><tspan font-family="Helvetica" >Point estimate</tspan></text>
	</g>
</g>
<g fill="none" color="black" stroke="currentColor" stroke-width="2.00" stroke-linecap="butt" stroke-linejoin="miter">
	<path stroke='rgb( 31, 120, 180)'  d='M1038.5,99.1 L1080.7,99.1 M556.1,662.4 L556.1,106.8  '/></g>
	</g>
<g fill="none" color="black" stroke="currentColor" stroke-width="2.00" stroke-linecap="butt" stroke-linejoin="miter">
</g>
<g fill="none" color="black" stroke="black" stroke-width="1.00" stroke-linecap="butt" stroke-linejoin="miter">
</g>
<g fill="none" color="black" stroke="currentColor" stroke-width="1.00" stroke-linecap="butt" stroke-linejoin="miter">
	<path stroke='black'  d='M88.5,54.1 L88.5,662.4 L1013.6,662.4 L1013.6,54.1 L88.5,54.1 Z  '/></g>
<g fill="none" color="black" stroke="currentColor" stroke-width="1.00" stroke-linecap="butt" stroke-linejoin="miter">
</g>
</g>
</svg>

