<?xml version="1.0" encoding="utf-8"  standalone="no"?>
<svg 
 viewBox="0 0 1280 720"
 xmlns="http://www.w3.org/2000/svg"
 xmlns:xlink="http://www.w3.org/1999/xlink"
>

<title>Gnuplot</title>
<desc>Produced by GNUPLOT 5.2 patchlevel 8 </desc>

<g id="gnuplot_canvas">

<rect x="0" y="0" width="1280" height="720" fill="none"/>
<defs>

	<circle id='gpDot' r='0.5' stroke-width='0.5' stroke='currentColor'/>
	<path id='gpPt0' stroke-width='0.222' stroke='currentColor' d='M-1,0 h2 M0,-1 v2'/>
	<path id='gpPt1' stroke-width='0.222' stroke='currentColor' d='M-1,-1 L1,1 M1,-1 L-1,1'/>
	<path id='gpPt2' stroke-width='0.222' stroke='currentColor' d='M-1,0 L1,0 M0,-1 L0,1 M-1,-1 L1,1 M-1,1 L1,-1'/>
	<rect id='gpPt3' stroke-width='0.222' stroke='currentColor' x='-1' y='-1' width='2' height='2'/>
	<rect id='gpPt4' stroke-width='0.222' stroke='currentColor' fill='currentColor' x='-1' y='-1' width='2' height='2'/>
	<circle id='gpPt5' stroke-width='0.222' stroke='currentColor' cx='0' cy='0' r='1'/>
	<use xlink:href='#gpPt5' id='gpPt6' fill='currentColor' stroke='none'/>
	<path id='gpPt7' stroke-width='0.222' stroke='currentColor' d='M0,-1.33 L-1.33,0.67 L1.33,0.67 z'/>
	<use xlink:href='#gpPt7' id='gpPt8' fill='currentColor' stroke='none'/>
	<use xlink:href='#gpPt7' id='gpPt9' stroke='currentColor' transform='rotate(180)'/>
	<use xlink:href='#gpPt9' id='gpPt10' fill='currentColor' stroke='none'/>
	<use xlink:href='#gpPt3' id='gpPt11' stroke='currentColor' transform='rotate(45)'/>
	<use xlink:href='#gpPt11' id='gpPt12' fill='currentColor' stroke='none'/>
	<path id='gpPt13' stroke-width='0.222' stroke='currentColor' d='M0,1.330 L1.265,0.411 L0.782,-1.067 L-0.782,-1.076 L-1.265,0.411 z'/>
	<use xlink:href='#gpPt13' id='gpPt14' fill='currentColor' stroke='none'/>
	<filter id='textbox' filterUnits='objectBoundingBox' x='0' y='0' height='1' width='1'>
	  <feFlood flood-color='white' flood-opacity='1' result='bgnd'/>
	  <feComposite in='SourceGraphic' in2='bgnd' operator='atop'/>
	</filter>
	<filter id='greybox' filterUnits='objectBoundingBox' x='0' y='0' height='1' width='1'>
	  <feFlood flood-color='lightgrey' flood-opacity='1' result='grey'/>
	  <feComposite in='SourceGraphic' in2='grey' operator='atop'/>
	</filter>
</defs>
<g fill="none" color="white" stroke="currentColor" stroke-width="1.00" stroke-linecap="butt" stroke-linejoin="miter">
</g>
<g fill="none" color="black" stroke="currentColor" stroke-width="1.00" stroke-linecap="butt" stroke-linejoin="miter">
	<path stroke='black'  d='M55.3,662.4 L64.3,662.4  '/>	<g transform="translate(47.0,666.3)" stroke="none" fill="black" font-family="Helvetica" font-size="12.00"  text-anchor="end">
		<text><tspan font-family="Helvetica" > 0</tspan></text>
	</g>
</g>
<g fill="none" color="black" stroke="currentColor" stroke-width="1.00" stroke-linecap="butt" stroke-linejoin="miter">
	<path stroke='black'  d='M55.3,594.8 L64.3,594.8  '/>	<g transform="translate(47.0,598.7)" stroke="none" fill="black" font-family="Helvetica" font-size="12.00"  text-anchor="end">
		<text><tspan font-family="Helvetica" > 1</tspan></text>
	</g>
</g>
<g fill="none" color="black" stroke="currentColor" stroke-width="1.00" stroke-linecap="butt" stroke-linejoin="miter">
	<path stroke='black'  d='M55.3,527.2 L64.3,527.2  '/>	<g transform="translate(47.0,531.1)" stroke="none" fill="black" font-family="Helvetica" font-size="12.00"  text-anchor="end">
		<text><tspan font-family="Helvetica" > 2</tspan></text>
	</g>
</g>
<g fill="none" color="black" stroke="currentColor" stroke-width="1.00" stroke-linecap="butt" stroke-linejoin="miter">
	<path stroke='black'  d='M55.3,459.6 L64.3,459.6  '/>	<g transform="translate(47.0,463.5)" stroke="none" fill="black" font-family="Helvetica" font-size="12.00"  text-anchor="end">
		<text><tspan font-family="Helvetica" > 3</tspan></text>
	</g>
</g>
<g fill="none" color="black" stroke="currentColor" stroke-width="1.00" stroke-linecap="butt" stroke-linejoin="miter">
	<path stroke='black'  d='M55.3,392.0 L64.3,392.0  '/>	<g transform="translate(47.0,395.9)" stroke="none" fill="black" font-family="Helvetica" font-size="12.00"  text-anchor="end">
		<text><tspan font-family="Helvetica" > 4</tspan></text>
	</g>
</g>
<g fill="none" color="black" stroke="currentColor" stroke-width="1.00" stroke-linecap="butt" stroke-linejoin="miter">
	<path stroke='black'  d='M55.3,324.5 L64.3,324.5  '/>	<g transform="translate(47.0,328.4)" stroke="none" fill="black" font-family="Helvetica" font-size="12.00"  text-anchor="end">
		<text><tspan font-family="Helvetica" > 5</tspan></text>
	</g>
</g>
<g fill="none" color="black" stroke="currentColor" stroke-width="1.00" stroke-linecap="butt" stroke-linejoin="miter">
	<path stroke='black'  d='M55.3,256.9 L64.3,256.9  '/>	<g transform="translate(47.0,260.8)" stroke="none" fill="black" font-family="Helvetica" font-size="12.00"  text-anchor="end">
		<text><tspan font-family="Helvetica" > 6</tspan></text>
	</g>
</g>
<g fill="none" color="black" stroke="currentColor" stroke-width="1.00" stroke-linecap="butt" stroke-linejoin="miter">
	<path stroke='black'  d='M55.3,189.3 L64.3,189.3  '/>	<g transform="translate(47.0,193.2)" stroke="none" fill="black" font-family="Helvetica" font-size="12.00"  text-anchor="end">
		<text><tspan font-family="Helvetica" > 7</tspan></text>
	</g>
</g>
<g fill="none" color="black" stroke="currentColor" stroke-width="1.00" stroke-linecap="butt" stroke-linejoin="miter">
	<path stroke='black'  d='M55.3,121.7 L64.3,121.7  '/>	<g transform="translate(47.0,125.6)" stroke="none" fill="black" font-family="Helvetica" font-size="12.00"  text-anchor="end">
		<text><tspan font-family="Helvetica" > 8</tspan></text>
	</g>
</g>
<g fill="none" color="black" stroke="currentColor" stroke-width="1.00" stroke-linecap="butt" stroke-linejoin="miter">
	<path stroke='black'  d='M55.3,54.1 L64.3,54.1  '/>	<g transform="translate(47.0,58.0)" stroke="none" fill="black" font-family="Helvetica" font-size="12.00"  text-anchor="end">
		<text><tspan font-family="Helvetica" > 9</tspan></text>
	</g>
</g>
<g fill="none" color="black" stroke="currentColor" stroke-width="1.00" stroke-linecap="butt" stroke-linejoin="miter">
	<path stroke='black'  d='M172.0,662.4 L172.0,653.4  '/>	<g transform="translate(172.0,684.3)" stroke="none" fill="black" font-family="Helvetica" font-size="12.00"  text-anchor="middle">
		<text><tspan font-family="Helvetica" > 832</tspan></text>
	</g>
</g>
<g fill="none" color="black" stroke="currentColor" stroke-width="1.00" stroke-linecap="butt" stroke-linejoin="miter">
	<path stroke='black'  d='M322.5,662.4 L322.5,653.4  '/>	<g transform="translate(322.5,684.3)" stroke="none" fill="black" font-family="Helvetica" font-size="12.00"  text-anchor="middle">
		<text><tspan font-family="Helvetica" > 832.1</tspan></text>
	</g>
</g>
<g fill="none" color="black" stroke="currentColor" stroke-width="1.00" stroke-linecap="butt" stroke-linejoin="miter">
	<path stroke='black'  d='M472.9,662.4 L472.9,653.4  '/>	<g transform="translate(472.9,684.3)" stroke="none" fill="black" font-family="Helvetica" font-size="12.00"  text-anchor="middle">
		<text><tspan font-family="Helvetica" > 832.2</tspan></text>
	</g>
</g>
<g fill="none" color="black" stroke="currentColor" stroke-width="1.00" stroke-linecap="butt" stroke-linejoin="miter">
	<path stroke='black'  d='M623.4,662.4 L623.4,653.4  '/>	<g transform="translate(623.4,684.3)" stroke="none" fill="black" font-family="Helvetica" font-size="12.00"  text-anchor="middle">
		<text><tspan font-family="Helvetica" > 832.3</tspan></text>
	</g>
</g>
<g fill="none" color="black" stroke="currentColor" stroke-width="1.00" stroke-linecap="butt" stroke-linejoin="miter">
	<path stroke='black'  d='M773.9,662.4 L773.9,653.4  '/>	<g transform="translate(773.9,684.3)" stroke="none" fill="black" font-family="Helvetica" font-size="12.00"  text-anchor="middle">
		<text><tspan font-family="Helvetica" > 832.4</tspan></text>
	</g>
</g>
<g fill="none" color="black" stroke="currentColor" stroke-width="1.00" stroke-linecap="butt" stroke-linejoin="miter">
	<path stroke='black'  d='M924.3,662.4 L924.3,653.4  '/>	<g transform="translate(924.3,684.3)" stroke="none" fill="black" font-family="Helvetica" font-size="12.00"  text-anchor="middle">
		<text><tspan font-family="Helvetica" > 832.5</tspan></text>
	</g>
</g>
<g fill="none" color="black" stroke="currentColor" stroke-width="1.00" stroke-linecap="butt" stroke-linejoin="miter">
</g>
<g fill="none" color="black" stroke="currentColor" stroke-width="1.00" stroke-linecap="butt" stroke-linejoin="miter">
	<path stroke='black'  d='M55.3,54.1 L55.3,662.4 L1013.6,662.4 L1013.6,54.1 L55.3,54.1 Z  '/></g>
<g fill="none" color="black" stroke="currentColor" stroke-width="1.00" stroke-linecap="butt" stroke-linejoin="miter">
	<g transform="translate(19.0,358.3) rotate(270)" stroke="none" fill="black" font-family="Helvetica" font-size="12.00"  text-anchor="middle">
		<text><tspan font-family="Helvetica" >Density (a.u.)</tspan></text>
	</g>
</g>
<g fill="none" color="black" stroke="currentColor" stroke-width="1.00" stroke-linecap="butt" stroke-linejoin="miter">
	<g transform="translate(534.4,711.3)" stroke="none" fill="black" font-family="Helvetica" font-size="12.00"  text-anchor="middle">
		<text><tspan font-family="Helvetica" >Average time (us)</tspan></text>
	</g>
</g>
<g fill="none" color="black" stroke="currentColor" stroke-width="1.00" stroke-linecap="butt" stroke-linejoin="miter">
	<g transform="translate(534.4,31.0)" stroke="none" fill="black" font-family="Helvetica" font-size="12.00"  text-anchor="middle">
		<text><tspan font-family="Helvetica" >bench_group/blake3/917504: median</tspan></text>
	</g>
</g>
<g fill="none" color="black" stroke="currentColor" stroke-width="1.00" stroke-linecap="butt" stroke-linejoin="miter">
</g>
	<g id="gnuplot_plot_1" ><title>Bootstrap distribution</title>
<g fill="none" color="white" stroke="currentColor" stroke-width="2.00" stroke-linecap="butt" stroke-linejoin="miter">
</g>
<g fill="none" color="black" stroke="currentColor" stroke-width="2.00" stroke-linecap="butt" stroke-linejoin="miter">
	<g transform="translate(1089.0,67.0)" stroke="none" fill="black" font-family="Helvetica" font-size="12.00"  text-anchor="start">
		<text><tspan font-family="Helvetica" >Bootstrap distribution</tspan></text>
	</g>
</g>
<g fill="none" color="black" stroke="currentColor" stroke-width="2.00" stroke-linecap="butt" stroke-linejoin="miter">
	<path stroke='rgb( 31, 120, 180)'  d='M1038.5,63.1 L1080.7,63.1 M55.3,658.5 L57.2,658.2 L59.1,657.9 L61.1,657.6 L63.0,657.2 L64.9,656.8
		L66.8,656.4 L68.7,656.0 L70.7,655.5 L72.6,655.0 L74.5,654.4 L76.4,653.8 L78.3,653.1 L80.3,652.4
		L82.2,651.7 L84.1,650.9 L86.0,650.0 L87.9,649.1 L89.9,648.1 L91.8,647.0 L93.7,645.8 L95.6,644.6
		L97.5,643.2 L99.5,641.8 L101.4,640.2 L103.3,638.5 L105.2,636.7 L107.2,634.8 L109.1,632.7 L111.0,630.5
		L112.9,628.1 L114.8,625.6 L116.8,623.0 L118.7,620.2 L120.6,617.3 L122.5,614.3 L124.4,611.2 L126.4,608.1
		L128.3,604.9 L130.2,601.7 L132.1,598.5 L134.0,595.5 L136.0,592.5 L137.9,589.6 L139.8,586.9 L141.7,584.4
		L143.6,582.1 L145.6,580.0 L147.5,578.1 L149.4,576.4 L151.3,574.8 L153.2,573.5 L155.2,572.3 L157.1,571.2
		L159.0,570.1 L160.9,569.2 L162.8,568.2 L164.8,567.3 L166.7,566.4 L168.6,565.4 L170.5,564.4 L172.4,563.5
		L174.4,562.6 L176.3,561.7 L178.2,561.0 L180.1,560.4 L182.0,560.1 L184.0,560.1 L185.9,560.4 L187.8,561.2
		L189.7,562.4 L191.7,564.1 L193.6,566.3 L195.5,569.1 L197.4,572.4 L199.3,576.1 L201.3,580.3 L203.2,584.8
		L205.1,589.7 L207.0,594.8 L208.9,600.0 L210.9,605.3 L212.8,610.5 L214.7,615.6 L216.6,620.5 L218.5,625.1
		L220.5,629.3 L222.4,633.1 L224.3,636.5 L226.2,639.4 L228.1,641.9 L230.1,643.8 L232.0,645.2 L233.9,646.2
		L235.8,646.7 L237.7,646.6 L239.7,646.2 L241.6,645.3 L243.5,644.0 L245.4,642.3 L247.3,640.3 L249.3,637.9
		L251.2,635.3 L253.1,632.4 L255.0,629.3 L256.9,626.1 L258.9,622.8 L260.8,619.4 L262.7,616.0 L264.6,612.8
		L266.5,609.7 L268.5,606.8 L270.4,604.1 L272.3,601.8 L274.2,599.9 L276.2,598.3 L278.1,597.2 L280.0,596.6
		L281.9,596.4 L283.8,596.7 L285.8,597.4 L287.7,598.5 L289.6,600.1 L291.5,601.9 L293.4,604.1 L295.4,606.5
		L297.3,609.1 L299.2,611.8 L301.1,614.6 L303.0,617.4 L305.0,620.2 L306.9,623.0 L308.8,625.6 L310.7,628.1
		L312.6,630.3 L314.6,632.3 L316.5,634.1 L318.4,635.5 L320.3,636.6 L322.2,637.4 L324.2,637.7 L326.1,637.7
		L328.0,637.2 L329.9,636.4 L331.8,635.1 L333.8,633.4 L335.7,631.2 L337.6,628.7 L339.5,625.7 L341.4,622.3
		L343.4,618.6 L345.3,614.6 L347.2,610.2 L349.1,605.5 L351.0,600.6 L353.0,595.5 L354.9,590.1 L356.8,584.6
		L358.7,578.9 L360.7,573.1 L362.6,567.2 L364.5,561.3 L366.4,555.2 L368.3,549.1 L370.3,542.9 L372.2,536.7
		L374.1,530.5 L376.0,524.2 L377.9,518.0 L379.9,511.8 L381.8,505.7 L383.7,499.7 L385.6,493.7 L387.5,487.9
		L389.5,482.3 L391.4,476.8 L393.3,471.7 L395.2,466.7 L397.1,462.0 L399.1,457.6 L401.0,453.5 L402.9,449.7
		L404.8,446.2 L406.7,442.9 L408.7,439.8 L410.6,436.8 L412.5,433.9 L414.4,431.1 L416.3,428.2 L418.3,425.1
		L420.2,421.8 L422.1,418.1 L424.0,414.0 L425.9,409.4 L427.9,404.1 L429.8,398.0 L431.7,391.1 L433.6,383.2
		L435.5,374.2 L437.5,364.2 L439.4,353.0 L441.3,340.5 L443.2,327.0 L445.1,312.2 L447.1,296.4 L449.0,279.6
		L450.9,262.1 L452.8,243.9 L454.8,225.4 L456.7,206.9 L458.6,188.7 L460.5,171.2 L462.4,154.8 L464.4,139.9
		L466.3,126.8 L468.2,116.0 L470.1,107.9 L472.0,102.7 L474.0,100.6 L475.9,101.9 L477.8,106.6 L479.7,114.8
		L481.6,126.3 L483.6,141.0 L485.5,158.7 L487.4,179.0 L489.3,201.6 L491.2,226.1 L493.2,252.0 L495.1,278.8
		L497.0,306.1 L498.9,333.5 L500.8,360.4 L502.8,386.5 L504.7,411.5 L506.6,434.9 L508.5,456.6 L510.4,476.4
		L512.4,494.0 L514.3,509.4 L516.2,522.6 L518.1,533.5 L520.0,542.2 L522.0,548.8 L523.9,553.5 L525.8,556.3
		L527.7,557.5 L529.6,557.3 L531.6,556.0 L533.5,553.7 L535.4,550.6 L537.3,547.1 L539.3,543.4 L541.2,539.7
		L543.1,536.1 L545.0,532.9 L546.9,530.2 L548.9,528.1 L550.8,526.7 L552.7,526.1 L554.6,526.3 L556.5,527.2
		L558.5,528.9 L560.4,531.3 L562.3,534.3 L564.2,537.7 L566.1,541.5 L568.1,545.5 L570.0,549.6 L571.9,553.6
		L573.8,557.4 L575.7,560.7 L577.7,563.6 L579.6,565.9 L581.5,567.5 L583.4,568.2 L585.3,568.1 L587.3,567.1
		L589.2,565.2 L591.1,562.4 L593.0,558.6 L594.9,553.9 L596.9,548.4 L598.8,542.0 L600.7,534.8 L602.6,527.0
		L604.5,518.5 L606.5,509.4 L608.4,499.7 L610.3,489.7 L612.2,479.3 L614.1,468.6 L616.1,457.7 L618.0,446.8
		L619.9,435.9 L621.8,425.3 L623.8,415.0 L625.7,405.3 L627.6,396.3 L629.5,388.2 L631.4,381.2 L633.4,375.5
		L635.3,371.1 L637.2,368.4 L639.1,367.3 L641.0,368.0 L643.0,370.4 L644.9,374.6 L646.8,380.5 L648.7,388.0
		L650.6,396.9 L652.6,407.1 L654.5,418.2 L656.4,430.2 L658.3,442.6 L660.2,455.3 L662.2,468.0 L664.1,480.4
		L666.0,492.4 L667.9,503.8 L669.8,514.5 L671.8,524.3 L673.7,533.2 L675.6,541.2 L677.5,548.3 L679.4,554.5
		L681.4,560.0 L683.3,564.7 L685.2,568.8 L687.1,572.3 L689.0,575.4 L691.0,578.1 L692.9,580.5 L694.8,582.6
		L696.7,584.5 L698.6,586.2 L700.6,587.7 L702.5,589.1 L704.4,590.4 L706.3,591.5 L708.2,592.5 L710.2,593.4
		L712.1,594.2 L714.0,594.8 L715.9,595.4 L717.9,595.8 L719.8,596.2 L721.7,596.5 L723.6,596.7 L725.5,596.9
		L727.5,597.1 L729.4,597.3 L731.3,597.5 L733.2,597.7 L735.1,598.0 L737.1,598.3 L739.0,598.8 L740.9,599.3
		L742.8,599.9 L744.7,600.7 L746.7,601.5 L748.6,602.5 L750.5,603.6 L752.4,604.8 L754.3,606.2 L756.3,607.6
		L758.2,609.2 L760.1,610.7 L762.0,612.4 L763.9,614.0 L765.9,615.7 L767.8,617.4 L769.7,619.0 L771.6,620.5
		L773.5,622.0 L775.5,623.3 L777.4,624.6 L779.3,625.7 L781.2,626.7 L783.1,627.5 L785.1,628.3 L787.0,628.9
		L788.9,629.4 L790.8,629.9 L792.7,630.2 L794.7,630.5 L796.6,630.8 L798.5,631.1 L800.4,631.3 L802.4,631.6
		L804.3,631.9 L806.2,632.2 L808.1,632.6 L810.0,633.0 L812.0,633.4 L813.9,633.8 L815.8,634.2 L817.7,634.5
		L819.6,634.9 L821.6,635.2 L823.5,635.4 L825.4,635.6 L827.3,635.7 L829.2,635.7 L831.2,635.6 L833.1,635.5
		L835.0,635.3 L836.9,635.1 L838.8,634.9 L840.8,634.7 L842.7,634.6 L844.6,634.5 L846.5,634.5 L848.4,634.5
		L850.4,634.6 L852.3,634.8 L854.2,635.1 L856.1,635.4 L858.0,635.8 L860.0,636.3 L861.9,636.7 L863.8,637.1
		L865.7,637.6 L867.6,637.9 L869.6,638.3 L871.5,638.6 L873.4,638.8 L875.3,638.9 L877.2,639.0 L879.2,639.0
		L881.1,639.0 L883.0,638.9 L884.9,638.8 L886.9,638.7 L888.8,638.5 L890.7,638.3 L892.6,638.1 L894.5,637.8
		L896.5,637.5 L898.4,637.1 L900.3,636.7 L902.2,636.3 L904.1,635.7 L906.1,635.1 L908.0,634.5 L909.9,633.7
		L911.8,632.9 L913.7,632.1 L915.7,631.3 L917.6,630.4 L919.5,629.7 L921.4,628.9 L923.3,628.3 L925.3,627.8
		L927.2,627.4 L929.1,627.1 L931.0,627.0 L932.9,627.1 L934.9,627.3 L936.8,627.7 L938.7,628.3 L940.6,628.9
		L942.5,629.7 L944.5,630.6 L946.4,631.6 L948.3,632.6 L950.2,633.6 L952.1,634.7 L954.1,635.8 L956.0,636.8
		L957.9,637.9 L959.8,638.9 L961.7,639.9 L963.7,640.8 L965.6,641.8 L967.5,642.7 L969.4,643.5 L971.4,644.4
		L973.3,645.2 L975.2,645.9 L977.1,646.7 L979.0,647.4 L981.0,648.1 L982.9,648.8 L984.8,649.5 L986.7,650.1
		L988.6,650.7 L990.6,651.3 L992.5,651.8 L994.4,652.3 L996.3,652.7 L998.2,653.1 L1000.2,653.5 L1002.1,653.9
		L1004.0,654.2 L1005.9,654.4 L1007.8,654.7 L1009.8,654.9 L1011.7,655.1 L1013.6,655.2  '/></g>
	</g>
	<g id="gnuplot_plot_2" ><title>Confidence interval</title>
<g fill="none" color="white" stroke="rgb( 31, 120, 180)" stroke-width="1.00" stroke-linecap="butt" stroke-linejoin="miter">
</g>
<g fill="none" color="black" stroke="currentColor" stroke-width="1.00" stroke-linecap="butt" stroke-linejoin="miter">
	<g transform="translate(1089.0,85.0)" stroke="none" fill="black" font-family="Helvetica" font-size="12.00"  text-anchor="start">
		<text><tspan font-family="Helvetica" >Confidence interval</tspan></text>
	</g>
</g>
<g fill="none" color="black" stroke="currentColor" stroke-width="1.00" stroke-linecap="butt" stroke-linejoin="miter">
	<g stroke='none' shape-rendering='crispEdges'>
		<polygon fill = 'rgb( 31, 120, 180)' fill-opacity = '0.250000' points = '1038.5,85.6 1080.7,85.6 1080.7,76.6 1038.5,76.6 '/>
		<polygon fill = 'rgb( 31, 120, 180)' fill-opacity = '0.250000' points = '143.6,582.1 145.6,580.0 147.5,578.1 149.4,576.4 151.3,574.8 153.2,573.5 155.2,572.3 157.1,571.2 159.0,570.1 160.9,569.2 162.8,568.2 164.8,567.3 166.7,566.4 168.6,565.4 170.5,564.4 172.4,563.5
174.4,562.6 176.3,561.7 178.2,561.0 180.1,560.4 182.0,560.1 184.0,560.1 185.9,560.4 187.8,561.2 189.7,562.4 191.7,564.1 193.6,566.3 195.5,569.1 197.4,572.4 199.3,576.1 201.3,580.3 203.2,584.8
205.1,589.7 207.0,594.8 208.9,600.0 210.9,605.3 212.8,610.5 214.7,615.6 216.6,620.5 218.5,625.1 220.5,629.3 222.4,633.1 224.3,636.5 226.2,639.4 228.1,641.9 230.1,643.8 232.0,645.2 233.9,646.2
235.8,646.7 237.7,646.6 239.7,646.2 241.6,645.3 243.5,644.0 245.4,642.3 247.3,640.3 249.3,637.9 251.2,635.3 253.1,632.4 255.0,629.3 256.9,626.1 258.9,622.8 260.8,619.4 262.7,616.0 264.6,612.8
266.5,609.7 268.5,606.8 270.4,604.1 272.3,601.8 274.2,599.9 276.2,598.3 278.1,597.2 280.0,596.6 281.9,596.4 283.8,596.7 285.8,597.4 287.7,598.5 289.6,600.1 291.5,601.9 293.4,604.1 295.4,606.5
297.3,609.1 299.2,611.8 301.1,614.6 303.0,617.4 305.0,620.2 306.9,623.0 308.8,625.6 310.7,628.1 312.6,630.3 314.6,632.3 316.5,634.1 318.4,635.5 320.3,636.6 322.2,637.4 324.2,637.7 326.1,637.7
328.0,637.2 329.9,636.4 331.8,635.1 333.8,633.4 335.7,631.2 337.6,628.7 339.5,625.7 341.4,622.3 343.4,618.6 345.3,614.6 347.2,610.2 349.1,605.5 351.0,600.6 353.0,595.5 354.9,590.1 356.8,584.6
358.7,578.9 360.7,573.1 362.6,567.2 364.5,561.3 366.4,555.2 368.3,549.1 370.3,542.9 372.2,536.7 374.1,530.5 376.0,524.2 377.9,518.0 379.9,511.8 381.8,505.7 383.7,499.7 385.6,493.7 387.5,487.9
389.5,482.3 391.4,476.8 393.3,471.7 395.2,466.7 397.1,462.0 399.1,457.6 401.0,453.5 402.9,449.7 404.8,446.2 406.7,442.9 408.7,439.8 410.6,436.8 412.5,433.9 414.4,431.1 416.3,428.2 418.3,425.1
420.2,421.8 422.1,418.1 424.0,414.0 425.9,409.4 427.9,404.1 429.8,398.0 431.7,391.1 433.6,383.2 435.5,374.2 437.5,364.2 439.4,353.0 441.3,340.5 443.2,327.0 445.1,312.2 447.1,296.4 449.0,279.6
450.9,262.1 452.8,243.9 454.8,225.4 456.7,206.9 458.6,188.7 460.5,171.2 462.4,154.8 464.4,139.9 466.3,126.8 468.2,116.0 470.1,107.9 472.0,102.7 474.0,100.6 475.9,101.9 477.8,106.6 479.7,114.8
481.6,126.3 483.6,141.0 485.5,158.7 487.4,179.0 489.3,201.6 491.2,226.1 493.2,252.0 495.1,278.8 497.0,306.1 498.9,333.5 500.8,360.4 502.8,386.5 504.7,411.5 506.6,434.9 508.5,456.6 510.4,476.4
512.4,494.0 514.3,509.4 516.2,522.6 518.1,533.5 520.0,542.2 522.0,548.8 523.9,553.5 525.8,556.3 527.7,557.5 529.6,557.3 531.6,556.0 533.5,553.7 535.4,550.6 537.3,547.1 539.3,543.4 541.2,539.7
543.1,536.1 545.0,532.9 546.9,530.2 548.9,528.1 550.8,526.7 552.7,526.1 554.6,526.3 556.5,527.2 558.5,528.9 560.4,531.3 562.3,534.3 564.2,537.7 566.1,541.5 568.1,545.5 570.0,549.6 571.9,553.6
573.8,557.4 575.7,560.7 577.7,563.6 579.6,565.9 581.5,567.5 583.4,568.2 585.3,568.1 587.3,567.1 589.2,565.2 591.1,562.4 593.0,558.6 594.9,553.9 596.9,548.4 598.8,542.0 600.7,534.8 602.6,527.0
604.5,518.5 606.5,509.4 608.4,499.7 610.3,489.7 612.2,479.3 614.1,468.6 616.1,457.7 618.0,446.8 619.9,435.9 621.8,425.3 623.8,415.0 625.7,405.3 627.6,396.3 629.5,388.2 631.4,381.2 633.4,375.5
635.3,371.1 637.2,368.4 639.1,367.3 641.0,368.0 643.0,370.4 644.9,374.6 646.8,380.5 648.7,388.0 650.6,396.9 652.6,407.1 654.5,418.2 656.4,430.2 658.3,442.6 660.2,455.3 662.2,468.0 664.1,480.4
666.0,492.4 667.9,503.8 669.8,514.5 671.8,524.3 673.7,533.2 675.6,541.2 677.5,548.3 679.4,554.5 681.4,560.0 683.3,564.7 685.2,568.8 687.1,572.3 689.0,575.4 691.0,578.1 692.9,580.5 694.8,582.6
696.7,584.5 698.6,586.2 700.6,587.7 702.5,589.1 704.4,590.4 706.3,591.5 708.2,592.5 710.2,593.4 712.1,594.2 714.0,594.8 715.9,595.4 717.9,595.8 719.8,596.2 721.7,596.5 723.6,596.7 725.5,596.9
727.5,597.1 729.4,597.3 731.3,597.5 733.2,597.7 735.1,598.0 737.1,598.3 739.0,598.8 740.9,599.3 742.8,599.9 744.7,600.7 746.7,601.5 748.6,602.5 750.5,603.6 752.4,604.8 754.3,606.2 756.3,607.6
758.2,609.2 760.1,610.7 762.0,612.4 763.9,614.0 765.9,615.7 767.8,617.4 769.7,619.0 771.6,620.5 773.5,622.0 775.5,623.3 777.4,624.6 779.3,625.7 781.2,626.7 783.1,627.5 785.1,628.3 787.0,628.9
788.9,629.4 790.8,629.9 792.7,630.2 794.7,630.5 796.6,630.8 798.5,631.1 800.4,631.3 802.4,631.6 804.3,631.9 806.2,632.2 808.1,632.6 810.0,633.0 812.0,633.4 813.9,633.8 815.8,634.2 817.7,634.5
819.6,634.9 821.6,635.2 823.5,635.4 825.4,635.6 827.3,635.7 829.2,635.7 831.2,635.6 833.1,635.5 835.0,635.3 836.9,635.1 838.8,634.9 840.8,634.7 842.7,634.6 844.6,634.5 846.5,634.5 848.4,634.5
850.4,634.6 852.3,634.8 854.2,635.1 856.1,635.4 858.0,635.8 860.0,636.3 861.9,636.7 863.8,637.1 865.7,637.6 867.6,637.9 869.6,638.3 871.5,638.6 873.4,638.8 875.3,638.9 877.2,639.0 879.2,639.0
881.1,639.0 883.0,638.9 884.9,638.8 886.9,638.7 888.8,638.5 890.7,638.3 892.6,638.1 894.5,637.8 896.5,637.5 898.4,637.1 900.3,636.7 902.2,636.3 904.1,635.7 906.1,635.1 908.0,634.5 909.9,633.7
911.8,632.9 913.7,632.1 915.7,631.3 917.6,630.4 919.5,629.7 921.4,628.9 923.3,628.3 923.3,662.4 921.4,662.4 919.5,662.4 917.6,662.4 915.7,662.4 913.7,662.4 911.8,662.4 909.9,662.4 908.0,662.4
906.1,662.4 904.1,662.4 902.2,662.4 900.3,662.4 898.4,662.4 896.5,662.4 894.5,662.4 892.6,662.4 890.7,662.4 888.8,662.4 886.9,662.4 884.9,662.4 883.0,662.4 881.1,662.4 879.2,662.4 877.2,662.4
875.3,662.4 873.4,662.4 871.5,662.4 869.6,662.4 867.6,662.4 865.7,662.4 863.8,662.4 861.9,662.4 860.0,662.4 858.0,662.4 856.1,662.4 854.2,662.4 852.3,662.4 850.4,662.4 848.4,662.4 846.5,662.4
844.6,662.4 842.7,662.4 840.8,662.4 838.8,662.4 836.9,662.4 835.0,662.4 833.1,662.4 831.2,662.4 829.2,662.4 827.3,662.4 825.4,662.4 823.5,662.4 821.6,662.4 819.6,662.4 817.7,662.4 815.8,662.4
813.9,662.4 812.0,662.4 810.0,662.4 808.1,662.4 806.2,662.4 804.3,662.4 802.4,662.4 800.4,662.4 798.5,662.4 796.6,662.4 794.7,662.4 792.7,662.4 790.8,662.4 788.9,662.4 787.0,662.4 785.1,662.4
783.1,662.4 781.2,662.4 779.3,662.4 777.4,662.4 775.5,662.4 773.5,662.4 771.6,662.4 769.7,662.4 767.8,662.4 765.9,662.4 763.9,662.4 762.0,662.4 760.1,662.4 758.2,662.4 756.3,662.4 754.3,662.4
752.4,662.4 750.5,662.4 748.6,662.4 746.7,662.4 744.7,662.4 742.8,662.4 740.9,662.4 739.0,662.4 737.1,662.4 735.1,662.4 733.2,662.4 731.3,662.4 729.4,662.4 727.5,662.4 725.5,662.4 723.6,662.4
721.7,662.4 719.8,662.4 717.9,662.4 715.9,662.4 714.0,662.4 712.1,662.4 710.2,662.4 708.2,662.4 706.3,662.4 704.4,662.4 702.5,662.4 700.6,662.4 698.6,662.4 696.7,662.4 694.8,662.4 692.9,662.4
691.0,662.4 689.0,662.4 687.1,662.4 685.2,662.4 683.3,662.4 681.4,662.4 679.4,662.4 677.5,662.4 675.6,662.4 673.7,662.4 671.8,662.4 669.8,662.4 667.9,662.4 666.0,662.4 664.1,662.4 662.2,662.4
660.2,662.4 658.3,662.4 656.4,662.4 654.5,662.4 652.6,662.4 650.6,662.4 648.7,662.4 646.8,662.4 644.9,662.4 643.0,662.4 641.0,662.4 639.1,662.4 637.2,662.4 635.3,662.4 633.4,662.4 631.4,662.4
629.5,662.4 627.6,662.4 625.7,662.4 623.8,662.4 621.8,662.4 619.9,662.4 618.0,662.4 616.1,662.4 614.1,662.4 612.2,662.4 610.3,662.4 608.4,662.4 606.5,662.4 604.5,662.4 602.6,662.4 600.7,662.4
598.8,662.4 596.9,662.4 594.9,662.4 593.0,662.4 591.1,662.4 589.2,662.4 587.3,662.4 585.3,662.4 583.4,662.4 581.5,662.4 579.6,662.4 577.7,662.4 575.7,662.4 573.8,662.4 571.9,662.4 570.0,662.4
568.1,662.4 566.1,662.4 564.2,662.4 562.3,662.4 560.4,662.4 558.5,662.4 556.5,662.4 554.6,662.4 552.7,662.4 550.8,662.4 548.9,662.4 546.9,662.4 545.0,662.4 543.1,662.4 541.2,662.4 539.3,662.4
537.3,662.4 535.4,662.4 533.5,662.4 531.6,662.4 529.6,662.4 527.7,662.4 525.8,662.4 523.9,662.4 522.0,662.4 520.0,662.4 518.1,662.4 516.2,662.4 514.3,662.4 512.4,662.4 510.4,662.4 508.5,662.4
506.6,662.4 504.7,662.4 502.8,662.4 500.8,662.4 498.9,662.4 497.0,662.4 495.1,662.4 493.2,662.4 491.2,662.4 489.3,662.4 487.4,662.4 485.5,662.4 483.6,662.4 481.6,662.4 479.7,662.4 477.8,662.4
475.9,662.4 474.0,662.4 472.0,662.4 470.1,662.4 468.2,662.4 466.3,662.4 464.4,662.4 462.4,662.4 460.5,662.4 458.6,662.4 456.7,662.4 454.8,662.4 452.8,662.4 450.9,662.4 449.0,662.4 447.1,662.4
445.1,662.4 443.2,662.4 441.3,662.4 439.4,662.4 437.5,662.4 435.5,662.4 433.6,662.4 431.7,662.4 429.8,662.4 427.9,662.4 425.9,662.4 424.0,662.4 422.1,662.4 420.2,662.4 418.3,662.4 416.3,662.4
414.4,662.4 412.5,662.4 410.6,662.4 408.7,662.4 406.7,662.4 404.8,662.4 402.9,662.4 401.0,662.4 399.1,662.4 397.1,662.4 395.2,662.4 393.3,662.4 391.4,662.4 389.5,662.4 387.5,662.4 385.6,662.4
383.7,662.4 381.8,662.4 379.9,662.4 377.9,662.4 376.0,662.4 374.1,662.4 372.2,662.4 370.3,662.4 368.3,662.4 366.4,662.4 364.5,662.4 362.6,662.4 360.7,662.4 358.7,662.4 356.8,662.4 354.9,662.4
353.0,662.4 351.0,662.4 349.1,662.4 347.2,662.4 345.3,662.4 343.4,662.4 341.4,662.4 339.5,662.4 337.6,662.4 335.7,662.4 333.8,662.4 331.8,662.4 329.9,662.4 328.0,662.4 326.1,662.4 324.2,662.4
322.2,662.4 320.3,662.4 318.4,662.4 316.5,662.4 314.6,662.4 312.6,662.4 310.7,662.4 308.8,662.4 306.9,662.4 305.0,662.4 303.0,662.4 301.1,662.4 299.2,662.4 297.3,662.4 295.4,662.4 293.4,662.4
291.5,662.4 289.6,662.4 287.7,662.4 285.8,662.4 283.8,662.4 281.9,662.4 280.0,662.4 278.1,662.4 276.2,662.4 274.2,662.4 272.3,662.4 270.4,662.4 268.5,662.4 266.5,662.4 264.6,662.4 262.7,662.4
260.8,662.4 258.9,662.4 256.9,662.4 255.0,662.4 253.1,662.4 251.2,662.4 249.3,662.4 247.3,662.4 245.4,662.4 243.5,662.4 241.6,662.4 239.7,662.4 237.7,662.4 235.8,662.4 233.9,662.4 232.0,662.4
230.1,662.4 228.1,662.4 226.2,662.4 224.3,662.4 222.4,662.4 220.5,662.4 218.5,662.4 216.6,662.4 214.7,662.4 212.8,662.4 210.9,662.4 208.9,662.4 207.0,662.4 205.1,662.4 203.2,662.4 201.3,662.4
199.3,662.4 197.4,662.4 195.5,662.4 193.6,662.4 191.7,662.4 189.7,662.4 187.8,662.4 185.9,662.4 184.0,662.4 182.0,662.4 180.1,662.4 178.2,662.4 176.3,662.4 174.4,662.4 172.4,662.4 170.5,662.4
168.6,662.4 166.7,662.4 164.8,662.4 162.8,662.4 160.9,662.4 159.0,662.4 157.1,662.4 155.2,662.4 153.2,662.4 151.3,662.4 149.4,662.4 147.5,662.4 145.6,662.4 143.6,662.4 '/>
	</g>
</g>
	</g>
	<g id="gnuplot_plot_3" ><title>Point estimate</title>
<g fill="none" color="white" stroke="rgb( 31, 120, 180)" stroke-width="2.00" stroke-linecap="butt" stroke-linejoin="miter">
</g>
<g fill="none" color="black" stroke="currentColor" stroke-width="2.00" stroke-linecap="butt" stroke-linejoin="miter">
	<g transform="translate(1089.0,103.0)" stroke="none" fill="black" font-family="Helvetica" font-size="12.00"  text-anchor="start">
		<text><tspan font-family="Helvetica" >Point estimate</tspan></text>
	</g>
</g>
<g fill="none" color="black" stroke="currentColor" stroke-width="2.00" stroke-linecap="butt" stroke-linejoin="miter">
	<path stroke='rgb( 31, 120, 180)'  d='M1038.5,99.1 L1080.7,99.1 M477.5,662.4 L477.5,105.9  '/></g>
	</g>
<g fill="none" color="black" stroke="currentColor" stroke-width="2.00" stroke-linecap="butt" stroke-linejoin="miter">
</g>
<g fill="none" color="black" stroke="black" stroke-width="1.00" stroke-linecap="butt" stroke-linejoin="miter">
</g>
<g fill="none" color="black" stroke="currentColor" stroke-width="1.00" stroke-linecap="butt" stroke-linejoin="miter">
	<path stroke='black'  d='M55.3,54.1 L55.3,662.4 L1013.6,662.4 L1013.6,54.1 L55.3,54.1 Z  '/></g>
<g fill="none" color="black" stroke="currentColor" stroke-width="1.00" stroke-linecap="butt" stroke-linejoin="miter">
</g>
</g>
</svg>

