<?xml version="1.0" encoding="utf-8"  standalone="no"?>
<svg 
 viewBox="0 0 1280 720"
 xmlns="http://www.w3.org/2000/svg"
 xmlns:xlink="http://www.w3.org/1999/xlink"
>

<title>Gnuplot</title>
<desc>Produced by GNUPLOT 5.2 patchlevel 8 </desc>

<g id="gnuplot_canvas">

<rect x="0" y="0" width="1280" height="720" fill="none"/>
<defs>

	<circle id='gpDot' r='0.5' stroke-width='0.5' stroke='currentColor'/>
	<path id='gpPt0' stroke-width='0.222' stroke='currentColor' d='M-1,0 h2 M0,-1 v2'/>
	<path id='gpPt1' stroke-width='0.222' stroke='currentColor' d='M-1,-1 L1,1 M1,-1 L-1,1'/>
	<path id='gpPt2' stroke-width='0.222' stroke='currentColor' d='M-1,0 L1,0 M0,-1 L0,1 M-1,-1 L1,1 M-1,1 L1,-1'/>
	<rect id='gpPt3' stroke-width='0.222' stroke='currentColor' x='-1' y='-1' width='2' height='2'/>
	<rect id='gpPt4' stroke-width='0.222' stroke='currentColor' fill='currentColor' x='-1' y='-1' width='2' height='2'/>
	<circle id='gpPt5' stroke-width='0.222' stroke='currentColor' cx='0' cy='0' r='1'/>
	<use xlink:href='#gpPt5' id='gpPt6' fill='currentColor' stroke='none'/>
	<path id='gpPt7' stroke-width='0.222' stroke='currentColor' d='M0,-1.33 L-1.33,0.67 L1.33,0.67 z'/>
	<use xlink:href='#gpPt7' id='gpPt8' fill='currentColor' stroke='none'/>
	<use xlink:href='#gpPt7' id='gpPt9' stroke='currentColor' transform='rotate(180)'/>
	<use xlink:href='#gpPt9' id='gpPt10' fill='currentColor' stroke='none'/>
	<use xlink:href='#gpPt3' id='gpPt11' stroke='currentColor' transform='rotate(45)'/>
	<use xlink:href='#gpPt11' id='gpPt12' fill='currentColor' stroke='none'/>
	<path id='gpPt13' stroke-width='0.222' stroke='currentColor' d='M0,1.330 L1.265,0.411 L0.782,-1.067 L-0.782,-1.076 L-1.265,0.411 z'/>
	<use xlink:href='#gpPt13' id='gpPt14' fill='currentColor' stroke='none'/>
	<filter id='textbox' filterUnits='objectBoundingBox' x='0' y='0' height='1' width='1'>
	  <feFlood flood-color='white' flood-opacity='1' result='bgnd'/>
	  <feComposite in='SourceGraphic' in2='bgnd' operator='atop'/>
	</filter>
	<filter id='greybox' filterUnits='objectBoundingBox' x='0' y='0' height='1' width='1'>
	  <feFlood flood-color='lightgrey' flood-opacity='1' result='grey'/>
	  <feComposite in='SourceGraphic' in2='grey' operator='atop'/>
	</filter>
</defs>
<g fill="none" color="white" stroke="currentColor" stroke-width="1.00" stroke-linecap="butt" stroke-linejoin="miter">
</g>
<g fill="none" color="black" stroke="currentColor" stroke-width="1.00" stroke-linecap="butt" stroke-linejoin="miter">
	<path stroke='black'  d='M80.2,662.4 L89.2,662.4  '/>	<g transform="translate(71.9,666.3)" stroke="none" fill="black" font-family="Helvetica" font-size="12.00"  text-anchor="end">
		<text><tspan font-family="Helvetica" > 0</tspan></text>
	</g>
</g>
<g fill="none" color="black" stroke="currentColor" stroke-width="1.00" stroke-linecap="butt" stroke-linejoin="miter">
	<path stroke='black'  d='M80.2,540.7 L89.2,540.7  '/>	<g transform="translate(71.9,544.6)" stroke="none" fill="black" font-family="Helvetica" font-size="12.00"  text-anchor="end">
		<text><tspan font-family="Helvetica" > 500</tspan></text>
	</g>
</g>
<g fill="none" color="black" stroke="currentColor" stroke-width="1.00" stroke-linecap="butt" stroke-linejoin="miter">
	<path stroke='black'  d='M80.2,419.1 L89.2,419.1  '/>	<g transform="translate(71.9,423.0)" stroke="none" fill="black" font-family="Helvetica" font-size="12.00"  text-anchor="end">
		<text><tspan font-family="Helvetica" > 1000</tspan></text>
	</g>
</g>
<g fill="none" color="black" stroke="currentColor" stroke-width="1.00" stroke-linecap="butt" stroke-linejoin="miter">
	<path stroke='black'  d='M80.2,297.4 L89.2,297.4  '/>	<g transform="translate(71.9,301.3)" stroke="none" fill="black" font-family="Helvetica" font-size="12.00"  text-anchor="end">
		<text><tspan font-family="Helvetica" > 1500</tspan></text>
	</g>
</g>
<g fill="none" color="black" stroke="currentColor" stroke-width="1.00" stroke-linecap="butt" stroke-linejoin="miter">
	<path stroke='black'  d='M80.2,175.8 L89.2,175.8  '/>	<g transform="translate(71.9,179.7)" stroke="none" fill="black" font-family="Helvetica" font-size="12.00"  text-anchor="end">
		<text><tspan font-family="Helvetica" > 2000</tspan></text>
	</g>
</g>
<g fill="none" color="black" stroke="currentColor" stroke-width="1.00" stroke-linecap="butt" stroke-linejoin="miter">
	<path stroke='black'  d='M80.2,54.1 L89.2,54.1  '/>	<g transform="translate(71.9,58.0)" stroke="none" fill="black" font-family="Helvetica" font-size="12.00"  text-anchor="end">
		<text><tspan font-family="Helvetica" > 2500</tspan></text>
	</g>
</g>
<g fill="none" color="black" stroke="currentColor" stroke-width="1.00" stroke-linecap="butt" stroke-linejoin="miter">
	<path stroke='black'  d='M99.9,662.4 L99.9,653.4  '/>	<g transform="translate(99.9,684.3)" stroke="none" fill="black" font-family="Helvetica" font-size="12.00"  text-anchor="middle">
		<text><tspan font-family="Helvetica" >-40.8</tspan></text>
	</g>
</g>
<g fill="none" color="black" stroke="currentColor" stroke-width="1.00" stroke-linecap="butt" stroke-linejoin="miter">
	<path stroke='black'  d='M214.6,662.4 L214.6,653.4  '/>	<g transform="translate(214.6,684.3)" stroke="none" fill="black" font-family="Helvetica" font-size="12.00"  text-anchor="middle">
		<text><tspan font-family="Helvetica" >-40.79</tspan></text>
	</g>
</g>
<g fill="none" color="black" stroke="currentColor" stroke-width="1.00" stroke-linecap="butt" stroke-linejoin="miter">
	<path stroke='black'  d='M329.3,662.4 L329.3,653.4  '/>	<g transform="translate(329.3,684.3)" stroke="none" fill="black" font-family="Helvetica" font-size="12.00"  text-anchor="middle">
		<text><tspan font-family="Helvetica" >-40.78</tspan></text>
	</g>
</g>
<g fill="none" color="black" stroke="currentColor" stroke-width="1.00" stroke-linecap="butt" stroke-linejoin="miter">
	<path stroke='black'  d='M444.0,662.4 L444.0,653.4  '/>	<g transform="translate(444.0,684.3)" stroke="none" fill="black" font-family="Helvetica" font-size="12.00"  text-anchor="middle">
		<text><tspan font-family="Helvetica" >-40.77</tspan></text>
	</g>
</g>
<g fill="none" color="black" stroke="currentColor" stroke-width="1.00" stroke-linecap="butt" stroke-linejoin="miter">
	<path stroke='black'  d='M558.6,662.4 L558.6,653.4  '/>	<g transform="translate(558.6,684.3)" stroke="none" fill="black" font-family="Helvetica" font-size="12.00"  text-anchor="middle">
		<text><tspan font-family="Helvetica" >-40.76</tspan></text>
	</g>
</g>
<g fill="none" color="black" stroke="currentColor" stroke-width="1.00" stroke-linecap="butt" stroke-linejoin="miter">
	<path stroke='black'  d='M673.3,662.4 L673.3,653.4  '/>	<g transform="translate(673.3,684.3)" stroke="none" fill="black" font-family="Helvetica" font-size="12.00"  text-anchor="middle">
		<text><tspan font-family="Helvetica" >-40.75</tspan></text>
	</g>
</g>
<g fill="none" color="black" stroke="currentColor" stroke-width="1.00" stroke-linecap="butt" stroke-linejoin="miter">
	<path stroke='black'  d='M788.0,662.4 L788.0,653.4  '/>	<g transform="translate(788.0,684.3)" stroke="none" fill="black" font-family="Helvetica" font-size="12.00"  text-anchor="middle">
		<text><tspan font-family="Helvetica" >-40.74</tspan></text>
	</g>
</g>
<g fill="none" color="black" stroke="currentColor" stroke-width="1.00" stroke-linecap="butt" stroke-linejoin="miter">
	<path stroke='black'  d='M902.7,662.4 L902.7,653.4  '/>	<g transform="translate(902.7,684.3)" stroke="none" fill="black" font-family="Helvetica" font-size="12.00"  text-anchor="middle">
		<text><tspan font-family="Helvetica" >-40.73</tspan></text>
	</g>
</g>
<g fill="none" color="black" stroke="currentColor" stroke-width="1.00" stroke-linecap="butt" stroke-linejoin="miter">
</g>
<g fill="none" color="black" stroke="currentColor" stroke-width="1.00" stroke-linecap="butt" stroke-linejoin="miter">
	<path stroke='black'  d='M80.2,54.1 L80.2,662.4 L1013.6,662.4 L1013.6,54.1 L80.2,54.1 Z  '/></g>
<g fill="none" color="black" stroke="currentColor" stroke-width="1.00" stroke-linecap="butt" stroke-linejoin="miter">
	<g transform="translate(19.0,358.3) rotate(270)" stroke="none" fill="black" font-family="Helvetica" font-size="12.00"  text-anchor="middle">
		<text><tspan font-family="Helvetica" >Density (a.u.)</tspan></text>
	</g>
</g>
<g fill="none" color="black" stroke="currentColor" stroke-width="1.00" stroke-linecap="butt" stroke-linejoin="miter">
	<g transform="translate(546.9,711.3)" stroke="none" fill="black" font-family="Helvetica" font-size="12.00"  text-anchor="middle">
		<text><tspan font-family="Helvetica" >Relative change (%)</tspan></text>
	</g>
</g>
<g fill="none" color="black" stroke="currentColor" stroke-width="1.00" stroke-linecap="butt" stroke-linejoin="miter">
	<g transform="translate(546.9,31.0)" stroke="none" fill="black" font-family="Helvetica" font-size="12.00"  text-anchor="middle">
		<text><tspan font-family="Helvetica" >bench_group/blake3/2048: mean</tspan></text>
	</g>
</g>
<g fill="none" color="black" stroke="currentColor" stroke-width="1.00" stroke-linecap="butt" stroke-linejoin="miter">
</g>
	<g id="gnuplot_plot_1" ><title>Bootstrap distribution</title>
<g fill="none" color="white" stroke="currentColor" stroke-width="2.00" stroke-linecap="butt" stroke-linejoin="miter">
</g>
<g fill="none" color="black" stroke="currentColor" stroke-width="2.00" stroke-linecap="butt" stroke-linejoin="miter">
	<g transform="translate(1089.0,67.0)" stroke="none" fill="black" font-family="Helvetica" font-size="12.00"  text-anchor="start">
		<text><tspan font-family="Helvetica" >Bootstrap distribution</tspan></text>
	</g>
</g>
<g fill="none" color="black" stroke="currentColor" stroke-width="2.00" stroke-linecap="butt" stroke-linejoin="miter">
	<path stroke='rgb( 31, 120, 180)'  d='M1038.5,63.1 L1080.7,63.1 M80.2,627.9 L82.1,627.2 L83.9,626.4 L85.8,625.7 L87.7,625.0 L89.6,624.3
		L91.4,623.6 L93.3,623.0 L95.2,622.3 L97.0,621.6 L98.9,621.0 L100.8,620.3 L102.6,619.7 L104.5,619.1
		L106.4,618.4 L108.3,617.8 L110.1,617.1 L112.0,616.5 L113.9,615.8 L115.7,615.1 L117.6,614.3 L119.5,613.6
		L121.4,612.8 L123.2,612.0 L125.1,611.1 L127.0,610.2 L128.8,609.3 L130.7,608.3 L132.6,607.3 L134.4,606.2
		L136.3,605.1 L138.2,604.0 L140.1,602.8 L141.9,601.6 L143.8,600.4 L145.7,599.1 L147.5,597.8 L149.4,596.5
		L151.3,595.2 L153.2,593.8 L155.0,592.4 L156.9,591.1 L158.8,589.7 L160.6,588.3 L162.5,586.9 L164.4,585.5
		L166.2,584.1 L168.1,582.7 L170.0,581.3 L171.9,579.9 L173.7,578.5 L175.6,577.1 L177.5,575.7 L179.3,574.3
		L181.2,572.9 L183.1,571.5 L185.0,570.1 L186.8,568.7 L188.7,567.3 L190.6,565.9 L192.4,564.5 L194.3,563.1
		L196.2,561.7 L198.0,560.2 L199.9,558.7 L201.8,557.2 L203.7,555.7 L205.5,554.1 L207.4,552.6 L209.3,550.9
		L211.1,549.3 L213.0,547.6 L214.9,545.8 L216.7,544.0 L218.6,542.2 L220.5,540.3 L222.4,538.3 L224.2,536.3
		L226.1,534.2 L228.0,532.1 L229.8,529.9 L231.7,527.6 L233.6,525.3 L235.5,522.9 L237.3,520.5 L239.2,518.0
		L241.1,515.5 L242.9,513.0 L244.8,510.4 L246.7,507.8 L248.5,505.1 L250.4,502.5 L252.3,499.8 L254.2,497.1
		L256.0,494.4 L257.9,491.7 L259.8,489.0 L261.6,486.4 L263.5,483.7 L265.4,481.0 L267.3,478.4 L269.1,475.8
		L271.0,473.2 L272.9,470.6 L274.7,468.0 L276.6,465.5 L278.5,463.0 L280.3,460.5 L282.2,458.0 L284.1,455.5
		L286.0,453.0 L287.8,450.5 L289.7,448.0 L291.6,445.5 L293.4,443.0 L295.3,440.5 L297.2,437.9 L299.1,435.4
		L300.9,432.7 L302.8,430.1 L304.7,427.3 L306.5,424.6 L308.4,421.8 L310.3,418.9 L312.1,416.0 L314.0,413.1
		L315.9,410.1 L317.8,407.0 L319.6,403.9 L321.5,400.8 L323.4,397.7 L325.2,394.5 L327.1,391.3 L329.0,388.1
		L330.9,384.9 L332.7,381.6 L334.6,378.4 L336.5,375.1 L338.3,371.8 L340.2,368.6 L342.1,365.3 L343.9,362.0
		L345.8,358.7 L347.7,355.4 L349.6,352.0 L351.4,348.7 L353.3,345.4 L355.2,342.0 L357.0,338.7 L358.9,335.3
		L360.8,331.9 L362.7,328.5 L364.5,325.1 L366.4,321.7 L368.3,318.4 L370.1,315.0 L372.0,311.6 L373.9,308.2
		L375.7,304.8 L377.6,301.5 L379.5,298.2 L381.4,294.9 L383.2,291.6 L385.1,288.4 L387.0,285.2 L388.8,282.0
		L390.7,278.9 L392.6,275.8 L394.5,272.7 L396.3,269.7 L398.2,266.8 L400.1,263.8 L401.9,260.9 L403.8,258.0
		L405.7,255.2 L407.5,252.4 L409.4,249.6 L411.3,246.8 L413.2,244.0 L415.0,241.2 L416.9,238.4 L418.8,235.6
		L420.6,232.8 L422.5,230.0 L424.4,227.2 L426.3,224.4 L428.1,221.6 L430.0,218.8 L431.9,216.0 L433.7,213.2
		L435.6,210.4 L437.5,207.6 L439.3,204.9 L441.2,202.2 L443.1,199.5 L445.0,196.8 L446.8,194.2 L448.7,191.6
		L450.6,189.0 L452.4,186.4 L454.3,183.9 L456.2,181.3 L458.0,178.8 L459.9,176.3 L461.8,173.8 L463.7,171.4
		L465.5,168.9 L467.4,166.4 L469.3,163.9 L471.1,161.5 L473.0,159.0 L474.9,156.5 L476.8,154.0 L478.6,151.6
		L480.5,149.1 L482.4,146.6 L484.2,144.2 L486.1,141.8 L488.0,139.4 L489.8,137.0 L491.7,134.7 L493.6,132.4
		L495.5,130.1 L497.3,127.9 L499.2,125.8 L501.1,123.7 L502.9,121.6 L504.8,119.7 L506.7,117.7 L508.6,115.9
		L510.4,114.1 L512.3,112.4 L514.2,110.8 L516.0,109.2 L517.9,107.7 L519.8,106.2 L521.6,104.9 L523.5,103.6
		L525.4,102.4 L527.3,101.2 L529.1,100.2 L531.0,99.2 L532.9,98.3 L534.7,97.5 L536.6,96.8 L538.5,96.1
		L540.4,95.6 L542.2,95.1 L544.1,94.6 L546.0,94.3 L547.8,94.0 L549.7,93.8 L551.6,93.6 L553.4,93.5
		L555.3,93.4 L557.2,93.4 L559.1,93.4 L560.9,93.4 L562.8,93.5 L564.7,93.6 L566.5,93.7 L568.4,93.8
		L570.3,94.0 L572.2,94.1 L574.0,94.3 L575.9,94.5 L577.8,94.6 L579.6,94.9 L581.5,95.1 L583.4,95.3
		L585.2,95.6 L587.1,95.9 L589.0,96.2 L590.9,96.6 L592.7,97.0 L594.6,97.4 L596.5,97.9 L598.3,98.4
		L600.2,98.9 L602.1,99.5 L604.0,100.2 L605.8,100.8 L607.7,101.6 L609.6,102.3 L611.4,103.2 L613.3,104.0
		L615.2,104.9 L617.0,105.8 L618.9,106.8 L620.8,107.8 L622.7,108.8 L624.5,109.9 L626.4,111.0 L628.3,112.1
		L630.1,113.3 L632.0,114.5 L633.9,115.7 L635.8,117.0 L637.6,118.2 L639.5,119.6 L641.4,120.9 L643.2,122.3
		L645.1,123.8 L647.0,125.3 L648.8,126.9 L650.7,128.6 L652.6,130.3 L654.5,132.1 L656.3,134.0 L658.2,136.1
		L660.1,138.2 L661.9,140.5 L663.8,142.8 L665.7,145.3 L667.5,147.9 L669.4,150.6 L671.3,153.4 L673.2,156.4
		L675.0,159.4 L676.9,162.6 L678.8,165.8 L680.6,169.1 L682.5,172.5 L684.4,175.9 L686.3,179.4 L688.1,183.0
		L690.0,186.6 L691.9,190.3 L693.7,193.9 L695.6,197.6 L697.5,201.3 L699.3,205.1 L701.2,208.8 L703.1,212.6
		L705.0,216.3 L706.8,220.1 L708.7,223.8 L710.6,227.6 L712.4,231.3 L714.3,235.1 L716.2,238.8 L718.1,242.6
		L719.9,246.3 L721.8,250.0 L723.7,253.7 L725.5,257.4 L727.4,261.0 L729.3,264.6 L731.1,268.2 L733.0,271.8
		L734.9,275.4 L736.8,278.9 L738.6,282.4 L740.5,285.8 L742.4,289.2 L744.2,292.6 L746.1,295.9 L748.0,299.3
		L749.9,302.5 L751.7,305.8 L753.6,309.1 L755.5,312.3 L757.3,315.5 L759.2,318.7 L761.1,321.9 L762.9,325.1
		L764.8,328.3 L766.7,331.4 L768.6,334.7 L770.4,337.9 L772.3,341.1 L774.2,344.4 L776.0,347.6 L777.9,350.9
		L779.8,354.3 L781.7,357.6 L783.5,361.0 L785.4,364.4 L787.3,367.9 L789.1,371.4 L791.0,374.9 L792.9,378.4
		L794.7,381.9 L796.6,385.5 L798.5,389.1 L800.4,392.7 L802.2,396.2 L804.1,399.8 L806.0,403.4 L807.8,406.9
		L809.7,410.4 L811.6,413.9 L813.5,417.3 L815.3,420.7 L817.2,424.0 L819.1,427.3 L820.9,430.5 L822.8,433.7
		L824.7,436.8 L826.5,439.9 L828.4,442.9 L830.3,445.8 L832.2,448.7 L834.0,451.6 L835.9,454.4 L837.8,457.1
		L839.6,459.9 L841.5,462.6 L843.4,465.3 L845.3,467.9 L847.1,470.6 L849.0,473.2 L850.9,475.8 L852.7,478.4
		L854.6,481.0 L856.5,483.6 L858.3,486.2 L860.2,488.8 L862.1,491.4 L864.0,494.0 L865.8,496.6 L867.7,499.1
		L869.6,501.7 L871.4,504.2 L873.3,506.8 L875.2,509.3 L877.1,511.8 L878.9,514.3 L880.8,516.7 L882.7,519.1
		L884.5,521.5 L886.4,523.9 L888.3,526.2 L890.1,528.4 L892.0,530.7 L893.9,532.9 L895.8,535.0 L897.6,537.1
		L899.5,539.1 L901.4,541.2 L903.2,543.1 L905.1,545.1 L907.0,547.0 L908.8,548.8 L910.7,550.7 L912.6,552.5
		L914.5,554.3 L916.3,556.1 L918.2,557.9 L920.1,559.7 L921.9,561.5 L923.8,563.3 L925.7,565.1 L927.6,566.9
		L929.4,568.7 L931.3,570.6 L933.2,572.4 L935.0,574.2 L936.9,576.0 L938.8,577.9 L940.6,579.7 L942.5,581.5
		L944.4,583.3 L946.3,585.1 L948.1,586.9 L950.0,588.6 L951.9,590.3 L953.7,592.0 L955.6,593.6 L957.5,595.2
		L959.4,596.8 L961.2,598.3 L963.1,599.8 L965.0,601.2 L966.8,602.6 L968.7,604.0 L970.6,605.4 L972.4,606.7
		L974.3,607.9 L976.2,609.2 L978.1,610.4 L979.9,611.6 L981.8,612.8 L983.7,613.9 L985.5,615.0 L987.4,616.1
		L989.3,617.2 L991.2,618.2 L993.0,619.3 L994.9,620.3 L996.8,621.3 L998.6,622.3 L1000.5,623.2 L1002.4,624.1
		L1004.2,625.0 L1006.1,625.9 L1008.0,626.8 L1009.9,627.6 L1011.7,628.4 L1013.6,629.2  '/></g>
	</g>
	<g id="gnuplot_plot_2" ><title>Confidence interval</title>
<g fill="none" color="white" stroke="rgb( 31, 120, 180)" stroke-width="1.00" stroke-linecap="butt" stroke-linejoin="miter">
</g>
<g fill="none" color="black" stroke="currentColor" stroke-width="1.00" stroke-linecap="butt" stroke-linejoin="miter">
	<g transform="translate(1089.0,85.0)" stroke="none" fill="black" font-family="Helvetica" font-size="12.00"  text-anchor="start">
		<text><tspan font-family="Helvetica" >Confidence interval</tspan></text>
	</g>
</g>
<g fill="none" color="black" stroke="currentColor" stroke-width="1.00" stroke-linecap="butt" stroke-linejoin="miter">
	<g stroke='none' shape-rendering='crispEdges'>
		<polygon fill = 'rgb( 31, 120, 180)' fill-opacity = '0.250000' points = '1038.5,85.6 1080.7,85.6 1080.7,76.6 1038.5,76.6 '/>
		<polygon fill = 'rgb( 31, 120, 180)' fill-opacity = '0.250000' points = '166.2,584.1 168.1,582.7 170.0,581.3 171.9,579.9 173.7,578.5 175.6,577.1 177.5,575.7 179.3,574.3 181.2,572.9 183.1,571.5 185.0,570.1 186.8,568.7 188.7,567.3 190.6,565.9 192.4,564.5 194.3,563.1
196.2,561.7 198.0,560.2 199.9,558.7 201.8,557.2 203.7,555.7 205.5,554.1 207.4,552.6 209.3,550.9 211.1,549.3 213.0,547.6 214.9,545.8 216.7,544.0 218.6,542.2 220.5,540.3 222.4,538.3 224.2,536.3
226.1,534.2 228.0,532.1 229.8,529.9 231.7,527.6 233.6,525.3 235.5,522.9 237.3,520.5 239.2,518.0 241.1,515.5 242.9,513.0 244.8,510.4 246.7,507.8 248.5,505.1 250.4,502.5 252.3,499.8 254.2,497.1
256.0,494.4 257.9,491.7 259.8,489.0 261.6,486.4 263.5,483.7 265.4,481.0 267.3,478.4 269.1,475.8 271.0,473.2 272.9,470.6 274.7,468.0 276.6,465.5 278.5,463.0 280.3,460.5 282.2,458.0 284.1,455.5
286.0,453.0 287.8,450.5 289.7,448.0 291.6,445.5 293.4,443.0 295.3,440.5 297.2,437.9 299.1,435.4 300.9,432.7 302.8,430.1 304.7,427.3 306.5,424.6 308.4,421.8 310.3,418.9 312.1,416.0 314.0,413.1
315.9,410.1 317.8,407.0 319.6,403.9 321.5,400.8 323.4,397.7 325.2,394.5 327.1,391.3 329.0,388.1 330.9,384.9 332.7,381.6 334.6,378.4 336.5,375.1 338.3,371.8 340.2,368.6 342.1,365.3 343.9,362.0
345.8,358.7 347.7,355.4 349.6,352.0 351.4,348.7 353.3,345.4 355.2,342.0 357.0,338.7 358.9,335.3 360.8,331.9 362.7,328.5 364.5,325.1 366.4,321.7 368.3,318.4 370.1,315.0 372.0,311.6 373.9,308.2
375.7,304.8 377.6,301.5 379.5,298.2 381.4,294.9 383.2,291.6 385.1,288.4 387.0,285.2 388.8,282.0 390.7,278.9 392.6,275.8 394.5,272.7 396.3,269.7 398.2,266.8 400.1,263.8 401.9,260.9 403.8,258.0
405.7,255.2 407.5,252.4 409.4,249.6 411.3,246.8 413.2,244.0 415.0,241.2 416.9,238.4 418.8,235.6 420.6,232.8 422.5,230.0 424.4,227.2 426.3,224.4 428.1,221.6 430.0,218.8 431.9,216.0 433.7,213.2
435.6,210.4 437.5,207.6 439.3,204.9 441.2,202.2 443.1,199.5 445.0,196.8 446.8,194.2 448.7,191.6 450.6,189.0 452.4,186.4 454.3,183.9 456.2,181.3 458.0,178.8 459.9,176.3 461.8,173.8 463.7,171.4
465.5,168.9 467.4,166.4 469.3,163.9 471.1,161.5 473.0,159.0 474.9,156.5 476.8,154.0 478.6,151.6 480.5,149.1 482.4,146.6 484.2,144.2 486.1,141.8 488.0,139.4 489.8,137.0 491.7,134.7 493.6,132.4
495.5,130.1 497.3,127.9 499.2,125.8 501.1,123.7 502.9,121.6 504.8,119.7 506.7,117.7 508.6,115.9 510.4,114.1 512.3,112.4 514.2,110.8 516.0,109.2 517.9,107.7 519.8,106.2 521.6,104.9 523.5,103.6
525.4,102.4 527.3,101.2 529.1,100.2 531.0,99.2 532.9,98.3 534.7,97.5 536.6,96.8 538.5,96.1 540.4,95.6 542.2,95.1 544.1,94.6 546.0,94.3 547.8,94.0 549.7,93.8 551.6,93.6 553.4,93.5
555.3,93.4 557.2,93.4 559.1,93.4 560.9,93.4 562.8,93.5 564.7,93.6 566.5,93.7 568.4,93.8 570.3,94.0 572.2,94.1 574.0,94.3 575.9,94.5 577.8,94.6 579.6,94.9 581.5,95.1 583.4,95.3
585.2,95.6 587.1,95.9 589.0,96.2 590.9,96.6 592.7,97.0 594.6,97.4 596.5,97.9 598.3,98.4 600.2,98.9 602.1,99.5 604.0,100.2 605.8,100.8 607.7,101.6 609.6,102.3 611.4,103.2 613.3,104.0
615.2,104.9 617.0,105.8 618.9,106.8 620.8,107.8 622.7,108.8 624.5,109.9 626.4,111.0 628.3,112.1 630.1,113.3 632.0,114.5 633.9,115.7 635.8,117.0 637.6,118.2 639.5,119.6 641.4,120.9 643.2,122.3
645.1,123.8 647.0,125.3 648.8,126.9 650.7,128.6 652.6,130.3 654.5,132.1 656.3,134.0 658.2,136.1 660.1,138.2 661.9,140.5 663.8,142.8 665.7,145.3 667.5,147.9 669.4,150.6 671.3,153.4 673.2,156.4
675.0,159.4 676.9,162.6 678.8,165.8 680.6,169.1 682.5,172.5 684.4,175.9 686.3,179.4 688.1,183.0 690.0,186.6 691.9,190.3 693.7,193.9 695.6,197.6 697.5,201.3 699.3,205.1 701.2,208.8 703.1,212.6
705.0,216.3 706.8,220.1 708.7,223.8 710.6,227.6 712.4,231.3 714.3,235.1 716.2,238.8 718.1,242.6 719.9,246.3 721.8,250.0 723.7,253.7 725.5,257.4 727.4,261.0 729.3,264.6 731.1,268.2 733.0,271.8
734.9,275.4 736.8,278.9 738.6,282.4 740.5,285.8 742.4,289.2 744.2,292.6 746.1,295.9 748.0,299.3 749.9,302.5 751.7,305.8 753.6,309.1 755.5,312.3 757.3,315.5 759.2,318.7 761.1,321.9 762.9,325.1
764.8,328.3 766.7,331.4 768.6,334.7 770.4,337.9 772.3,341.1 774.2,344.4 776.0,347.6 777.9,350.9 779.8,354.3 781.7,357.6 783.5,361.0 785.4,364.4 787.3,367.9 789.1,371.4 791.0,374.9 792.9,378.4
794.7,381.9 796.6,385.5 798.5,389.1 800.4,392.7 802.2,396.2 804.1,399.8 806.0,403.4 807.8,406.9 809.7,410.4 811.6,413.9 813.5,417.3 815.3,420.7 817.2,424.0 819.1,427.3 820.9,430.5 822.8,433.7
824.7,436.8 826.5,439.9 828.4,442.9 830.3,445.8 832.2,448.7 834.0,451.6 835.9,454.4 837.8,457.1 839.6,459.9 841.5,462.6 843.4,465.3 845.3,467.9 847.1,470.6 849.0,473.2 850.9,475.8 852.7,478.4
854.6,481.0 856.5,483.6 858.3,486.2 860.2,488.8 862.1,491.4 864.0,494.0 865.8,496.6 867.7,499.1 869.6,501.7 871.4,504.2 873.3,506.8 875.2,509.3 877.1,511.8 878.9,514.3 880.8,516.7 882.7,519.1
884.5,521.5 886.4,523.9 888.3,526.2 890.1,528.4 892.0,530.7 893.9,532.9 895.8,535.0 897.6,537.1 899.5,539.1 901.4,541.2 903.2,543.1 905.1,545.1 907.0,547.0 908.8,548.8 910.7,550.7 912.6,552.5
914.5,554.3 916.3,556.1 918.2,557.9 920.1,559.7 921.9,561.5 923.8,563.3 925.7,565.1 925.7,662.4 923.8,662.4 921.9,662.4 920.1,662.4 918.2,662.4 916.3,662.4 914.5,662.4 912.6,662.4 910.7,662.4
908.8,662.4 907.0,662.4 905.1,662.4 903.2,662.4 901.4,662.4 899.5,662.4 897.6,662.4 895.8,662.4 893.9,662.4 892.0,662.4 890.1,662.4 888.3,662.4 886.4,662.4 884.5,662.4 882.7,662.4 880.8,662.4
878.9,662.4 877.1,662.4 875.2,662.4 873.3,662.4 871.4,662.4 869.6,662.4 867.7,662.4 865.8,662.4 864.0,662.4 862.1,662.4 860.2,662.4 858.3,662.4 856.5,662.4 854.6,662.4 852.7,662.4 850.9,662.4
849.0,662.4 847.1,662.4 845.3,662.4 843.4,662.4 841.5,662.4 839.6,662.4 837.8,662.4 835.9,662.4 834.0,662.4 832.2,662.4 830.3,662.4 828.4,662.4 826.5,662.4 824.7,662.4 822.8,662.4 820.9,662.4
819.1,662.4 817.2,662.4 815.3,662.4 813.5,662.4 811.6,662.4 809.7,662.4 807.8,662.4 806.0,662.4 804.1,662.4 802.2,662.4 800.4,662.4 798.5,662.4 796.6,662.4 794.7,662.4 792.9,662.4 791.0,662.4
789.1,662.4 787.3,662.4 785.4,662.4 783.5,662.4 781.7,662.4 779.8,662.4 777.9,662.4 776.0,662.4 774.2,662.4 772.3,662.4 770.4,662.4 768.6,662.4 766.7,662.4 764.8,662.4 762.9,662.4 761.1,662.4
759.2,662.4 757.3,662.4 755.5,662.4 753.6,662.4 751.7,662.4 749.9,662.4 748.0,662.4 746.1,662.4 744.2,662.4 742.4,662.4 740.5,662.4 738.6,662.4 736.8,662.4 734.9,662.4 733.0,662.4 731.1,662.4
729.3,662.4 727.4,662.4 725.5,662.4 723.7,662.4 721.8,662.4 719.9,662.4 718.1,662.4 716.2,662.4 714.3,662.4 712.4,662.4 710.6,662.4 708.7,662.4 706.8,662.4 705.0,662.4 703.1,662.4 701.2,662.4
699.3,662.4 697.5,662.4 695.6,662.4 693.7,662.4 691.9,662.4 690.0,662.4 688.1,662.4 686.3,662.4 684.4,662.4 682.5,662.4 680.6,662.4 678.8,662.4 676.9,662.4 675.0,662.4 673.2,662.4 671.3,662.4
669.4,662.4 667.5,662.4 665.7,662.4 663.8,662.4 661.9,662.4 660.1,662.4 658.2,662.4 656.3,662.4 654.5,662.4 652.6,662.4 650.7,662.4 648.8,662.4 647.0,662.4 645.1,662.4 643.2,662.4 641.4,662.4
639.5,662.4 637.6,662.4 635.8,662.4 633.9,662.4 632.0,662.4 630.1,662.4 628.3,662.4 626.4,662.4 624.5,662.4 622.7,662.4 620.8,662.4 618.9,662.4 617.0,662.4 615.2,662.4 613.3,662.4 611.4,662.4
609.6,662.4 607.7,662.4 605.8,662.4 604.0,662.4 602.1,662.4 600.2,662.4 598.3,662.4 596.5,662.4 594.6,662.4 592.7,662.4 590.9,662.4 589.0,662.4 587.1,662.4 585.2,662.4 583.4,662.4 581.5,662.4
579.6,662.4 577.8,662.4 575.9,662.4 574.0,662.4 572.2,662.4 570.3,662.4 568.4,662.4 566.5,662.4 564.7,662.4 562.8,662.4 560.9,662.4 559.1,662.4 557.2,662.4 555.3,662.4 553.4,662.4 551.6,662.4
549.7,662.4 547.8,662.4 546.0,662.4 544.1,662.4 542.2,662.4 540.4,662.4 538.5,662.4 536.6,662.4 534.7,662.4 532.9,662.4 531.0,662.4 529.1,662.4 527.3,662.4 525.4,662.4 523.5,662.4 521.6,662.4
519.8,662.4 517.9,662.4 516.0,662.4 514.2,662.4 512.3,662.4 510.4,662.4 508.6,662.4 506.7,662.4 504.8,662.4 502.9,662.4 501.1,662.4 499.2,662.4 497.3,662.4 495.5,662.4 493.6,662.4 491.7,662.4
489.8,662.4 488.0,662.4 486.1,662.4 484.2,662.4 482.4,662.4 480.5,662.4 478.6,662.4 476.8,662.4 474.9,662.4 473.0,662.4 471.1,662.4 469.3,662.4 467.4,662.4 465.5,662.4 463.7,662.4 461.8,662.4
459.9,662.4 458.0,662.4 456.2,662.4 454.3,662.4 452.4,662.4 450.6,662.4 448.7,662.4 446.8,662.4 445.0,662.4 443.1,662.4 441.2,662.4 439.3,662.4 437.5,662.4 435.6,662.4 433.7,662.4 431.9,662.4
430.0,662.4 428.1,662.4 426.3,662.4 424.4,662.4 422.5,662.4 420.6,662.4 418.8,662.4 416.9,662.4 415.0,662.4 413.2,662.4 411.3,662.4 409.4,662.4 407.5,662.4 405.7,662.4 403.8,662.4 401.9,662.4
400.1,662.4 398.2,662.4 396.3,662.4 394.5,662.4 392.6,662.4 390.7,662.4 388.8,662.4 387.0,662.4 385.1,662.4 383.2,662.4 381.4,662.4 379.5,662.4 377.6,662.4 375.7,662.4 373.9,662.4 372.0,662.4
370.1,662.4 368.3,662.4 366.4,662.4 364.5,662.4 362.7,662.4 360.8,662.4 358.9,662.4 357.0,662.4 355.2,662.4 353.3,662.4 351.4,662.4 349.6,662.4 347.7,662.4 345.8,662.4 343.9,662.4 342.1,662.4
340.2,662.4 338.3,662.4 336.5,662.4 334.6,662.4 332.7,662.4 330.9,662.4 329.0,662.4 327.1,662.4 325.2,662.4 323.4,662.4 321.5,662.4 319.6,662.4 317.8,662.4 315.9,662.4 314.0,662.4 312.1,662.4
310.3,662.4 308.4,662.4 306.5,662.4 304.7,662.4 302.8,662.4 300.9,662.4 299.1,662.4 297.2,662.4 295.3,662.4 293.4,662.4 291.6,662.4 289.7,662.4 287.8,662.4 286.0,662.4 284.1,662.4 282.2,662.4
280.3,662.4 278.5,662.4 276.6,662.4 274.7,662.4 272.9,662.4 271.0,662.4 269.1,662.4 267.3,662.4 265.4,662.4 263.5,662.4 261.6,662.4 259.8,662.4 257.9,662.4 256.0,662.4 254.2,662.4 252.3,662.4
250.4,662.4 248.5,662.4 246.7,662.4 244.8,662.4 242.9,662.4 241.1,662.4 239.2,662.4 237.3,662.4 235.5,662.4 233.6,662.4 231.7,662.4 229.8,662.4 228.0,662.4 226.1,662.4 224.2,662.4 222.4,662.4
220.5,662.4 218.6,662.4 216.7,662.4 214.9,662.4 213.0,662.4 211.1,662.4 209.3,662.4 207.4,662.4 205.5,662.4 203.7,662.4 201.8,662.4 199.9,662.4 198.0,662.4 196.2,662.4 194.3,662.4 192.4,662.4
190.6,662.4 188.7,662.4 186.8,662.4 185.0,662.4 183.1,662.4 181.2,662.4 179.3,662.4 177.5,662.4 175.6,662.4 173.7,662.4 171.9,662.4 170.0,662.4 168.1,662.4 166.2,662.4 '/>
	</g>
</g>
	</g>
	<g id="gnuplot_plot_3" ><title>Point estimate</title>
<g fill="none" color="white" stroke="rgb( 31, 120, 180)" stroke-width="2.00" stroke-linecap="butt" stroke-linejoin="miter">
</g>
<g fill="none" color="black" stroke="currentColor" stroke-width="2.00" stroke-linecap="butt" stroke-linejoin="miter">
	<g transform="translate(1089.0,103.0)" stroke="none" fill="black" font-family="Helvetica" font-size="12.00"  text-anchor="start">
		<text><tspan font-family="Helvetica" >Point estimate</tspan></text>
	</g>
</g>
<g fill="none" color="black" stroke="currentColor" stroke-width="2.00" stroke-linecap="butt" stroke-linejoin="miter">
	<path stroke='rgb( 31, 120, 180)'  d='M1038.5,99.1 L1080.7,99.1 M557.3,662.4 L557.3,93.4  '/></g>
	</g>
	<g id="gnuplot_plot_4" ><title>Noise threshold</title>
<g fill="none" color="white" stroke="rgb( 31, 120, 180)" stroke-width="1.00" stroke-linecap="butt" stroke-linejoin="miter">
</g>
<g fill="none" color="black" stroke="currentColor" stroke-width="1.00" stroke-linecap="butt" stroke-linejoin="miter">
	<g transform="translate(1089.0,121.0)" stroke="none" fill="black" font-family="Helvetica" font-size="12.00"  text-anchor="start">
		<text><tspan font-family="Helvetica" >Noise threshold</tspan></text>
	</g>
</g>
<g fill="none" color="black" stroke="currentColor" stroke-width="1.00" stroke-linecap="butt" stroke-linejoin="miter">
	<g stroke='none' shape-rendering='crispEdges'>
		<polygon fill = 'rgb(227,  26,  28)' fill-opacity = '0.100000' points = '1038.5,121.6 1080.7,121.6 1080.7,112.6 1038.5,112.6 '/>
		<polygon fill = 'rgb(227,  26,  28)' fill-opacity = '0.100000' points = '546.9,54.1 546.9,54.1 546.9,662.4 546.9,662.4 '/>
	</g>
</g>
	</g>
<g fill="none" color="white" stroke="rgb(227,  26,  28)" stroke-width="2.00" stroke-linecap="butt" stroke-linejoin="miter">
</g>
<g fill="none" color="black" stroke="currentColor" stroke-width="2.00" stroke-linecap="butt" stroke-linejoin="miter">
</g>
<g fill="none" color="black" stroke="black" stroke-width="1.00" stroke-linecap="butt" stroke-linejoin="miter">
</g>
<g fill="none" color="black" stroke="currentColor" stroke-width="1.00" stroke-linecap="butt" stroke-linejoin="miter">
	<path stroke='black'  d='M80.2,54.1 L80.2,662.4 L1013.6,662.4 L1013.6,54.1 L80.2,54.1 Z  '/></g>
<g fill="none" color="black" stroke="currentColor" stroke-width="1.00" stroke-linecap="butt" stroke-linejoin="miter">
</g>
</g>
</svg>

