<?xml version="1.0" encoding="utf-8"  standalone="no"?>
<svg 
 viewBox="0 0 450 300"
 xmlns="http://www.w3.org/2000/svg"
 xmlns:xlink="http://www.w3.org/1999/xlink"
>

<title>Gnuplot</title>
<desc>Produced by GNUPLOT 5.2 patchlevel 8 </desc>

<g id="gnuplot_canvas">

<rect x="0" y="0" width="450" height="300" fill="none"/>
<defs>

	<circle id='gpDot' r='0.5' stroke-width='0.5' stroke='currentColor'/>
	<path id='gpPt0' stroke-width='0.222' stroke='currentColor' d='M-1,0 h2 M0,-1 v2'/>
	<path id='gpPt1' stroke-width='0.222' stroke='currentColor' d='M-1,-1 L1,1 M1,-1 L-1,1'/>
	<path id='gpPt2' stroke-width='0.222' stroke='currentColor' d='M-1,0 L1,0 M0,-1 L0,1 M-1,-1 L1,1 M-1,1 L1,-1'/>
	<rect id='gpPt3' stroke-width='0.222' stroke='currentColor' x='-1' y='-1' width='2' height='2'/>
	<rect id='gpPt4' stroke-width='0.222' stroke='currentColor' fill='currentColor' x='-1' y='-1' width='2' height='2'/>
	<circle id='gpPt5' stroke-width='0.222' stroke='currentColor' cx='0' cy='0' r='1'/>
	<use xlink:href='#gpPt5' id='gpPt6' fill='currentColor' stroke='none'/>
	<path id='gpPt7' stroke-width='0.222' stroke='currentColor' d='M0,-1.33 L-1.33,0.67 L1.33,0.67 z'/>
	<use xlink:href='#gpPt7' id='gpPt8' fill='currentColor' stroke='none'/>
	<use xlink:href='#gpPt7' id='gpPt9' stroke='currentColor' transform='rotate(180)'/>
	<use xlink:href='#gpPt9' id='gpPt10' fill='currentColor' stroke='none'/>
	<use xlink:href='#gpPt3' id='gpPt11' stroke='currentColor' transform='rotate(45)'/>
	<use xlink:href='#gpPt11' id='gpPt12' fill='currentColor' stroke='none'/>
	<path id='gpPt13' stroke-width='0.222' stroke='currentColor' d='M0,1.330 L1.265,0.411 L0.782,-1.067 L-0.782,-1.076 L-1.265,0.411 z'/>
	<use xlink:href='#gpPt13' id='gpPt14' fill='currentColor' stroke='none'/>
	<filter id='textbox' filterUnits='objectBoundingBox' x='0' y='0' height='1' width='1'>
	  <feFlood flood-color='white' flood-opacity='1' result='bgnd'/>
	  <feComposite in='SourceGraphic' in2='bgnd' operator='atop'/>
	</filter>
	<filter id='greybox' filterUnits='objectBoundingBox' x='0' y='0' height='1' width='1'>
	  <feFlood flood-color='lightgrey' flood-opacity='1' result='grey'/>
	  <feComposite in='SourceGraphic' in2='grey' operator='atop'/>
	</filter>
</defs>
<g fill="none" color="white" stroke="currentColor" stroke-width="1.00" stroke-linecap="butt" stroke-linejoin="miter">
</g>
<g fill="none" color="black" stroke="currentColor" stroke-width="1.00" stroke-linecap="butt" stroke-linejoin="miter">
	<path stroke='black'  d='M71.9,242.4 L80.9,242.4  '/>	<g transform="translate(63.6,246.3)" stroke="none" fill="black" font-family="Helvetica" font-size="12.00"  text-anchor="end">
		<text><tspan font-family="Helvetica" > 0</tspan></text>
	</g>
</g>
<g fill="none" color="black" stroke="currentColor" stroke-width="1.00" stroke-linecap="butt" stroke-linejoin="miter">
	<path stroke='black'  d='M71.9,205.0 L80.9,205.0  '/>	<g transform="translate(63.6,208.9)" stroke="none" fill="black" font-family="Helvetica" font-size="12.00"  text-anchor="end">
		<text><tspan font-family="Helvetica" > 0.5</tspan></text>
	</g>
</g>
<g fill="none" color="black" stroke="currentColor" stroke-width="1.00" stroke-linecap="butt" stroke-linejoin="miter">
	<path stroke='black'  d='M71.9,167.6 L80.9,167.6  '/>	<g transform="translate(63.6,171.5)" stroke="none" fill="black" font-family="Helvetica" font-size="12.00"  text-anchor="end">
		<text><tspan font-family="Helvetica" > 1</tspan></text>
	</g>
</g>
<g fill="none" color="black" stroke="currentColor" stroke-width="1.00" stroke-linecap="butt" stroke-linejoin="miter">
	<path stroke='black'  d='M71.9,130.2 L80.9,130.2  '/>	<g transform="translate(63.6,134.1)" stroke="none" fill="black" font-family="Helvetica" font-size="12.00"  text-anchor="end">
		<text><tspan font-family="Helvetica" > 1.5</tspan></text>
	</g>
</g>
<g fill="none" color="black" stroke="currentColor" stroke-width="1.00" stroke-linecap="butt" stroke-linejoin="miter">
	<path stroke='black'  d='M71.9,92.9 L80.9,92.9  '/>	<g transform="translate(63.6,96.8)" stroke="none" fill="black" font-family="Helvetica" font-size="12.00"  text-anchor="end">
		<text><tspan font-family="Helvetica" > 2</tspan></text>
	</g>
</g>
<g fill="none" color="black" stroke="currentColor" stroke-width="1.00" stroke-linecap="butt" stroke-linejoin="miter">
	<path stroke='black'  d='M71.9,55.5 L80.9,55.5  '/>	<g transform="translate(63.6,59.4)" stroke="none" fill="black" font-family="Helvetica" font-size="12.00"  text-anchor="end">
		<text><tspan font-family="Helvetica" > 2.5</tspan></text>
	</g>
</g>
<g fill="none" color="black" stroke="currentColor" stroke-width="1.00" stroke-linecap="butt" stroke-linejoin="miter">
	<path stroke='black'  d='M71.9,18.1 L80.9,18.1  '/>	<g transform="translate(63.6,22.0)" stroke="none" fill="black" font-family="Helvetica" font-size="12.00"  text-anchor="end">
		<text><tspan font-family="Helvetica" > 3</tspan></text>
	</g>
</g>
<g fill="none" color="black" stroke="currentColor" stroke-width="1.00" stroke-linecap="butt" stroke-linejoin="miter">
	<path stroke='black'  d='M71.9,242.4 L71.9,233.4  '/>	<g transform="translate(71.9,264.3)" stroke="none" fill="black" font-family="Helvetica" font-size="12.00"  text-anchor="middle">
		<text><tspan font-family="Helvetica" > 360</tspan></text>
	</g>
</g>
<g fill="none" color="black" stroke="currentColor" stroke-width="1.00" stroke-linecap="butt" stroke-linejoin="miter">
	<path stroke='black'  d='M122.3,242.4 L122.3,233.4  '/>	<g transform="translate(122.3,264.3)" stroke="none" fill="black" font-family="Helvetica" font-size="12.00"  text-anchor="middle">
		<text><tspan font-family="Helvetica" > 380</tspan></text>
	</g>
</g>
<g fill="none" color="black" stroke="currentColor" stroke-width="1.00" stroke-linecap="butt" stroke-linejoin="miter">
	<path stroke='black'  d='M172.8,242.4 L172.8,233.4  '/>	<g transform="translate(172.8,264.3)" stroke="none" fill="black" font-family="Helvetica" font-size="12.00"  text-anchor="middle">
		<text><tspan font-family="Helvetica" > 400</tspan></text>
	</g>
</g>
<g fill="none" color="black" stroke="currentColor" stroke-width="1.00" stroke-linecap="butt" stroke-linejoin="miter">
	<path stroke='black'  d='M223.2,242.4 L223.2,233.4  '/>	<g transform="translate(223.2,264.3)" stroke="none" fill="black" font-family="Helvetica" font-size="12.00"  text-anchor="middle">
		<text><tspan font-family="Helvetica" > 420</tspan></text>
	</g>
</g>
<g fill="none" color="black" stroke="currentColor" stroke-width="1.00" stroke-linecap="butt" stroke-linejoin="miter">
	<path stroke='black'  d='M273.7,242.4 L273.7,233.4  '/>	<g transform="translate(273.7,264.3)" stroke="none" fill="black" font-family="Helvetica" font-size="12.00"  text-anchor="middle">
		<text><tspan font-family="Helvetica" > 440</tspan></text>
	</g>
</g>
<g fill="none" color="black" stroke="currentColor" stroke-width="1.00" stroke-linecap="butt" stroke-linejoin="miter">
	<path stroke='black'  d='M324.1,242.4 L324.1,233.4  '/>	<g transform="translate(324.1,264.3)" stroke="none" fill="black" font-family="Helvetica" font-size="12.00"  text-anchor="middle">
		<text><tspan font-family="Helvetica" > 460</tspan></text>
	</g>
</g>
<g fill="none" color="black" stroke="currentColor" stroke-width="1.00" stroke-linecap="butt" stroke-linejoin="miter">
	<path stroke='black'  d='M374.6,242.4 L374.6,233.4  '/>	<g transform="translate(374.6,264.3)" stroke="none" fill="black" font-family="Helvetica" font-size="12.00"  text-anchor="middle">
		<text><tspan font-family="Helvetica" > 480</tspan></text>
	</g>
</g>
<g fill="none" color="black" stroke="currentColor" stroke-width="1.00" stroke-linecap="butt" stroke-linejoin="miter">
	<path stroke='black'  d='M425.0,242.4 L425.0,233.4  '/>	<g transform="translate(425.0,264.3)" stroke="none" fill="black" font-family="Helvetica" font-size="12.00"  text-anchor="middle">
		<text><tspan font-family="Helvetica" > 500</tspan></text>
	</g>
</g>
<g fill="none" color="black" stroke="currentColor" stroke-width="1.00" stroke-linecap="butt" stroke-linejoin="miter">
</g>
<g fill="none" color="black" stroke="currentColor" stroke-width="1.00" stroke-linecap="butt" stroke-linejoin="miter">
	<path stroke='black'  d='M71.9,18.1 L71.9,242.4 L425.0,242.4 L425.0,18.1 L71.9,18.1 Z  '/></g>
<g fill="none" color="black" stroke="currentColor" stroke-width="1.00" stroke-linecap="butt" stroke-linejoin="miter">
	<g transform="translate(19.0,130.3) rotate(270)" stroke="none" fill="black" font-family="Helvetica" font-size="12.00"  text-anchor="middle">
		<text><tspan font-family="Helvetica" >Density (a.u.)</tspan></text>
	</g>
</g>
<g fill="none" color="black" stroke="currentColor" stroke-width="1.00" stroke-linecap="butt" stroke-linejoin="miter">
	<g transform="translate(248.4,291.3)" stroke="none" fill="black" font-family="Helvetica" font-size="12.00"  text-anchor="middle">
		<text><tspan font-family="Helvetica" >Average time (ns)</tspan></text>
	</g>
</g>
<g fill="none" color="black" stroke="currentColor" stroke-width="1.00" stroke-linecap="butt" stroke-linejoin="miter">
</g>
	<g id="gnuplot_plot_1" ><title>Base PDF</title>
<g fill="none" color="black" stroke="currentColor" stroke-width="1.00" stroke-linecap="butt" stroke-linejoin="miter">
	<g stroke='none' shape-rendering='crispEdges'>
		<polygon fill = 'rgb(227,  26,  28)' fill-opacity = '0.500000' points = '115.4,242.4 116.0,242.4 116.6,242.4 117.1,242.4 117.7,242.4 118.2,242.4 118.8,242.4 119.4,242.4 119.9,242.4 120.5,242.4 121.0,242.4 121.6,242.3 122.2,242.3 122.7,242.3 123.3,242.3 123.8,242.3
124.4,242.3 125.0,242.3 125.5,242.3 126.1,242.3 126.6,242.3 127.2,242.3 127.8,242.2 128.3,242.2 128.9,242.2 129.4,242.2 130.0,242.2 130.6,242.2 131.1,242.1 131.7,242.1 132.2,242.1 132.8,242.1
133.4,242.0 133.9,242.0 134.5,242.0 135.0,241.9 135.6,241.9 136.2,241.9 136.7,241.8 137.3,241.8 137.8,241.7 138.4,241.7 139.0,241.6 139.5,241.6 140.1,241.5 140.6,241.5 141.2,241.4 141.8,241.4
142.3,241.3 142.9,241.2 143.4,241.2 144.0,241.1 144.6,241.0 145.1,240.9 145.7,240.9 146.2,240.8 146.8,240.7 147.4,240.6 147.9,240.5 148.5,240.4 149.0,240.3 149.6,240.3 150.2,240.2 150.7,240.1
151.3,240.0 151.9,239.9 152.4,239.8 153.0,239.7 153.5,239.6 154.1,239.5 154.7,239.4 155.2,239.3 155.8,239.2 156.3,239.1 156.9,239.0 157.5,238.9 158.0,238.8 158.6,238.8 159.1,238.7 159.7,238.6
160.3,238.5 160.8,238.4 161.4,238.4 161.9,238.3 162.5,238.3 163.1,238.2 163.6,238.1 164.2,238.1 164.7,238.1 165.3,238.0 165.9,238.0 166.4,238.0 167.0,237.9 167.5,237.9 168.1,237.9 168.7,237.9
169.2,237.9 169.8,237.9 170.3,237.9 170.9,238.0 171.5,238.0 172.0,238.0 172.6,238.0 173.1,238.1 173.7,238.1 174.3,238.2 174.8,238.2 175.4,238.3 175.9,238.4 176.5,238.4 177.1,238.5 177.6,238.6
178.2,238.7 178.7,238.7 179.3,238.8 179.9,238.9 180.4,239.0 181.0,239.1 181.5,239.2 182.1,239.3 182.7,239.4 183.2,239.5 183.8,239.6 184.3,239.7 184.9,239.8 185.5,239.8 186.0,239.9 186.6,240.0
187.1,240.1 187.7,240.2 188.3,240.3 188.8,240.4 189.4,240.5 189.9,240.6 190.5,240.7 191.1,240.8 191.6,240.8 192.2,240.9 192.8,241.0 193.3,241.1 193.9,241.1 194.4,241.2 195.0,241.3 195.6,241.3
196.1,241.4 196.7,241.5 197.2,241.5 197.8,241.6 198.4,241.6 198.9,241.7 199.5,241.7 200.0,241.8 200.6,241.8 201.2,241.9 201.7,241.9 202.3,241.9 202.8,242.0 203.4,242.0 204.0,242.0 204.5,242.1
205.1,242.1 205.6,242.1 206.2,242.1 206.8,242.2 207.3,242.2 207.9,242.2 208.4,242.2 209.0,242.2 209.6,242.2 210.1,242.3 210.7,242.3 211.2,242.3 211.8,242.3 212.4,242.3 212.9,242.3 213.5,242.3
214.0,242.3 214.6,242.3 215.2,242.3 215.7,242.3 216.3,242.4 216.8,242.4 217.4,242.4 218.0,242.4 218.5,242.4 219.1,242.4 219.6,242.4 220.2,242.4 220.8,242.4 221.3,242.4 221.9,242.4 222.4,242.4
223.0,242.4 223.6,242.4 224.1,242.4 224.7,242.4 225.2,242.4 225.8,242.4 226.4,242.4 226.9,242.4 227.5,242.4 228.0,242.4 228.6,242.4 229.2,242.4 229.7,242.4 230.3,242.4 230.8,242.4 231.4,242.4
232.0,242.4 232.5,242.4 233.1,242.4 233.7,242.4 234.2,242.4 234.8,242.4 235.3,242.4 235.9,242.4 236.5,242.4 237.0,242.4 237.6,242.4 238.1,242.4 238.7,242.4 239.3,242.4 239.8,242.4 240.4,242.4
240.9,242.4 241.5,242.4 242.1,242.4 242.6,242.4 243.2,242.4 243.7,242.4 244.3,242.4 244.9,242.4 245.4,242.4 246.0,242.4 246.5,242.4 247.1,242.4 247.7,242.4 248.2,242.4 248.8,242.4 249.3,242.4
249.9,242.4 250.5,242.4 251.0,242.4 251.6,242.4 252.1,242.4 252.7,242.4 253.3,242.4 253.8,242.4 254.4,242.4 254.9,242.4 255.5,242.4 256.1,242.4 256.6,242.4 257.2,242.3 257.7,242.3 258.3,242.3
258.9,242.3 259.4,242.3 260.0,242.3 260.5,242.3 261.1,242.3 261.7,242.3 262.2,242.3 262.8,242.3 263.3,242.3 263.9,242.3 264.5,242.3 265.0,242.3 265.6,242.3 266.1,242.3 266.7,242.3 267.3,242.3
267.8,242.3 268.4,242.3 268.9,242.3 269.5,242.3 270.1,242.3 270.6,242.3 271.2,242.3 271.7,242.3 272.3,242.3 272.9,242.3 273.4,242.3 274.0,242.3 274.5,242.3 275.1,242.3 275.7,242.3 276.2,242.3
276.8,242.3 277.4,242.3 277.9,242.3 278.5,242.3 279.0,242.3 279.6,242.3 280.2,242.3 280.7,242.3 281.3,242.3 281.8,242.3 282.4,242.3 283.0,242.3 283.5,242.3 284.1,242.3 284.6,242.3 285.2,242.3
285.8,242.3 286.3,242.3 286.9,242.3 287.4,242.3 288.0,242.3 288.6,242.3 289.1,242.3 289.7,242.3 290.2,242.3 290.8,242.3 291.4,242.3 291.9,242.3 292.5,242.3 293.0,242.3 293.6,242.3 294.2,242.3
294.7,242.3 295.3,242.3 295.8,242.3 296.4,242.3 297.0,242.3 297.5,242.3 298.1,242.4 298.6,242.4 299.2,242.4 299.8,242.4 300.3,242.4 300.9,242.4 301.4,242.4 302.0,242.4 302.6,242.4 303.1,242.4
303.7,242.4 304.2,242.4 304.8,242.4 305.4,242.4 305.9,242.4 306.5,242.4 307.0,242.4 307.6,242.4 308.2,242.4 308.7,242.4 309.3,242.4 309.8,242.4 310.4,242.4 311.0,242.4 311.5,242.4 312.1,242.3
312.6,242.3 313.2,242.3 313.8,242.3 314.3,242.3 314.9,242.3 315.4,242.3 316.0,242.3 316.6,242.3 317.1,242.3 317.7,242.3 318.3,242.3 318.8,242.3 319.4,242.3 319.9,242.3 320.5,242.3 321.1,242.3
321.6,242.3 322.2,242.3 322.7,242.3 323.3,242.3 323.9,242.3 324.4,242.3 325.0,242.3 325.5,242.3 326.1,242.3 326.7,242.3 327.2,242.3 327.8,242.3 328.3,242.3 328.9,242.3 329.5,242.3 330.0,242.3
330.6,242.3 331.1,242.3 331.7,242.3 332.3,242.3 332.8,242.2 333.4,242.2 333.9,242.2 334.5,242.2 335.1,242.2 335.6,242.2 336.2,242.2 336.7,242.2 337.3,242.2 337.9,242.2 338.4,242.2 339.0,242.2
339.5,242.2 340.1,242.2 340.7,242.2 341.2,242.2 341.8,242.2 342.3,242.2 342.9,242.2 343.5,242.2 344.0,242.2 344.6,242.2 345.1,242.2 345.7,242.2 346.3,242.2 346.8,242.2 347.4,242.2 347.9,242.2
348.5,242.2 349.1,242.2 349.6,242.2 350.2,242.2 350.7,242.2 351.3,242.2 351.9,242.2 352.4,242.2 353.0,242.3 353.5,242.3 354.1,242.3 354.7,242.3 355.2,242.3 355.8,242.3 356.3,242.3 356.9,242.3
357.5,242.3 358.0,242.3 358.6,242.3 359.1,242.3 359.7,242.3 360.3,242.3 360.8,242.3 361.4,242.3 362.0,242.3 362.5,242.3 363.1,242.3 363.6,242.3 364.2,242.3 364.8,242.3 365.3,242.3 365.9,242.3
366.4,242.3 367.0,242.3 367.6,242.3 368.1,242.3 368.7,242.3 369.2,242.3 369.8,242.4 370.4,242.4 370.9,242.4 371.5,242.4 372.0,242.4 372.6,242.4 373.2,242.4 373.7,242.4 374.3,242.4 374.8,242.4
375.4,242.4 376.0,242.4 376.5,242.4 377.1,242.4 377.6,242.4 378.2,242.4 378.8,242.4 379.3,242.4 379.9,242.4 380.4,242.4 381.0,242.4 381.6,242.4 382.1,242.4 382.7,242.4 383.2,242.4 383.8,242.4
384.4,242.4 384.9,242.4 385.5,242.4 386.0,242.4 386.6,242.4 387.2,242.4 387.7,242.4 388.3,242.4 388.8,242.4 389.4,242.4 390.0,242.4 390.5,242.4 391.1,242.4 391.6,242.4 392.2,242.4 392.8,242.4
393.3,242.4 393.9,242.4 394.4,242.4 395.0,242.4 395.0,242.4 394.4,242.4 393.9,242.4 393.3,242.4 392.8,242.4 392.2,242.4 391.6,242.4 391.1,242.4 390.5,242.4 390.0,242.4 389.4,242.4 388.8,242.4
388.3,242.4 387.7,242.4 387.2,242.4 386.6,242.4 386.0,242.4 385.5,242.4 384.9,242.4 384.4,242.4 383.8,242.4 383.2,242.4 382.7,242.4 382.1,242.4 381.6,242.4 381.0,242.4 380.4,242.4 379.9,242.4
379.3,242.4 378.8,242.4 378.2,242.4 377.6,242.4 377.1,242.4 376.5,242.4 376.0,242.4 375.4,242.4 374.8,242.4 374.3,242.4 373.7,242.4 373.2,242.4 372.6,242.4 372.0,242.4 371.5,242.4 370.9,242.4
370.4,242.4 369.8,242.4 369.2,242.4 368.7,242.4 368.1,242.4 367.6,242.4 367.0,242.4 366.4,242.4 365.9,242.4 365.3,242.4 364.8,242.4 364.2,242.4 363.6,242.4 363.1,242.4 362.5,242.4 362.0,242.4
361.4,242.4 360.8,242.4 360.3,242.4 359.7,242.4 359.1,242.4 358.6,242.4 358.0,242.4 357.5,242.4 356.9,242.4 356.3,242.4 355.8,242.4 355.2,242.4 354.7,242.4 354.1,242.4 353.5,242.4 353.0,242.4
352.4,242.4 351.9,242.4 351.3,242.4 350.7,242.4 350.2,242.4 349.6,242.4 349.1,242.4 348.5,242.4 347.9,242.4 347.4,242.4 346.8,242.4 346.3,242.4 345.7,242.4 345.1,242.4 344.6,242.4 344.0,242.4
343.5,242.4 342.9,242.4 342.3,242.4 341.8,242.4 341.2,242.4 340.7,242.4 340.1,242.4 339.5,242.4 339.0,242.4 338.4,242.4 337.9,242.4 337.3,242.4 336.7,242.4 336.2,242.4 335.6,242.4 335.1,242.4
334.5,242.4 333.9,242.4 333.4,242.4 332.8,242.4 332.3,242.4 331.7,242.4 331.1,242.4 330.6,242.4 330.0,242.4 329.5,242.4 328.9,242.4 328.3,242.4 327.8,242.4 327.2,242.4 326.7,242.4 326.1,242.4
325.5,242.4 325.0,242.4 324.4,242.4 323.9,242.4 323.3,242.4 322.7,242.4 322.2,242.4 321.6,242.4 321.1,242.4 320.5,242.4 319.9,242.4 319.4,242.4 318.8,242.4 318.3,242.4 317.7,242.4 317.1,242.4
316.6,242.4 316.0,242.4 315.4,242.4 314.9,242.4 314.3,242.4 313.8,242.4 313.2,242.4 312.6,242.4 312.1,242.4 311.5,242.4 311.0,242.4 310.4,242.4 309.8,242.4 309.3,242.4 308.7,242.4 308.2,242.4
307.6,242.4 307.0,242.4 306.5,242.4 305.9,242.4 305.4,242.4 304.8,242.4 304.2,242.4 303.7,242.4 303.1,242.4 302.6,242.4 302.0,242.4 301.4,242.4 300.9,242.4 300.3,242.4 299.8,242.4 299.2,242.4
298.6,242.4 298.1,242.4 297.5,242.4 297.0,242.4 296.4,242.4 295.8,242.4 295.3,242.4 294.7,242.4 294.2,242.4 293.6,242.4 293.0,242.4 292.5,242.4 291.9,242.4 291.4,242.4 290.8,242.4 290.2,242.4
289.7,242.4 289.1,242.4 288.6,242.4 288.0,242.4 287.4,242.4 286.9,242.4 286.3,242.4 285.8,242.4 285.2,242.4 284.6,242.4 284.1,242.4 283.5,242.4 283.0,242.4 282.4,242.4 281.8,242.4 281.3,242.4
280.7,242.4 280.2,242.4 279.6,242.4 279.0,242.4 278.5,242.4 277.9,242.4 277.4,242.4 276.8,242.4 276.2,242.4 275.7,242.4 275.1,242.4 274.5,242.4 274.0,242.4 273.4,242.4 272.9,242.4 272.3,242.4
271.7,242.4 271.2,242.4 270.6,242.4 270.1,242.4 269.5,242.4 268.9,242.4 268.4,242.4 267.8,242.4 267.3,242.4 266.7,242.4 266.1,242.4 265.6,242.4 265.0,242.4 264.5,242.4 263.9,242.4 263.3,242.4
262.8,242.4 262.2,242.4 261.7,242.4 261.1,242.4 260.5,242.4 260.0,242.4 259.4,242.4 258.9,242.4 258.3,242.4 257.7,242.4 257.2,242.4 256.6,242.4 256.1,242.4 255.5,242.4 254.9,242.4 254.4,242.4
253.8,242.4 253.3,242.4 252.7,242.4 252.1,242.4 251.6,242.4 251.0,242.4 250.5,242.4 249.9,242.4 249.3,242.4 248.8,242.4 248.2,242.4 247.7,242.4 247.1,242.4 246.5,242.4 246.0,242.4 245.4,242.4
244.9,242.4 244.3,242.4 243.7,242.4 243.2,242.4 242.6,242.4 242.1,242.4 241.5,242.4 240.9,242.4 240.4,242.4 239.8,242.4 239.3,242.4 238.7,242.4 238.1,242.4 237.6,242.4 237.0,242.4 236.5,242.4
235.9,242.4 235.3,242.4 234.8,242.4 234.2,242.4 233.7,242.4 233.1,242.4 232.5,242.4 232.0,242.4 231.4,242.4 230.8,242.4 230.3,242.4 229.7,242.4 229.2,242.4 228.6,242.4 228.0,242.4 227.5,242.4
226.9,242.4 226.4,242.4 225.8,242.4 225.2,242.4 224.7,242.4 224.1,242.4 223.6,242.4 223.0,242.4 222.4,242.4 221.9,242.4 221.3,242.4 220.8,242.4 220.2,242.4 219.6,242.4 219.1,242.4 218.5,242.4
218.0,242.4 217.4,242.4 216.8,242.4 216.3,242.4 215.7,242.4 215.2,242.4 214.6,242.4 214.0,242.4 213.5,242.4 212.9,242.4 212.4,242.4 211.8,242.4 211.2,242.4 210.7,242.4 210.1,242.4 209.6,242.4
209.0,242.4 208.4,242.4 207.9,242.4 207.3,242.4 206.8,242.4 206.2,242.4 205.6,242.4 205.1,242.4 204.5,242.4 204.0,242.4 203.4,242.4 202.8,242.4 202.3,242.4 201.7,242.4 201.2,242.4 200.6,242.4
200.0,242.4 199.5,242.4 198.9,242.4 198.4,242.4 197.8,242.4 197.2,242.4 196.7,242.4 196.1,242.4 195.6,242.4 195.0,242.4 194.4,242.4 193.9,242.4 193.3,242.4 192.8,242.4 192.2,242.4 191.6,242.4
191.1,242.4 190.5,242.4 189.9,242.4 189.4,242.4 188.8,242.4 188.3,242.4 187.7,242.4 187.1,242.4 186.6,242.4 186.0,242.4 185.5,242.4 184.9,242.4 184.3,242.4 183.8,242.4 183.2,242.4 182.7,242.4
182.1,242.4 181.5,242.4 181.0,242.4 180.4,242.4 179.9,242.4 179.3,242.4 178.7,242.4 178.2,242.4 177.6,242.4 177.1,242.4 176.5,242.4 175.9,242.4 175.4,242.4 174.8,242.4 174.3,242.4 173.7,242.4
173.1,242.4 172.6,242.4 172.0,242.4 171.5,242.4 170.9,242.4 170.3,242.4 169.8,242.4 169.2,242.4 168.7,242.4 168.1,242.4 167.5,242.4 167.0,242.4 166.4,242.4 165.9,242.4 165.3,242.4 164.7,242.4
164.2,242.4 163.6,242.4 163.1,242.4 162.5,242.4 161.9,242.4 161.4,242.4 160.8,242.4 160.3,242.4 159.7,242.4 159.1,242.4 158.6,242.4 158.0,242.4 157.5,242.4 156.9,242.4 156.3,242.4 155.8,242.4
155.2,242.4 154.7,242.4 154.1,242.4 153.5,242.4 153.0,242.4 152.4,242.4 151.9,242.4 151.3,242.4 150.7,242.4 150.2,242.4 149.6,242.4 149.0,242.4 148.5,242.4 147.9,242.4 147.4,242.4 146.8,242.4
146.2,242.4 145.7,242.4 145.1,242.4 144.6,242.4 144.0,242.4 143.4,242.4 142.9,242.4 142.3,242.4 141.8,242.4 141.2,242.4 140.6,242.4 140.1,242.4 139.5,242.4 139.0,242.4 138.4,242.4 137.8,242.4
137.3,242.4 136.7,242.4 136.2,242.4 135.6,242.4 135.0,242.4 134.5,242.4 133.9,242.4 133.4,242.4 132.8,242.4 132.2,242.4 131.7,242.4 131.1,242.4 130.6,242.4 130.0,242.4 129.4,242.4 128.9,242.4
128.3,242.4 127.8,242.4 127.2,242.4 126.6,242.4 126.1,242.4 125.5,242.4 125.0,242.4 124.4,242.4 123.8,242.4 123.3,242.4 122.7,242.4 122.2,242.4 121.6,242.4 121.0,242.4 120.5,242.4 119.9,242.4
119.4,242.4 118.8,242.4 118.2,242.4 117.7,242.4 117.1,242.4 116.6,242.4 116.0,242.4 115.4,242.4 '/>
	</g>
</g>
	</g>
	<g id="gnuplot_plot_2" ><title>Base Mean</title>
<g fill="none" color="white" stroke="rgb(227,  26,  28)" stroke-width="2.00" stroke-linecap="butt" stroke-linejoin="miter">
</g>
<g fill="none" color="black" stroke="currentColor" stroke-width="2.00" stroke-linecap="butt" stroke-linejoin="miter">
	<path stroke='rgb(227,  26,  28)'  d='M177.9,242.4 L177.9,238.6  '/></g>
	</g>
	<g id="gnuplot_plot_3" ><title>New PDF</title>
<g fill="none" color="white" stroke="rgb(227,  26,  28)" stroke-width="1.00" stroke-linecap="butt" stroke-linejoin="miter">
</g>
<g fill="none" color="black" stroke="currentColor" stroke-width="1.00" stroke-linecap="butt" stroke-linejoin="miter">
	<g stroke='none' shape-rendering='crispEdges'>
		<polygon fill = 'rgb( 31, 120, 180)' fill-opacity = '0.500000' points = '175.8,242.4 175.8,242.4 175.9,242.3 175.9,242.3 175.9,242.3 175.9,242.3 175.9,242.3 175.9,242.3 175.9,242.3 175.9,242.3 175.9,242.3 175.9,242.2 176.0,242.2 176.0,242.2 176.0,242.2 176.0,242.1
176.0,242.1 176.0,242.1 176.0,242.0 176.0,242.0 176.0,242.0 176.1,241.9 176.1,241.9 176.1,241.8 176.1,241.8 176.1,241.7 176.1,241.6 176.1,241.6 176.1,241.5 176.1,241.4 176.2,241.4 176.2,241.3
176.2,241.2 176.2,241.1 176.2,241.0 176.2,240.9 176.2,240.8 176.2,240.7 176.2,240.7 176.3,240.6 176.3,240.5 176.3,240.3 176.3,240.2 176.3,240.1 176.3,240.0 176.3,239.9 176.3,239.8 176.3,239.7
176.3,239.7 176.4,239.6 176.4,239.5 176.4,239.4 176.4,239.3 176.4,239.2 176.4,239.1 176.4,239.1 176.4,239.0 176.4,238.9 176.5,238.9 176.5,238.8 176.5,238.8 176.5,238.7 176.5,238.6 176.5,238.6
176.5,238.5 176.5,238.5 176.5,238.4 176.6,238.3 176.6,238.3 176.6,238.2 176.6,238.1 176.6,238.0 176.6,237.8 176.6,237.7 176.6,237.5 176.6,237.3 176.7,237.0 176.7,236.7 176.7,236.4 176.7,236.1
176.7,235.6 176.7,235.2 176.7,234.6 176.7,234.0 176.7,233.3 176.7,232.6 176.8,231.7 176.8,230.8 176.8,229.7 176.8,228.6 176.8,227.3 176.8,225.9 176.8,224.4 176.8,222.8 176.8,221.0 176.9,219.0
176.9,216.9 176.9,214.7 176.9,212.2 176.9,209.6 176.9,206.8 176.9,203.9 176.9,200.7 176.9,197.4 177.0,193.9 177.0,190.2 177.0,186.3 177.0,182.2 177.0,177.9 177.0,173.5 177.0,168.9 177.0,164.1
177.0,159.1 177.1,154.1 177.1,148.8 177.1,143.5 177.1,138.0 177.1,132.5 177.1,126.8 177.1,121.1 177.1,115.4 177.1,109.6 177.1,103.8 177.2,98.1 177.2,92.4 177.2,86.7 177.2,81.2 177.2,75.7
177.2,70.4 177.2,65.3 177.2,60.3 177.2,55.5 177.3,50.9 177.3,46.6 177.3,42.6 177.3,38.8 177.3,35.3 177.3,32.1 177.3,29.3 177.3,26.8 177.3,24.6 177.4,22.8 177.4,21.3 177.4,20.3
177.4,19.5 177.4,19.2 177.4,19.2 177.4,19.6 177.4,20.3 177.4,21.4 177.5,22.8 177.5,24.5 177.5,26.6 177.5,28.9 177.5,31.6 177.5,34.5 177.5,37.6 177.5,41.0 177.5,44.6 177.5,48.4
177.6,52.4 177.6,56.5 177.6,60.8 177.6,65.1 177.6,69.6 177.6,74.1 177.6,78.7 177.6,83.3 177.6,87.9 177.7,92.5 177.7,97.1 177.7,101.7 177.7,106.2 177.7,110.7 177.7,115.1 177.7,119.4
177.7,123.6 177.7,127.7 177.8,131.7 177.8,135.5 177.8,139.3 177.8,142.9 177.8,146.4 177.8,149.7 177.8,152.9 177.8,156.0 177.8,158.9 177.9,161.7 177.9,164.4 177.9,166.9 177.9,169.3 177.9,171.6
177.9,173.7 177.9,175.8 177.9,177.7 177.9,179.5 177.9,181.2 178.0,182.8 178.0,184.3 178.0,185.8 178.0,187.1 178.0,188.4 178.0,189.6 178.0,190.8 178.0,191.9 178.0,192.9 178.1,193.9 178.1,194.8
178.1,195.7 178.1,196.5 178.1,197.4 178.1,198.1 178.1,198.9 178.1,199.6 178.1,200.3 178.2,201.0 178.2,201.6 178.2,202.2 178.2,202.8 178.2,203.4 178.2,204.0 178.2,204.5 178.2,205.0 178.2,205.6
178.3,206.1 178.3,206.5 178.3,207.0 178.3,207.5 178.3,207.9 178.3,208.3 178.3,208.7 178.3,209.1 178.3,209.5 178.3,209.9 178.4,210.3 178.4,210.6 178.4,211.0 178.4,211.3 178.4,211.7 178.4,212.0
178.4,212.3 178.4,212.6 178.4,213.0 178.5,213.3 178.5,213.6 178.5,213.9 178.5,214.3 178.5,214.6 178.5,214.9 178.5,215.2 178.5,215.6 178.5,215.9 178.6,216.2 178.6,216.6 178.6,216.9 178.6,217.3
178.6,217.6 178.6,218.0 178.6,218.4 178.6,218.7 178.6,219.1 178.7,219.5 178.7,219.9 178.7,220.2 178.7,220.6 178.7,221.0 178.7,221.4 178.7,221.8 178.7,222.2 178.7,222.5 178.7,222.9 178.8,223.3
178.8,223.7 178.8,224.1 178.8,224.4 178.8,224.8 178.8,225.2 178.8,225.5 178.8,225.9 178.8,226.3 178.9,226.6 178.9,227.0 178.9,227.3 178.9,227.6 178.9,228.0 178.9,228.3 178.9,228.6 178.9,228.9
178.9,229.3 179.0,229.6 179.0,229.9 179.0,230.2 179.0,230.5 179.0,230.8 179.0,231.1 179.0,231.4 179.0,231.7 179.0,232.0 179.1,232.3 179.1,232.6 179.1,232.9 179.1,233.2 179.1,233.5 179.1,233.8
179.1,234.1 179.1,234.4 179.1,234.7 179.1,235.0 179.2,235.3 179.2,235.5 179.2,235.8 179.2,236.1 179.2,236.4 179.2,236.6 179.2,236.9 179.2,237.2 179.2,237.4 179.3,237.7 179.3,237.9 179.3,238.2
179.3,238.4 179.3,238.6 179.3,238.8 179.3,239.1 179.3,239.3 179.3,239.5 179.4,239.7 179.4,239.8 179.4,240.0 179.4,240.2 179.4,240.3 179.4,240.5 179.4,240.6 179.4,240.8 179.4,240.9 179.5,241.0
179.5,241.1 179.5,241.3 179.5,241.4 179.5,241.4 179.5,241.5 179.5,241.6 179.5,241.7 179.5,241.8 179.5,241.8 179.6,241.9 179.6,241.9 179.6,242.0 179.6,242.0 179.6,242.1 179.6,242.1 179.6,242.1
179.6,242.2 179.6,242.2 179.7,242.2 179.7,242.2 179.7,242.3 179.7,242.3 179.7,242.3 179.7,242.3 179.7,242.3 179.7,242.3 179.7,242.3 179.8,242.3 179.8,242.3 179.8,242.4 179.8,242.4 179.8,242.4
179.8,242.4 179.8,242.4 179.8,242.4 179.8,242.4 179.9,242.4 179.9,242.4 179.9,242.4 179.9,242.4 179.9,242.4 179.9,242.3 179.9,242.3 179.9,242.3 179.9,242.3 179.9,242.3 180.0,242.3 180.0,242.3
180.0,242.3 180.0,242.3 180.0,242.2 180.0,242.2 180.0,242.2 180.0,242.2 180.0,242.2 180.1,242.1 180.1,242.1 180.1,242.1 180.1,242.0 180.1,242.0 180.1,242.0 180.1,241.9 180.1,241.9 180.1,241.8
180.2,241.7 180.2,241.7 180.2,241.6 180.2,241.6 180.2,241.5 180.2,241.4 180.2,241.3 180.2,241.3 180.2,241.2 180.3,241.1 180.3,241.0 180.3,240.9 180.3,240.8 180.3,240.7 180.3,240.6 180.3,240.5
180.3,240.4 180.3,240.3 180.3,240.2 180.4,240.1 180.4,240.0 180.4,239.9 180.4,239.8 180.4,239.7 180.4,239.7 180.4,239.6 180.4,239.5 180.4,239.4 180.5,239.3 180.5,239.3 180.5,239.2 180.5,239.2
180.5,239.1 180.5,239.1 180.5,239.1 180.5,239.0 180.5,239.0 180.6,239.0 180.6,239.0 180.6,239.0 180.6,239.0 180.6,239.1 180.6,239.1 180.6,239.1 180.6,239.2 180.6,239.2 180.7,239.3 180.7,239.4
180.7,239.4 180.7,239.5 180.7,239.6 180.7,239.7 180.7,239.8 180.7,239.9 180.7,240.0 180.7,240.1 180.8,240.2 180.8,240.3 180.8,240.4 180.8,240.5 180.8,240.6 180.8,240.7 180.8,240.8 180.8,240.8
180.8,240.9 180.9,241.0 180.9,241.1 180.9,241.2 180.9,241.3 180.9,241.4 180.9,241.4 180.9,241.5 180.9,241.6 180.9,241.6 181.0,241.7 181.0,241.8 181.0,241.8 181.0,241.9 181.0,241.9 181.0,242.0
181.0,242.0 181.0,242.0 181.0,242.1 181.1,242.1 181.1,242.1 181.1,242.2 181.1,242.2 181.1,242.2 181.1,242.2 181.1,242.3 181.1,242.3 181.1,242.3 181.1,242.3 181.2,242.3 181.2,242.3 181.2,242.3
181.2,242.3 181.2,242.3 181.2,242.4 181.2,242.4 181.2,242.4 181.2,242.4 181.2,242.4 181.2,242.4 181.2,242.4 181.2,242.4 181.2,242.4 181.1,242.4 181.1,242.4 181.1,242.4 181.1,242.4 181.1,242.4
181.1,242.4 181.1,242.4 181.1,242.4 181.1,242.4 181.1,242.4 181.0,242.4 181.0,242.4 181.0,242.4 181.0,242.4 181.0,242.4 181.0,242.4 181.0,242.4 181.0,242.4 181.0,242.4 180.9,242.4 180.9,242.4
180.9,242.4 180.9,242.4 180.9,242.4 180.9,242.4 180.9,242.4 180.9,242.4 180.9,242.4 180.8,242.4 180.8,242.4 180.8,242.4 180.8,242.4 180.8,242.4 180.8,242.4 180.8,242.4 180.8,242.4 180.8,242.4
180.7,242.4 180.7,242.4 180.7,242.4 180.7,242.4 180.7,242.4 180.7,242.4 180.7,242.4 180.7,242.4 180.7,242.4 180.7,242.4 180.6,242.4 180.6,242.4 180.6,242.4 180.6,242.4 180.6,242.4 180.6,242.4
180.6,242.4 180.6,242.4 180.6,242.4 180.5,242.4 180.5,242.4 180.5,242.4 180.5,242.4 180.5,242.4 180.5,242.4 180.5,242.4 180.5,242.4 180.5,242.4 180.4,242.4 180.4,242.4 180.4,242.4 180.4,242.4
180.4,242.4 180.4,242.4 180.4,242.4 180.4,242.4 180.4,242.4 180.3,242.4 180.3,242.4 180.3,242.4 180.3,242.4 180.3,242.4 180.3,242.4 180.3,242.4 180.3,242.4 180.3,242.4 180.3,242.4 180.2,242.4
180.2,242.4 180.2,242.4 180.2,242.4 180.2,242.4 180.2,242.4 180.2,242.4 180.2,242.4 180.2,242.4 180.1,242.4 180.1,242.4 180.1,242.4 180.1,242.4 180.1,242.4 180.1,242.4 180.1,242.4 180.1,242.4
180.1,242.4 180.0,242.4 180.0,242.4 180.0,242.4 180.0,242.4 180.0,242.4 180.0,242.4 180.0,242.4 180.0,242.4 180.0,242.4 179.9,242.4 179.9,242.4 179.9,242.4 179.9,242.4 179.9,242.4 179.9,242.4
179.9,242.4 179.9,242.4 179.9,242.4 179.9,242.4 179.8,242.4 179.8,242.4 179.8,242.4 179.8,242.4 179.8,242.4 179.8,242.4 179.8,242.4 179.8,242.4 179.8,242.4 179.7,242.4 179.7,242.4 179.7,242.4
179.7,242.4 179.7,242.4 179.7,242.4 179.7,242.4 179.7,242.4 179.7,242.4 179.6,242.4 179.6,242.4 179.6,242.4 179.6,242.4 179.6,242.4 179.6,242.4 179.6,242.4 179.6,242.4 179.6,242.4 179.5,242.4
179.5,242.4 179.5,242.4 179.5,242.4 179.5,242.4 179.5,242.4 179.5,242.4 179.5,242.4 179.5,242.4 179.5,242.4 179.4,242.4 179.4,242.4 179.4,242.4 179.4,242.4 179.4,242.4 179.4,242.4 179.4,242.4
179.4,242.4 179.4,242.4 179.3,242.4 179.3,242.4 179.3,242.4 179.3,242.4 179.3,242.4 179.3,242.4 179.3,242.4 179.3,242.4 179.3,242.4 179.2,242.4 179.2,242.4 179.2,242.4 179.2,242.4 179.2,242.4
179.2,242.4 179.2,242.4 179.2,242.4 179.2,242.4 179.1,242.4 179.1,242.4 179.1,242.4 179.1,242.4 179.1,242.4 179.1,242.4 179.1,242.4 179.1,242.4 179.1,242.4 179.1,242.4 179.0,242.4 179.0,242.4
179.0,242.4 179.0,242.4 179.0,242.4 179.0,242.4 179.0,242.4 179.0,242.4 179.0,242.4 178.9,242.4 178.9,242.4 178.9,242.4 178.9,242.4 178.9,242.4 178.9,242.4 178.9,242.4 178.9,242.4 178.9,242.4
178.8,242.4 178.8,242.4 178.8,242.4 178.8,242.4 178.8,242.4 178.8,242.4 178.8,242.4 178.8,242.4 178.8,242.4 178.7,242.4 178.7,242.4 178.7,242.4 178.7,242.4 178.7,242.4 178.7,242.4 178.7,242.4
178.7,242.4 178.7,242.4 178.7,242.4 178.6,242.4 178.6,242.4 178.6,242.4 178.6,242.4 178.6,242.4 178.6,242.4 178.6,242.4 178.6,242.4 178.6,242.4 178.5,242.4 178.5,242.4 178.5,242.4 178.5,242.4
178.5,242.4 178.5,242.4 178.5,242.4 178.5,242.4 178.5,242.4 178.4,242.4 178.4,242.4 178.4,242.4 178.4,242.4 178.4,242.4 178.4,242.4 178.4,242.4 178.4,242.4 178.4,242.4 178.3,242.4 178.3,242.4
178.3,242.4 178.3,242.4 178.3,242.4 178.3,242.4 178.3,242.4 178.3,242.4 178.3,242.4 178.3,242.4 178.2,242.4 178.2,242.4 178.2,242.4 178.2,242.4 178.2,242.4 178.2,242.4 178.2,242.4 178.2,242.4
178.2,242.4 178.1,242.4 178.1,242.4 178.1,242.4 178.1,242.4 178.1,242.4 178.1,242.4 178.1,242.4 178.1,242.4 178.1,242.4 178.0,242.4 178.0,242.4 178.0,242.4 178.0,242.4 178.0,242.4 178.0,242.4
178.0,242.4 178.0,242.4 178.0,242.4 177.9,242.4 177.9,242.4 177.9,242.4 177.9,242.4 177.9,242.4 177.9,242.4 177.9,242.4 177.9,242.4 177.9,242.4 177.9,242.4 177.8,242.4 177.8,242.4 177.8,242.4
177.8,242.4 177.8,242.4 177.8,242.4 177.8,242.4 177.8,242.4 177.8,242.4 177.7,242.4 177.7,242.4 177.7,242.4 177.7,242.4 177.7,242.4 177.7,242.4 177.7,242.4 177.7,242.4 177.7,242.4 177.6,242.4
177.6,242.4 177.6,242.4 177.6,242.4 177.6,242.4 177.6,242.4 177.6,242.4 177.6,242.4 177.6,242.4 177.5,242.4 177.5,242.4 177.5,242.4 177.5,242.4 177.5,242.4 177.5,242.4 177.5,242.4 177.5,242.4
177.5,242.4 177.5,242.4 177.4,242.4 177.4,242.4 177.4,242.4 177.4,242.4 177.4,242.4 177.4,242.4 177.4,242.4 177.4,242.4 177.4,242.4 177.3,242.4 177.3,242.4 177.3,242.4 177.3,242.4 177.3,242.4
177.3,242.4 177.3,242.4 177.3,242.4 177.3,242.4 177.2,242.4 177.2,242.4 177.2,242.4 177.2,242.4 177.2,242.4 177.2,242.4 177.2,242.4 177.2,242.4 177.2,242.4 177.1,242.4 177.1,242.4 177.1,242.4
177.1,242.4 177.1,242.4 177.1,242.4 177.1,242.4 177.1,242.4 177.1,242.4 177.1,242.4 177.0,242.4 177.0,242.4 177.0,242.4 177.0,242.4 177.0,242.4 177.0,242.4 177.0,242.4 177.0,242.4 177.0,242.4
176.9,242.4 176.9,242.4 176.9,242.4 176.9,242.4 176.9,242.4 176.9,242.4 176.9,242.4 176.9,242.4 176.9,242.4 176.8,242.4 176.8,242.4 176.8,242.4 176.8,242.4 176.8,242.4 176.8,242.4 176.8,242.4
176.8,242.4 176.8,242.4 176.7,242.4 176.7,242.4 176.7,242.4 176.7,242.4 176.7,242.4 176.7,242.4 176.7,242.4 176.7,242.4 176.7,242.4 176.7,242.4 176.6,242.4 176.6,242.4 176.6,242.4 176.6,242.4
176.6,242.4 176.6,242.4 176.6,242.4 176.6,242.4 176.6,242.4 176.5,242.4 176.5,242.4 176.5,242.4 176.5,242.4 176.5,242.4 176.5,242.4 176.5,242.4 176.5,242.4 176.5,242.4 176.4,242.4 176.4,242.4
176.4,242.4 176.4,242.4 176.4,242.4 176.4,242.4 176.4,242.4 176.4,242.4 176.4,242.4 176.3,242.4 176.3,242.4 176.3,242.4 176.3,242.4 176.3,242.4 176.3,242.4 176.3,242.4 176.3,242.4 176.3,242.4
176.3,242.4 176.2,242.4 176.2,242.4 176.2,242.4 176.2,242.4 176.2,242.4 176.2,242.4 176.2,242.4 176.2,242.4 176.2,242.4 176.1,242.4 176.1,242.4 176.1,242.4 176.1,242.4 176.1,242.4 176.1,242.4
176.1,242.4 176.1,242.4 176.1,242.4 176.0,242.4 176.0,242.4 176.0,242.4 176.0,242.4 176.0,242.4 176.0,242.4 176.0,242.4 176.0,242.4 176.0,242.4 175.9,242.4 175.9,242.4 175.9,242.4 175.9,242.4
175.9,242.4 175.9,242.4 175.9,242.4 175.9,242.4 175.9,242.4 175.9,242.4 175.8,242.4 175.8,242.4 '/>
	</g>
</g>
	</g>
	<g id="gnuplot_plot_4" ><title>New Mean</title>
<g fill="none" color="white" stroke="rgb( 31, 120, 180)" stroke-width="2.00" stroke-linecap="butt" stroke-linejoin="miter">
</g>
<g fill="none" color="black" stroke="currentColor" stroke-width="2.00" stroke-linecap="butt" stroke-linejoin="miter">
	<path stroke='rgb( 31, 120, 180)'  d='M177.6,242.4 L177.6,77.4  '/></g>
	</g>
<g fill="none" color="black" stroke="currentColor" stroke-width="2.00" stroke-linecap="butt" stroke-linejoin="miter">
</g>
<g fill="none" color="black" stroke="black" stroke-width="1.00" stroke-linecap="butt" stroke-linejoin="miter">
</g>
<g fill="none" color="black" stroke="currentColor" stroke-width="1.00" stroke-linecap="butt" stroke-linejoin="miter">
	<path stroke='black'  d='M71.9,18.1 L71.9,242.4 L425.0,242.4 L425.0,18.1 L71.9,18.1 Z  '/></g>
<g fill="none" color="black" stroke="currentColor" stroke-width="1.00" stroke-linecap="butt" stroke-linejoin="miter">
</g>
</g>
</svg>

