<?xml version="1.0" encoding="utf-8"  standalone="no"?>
<svg 
 viewBox="0 0 1280 720"
 xmlns="http://www.w3.org/2000/svg"
 xmlns:xlink="http://www.w3.org/1999/xlink"
>

<title>Gnuplot</title>
<desc>Produced by GNUPLOT 5.2 patchlevel 8 </desc>

<g id="gnuplot_canvas">

<rect x="0" y="0" width="1280" height="720" fill="none"/>
<defs>

	<circle id='gpDot' r='0.5' stroke-width='0.5' stroke='currentColor'/>
	<path id='gpPt0' stroke-width='0.222' stroke='currentColor' d='M-1,0 h2 M0,-1 v2'/>
	<path id='gpPt1' stroke-width='0.222' stroke='currentColor' d='M-1,-1 L1,1 M1,-1 L-1,1'/>
	<path id='gpPt2' stroke-width='0.222' stroke='currentColor' d='M-1,0 L1,0 M0,-1 L0,1 M-1,-1 L1,1 M-1,1 L1,-1'/>
	<rect id='gpPt3' stroke-width='0.222' stroke='currentColor' x='-1' y='-1' width='2' height='2'/>
	<rect id='gpPt4' stroke-width='0.222' stroke='currentColor' fill='currentColor' x='-1' y='-1' width='2' height='2'/>
	<circle id='gpPt5' stroke-width='0.222' stroke='currentColor' cx='0' cy='0' r='1'/>
	<use xlink:href='#gpPt5' id='gpPt6' fill='currentColor' stroke='none'/>
	<path id='gpPt7' stroke-width='0.222' stroke='currentColor' d='M0,-1.33 L-1.33,0.67 L1.33,0.67 z'/>
	<use xlink:href='#gpPt7' id='gpPt8' fill='currentColor' stroke='none'/>
	<use xlink:href='#gpPt7' id='gpPt9' stroke='currentColor' transform='rotate(180)'/>
	<use xlink:href='#gpPt9' id='gpPt10' fill='currentColor' stroke='none'/>
	<use xlink:href='#gpPt3' id='gpPt11' stroke='currentColor' transform='rotate(45)'/>
	<use xlink:href='#gpPt11' id='gpPt12' fill='currentColor' stroke='none'/>
	<path id='gpPt13' stroke-width='0.222' stroke='currentColor' d='M0,1.330 L1.265,0.411 L0.782,-1.067 L-0.782,-1.076 L-1.265,0.411 z'/>
	<use xlink:href='#gpPt13' id='gpPt14' fill='currentColor' stroke='none'/>
	<filter id='textbox' filterUnits='objectBoundingBox' x='0' y='0' height='1' width='1'>
	  <feFlood flood-color='white' flood-opacity='1' result='bgnd'/>
	  <feComposite in='SourceGraphic' in2='bgnd' operator='atop'/>
	</filter>
	<filter id='greybox' filterUnits='objectBoundingBox' x='0' y='0' height='1' width='1'>
	  <feFlood flood-color='lightgrey' flood-opacity='1' result='grey'/>
	  <feComposite in='SourceGraphic' in2='grey' operator='atop'/>
	</filter>
</defs>
<g fill="none" color="white" stroke="currentColor" stroke-width="1.00" stroke-linecap="butt" stroke-linejoin="miter">
</g>
<g fill="none" color="black" stroke="currentColor" stroke-width="1.00" stroke-linecap="butt" stroke-linejoin="miter">
	<path stroke='black'  d='M63.6,662.4 L72.6,662.4  '/>	<g transform="translate(55.3,666.3)" stroke="none" fill="black" font-family="Helvetica" font-size="12.00"  text-anchor="end">
		<text><tspan font-family="Helvetica" > 0</tspan></text>
	</g>
</g>
<g fill="none" color="black" stroke="currentColor" stroke-width="1.00" stroke-linecap="butt" stroke-linejoin="miter">
	<path stroke='black'  d='M63.6,544.5 L72.6,544.5  '/>	<g transform="translate(55.3,548.4)" stroke="none" fill="black" font-family="Helvetica" font-size="12.00"  text-anchor="end">
		<text><tspan font-family="Helvetica" > 5</tspan></text>
	</g>
</g>
<g fill="none" color="black" stroke="currentColor" stroke-width="1.00" stroke-linecap="butt" stroke-linejoin="miter">
	<path stroke='black'  d='M63.6,426.6 L72.6,426.6  '/>	<g transform="translate(55.3,430.5)" stroke="none" fill="black" font-family="Helvetica" font-size="12.00"  text-anchor="end">
		<text><tspan font-family="Helvetica" > 10</tspan></text>
	</g>
</g>
<g fill="none" color="black" stroke="currentColor" stroke-width="1.00" stroke-linecap="butt" stroke-linejoin="miter">
	<path stroke='black'  d='M63.6,308.7 L72.6,308.7  '/>	<g transform="translate(55.3,312.6)" stroke="none" fill="black" font-family="Helvetica" font-size="12.00"  text-anchor="end">
		<text><tspan font-family="Helvetica" > 15</tspan></text>
	</g>
</g>
<g fill="none" color="black" stroke="currentColor" stroke-width="1.00" stroke-linecap="butt" stroke-linejoin="miter">
	<path stroke='black'  d='M63.6,190.8 L72.6,190.8  '/>	<g transform="translate(55.3,194.7)" stroke="none" fill="black" font-family="Helvetica" font-size="12.00"  text-anchor="end">
		<text><tspan font-family="Helvetica" > 20</tspan></text>
	</g>
</g>
<g fill="none" color="black" stroke="currentColor" stroke-width="1.00" stroke-linecap="butt" stroke-linejoin="miter">
	<path stroke='black'  d='M63.6,73.0 L72.6,73.0  '/>	<g transform="translate(55.3,76.9)" stroke="none" fill="black" font-family="Helvetica" font-size="12.00"  text-anchor="end">
		<text><tspan font-family="Helvetica" > 25</tspan></text>
	</g>
</g>
<g fill="none" color="black" stroke="currentColor" stroke-width="1.00" stroke-linecap="butt" stroke-linejoin="miter">
	<path stroke='black'  d='M180.7,662.4 L180.7,653.4  '/>	<g transform="translate(180.7,684.3)" stroke="none" fill="black" font-family="Helvetica" font-size="12.00"  text-anchor="middle">
		<text><tspan font-family="Helvetica" > 3.83</tspan></text>
	</g>
</g>
<g fill="none" color="black" stroke="currentColor" stroke-width="1.00" stroke-linecap="butt" stroke-linejoin="miter">
	<path stroke='black'  d='M343.0,662.4 L343.0,653.4  '/>	<g transform="translate(343.0,684.3)" stroke="none" fill="black" font-family="Helvetica" font-size="12.00"  text-anchor="middle">
		<text><tspan font-family="Helvetica" > 3.84</tspan></text>
	</g>
</g>
<g fill="none" color="black" stroke="currentColor" stroke-width="1.00" stroke-linecap="butt" stroke-linejoin="miter">
	<path stroke='black'  d='M505.4,662.4 L505.4,653.4  '/>	<g transform="translate(505.4,684.3)" stroke="none" fill="black" font-family="Helvetica" font-size="12.00"  text-anchor="middle">
		<text><tspan font-family="Helvetica" > 3.85</tspan></text>
	</g>
</g>
<g fill="none" color="black" stroke="currentColor" stroke-width="1.00" stroke-linecap="butt" stroke-linejoin="miter">
	<path stroke='black'  d='M667.7,662.4 L667.7,653.4  '/>	<g transform="translate(667.7,684.3)" stroke="none" fill="black" font-family="Helvetica" font-size="12.00"  text-anchor="middle">
		<text><tspan font-family="Helvetica" > 3.86</tspan></text>
	</g>
</g>
<g fill="none" color="black" stroke="currentColor" stroke-width="1.00" stroke-linecap="butt" stroke-linejoin="miter">
	<path stroke='black'  d='M830.1,662.4 L830.1,653.4  '/>	<g transform="translate(830.1,684.3)" stroke="none" fill="black" font-family="Helvetica" font-size="12.00"  text-anchor="middle">
		<text><tspan font-family="Helvetica" > 3.87</tspan></text>
	</g>
</g>
<g fill="none" color="black" stroke="currentColor" stroke-width="1.00" stroke-linecap="butt" stroke-linejoin="miter">
	<path stroke='black'  d='M992.4,662.4 L992.4,653.4  '/>	<g transform="translate(992.4,684.3)" stroke="none" fill="black" font-family="Helvetica" font-size="12.00"  text-anchor="middle">
		<text><tspan font-family="Helvetica" > 3.88</tspan></text>
	</g>
</g>
<g fill="none" color="black" stroke="currentColor" stroke-width="1.00" stroke-linecap="butt" stroke-linejoin="miter">
	<path stroke='black'  d='M1003.9,662.4 L994.9,662.4  '/>	<g transform="translate(1012.2,666.3)" stroke="none" fill="black" font-family="Helvetica" font-size="12.00"  text-anchor="start">
		<text><tspan font-family="Helvetica" > 0</tspan></text>
	</g>
</g>
<g fill="none" color="black" stroke="currentColor" stroke-width="1.00" stroke-linecap="butt" stroke-linejoin="miter">
	<path stroke='black'  d='M1003.9,575.5 L994.9,575.5  '/>	<g transform="translate(1012.2,579.4)" stroke="none" fill="black" font-family="Helvetica" font-size="12.00"  text-anchor="start">
		<text><tspan font-family="Helvetica" > 20</tspan></text>
	</g>
</g>
<g fill="none" color="black" stroke="currentColor" stroke-width="1.00" stroke-linecap="butt" stroke-linejoin="miter">
	<path stroke='black'  d='M1003.9,488.6 L994.9,488.6  '/>	<g transform="translate(1012.2,492.5)" stroke="none" fill="black" font-family="Helvetica" font-size="12.00"  text-anchor="start">
		<text><tspan font-family="Helvetica" > 40</tspan></text>
	</g>
</g>
<g fill="none" color="black" stroke="currentColor" stroke-width="1.00" stroke-linecap="butt" stroke-linejoin="miter">
	<path stroke='black'  d='M1003.9,401.7 L994.9,401.7  '/>	<g transform="translate(1012.2,405.6)" stroke="none" fill="black" font-family="Helvetica" font-size="12.00"  text-anchor="start">
		<text><tspan font-family="Helvetica" > 60</tspan></text>
	</g>
</g>
<g fill="none" color="black" stroke="currentColor" stroke-width="1.00" stroke-linecap="butt" stroke-linejoin="miter">
	<path stroke='black'  d='M1003.9,314.8 L994.9,314.8  '/>	<g transform="translate(1012.2,318.7)" stroke="none" fill="black" font-family="Helvetica" font-size="12.00"  text-anchor="start">
		<text><tspan font-family="Helvetica" > 80</tspan></text>
	</g>
</g>
<g fill="none" color="black" stroke="currentColor" stroke-width="1.00" stroke-linecap="butt" stroke-linejoin="miter">
	<path stroke='black'  d='M1003.9,227.9 L994.9,227.9  '/>	<g transform="translate(1012.2,231.8)" stroke="none" fill="black" font-family="Helvetica" font-size="12.00"  text-anchor="start">
		<text><tspan font-family="Helvetica" > 100</tspan></text>
	</g>
</g>
<g fill="none" color="black" stroke="currentColor" stroke-width="1.00" stroke-linecap="butt" stroke-linejoin="miter">
	<path stroke='black'  d='M1003.9,141.0 L994.9,141.0  '/>	<g transform="translate(1012.2,144.9)" stroke="none" fill="black" font-family="Helvetica" font-size="12.00"  text-anchor="start">
		<text><tspan font-family="Helvetica" > 120</tspan></text>
	</g>
</g>
<g fill="none" color="black" stroke="currentColor" stroke-width="1.00" stroke-linecap="butt" stroke-linejoin="miter">
	<path stroke='black'  d='M1003.9,54.1 L994.9,54.1  '/>	<g transform="translate(1012.2,58.0)" stroke="none" fill="black" font-family="Helvetica" font-size="12.00"  text-anchor="start">
		<text><tspan font-family="Helvetica" > 140</tspan></text>
	</g>
</g>
<g fill="none" color="black" stroke="currentColor" stroke-width="1.00" stroke-linecap="butt" stroke-linejoin="miter">
</g>
<g fill="none" color="black" stroke="currentColor" stroke-width="1.00" stroke-linecap="butt" stroke-linejoin="miter">
	<path stroke='black'  d='M63.6,54.1 L63.6,662.4 L1003.9,662.4 L1003.9,54.1 L63.6,54.1 Z  '/></g>
<g fill="none" color="black" stroke="currentColor" stroke-width="1.00" stroke-linecap="butt" stroke-linejoin="miter">
	<g transform="translate(19.0,358.3) rotate(270)" stroke="none" fill="black" font-family="Helvetica" font-size="12.00"  text-anchor="middle">
		<text><tspan font-family="Helvetica" >Iterations (x 10</tspan><tspan font-family="Helvetica"  font-size="9.6" dy="-6.00px">3</tspan><tspan font-family="Helvetica"  font-size="12.0" dy="6.00px">)</tspan></text>
	</g>
</g>
<g fill="none" color="black" stroke="currentColor" stroke-width="1.00" stroke-linecap="butt" stroke-linejoin="miter">
	<g transform="translate(1066.6,358.3) rotate(270)" stroke="none" fill="black" font-family="Helvetica" font-size="12.00"  text-anchor="middle">
		<text><tspan font-family="Helvetica" >Density (a.u.)</tspan></text>
	</g>
</g>
<g fill="none" color="black" stroke="currentColor" stroke-width="1.00" stroke-linecap="butt" stroke-linejoin="miter">
	<g transform="translate(533.7,711.3)" stroke="none" fill="black" font-family="Helvetica" font-size="12.00"  text-anchor="middle">
		<text><tspan font-family="Helvetica" >Average time (us)</tspan></text>
	</g>
</g>
<g fill="none" color="black" stroke="currentColor" stroke-width="1.00" stroke-linecap="butt" stroke-linejoin="miter">
	<g transform="translate(533.7,31.0)" stroke="none" fill="black" font-family="Helvetica" font-size="12.00"  text-anchor="middle">
		<text><tspan font-family="Helvetica" >bench_group/blake3/4096</tspan></text>
	</g>
</g>
<g fill="none" color="black" stroke="currentColor" stroke-width="1.00" stroke-linecap="butt" stroke-linejoin="miter">
</g>
	<g id="gnuplot_plot_1" ><title>PDF</title>
<g fill="none" color="black" stroke="currentColor" stroke-width="1.00" stroke-linecap="butt" stroke-linejoin="miter">
	<g transform="translate(1147.1,67.0)" stroke="none" fill="black" font-family="Helvetica" font-size="12.00"  text-anchor="start">
		<text><tspan font-family="Helvetica" >PDF</tspan></text>
	</g>
</g>
<g fill="none" color="black" stroke="currentColor" stroke-width="1.00" stroke-linecap="butt" stroke-linejoin="miter">
	<g stroke='none' shape-rendering='crispEdges'>
		<polygon fill = 'rgb( 31, 120, 180)' fill-opacity = '0.250000' points = '1096.6,67.6 1138.8,67.6 1138.8,58.6 1096.6,58.6 '/>
		<polygon fill = 'rgb( 31, 120, 180)' fill-opacity = '0.250000' points = '63.6,662.2 65.5,662.2 67.4,662.1 69.3,662.1 71.1,662.0 73.0,662.0 74.9,661.9 76.8,661.8 78.7,661.7 80.6,661.6 82.4,661.5 84.3,661.3 86.2,661.2 88.1,661.0 90.0,660.8 91.9,660.6
93.7,660.3 95.6,660.1 97.5,659.8 99.4,659.4 101.3,659.1 103.2,658.7 105.1,658.3 106.9,657.8 108.8,657.3 110.7,656.8 112.6,656.2 114.5,655.6 116.4,655.0 118.2,654.3 120.1,653.6 122.0,652.9
123.9,652.1 125.8,651.3 127.7,650.4 129.6,649.6 131.4,648.7 133.3,647.8 135.2,646.9 137.1,646.0 139.0,645.1 140.9,644.1 142.7,643.2 144.6,642.3 146.5,641.4 148.4,640.6 150.3,639.7 152.2,638.9
154.0,638.2 155.9,637.5 157.8,636.8 159.7,636.2 161.6,635.6 163.5,635.1 165.4,634.7 167.2,634.3 169.1,634.0 171.0,633.8 172.9,633.6 174.8,633.5 176.7,633.5 178.5,633.5 180.4,633.6 182.3,633.8
184.2,634.0 186.1,634.3 188.0,634.6 189.9,635.0 191.7,635.5 193.6,636.0 195.5,636.5 197.4,637.1 199.3,637.7 201.2,638.3 203.0,639.0 204.9,639.7 206.8,640.3 208.7,641.0 210.6,641.7 212.5,642.4
214.3,643.1 216.2,643.8 218.1,644.5 220.0,645.2 221.9,645.8 223.8,646.5 225.7,647.1 227.5,647.6 229.4,648.2 231.3,648.7 233.2,649.2 235.1,649.6 237.0,650.0 238.8,650.4 240.7,650.7 242.6,651.0
244.5,651.2 246.4,651.4 248.3,651.5 250.2,651.6 252.0,651.6 253.9,651.5 255.8,651.4 257.7,651.2 259.6,650.9 261.5,650.6 263.3,650.2 265.2,649.6 267.1,649.0 269.0,648.3 270.9,647.5 272.8,646.6
274.6,645.5 276.5,644.3 278.4,643.0 280.3,641.5 282.2,639.8 284.1,638.0 286.0,635.9 287.8,633.7 289.7,631.2 291.6,628.4 293.5,625.4 295.4,622.1 297.3,618.4 299.1,614.5 301.0,610.2 302.9,605.5
304.8,600.4 306.7,594.9 308.6,589.0 310.5,582.6 312.3,575.8 314.2,568.5 316.1,560.7 318.0,552.4 319.9,543.6 321.8,534.2 323.6,524.4 325.5,514.0 327.4,503.1 329.3,491.7 331.2,479.8 333.1,467.5
334.9,454.6 336.8,441.4 338.7,427.8 340.6,413.8 342.5,399.4 344.4,384.8 346.3,370.0 348.1,355.0 350.0,339.9 351.9,324.7 353.8,309.6 355.7,294.5 357.6,279.5 359.4,264.7 361.3,250.3 363.2,236.1
365.1,222.4 367.0,209.2 368.9,196.5 370.8,184.4 372.6,173.0 374.5,162.3 376.4,152.5 378.3,143.4 380.2,135.3 382.1,128.0 383.9,121.8 385.8,116.5 387.7,112.2 389.6,108.9 391.5,106.6 393.4,105.4
395.2,105.2 397.1,106.0 399.0,107.7 400.9,110.5 402.8,114.2 404.7,118.7 406.6,124.2 408.4,130.4 410.3,137.4 412.2,145.2 414.1,153.6 416.0,162.6 417.9,172.2 419.7,182.3 421.6,192.8 423.5,203.7
425.4,214.9 427.3,226.5 429.2,238.2 431.1,250.1 432.9,262.2 434.8,274.3 436.7,286.4 438.6,298.6 440.5,310.7 442.4,322.7 444.2,334.6 446.1,346.4 448.0,358.0 449.9,369.4 451.8,380.6 453.7,391.6
455.5,402.4 457.4,412.9 459.3,423.1 461.2,433.1 463.1,442.7 465.0,452.1 466.9,461.2 468.7,470.0 470.6,478.6 472.5,486.8 474.4,494.7 476.3,502.4 478.2,509.7 480.0,516.8 481.9,523.7 483.8,530.2
485.7,536.5 487.6,542.5 489.5,548.3 491.4,553.9 493.2,559.2 495.1,564.3 497.0,569.1 498.9,573.8 500.8,578.2 502.7,582.5 504.5,586.6 506.4,590.5 508.3,594.2 510.2,597.7 512.1,601.1 514.0,604.4
515.8,607.5 517.7,610.5 519.6,613.3 521.5,616.0 523.4,618.6 525.3,621.1 527.2,623.4 529.0,625.7 530.9,627.8 532.8,629.9 534.7,631.8 536.6,633.7 538.5,635.4 540.3,637.1 542.2,638.6 544.1,640.1
546.0,641.5 547.9,642.8 549.8,644.1 551.7,645.2 553.5,646.3 555.4,647.2 557.3,648.1 559.2,649.0 561.1,649.7 563.0,650.4 564.8,651.0 566.7,651.6 568.6,652.0 570.5,652.5 572.4,652.8 574.3,653.1
576.1,653.4 578.0,653.6 579.9,653.7 581.8,653.9 583.7,654.0 585.6,654.0 587.5,654.0 589.3,654.0 591.2,654.0 593.1,654.0 595.0,654.0 596.9,653.9 598.8,653.9 600.6,653.8 602.5,653.8 604.4,653.7
606.3,653.7 608.2,653.7 610.1,653.7 612.0,653.7 613.8,653.7 615.7,653.8 617.6,653.8 619.5,653.9 621.4,654.0 623.3,654.2 625.1,654.3 627.0,654.5 628.9,654.7 630.8,654.9 632.7,655.1 634.6,655.3
636.4,655.6 638.3,655.8 640.2,656.1 642.1,656.4 644.0,656.6 645.9,656.9 647.8,657.2 649.6,657.5 651.5,657.8 653.4,658.1 655.3,658.3 657.2,658.6 659.1,658.9 660.9,659.1 662.8,659.4 664.7,659.6
666.6,659.8 668.5,660.1 670.4,660.3 672.3,660.5 674.1,660.6 676.0,660.8 677.9,661.0 679.8,661.1 681.7,661.2 683.6,661.4 685.4,661.5 687.3,661.6 689.2,661.7 691.1,661.8 693.0,661.8 694.9,661.9
696.7,662.0 698.6,662.0 700.5,662.1 702.4,662.1 704.3,662.2 706.2,662.2 708.1,662.2 709.9,662.2 711.8,662.3 713.7,662.3 715.6,662.3 717.5,662.3 719.4,662.3 721.2,662.3 723.1,662.4 725.0,662.4
726.9,662.4 728.8,662.4 730.7,662.4 732.6,662.4 734.4,662.4 736.3,662.4 738.2,662.4 740.1,662.4 742.0,662.4 743.9,662.4 745.7,662.4 747.6,662.4 749.5,662.4 751.4,662.4 753.3,662.4 755.2,662.4
757.0,662.4 758.9,662.4 760.8,662.4 762.7,662.4 764.6,662.4 766.5,662.4 768.4,662.4 770.2,662.4 772.1,662.4 774.0,662.4 775.9,662.4 777.8,662.4 779.7,662.4 781.5,662.4 783.4,662.4 785.3,662.4
787.2,662.4 789.1,662.4 791.0,662.4 792.9,662.4 794.7,662.4 796.6,662.3 798.5,662.3 800.4,662.3 802.3,662.3 804.2,662.3 806.0,662.3 807.9,662.2 809.8,662.2 811.7,662.2 813.6,662.2 815.5,662.1
817.3,662.1 819.2,662.0 821.1,662.0 823.0,661.9 824.9,661.8 826.8,661.8 828.7,661.7 830.5,661.6 832.4,661.5 834.3,661.4 836.2,661.2 838.1,661.1 840.0,661.0 841.8,660.8 843.7,660.6 845.6,660.5
847.5,660.3 849.4,660.1 851.3,659.8 853.2,659.6 855.0,659.4 856.9,659.1 858.8,658.9 860.7,658.6 862.6,658.3 864.5,658.1 866.3,657.8 868.2,657.5 870.1,657.2 872.0,656.9 873.9,656.7 875.8,656.4
877.6,656.1 879.5,655.8 881.4,655.6 883.3,655.4 885.2,655.1 887.1,654.9 889.0,654.7 890.8,654.6 892.7,654.4 894.6,654.3 896.5,654.2 898.4,654.1 900.3,654.1 902.1,654.0 904.0,654.0 905.9,654.1
907.8,654.1 909.7,654.2 911.6,654.3 913.5,654.4 915.3,654.6 917.2,654.7 919.1,654.9 921.0,655.1 922.9,655.4 924.8,655.6 926.6,655.9 928.5,656.1 930.4,656.4 932.3,656.7 934.2,657.0 936.1,657.2
937.9,657.5 939.8,657.8 941.7,658.1 943.6,658.4 945.5,658.6 947.4,658.9 949.3,659.1 951.1,659.4 953.0,659.6 954.9,659.9 956.8,660.1 958.7,660.3 960.6,660.5 962.4,660.6 964.3,660.8 966.2,661.0
968.1,661.1 970.0,661.2 971.9,661.4 973.8,661.5 975.6,661.6 977.5,661.7 979.4,661.8 981.3,661.8 983.2,661.9 985.1,662.0 986.9,662.0 988.8,662.1 990.7,662.1 992.6,662.2 994.5,662.2 996.4,662.2
998.2,662.2 1000.1,662.3 1002.0,662.3 1003.9,662.3 1003.9,662.4 1002.0,662.4 1000.1,662.4 998.2,662.4 996.4,662.4 994.5,662.4 992.6,662.4 990.7,662.4 988.8,662.4 986.9,662.4 985.1,662.4 983.2,662.4
981.3,662.4 979.4,662.4 977.5,662.4 975.6,662.4 973.8,662.4 971.9,662.4 970.0,662.4 968.1,662.4 966.2,662.4 964.3,662.4 962.4,662.4 960.6,662.4 958.7,662.4 956.8,662.4 954.9,662.4 953.0,662.4
951.1,662.4 949.3,662.4 947.4,662.4 945.5,662.4 943.6,662.4 941.7,662.4 939.8,662.4 937.9,662.4 936.1,662.4 934.2,662.4 932.3,662.4 930.4,662.4 928.5,662.4 926.6,662.4 924.8,662.4 922.9,662.4
921.0,662.4 919.1,662.4 917.2,662.4 915.3,662.4 913.5,662.4 911.6,662.4 909.7,662.4 907.8,662.4 905.9,662.4 904.0,662.4 902.1,662.4 900.3,662.4 898.4,662.4 896.5,662.4 894.6,662.4 892.7,662.4
890.8,662.4 889.0,662.4 887.1,662.4 885.2,662.4 883.3,662.4 881.4,662.4 879.5,662.4 877.6,662.4 875.8,662.4 873.9,662.4 872.0,662.4 870.1,662.4 868.2,662.4 866.3,662.4 864.5,662.4 862.6,662.4
860.7,662.4 858.8,662.4 856.9,662.4 855.0,662.4 853.2,662.4 851.3,662.4 849.4,662.4 847.5,662.4 845.6,662.4 843.7,662.4 841.8,662.4 840.0,662.4 838.1,662.4 836.2,662.4 834.3,662.4 832.4,662.4
830.5,662.4 828.7,662.4 826.8,662.4 824.9,662.4 823.0,662.4 821.1,662.4 819.2,662.4 817.3,662.4 815.5,662.4 813.6,662.4 811.7,662.4 809.8,662.4 807.9,662.4 806.0,662.4 804.2,662.4 802.3,662.4
800.4,662.4 798.5,662.4 796.6,662.4 794.7,662.4 792.9,662.4 791.0,662.4 789.1,662.4 787.2,662.4 785.3,662.4 783.4,662.4 781.5,662.4 779.7,662.4 777.8,662.4 775.9,662.4 774.0,662.4 772.1,662.4
770.2,662.4 768.4,662.4 766.5,662.4 764.6,662.4 762.7,662.4 760.8,662.4 758.9,662.4 757.0,662.4 755.2,662.4 753.3,662.4 751.4,662.4 749.5,662.4 747.6,662.4 745.7,662.4 743.9,662.4 742.0,662.4
740.1,662.4 738.2,662.4 736.3,662.4 734.4,662.4 732.6,662.4 730.7,662.4 728.8,662.4 726.9,662.4 725.0,662.4 723.1,662.4 721.2,662.4 719.4,662.4 717.5,662.4 715.6,662.4 713.7,662.4 711.8,662.4
709.9,662.4 708.1,662.4 706.2,662.4 704.3,662.4 702.4,662.4 700.5,662.4 698.6,662.4 696.7,662.4 694.9,662.4 693.0,662.4 691.1,662.4 689.2,662.4 687.3,662.4 685.4,662.4 683.6,662.4 681.7,662.4
679.8,662.4 677.9,662.4 676.0,662.4 674.1,662.4 672.3,662.4 670.4,662.4 668.5,662.4 666.6,662.4 664.7,662.4 662.8,662.4 660.9,662.4 659.1,662.4 657.2,662.4 655.3,662.4 653.4,662.4 651.5,662.4
649.6,662.4 647.8,662.4 645.9,662.4 644.0,662.4 642.1,662.4 640.2,662.4 638.3,662.4 636.4,662.4 634.6,662.4 632.7,662.4 630.8,662.4 628.9,662.4 627.0,662.4 625.1,662.4 623.3,662.4 621.4,662.4
619.5,662.4 617.6,662.4 615.7,662.4 613.8,662.4 612.0,662.4 610.1,662.4 608.2,662.4 606.3,662.4 604.4,662.4 602.5,662.4 600.6,662.4 598.8,662.4 596.9,662.4 595.0,662.4 593.1,662.4 591.2,662.4
589.3,662.4 587.5,662.4 585.6,662.4 583.7,662.4 581.8,662.4 579.9,662.4 578.0,662.4 576.1,662.4 574.3,662.4 572.4,662.4 570.5,662.4 568.6,662.4 566.7,662.4 564.8,662.4 563.0,662.4 561.1,662.4
559.2,662.4 557.3,662.4 555.4,662.4 553.5,662.4 551.7,662.4 549.8,662.4 547.9,662.4 546.0,662.4 544.1,662.4 542.2,662.4 540.3,662.4 538.5,662.4 536.6,662.4 534.7,662.4 532.8,662.4 530.9,662.4
529.0,662.4 527.2,662.4 525.3,662.4 523.4,662.4 521.5,662.4 519.6,662.4 517.7,662.4 515.8,662.4 514.0,662.4 512.1,662.4 510.2,662.4 508.3,662.4 506.4,662.4 504.5,662.4 502.7,662.4 500.8,662.4
498.9,662.4 497.0,662.4 495.1,662.4 493.2,662.4 491.4,662.4 489.5,662.4 487.6,662.4 485.7,662.4 483.8,662.4 481.9,662.4 480.0,662.4 478.2,662.4 476.3,662.4 474.4,662.4 472.5,662.4 470.6,662.4
468.7,662.4 466.9,662.4 465.0,662.4 463.1,662.4 461.2,662.4 459.3,662.4 457.4,662.4 455.5,662.4 453.7,662.4 451.8,662.4 449.9,662.4 448.0,662.4 446.1,662.4 444.2,662.4 442.4,662.4 440.5,662.4
438.6,662.4 436.7,662.4 434.8,662.4 432.9,662.4 431.1,662.4 429.2,662.4 427.3,662.4 425.4,662.4 423.5,662.4 421.6,662.4 419.7,662.4 417.9,662.4 416.0,662.4 414.1,662.4 412.2,662.4 410.3,662.4
408.4,662.4 406.6,662.4 404.7,662.4 402.8,662.4 400.9,662.4 399.0,662.4 397.1,662.4 395.2,662.4 393.4,662.4 391.5,662.4 389.6,662.4 387.7,662.4 385.8,662.4 383.9,662.4 382.1,662.4 380.2,662.4
378.3,662.4 376.4,662.4 374.5,662.4 372.6,662.4 370.8,662.4 368.9,662.4 367.0,662.4 365.1,662.4 363.2,662.4 361.3,662.4 359.4,662.4 357.6,662.4 355.7,662.4 353.8,662.4 351.9,662.4 350.0,662.4
348.1,662.4 346.3,662.4 344.4,662.4 342.5,662.4 340.6,662.4 338.7,662.4 336.8,662.4 334.9,662.4 333.1,662.4 331.2,662.4 329.3,662.4 327.4,662.4 325.5,662.4 323.6,662.4 321.8,662.4 319.9,662.4
318.0,662.4 316.1,662.4 314.2,662.4 312.3,662.4 310.5,662.4 308.6,662.4 306.7,662.4 304.8,662.4 302.9,662.4 301.0,662.4 299.1,662.4 297.3,662.4 295.4,662.4 293.5,662.4 291.6,662.4 289.7,662.4
287.8,662.4 286.0,662.4 284.1,662.4 282.2,662.4 280.3,662.4 278.4,662.4 276.5,662.4 274.6,662.4 272.8,662.4 270.9,662.4 269.0,662.4 267.1,662.4 265.2,662.4 263.3,662.4 261.5,662.4 259.6,662.4
257.7,662.4 255.8,662.4 253.9,662.4 252.0,662.4 250.2,662.4 248.3,662.4 246.4,662.4 244.5,662.4 242.6,662.4 240.7,662.4 238.8,662.4 237.0,662.4 235.1,662.4 233.2,662.4 231.3,662.4 229.4,662.4
227.5,662.4 225.7,662.4 223.8,662.4 221.9,662.4 220.0,662.4 218.1,662.4 216.2,662.4 214.3,662.4 212.5,662.4 210.6,662.4 208.7,662.4 206.8,662.4 204.9,662.4 203.0,662.4 201.2,662.4 199.3,662.4
197.4,662.4 195.5,662.4 193.6,662.4 191.7,662.4 189.9,662.4 188.0,662.4 186.1,662.4 184.2,662.4 182.3,662.4 180.4,662.4 178.5,662.4 176.7,662.4 174.8,662.4 172.9,662.4 171.0,662.4 169.1,662.4
167.2,662.4 165.4,662.4 163.5,662.4 161.6,662.4 159.7,662.4 157.8,662.4 155.9,662.4 154.0,662.4 152.2,662.4 150.3,662.4 148.4,662.4 146.5,662.4 144.6,662.4 142.7,662.4 140.9,662.4 139.0,662.4
137.1,662.4 135.2,662.4 133.3,662.4 131.4,662.4 129.6,662.4 127.7,662.4 125.8,662.4 123.9,662.4 122.0,662.4 120.1,662.4 118.2,662.4 116.4,662.4 114.5,662.4 112.6,662.4 110.7,662.4 108.8,662.4
106.9,662.4 105.1,662.4 103.2,662.4 101.3,662.4 99.4,662.4 97.5,662.4 95.6,662.4 93.7,662.4 91.9,662.4 90.0,662.4 88.1,662.4 86.2,662.4 84.3,662.4 82.4,662.4 80.6,662.4 78.7,662.4
76.8,662.4 74.9,662.4 73.0,662.4 71.1,662.4 69.3,662.4 67.4,662.4 65.5,662.4 63.6,662.4 '/>
	</g>
</g>
	</g>
	<g id="gnuplot_plot_2" ><title>Mean</title>
<g fill="none" color="white" stroke="rgb( 31, 120, 180)" stroke-width="2.00" stroke-linecap="butt" stroke-linejoin="miter">
</g>
<g fill="none" color="black" stroke="currentColor" stroke-width="2.00" stroke-linecap="butt" stroke-linejoin="miter">
	<g transform="translate(1147.1,85.0)" stroke="none" fill="black" font-family="Helvetica" font-size="12.00"  text-anchor="start">
		<text><tspan font-family="Helvetica" >Mean</tspan></text>
	</g>
</g>
<g fill="none" color="black" stroke="currentColor" stroke-width="2.00" stroke-linecap="butt" stroke-linejoin="miter">
	<path stroke='rgb( 31, 120, 180)'  d='M1096.6,81.1 L1138.8,81.1 M401.3,662.4 L401.3,54.1  '/></g>
	</g>
	<g id="gnuplot_plot_3" ><title>"Clean" sample</title>
<g fill="none" color="white" stroke="rgb( 31, 120, 180)" stroke-width="1.00" stroke-linecap="butt" stroke-linejoin="miter">
</g>
<g fill="none" color="black" stroke="currentColor" stroke-width="1.00" stroke-linecap="butt" stroke-linejoin="miter">
	<g transform="translate(1147.1,103.0)" stroke="none" fill="black" font-family="Helvetica" font-size="12.00"  text-anchor="start">
		<text><tspan font-family="Helvetica" >"Clean" sample</tspan></text>
	</g>
</g>
<g fill="none" color="black" stroke="currentColor" stroke-width="1.00" stroke-linecap="butt" stroke-linejoin="miter">
	<use xlink:href='#gpPt6' transform='translate(468.1,619.8) scale(3.38)' color='rgb( 31, 120, 180)'/>
	<use xlink:href='#gpPt6' transform='translate(441.2,613.7) scale(3.38)' color='rgb( 31, 120, 180)'/>
	<use xlink:href='#gpPt6' transform='translate(379.3,607.7) scale(3.38)' color='rgb( 31, 120, 180)'/>
	<use xlink:href='#gpPt6' transform='translate(393.3,601.6) scale(3.38)' color='rgb( 31, 120, 180)'/>
	<use xlink:href='#gpPt6' transform='translate(457.8,595.5) scale(3.38)' color='rgb( 31, 120, 180)'/>
	<use xlink:href='#gpPt6' transform='translate(385.1,589.4) scale(3.38)' color='rgb( 31, 120, 180)'/>
	<use xlink:href='#gpPt6' transform='translate(349.7,577.2) scale(3.38)' color='rgb( 31, 120, 180)'/>
	<use xlink:href='#gpPt6' transform='translate(440.7,571.2) scale(3.38)' color='rgb( 31, 120, 180)'/>
	<use xlink:href='#gpPt6' transform='translate(418.0,559.0) scale(3.38)' color='rgb( 31, 120, 180)'/>
	<use xlink:href='#gpPt6' transform='translate(432.6,552.9) scale(3.38)' color='rgb( 31, 120, 180)'/>
	<use xlink:href='#gpPt6' transform='translate(445.3,546.8) scale(3.38)' color='rgb( 31, 120, 180)'/>
	<use xlink:href='#gpPt6' transform='translate(376.6,540.7) scale(3.38)' color='rgb( 31, 120, 180)'/>
	<use xlink:href='#gpPt6' transform='translate(385.7,534.7) scale(3.38)' color='rgb( 31, 120, 180)'/>
	<use xlink:href='#gpPt6' transform='translate(450.1,528.6) scale(3.38)' color='rgb( 31, 120, 180)'/>
	<use xlink:href='#gpPt6' transform='translate(350.9,522.5) scale(3.38)' color='rgb( 31, 120, 180)'/>
	<use xlink:href='#gpPt6' transform='translate(367.4,516.4) scale(3.38)' color='rgb( 31, 120, 180)'/>
	<use xlink:href='#gpPt6' transform='translate(415.1,510.3) scale(3.38)' color='rgb( 31, 120, 180)'/>
	<use xlink:href='#gpPt6' transform='translate(436.8,504.2) scale(3.38)' color='rgb( 31, 120, 180)'/>
	<use xlink:href='#gpPt6' transform='translate(382.7,498.2) scale(3.38)' color='rgb( 31, 120, 180)'/>
	<use xlink:href='#gpPt6' transform='translate(338.2,492.1) scale(3.38)' color='rgb( 31, 120, 180)'/>
	<use xlink:href='#gpPt6' transform='translate(382.8,486.0) scale(3.38)' color='rgb( 31, 120, 180)'/>
	<use xlink:href='#gpPt6' transform='translate(375.9,479.9) scale(3.38)' color='rgb( 31, 120, 180)'/>
	<use xlink:href='#gpPt6' transform='translate(356.4,473.8) scale(3.38)' color='rgb( 31, 120, 180)'/>
	<use xlink:href='#gpPt6' transform='translate(395.4,467.7) scale(3.38)' color='rgb( 31, 120, 180)'/>
	<use xlink:href='#gpPt6' transform='translate(419.5,461.7) scale(3.38)' color='rgb( 31, 120, 180)'/>
	<use xlink:href='#gpPt6' transform='translate(365.5,455.6) scale(3.38)' color='rgb( 31, 120, 180)'/>
	<use xlink:href='#gpPt6' transform='translate(436.6,443.4) scale(3.38)' color='rgb( 31, 120, 180)'/>
	<use xlink:href='#gpPt6' transform='translate(379.6,437.3) scale(3.38)' color='rgb( 31, 120, 180)'/>
	<use xlink:href='#gpPt6' transform='translate(346.2,431.2) scale(3.38)' color='rgb( 31, 120, 180)'/>
	<use xlink:href='#gpPt6' transform='translate(397.0,425.2) scale(3.38)' color='rgb( 31, 120, 180)'/>
	<use xlink:href='#gpPt6' transform='translate(381.2,419.1) scale(3.38)' color='rgb( 31, 120, 180)'/>
	<use xlink:href='#gpPt6' transform='translate(361.1,413.0) scale(3.38)' color='rgb( 31, 120, 180)'/>
	<use xlink:href='#gpPt6' transform='translate(452.6,406.9) scale(3.38)' color='rgb( 31, 120, 180)'/>
	<use xlink:href='#gpPt6' transform='translate(362.3,400.8) scale(3.38)' color='rgb( 31, 120, 180)'/>
	<use xlink:href='#gpPt6' transform='translate(400.3,394.7) scale(3.38)' color='rgb( 31, 120, 180)'/>
	<use xlink:href='#gpPt6' transform='translate(473.4,388.7) scale(3.38)' color='rgb( 31, 120, 180)'/>
	<use xlink:href='#gpPt6' transform='translate(401.4,376.5) scale(3.38)' color='rgb( 31, 120, 180)'/>
	<use xlink:href='#gpPt6' transform='translate(402.8,370.4) scale(3.38)' color='rgb( 31, 120, 180)'/>
	<use xlink:href='#gpPt6' transform='translate(408.1,364.3) scale(3.38)' color='rgb( 31, 120, 180)'/>
	<use xlink:href='#gpPt6' transform='translate(472.2,358.2) scale(3.38)' color='rgb( 31, 120, 180)'/>
	<use xlink:href='#gpPt6' transform='translate(402.6,352.2) scale(3.38)' color='rgb( 31, 120, 180)'/>
	<use xlink:href='#gpPt6' transform='translate(361.7,346.1) scale(3.38)' color='rgb( 31, 120, 180)'/>
	<use xlink:href='#gpPt6' transform='translate(437.7,340.0) scale(3.38)' color='rgb( 31, 120, 180)'/>
	<use xlink:href='#gpPt6' transform='translate(366.6,333.9) scale(3.38)' color='rgb( 31, 120, 180)'/>
	<use xlink:href='#gpPt6' transform='translate(398.0,327.8) scale(3.38)' color='rgb( 31, 120, 180)'/>
	<use xlink:href='#gpPt6' transform='translate(421.4,321.8) scale(3.38)' color='rgb( 31, 120, 180)'/>
	<use xlink:href='#gpPt6' transform='translate(444.4,315.7) scale(3.38)' color='rgb( 31, 120, 180)'/>
	<use xlink:href='#gpPt6' transform='translate(372.1,309.6) scale(3.38)' color='rgb( 31, 120, 180)'/>
	<use xlink:href='#gpPt6' transform='translate(376.8,303.5) scale(3.38)' color='rgb( 31, 120, 180)'/>
	<use xlink:href='#gpPt6' transform='translate(392.2,297.4) scale(3.38)' color='rgb( 31, 120, 180)'/>
	<use xlink:href='#gpPt6' transform='translate(406.3,291.3) scale(3.38)' color='rgb( 31, 120, 180)'/>
	<use xlink:href='#gpPt6' transform='translate(363.1,285.3) scale(3.38)' color='rgb( 31, 120, 180)'/>
	<use xlink:href='#gpPt6' transform='translate(408.4,279.2) scale(3.38)' color='rgb( 31, 120, 180)'/>
	<use xlink:href='#gpPt6' transform='translate(399.7,273.1) scale(3.38)' color='rgb( 31, 120, 180)'/>
	<use xlink:href='#gpPt6' transform='translate(364.0,267.0) scale(3.38)' color='rgb( 31, 120, 180)'/>
	<use xlink:href='#gpPt6' transform='translate(410.0,260.9) scale(3.38)' color='rgb( 31, 120, 180)'/>
	<use xlink:href='#gpPt6' transform='translate(421.7,254.8) scale(3.38)' color='rgb( 31, 120, 180)'/>
	<use xlink:href='#gpPt6' transform='translate(389.1,248.8) scale(3.38)' color='rgb( 31, 120, 180)'/>
	<use xlink:href='#gpPt6' transform='translate(411.3,242.7) scale(3.38)' color='rgb( 31, 120, 180)'/>
	<use xlink:href='#gpPt6' transform='translate(408.4,230.5) scale(3.38)' color='rgb( 31, 120, 180)'/>
	<use xlink:href='#gpPt6' transform='translate(451.8,224.4) scale(3.38)' color='rgb( 31, 120, 180)'/>
	<use xlink:href='#gpPt6' transform='translate(408.7,218.3) scale(3.38)' color='rgb( 31, 120, 180)'/>
	<use xlink:href='#gpPt6' transform='translate(368.7,212.3) scale(3.38)' color='rgb( 31, 120, 180)'/>
	<use xlink:href='#gpPt6' transform='translate(396.5,206.2) scale(3.38)' color='rgb( 31, 120, 180)'/>
	<use xlink:href='#gpPt6' transform='translate(391.8,200.1) scale(3.38)' color='rgb( 31, 120, 180)'/>
	<use xlink:href='#gpPt6' transform='translate(383.1,194.0) scale(3.38)' color='rgb( 31, 120, 180)'/>
	<use xlink:href='#gpPt6' transform='translate(382.3,187.9) scale(3.38)' color='rgb( 31, 120, 180)'/>
	<use xlink:href='#gpPt6' transform='translate(432.7,181.8) scale(3.38)' color='rgb( 31, 120, 180)'/>
	<use xlink:href='#gpPt6' transform='translate(388.3,175.8) scale(3.38)' color='rgb( 31, 120, 180)'/>
	<use xlink:href='#gpPt6' transform='translate(391.0,169.7) scale(3.38)' color='rgb( 31, 120, 180)'/>
	<use xlink:href='#gpPt6' transform='translate(415.2,163.6) scale(3.38)' color='rgb( 31, 120, 180)'/>
	<use xlink:href='#gpPt6' transform='translate(391.1,157.5) scale(3.38)' color='rgb( 31, 120, 180)'/>
	<use xlink:href='#gpPt6' transform='translate(371.4,151.4) scale(3.38)' color='rgb( 31, 120, 180)'/>
	<use xlink:href='#gpPt6' transform='translate(412.6,145.3) scale(3.38)' color='rgb( 31, 120, 180)'/>
	<use xlink:href='#gpPt6' transform='translate(374.1,139.3) scale(3.38)' color='rgb( 31, 120, 180)'/>
	<use xlink:href='#gpPt6' transform='translate(404.5,133.2) scale(3.38)' color='rgb( 31, 120, 180)'/>
	<use xlink:href='#gpPt6' transform='translate(385.8,127.1) scale(3.38)' color='rgb( 31, 120, 180)'/>
	<use xlink:href='#gpPt6' transform='translate(378.9,121.0) scale(3.38)' color='rgb( 31, 120, 180)'/>
	<use xlink:href='#gpPt6' transform='translate(394.7,114.9) scale(3.38)' color='rgb( 31, 120, 180)'/>
	<use xlink:href='#gpPt6' transform='translate(455.3,108.8) scale(3.38)' color='rgb( 31, 120, 180)'/>
	<use xlink:href='#gpPt6' transform='translate(380.0,102.8) scale(3.38)' color='rgb( 31, 120, 180)'/>
	<use xlink:href='#gpPt6' transform='translate(418.5,96.7) scale(3.38)' color='rgb( 31, 120, 180)'/>
	<use xlink:href='#gpPt6' transform='translate(400.7,90.6) scale(3.38)' color='rgb( 31, 120, 180)'/>
	<use xlink:href='#gpPt6' transform='translate(396.3,84.5) scale(3.38)' color='rgb( 31, 120, 180)'/>
	<use xlink:href='#gpPt6' transform='translate(382.6,78.4) scale(3.38)' color='rgb( 31, 120, 180)'/>
	<use xlink:href='#gpPt6' transform='translate(394.7,72.3) scale(3.38)' color='rgb( 31, 120, 180)'/>
	<use xlink:href='#gpPt6' transform='translate(389.5,66.3) scale(3.38)' color='rgb( 31, 120, 180)'/>
	<use xlink:href='#gpPt6' transform='translate(386.4,60.2) scale(3.38)' color='rgb( 31, 120, 180)'/>
	<use xlink:href='#gpPt6' transform='translate(415.0,54.1) scale(3.38)' color='rgb( 31, 120, 180)'/>
	<use xlink:href='#gpPt6' transform='translate(1117.7,99.1) scale(3.38)' color='rgb( 31, 120, 180)'/>
</g>
	</g>
	<g id="gnuplot_plot_4" ><title>Mild outliers</title>
<g fill="none" color="black" stroke="currentColor" stroke-width="1.00" stroke-linecap="butt" stroke-linejoin="miter">
	<g transform="translate(1147.1,121.0)" stroke="none" fill="black" font-family="Helvetica" font-size="12.00"  text-anchor="start">
		<text><tspan font-family="Helvetica" >Mild outliers</tspan></text>
	</g>
</g>
<g fill="none" color="black" stroke="currentColor" stroke-width="1.00" stroke-linecap="butt" stroke-linejoin="miter">
	<use xlink:href='#gpPt6' transform='translate(512.6,583.3) scale(3.38)' color='rgb(255, 127,   0)'/>
	<use xlink:href='#gpPt6' transform='translate(293.3,565.1) scale(3.38)' color='rgb(255, 127,   0)'/>
	<use xlink:href='#gpPt6' transform='translate(496.8,449.5) scale(3.38)' color='rgb(255, 127,   0)'/>
	<use xlink:href='#gpPt6' transform='translate(521.9,382.6) scale(3.38)' color='rgb(255, 127,   0)'/>
	<use xlink:href='#gpPt6' transform='translate(486.0,236.6) scale(3.38)' color='rgb(255, 127,   0)'/>
	<use xlink:href='#gpPt6' transform='translate(1117.7,117.1) scale(3.38)' color='rgb(255, 127,   0)'/>
</g>
	</g>
	<g id="gnuplot_plot_5" ><title>Severe outliers</title>
<g fill="none" color="black" stroke="currentColor" stroke-width="1.00" stroke-linecap="butt" stroke-linejoin="miter">
	<g transform="translate(1147.1,139.0)" stroke="none" fill="black" font-family="Helvetica" font-size="12.00"  text-anchor="start">
		<text><tspan font-family="Helvetica" >Severe outliers</tspan></text>
	</g>
</g>
<g fill="none" color="black" stroke="currentColor" stroke-width="1.00" stroke-linecap="butt" stroke-linejoin="miter">
	<use xlink:href='#gpPt6' transform='translate(173.8,656.3) scale(3.38)' color='rgb(227,  26,  28)'/>
	<use xlink:href='#gpPt6' transform='translate(213.8,650.2) scale(3.38)' color='rgb(227,  26,  28)'/>
	<use xlink:href='#gpPt6' transform='translate(903.0,644.2) scale(3.38)' color='rgb(227,  26,  28)'/>
	<use xlink:href='#gpPt6' transform='translate(164.5,638.1) scale(3.38)' color='rgb(227,  26,  28)'/>
	<use xlink:href='#gpPt6' transform='translate(614.8,632.0) scale(3.38)' color='rgb(227,  26,  28)'/>
	<use xlink:href='#gpPt6' transform='translate(170.0,625.9) scale(3.38)' color='rgb(227,  26,  28)'/>
	<use xlink:href='#gpPt6' transform='translate(1117.7,135.1) scale(3.38)' color='rgb(227,  26,  28)'/>
</g>
	</g>
	<g id="gnuplot_plot_6" ><title>gnuplot_plot_6</title>
<g fill="none" color="white" stroke="rgb(227,  26,  28)" stroke-width="2.00" stroke-linecap="butt" stroke-linejoin="miter">
</g>
<g fill="none" color="black" stroke="currentColor" stroke-width="2.00" stroke-linecap="butt" stroke-linejoin="miter">
	<path stroke='rgb(255, 127,   0)'  d='M315.9,662.4 L315.9,54.1  '/></g>
	</g>
	<g id="gnuplot_plot_7" ><title>gnuplot_plot_7</title>
<g fill="none" color="black" stroke="currentColor" stroke-width="2.00" stroke-linecap="butt" stroke-linejoin="miter">
	<path stroke='rgb(255, 127,   0)'  d='M482.4,662.4 L482.4,54.1  '/></g>
	</g>
	<g id="gnuplot_plot_8" ><title>gnuplot_plot_8</title>
<g fill="none" color="black" stroke="currentColor" stroke-width="2.00" stroke-linecap="butt" stroke-linejoin="miter">
	<path stroke='rgb(227,  26,  28)'  d='M253.5,662.4 L253.5,54.1  '/></g>
	</g>
	<g id="gnuplot_plot_9" ><title>gnuplot_plot_9</title>
<g fill="none" color="black" stroke="currentColor" stroke-width="2.00" stroke-linecap="butt" stroke-linejoin="miter">
	<path stroke='rgb(227,  26,  28)'  d='M544.8,662.4 L544.8,54.1  '/></g>
	</g>
<g fill="none" color="black" stroke="currentColor" stroke-width="2.00" stroke-linecap="butt" stroke-linejoin="miter">
</g>
<g fill="none" color="black" stroke="black" stroke-width="1.00" stroke-linecap="butt" stroke-linejoin="miter">
</g>
<g fill="none" color="black" stroke="currentColor" stroke-width="1.00" stroke-linecap="butt" stroke-linejoin="miter">
	<path stroke='black'  d='M63.6,54.1 L63.6,662.4 L1003.9,662.4 L1003.9,54.1 L63.6,54.1 Z  '/></g>
<g fill="none" color="black" stroke="currentColor" stroke-width="1.00" stroke-linecap="butt" stroke-linejoin="miter">
</g>
</g>
</svg>

