<?xml version="1.0" encoding="utf-8"  standalone="no"?>
<svg 
 viewBox="0 0 1280 720"
 xmlns="http://www.w3.org/2000/svg"
 xmlns:xlink="http://www.w3.org/1999/xlink"
>

<title>Gnuplot</title>
<desc>Produced by GNUPLOT 5.2 patchlevel 8 </desc>

<g id="gnuplot_canvas">

<rect x="0" y="0" width="1280" height="720" fill="none"/>
<defs>

	<circle id='gpDot' r='0.5' stroke-width='0.5' stroke='currentColor'/>
	<path id='gpPt0' stroke-width='0.222' stroke='currentColor' d='M-1,0 h2 M0,-1 v2'/>
	<path id='gpPt1' stroke-width='0.222' stroke='currentColor' d='M-1,-1 L1,1 M1,-1 L-1,1'/>
	<path id='gpPt2' stroke-width='0.222' stroke='currentColor' d='M-1,0 L1,0 M0,-1 L0,1 M-1,-1 L1,1 M-1,1 L1,-1'/>
	<rect id='gpPt3' stroke-width='0.222' stroke='currentColor' x='-1' y='-1' width='2' height='2'/>
	<rect id='gpPt4' stroke-width='0.222' stroke='currentColor' fill='currentColor' x='-1' y='-1' width='2' height='2'/>
	<circle id='gpPt5' stroke-width='0.222' stroke='currentColor' cx='0' cy='0' r='1'/>
	<use xlink:href='#gpPt5' id='gpPt6' fill='currentColor' stroke='none'/>
	<path id='gpPt7' stroke-width='0.222' stroke='currentColor' d='M0,-1.33 L-1.33,0.67 L1.33,0.67 z'/>
	<use xlink:href='#gpPt7' id='gpPt8' fill='currentColor' stroke='none'/>
	<use xlink:href='#gpPt7' id='gpPt9' stroke='currentColor' transform='rotate(180)'/>
	<use xlink:href='#gpPt9' id='gpPt10' fill='currentColor' stroke='none'/>
	<use xlink:href='#gpPt3' id='gpPt11' stroke='currentColor' transform='rotate(45)'/>
	<use xlink:href='#gpPt11' id='gpPt12' fill='currentColor' stroke='none'/>
	<path id='gpPt13' stroke-width='0.222' stroke='currentColor' d='M0,1.330 L1.265,0.411 L0.782,-1.067 L-0.782,-1.076 L-1.265,0.411 z'/>
	<use xlink:href='#gpPt13' id='gpPt14' fill='currentColor' stroke='none'/>
	<filter id='textbox' filterUnits='objectBoundingBox' x='0' y='0' height='1' width='1'>
	  <feFlood flood-color='white' flood-opacity='1' result='bgnd'/>
	  <feComposite in='SourceGraphic' in2='bgnd' operator='atop'/>
	</filter>
	<filter id='greybox' filterUnits='objectBoundingBox' x='0' y='0' height='1' width='1'>
	  <feFlood flood-color='lightgrey' flood-opacity='1' result='grey'/>
	  <feComposite in='SourceGraphic' in2='grey' operator='atop'/>
	</filter>
</defs>
<g fill="none" color="white" stroke="currentColor" stroke-width="1.00" stroke-linecap="butt" stroke-linejoin="miter">
</g>
<g fill="none" color="black" stroke="currentColor" stroke-width="1.00" stroke-linecap="butt" stroke-linejoin="miter">
	<path stroke='black'  d='M80.2,662.4 L89.2,662.4  '/>	<g transform="translate(71.9,666.3)" stroke="none" fill="black" font-family="Helvetica" font-size="12.00"  text-anchor="end">
		<text><tspan font-family="Helvetica" > 0</tspan></text>
	</g>
</g>
<g fill="none" color="black" stroke="currentColor" stroke-width="1.00" stroke-linecap="butt" stroke-linejoin="miter">
	<path stroke='black'  d='M80.2,594.8 L89.2,594.8  '/>	<g transform="translate(71.9,598.7)" stroke="none" fill="black" font-family="Helvetica" font-size="12.00"  text-anchor="end">
		<text><tspan font-family="Helvetica" > 0.05</tspan></text>
	</g>
</g>
<g fill="none" color="black" stroke="currentColor" stroke-width="1.00" stroke-linecap="butt" stroke-linejoin="miter">
	<path stroke='black'  d='M80.2,527.2 L89.2,527.2  '/>	<g transform="translate(71.9,531.1)" stroke="none" fill="black" font-family="Helvetica" font-size="12.00"  text-anchor="end">
		<text><tspan font-family="Helvetica" > 0.1</tspan></text>
	</g>
</g>
<g fill="none" color="black" stroke="currentColor" stroke-width="1.00" stroke-linecap="butt" stroke-linejoin="miter">
	<path stroke='black'  d='M80.2,459.6 L89.2,459.6  '/>	<g transform="translate(71.9,463.5)" stroke="none" fill="black" font-family="Helvetica" font-size="12.00"  text-anchor="end">
		<text><tspan font-family="Helvetica" > 0.15</tspan></text>
	</g>
</g>
<g fill="none" color="black" stroke="currentColor" stroke-width="1.00" stroke-linecap="butt" stroke-linejoin="miter">
	<path stroke='black'  d='M80.2,392.0 L89.2,392.0  '/>	<g transform="translate(71.9,395.9)" stroke="none" fill="black" font-family="Helvetica" font-size="12.00"  text-anchor="end">
		<text><tspan font-family="Helvetica" > 0.2</tspan></text>
	</g>
</g>
<g fill="none" color="black" stroke="currentColor" stroke-width="1.00" stroke-linecap="butt" stroke-linejoin="miter">
	<path stroke='black'  d='M80.2,324.5 L89.2,324.5  '/>	<g transform="translate(71.9,328.4)" stroke="none" fill="black" font-family="Helvetica" font-size="12.00"  text-anchor="end">
		<text><tspan font-family="Helvetica" > 0.25</tspan></text>
	</g>
</g>
<g fill="none" color="black" stroke="currentColor" stroke-width="1.00" stroke-linecap="butt" stroke-linejoin="miter">
	<path stroke='black'  d='M80.2,256.9 L89.2,256.9  '/>	<g transform="translate(71.9,260.8)" stroke="none" fill="black" font-family="Helvetica" font-size="12.00"  text-anchor="end">
		<text><tspan font-family="Helvetica" > 0.3</tspan></text>
	</g>
</g>
<g fill="none" color="black" stroke="currentColor" stroke-width="1.00" stroke-linecap="butt" stroke-linejoin="miter">
	<path stroke='black'  d='M80.2,189.3 L89.2,189.3  '/>	<g transform="translate(71.9,193.2)" stroke="none" fill="black" font-family="Helvetica" font-size="12.00"  text-anchor="end">
		<text><tspan font-family="Helvetica" > 0.35</tspan></text>
	</g>
</g>
<g fill="none" color="black" stroke="currentColor" stroke-width="1.00" stroke-linecap="butt" stroke-linejoin="miter">
	<path stroke='black'  d='M80.2,121.7 L89.2,121.7  '/>	<g transform="translate(71.9,125.6)" stroke="none" fill="black" font-family="Helvetica" font-size="12.00"  text-anchor="end">
		<text><tspan font-family="Helvetica" > 0.4</tspan></text>
	</g>
</g>
<g fill="none" color="black" stroke="currentColor" stroke-width="1.00" stroke-linecap="butt" stroke-linejoin="miter">
	<path stroke='black'  d='M80.2,54.1 L89.2,54.1  '/>	<g transform="translate(71.9,58.0)" stroke="none" fill="black" font-family="Helvetica" font-size="12.00"  text-anchor="end">
		<text><tspan font-family="Helvetica" > 0.45</tspan></text>
	</g>
</g>
<g fill="none" color="black" stroke="currentColor" stroke-width="1.00" stroke-linecap="butt" stroke-linejoin="miter">
	<path stroke='black'  d='M178.7,662.4 L178.7,653.4  '/>	<g transform="translate(178.7,684.3)" stroke="none" fill="black" font-family="Helvetica" font-size="12.00"  text-anchor="middle">
		<text><tspan font-family="Helvetica" > 2</tspan></text>
	</g>
</g>
<g fill="none" color="black" stroke="currentColor" stroke-width="1.00" stroke-linecap="butt" stroke-linejoin="miter">
	<path stroke='black'  d='M277.8,662.4 L277.8,653.4  '/>	<g transform="translate(277.8,684.3)" stroke="none" fill="black" font-family="Helvetica" font-size="12.00"  text-anchor="middle">
		<text><tspan font-family="Helvetica" > 2.5</tspan></text>
	</g>
</g>
<g fill="none" color="black" stroke="currentColor" stroke-width="1.00" stroke-linecap="butt" stroke-linejoin="miter">
	<path stroke='black'  d='M376.9,662.4 L376.9,653.4  '/>	<g transform="translate(376.9,684.3)" stroke="none" fill="black" font-family="Helvetica" font-size="12.00"  text-anchor="middle">
		<text><tspan font-family="Helvetica" > 3</tspan></text>
	</g>
</g>
<g fill="none" color="black" stroke="currentColor" stroke-width="1.00" stroke-linecap="butt" stroke-linejoin="miter">
	<path stroke='black'  d='M476.1,662.4 L476.1,653.4  '/>	<g transform="translate(476.1,684.3)" stroke="none" fill="black" font-family="Helvetica" font-size="12.00"  text-anchor="middle">
		<text><tspan font-family="Helvetica" > 3.5</tspan></text>
	</g>
</g>
<g fill="none" color="black" stroke="currentColor" stroke-width="1.00" stroke-linecap="butt" stroke-linejoin="miter">
	<path stroke='black'  d='M575.2,662.4 L575.2,653.4  '/>	<g transform="translate(575.2,684.3)" stroke="none" fill="black" font-family="Helvetica" font-size="12.00"  text-anchor="middle">
		<text><tspan font-family="Helvetica" > 4</tspan></text>
	</g>
</g>
<g fill="none" color="black" stroke="currentColor" stroke-width="1.00" stroke-linecap="butt" stroke-linejoin="miter">
	<path stroke='black'  d='M674.3,662.4 L674.3,653.4  '/>	<g transform="translate(674.3,684.3)" stroke="none" fill="black" font-family="Helvetica" font-size="12.00"  text-anchor="middle">
		<text><tspan font-family="Helvetica" > 4.5</tspan></text>
	</g>
</g>
<g fill="none" color="black" stroke="currentColor" stroke-width="1.00" stroke-linecap="butt" stroke-linejoin="miter">
	<path stroke='black'  d='M773.4,662.4 L773.4,653.4  '/>	<g transform="translate(773.4,684.3)" stroke="none" fill="black" font-family="Helvetica" font-size="12.00"  text-anchor="middle">
		<text><tspan font-family="Helvetica" > 5</tspan></text>
	</g>
</g>
<g fill="none" color="black" stroke="currentColor" stroke-width="1.00" stroke-linecap="butt" stroke-linejoin="miter">
	<path stroke='black'  d='M872.5,662.4 L872.5,653.4  '/>	<g transform="translate(872.5,684.3)" stroke="none" fill="black" font-family="Helvetica" font-size="12.00"  text-anchor="middle">
		<text><tspan font-family="Helvetica" > 5.5</tspan></text>
	</g>
</g>
<g fill="none" color="black" stroke="currentColor" stroke-width="1.00" stroke-linecap="butt" stroke-linejoin="miter">
	<path stroke='black'  d='M971.7,662.4 L971.7,653.4  '/>	<g transform="translate(971.7,684.3)" stroke="none" fill="black" font-family="Helvetica" font-size="12.00"  text-anchor="middle">
		<text><tspan font-family="Helvetica" > 6</tspan></text>
	</g>
</g>
<g fill="none" color="black" stroke="currentColor" stroke-width="1.00" stroke-linecap="butt" stroke-linejoin="miter">
</g>
<g fill="none" color="black" stroke="currentColor" stroke-width="1.00" stroke-linecap="butt" stroke-linejoin="miter">
	<path stroke='black'  d='M80.2,54.1 L80.2,662.4 L1013.6,662.4 L1013.6,54.1 L80.2,54.1 Z  '/></g>
<g fill="none" color="black" stroke="currentColor" stroke-width="1.00" stroke-linecap="butt" stroke-linejoin="miter">
	<g transform="translate(19.0,358.3) rotate(270)" stroke="none" fill="black" font-family="Helvetica" font-size="12.00"  text-anchor="middle">
		<text><tspan font-family="Helvetica" >Density (a.u.)</tspan></text>
	</g>
</g>
<g fill="none" color="black" stroke="currentColor" stroke-width="1.00" stroke-linecap="butt" stroke-linejoin="miter">
	<g transform="translate(546.9,711.3)" stroke="none" fill="black" font-family="Helvetica" font-size="12.00"  text-anchor="middle">
		<text><tspan font-family="Helvetica" >Average time (us)</tspan></text>
	</g>
</g>
<g fill="none" color="black" stroke="currentColor" stroke-width="1.00" stroke-linecap="butt" stroke-linejoin="miter">
	<g transform="translate(546.9,31.0)" stroke="none" fill="black" font-family="Helvetica" font-size="12.00"  text-anchor="middle">
		<text><tspan font-family="Helvetica" >bench_group/blake3/1048576: SD</tspan></text>
	</g>
</g>
<g fill="none" color="black" stroke="currentColor" stroke-width="1.00" stroke-linecap="butt" stroke-linejoin="miter">
</g>
	<g id="gnuplot_plot_1" ><title>Bootstrap distribution</title>
<g fill="none" color="white" stroke="currentColor" stroke-width="2.00" stroke-linecap="butt" stroke-linejoin="miter">
</g>
<g fill="none" color="black" stroke="currentColor" stroke-width="2.00" stroke-linecap="butt" stroke-linejoin="miter">
	<g transform="translate(1089.0,67.0)" stroke="none" fill="black" font-family="Helvetica" font-size="12.00"  text-anchor="start">
		<text><tspan font-family="Helvetica" >Bootstrap distribution</tspan></text>
	</g>
</g>
<g fill="none" color="black" stroke="currentColor" stroke-width="2.00" stroke-linecap="butt" stroke-linejoin="miter">
	<path stroke='rgb( 31, 120, 180)'  d='M1038.5,63.1 L1080.7,63.1 M80.2,618.9 L82.1,618.7 L83.9,618.6 L85.8,618.6 L87.7,618.6 L89.6,618.6
		L91.4,618.7 L93.3,618.8 L95.2,619.0 L97.0,619.1 L98.9,619.2 L100.8,619.4 L102.6,619.4 L104.5,619.5
		L106.4,619.5 L108.3,619.4 L110.1,619.2 L112.0,618.8 L113.9,618.4 L115.7,617.8 L117.6,617.0 L119.5,616.1
		L121.4,614.9 L123.2,613.5 L125.1,611.9 L127.0,610.1 L128.8,607.9 L130.7,605.6 L132.6,602.9 L134.4,599.9
		L136.3,596.7 L138.2,593.2 L140.1,589.5 L141.9,585.4 L143.8,581.2 L145.7,576.7 L147.5,572.0 L149.4,567.1
		L151.3,562.0 L153.2,556.8 L155.0,551.6 L156.9,546.3 L158.8,541.0 L160.6,535.6 L162.5,530.4 L164.4,525.3
		L166.2,520.3 L168.1,515.5 L170.0,511.0 L171.9,506.7 L173.7,502.7 L175.6,499.0 L177.5,495.7 L179.3,492.7
		L181.2,490.2 L183.1,488.0 L185.0,486.2 L186.8,484.8 L188.7,483.7 L190.6,483.0 L192.4,482.7 L194.3,482.6
		L196.2,482.7 L198.0,483.1 L199.9,483.6 L201.8,484.2 L203.7,484.8 L205.5,485.4 L207.4,485.9 L209.3,486.2
		L211.1,486.4 L213.0,486.2 L214.9,485.7 L216.7,484.9 L218.6,483.6 L220.5,481.9 L222.4,479.7 L224.2,477.1
		L226.1,473.9 L228.0,470.2 L229.8,466.0 L231.7,461.4 L233.6,456.3 L235.5,450.8 L237.3,444.9 L239.2,438.8
		L241.1,432.4 L242.9,425.8 L244.8,419.2 L246.7,412.5 L248.5,405.9 L250.4,399.4 L252.3,393.1 L254.2,387.0
		L256.0,381.4 L257.9,376.1 L259.8,371.2 L261.6,366.9 L263.5,363.0 L265.4,359.7 L267.3,357.0 L269.1,354.8
		L271.0,353.1 L272.9,352.0 L274.7,351.3 L276.6,351.1 L278.5,351.2 L280.3,351.6 L282.2,352.3 L284.1,353.1
		L286.0,354.0 L287.8,354.9 L289.7,355.7 L291.6,356.4 L293.4,356.9 L295.3,357.1 L297.2,357.0 L299.1,356.6
		L300.9,355.8 L302.8,354.5 L304.7,352.9 L306.5,350.8 L308.4,348.4 L310.3,345.6 L312.1,342.5 L314.0,339.2
		L315.9,335.7 L317.8,332.1 L319.6,328.5 L321.5,324.9 L323.4,321.4 L325.2,318.0 L327.1,315.0 L329.0,312.2
		L330.9,309.9 L332.7,307.9 L334.6,306.4 L336.5,305.3 L338.3,304.8 L340.2,304.6 L342.1,305.0 L343.9,305.7
		L345.8,306.8 L347.7,308.3 L349.6,309.9 L351.4,311.8 L353.3,313.8 L355.2,315.8 L357.0,317.8 L358.9,319.7
		L360.8,321.4 L362.7,322.9 L364.5,324.0 L366.4,324.8 L368.3,325.3 L370.1,325.3 L372.0,325.0 L373.9,324.2
		L375.7,323.1 L377.6,321.5 L379.5,319.7 L381.4,317.5 L383.2,315.2 L385.1,312.6 L387.0,309.9 L388.8,307.2
		L390.7,304.6 L392.6,301.9 L394.5,299.5 L396.3,297.2 L398.2,295.1 L400.1,293.3 L401.9,291.8 L403.8,290.6
		L405.7,289.7 L407.5,289.0 L409.4,288.6 L411.3,288.4 L413.2,288.4 L415.0,288.4 L416.9,288.6 L418.8,288.7
		L420.6,288.7 L422.5,288.5 L424.4,288.2 L426.3,287.5 L428.1,286.6 L430.0,285.2 L431.9,283.5 L433.7,281.3
		L435.6,278.7 L437.5,275.7 L439.3,272.3 L441.2,268.5 L443.1,264.4 L445.0,260.1 L446.8,255.5 L448.7,250.8
		L450.6,246.1 L452.4,241.3 L454.3,236.7 L456.2,232.1 L458.0,227.8 L459.9,223.6 L461.8,219.7 L463.7,216.1
		L465.5,212.8 L467.4,209.7 L469.3,206.8 L471.1,204.1 L473.0,201.6 L474.9,199.2 L476.8,196.7 L478.6,194.3
		L480.5,191.8 L482.4,189.1 L484.2,186.2 L486.1,183.1 L488.0,179.7 L489.8,176.1 L491.7,172.2 L493.6,168.1
		L495.5,163.8 L497.3,159.3 L499.2,154.8 L501.1,150.2 L502.9,145.6 L504.8,141.2 L506.7,136.9 L508.6,132.9
		L510.4,129.2 L512.3,125.8 L514.2,122.9 L516.0,120.3 L517.9,118.2 L519.8,116.5 L521.6,115.2 L523.5,114.3
		L525.4,113.7 L527.3,113.4 L529.1,113.4 L531.0,113.5 L532.9,113.7 L534.7,114.0 L536.6,114.3 L538.5,114.6
		L540.4,114.9 L542.2,115.2 L544.1,115.4 L546.0,115.6 L547.8,115.8 L549.7,116.1 L551.6,116.4 L553.4,116.8
		L555.3,117.4 L557.2,118.1 L559.1,119.1 L560.9,120.4 L562.8,122.0 L564.7,123.8 L566.5,126.0 L568.4,128.5
		L570.3,131.2 L572.2,134.2 L574.0,137.5 L575.9,140.9 L577.8,144.5 L579.6,148.2 L581.5,151.9 L583.4,155.7
		L585.2,159.5 L587.1,163.2 L589.0,166.9 L590.9,170.5 L592.7,174.1 L594.6,177.5 L596.5,180.9 L598.3,184.2
		L600.2,187.5 L602.1,190.7 L604.0,193.9 L605.8,197.0 L607.7,200.2 L609.6,203.4 L611.4,206.5 L613.3,209.7
		L615.2,212.9 L617.0,216.1 L618.9,219.2 L620.8,222.2 L622.7,225.2 L624.5,228.1 L626.4,230.8 L628.3,233.5
		L630.1,235.9 L632.0,238.2 L633.9,240.3 L635.8,242.2 L637.6,243.9 L639.5,245.4 L641.4,246.8 L643.2,248.0
		L645.1,249.1 L647.0,250.1 L648.8,250.9 L650.7,251.7 L652.6,252.5 L654.5,253.2 L656.3,253.9 L658.2,254.6
		L660.1,255.2 L661.9,255.9 L663.8,256.5 L665.7,257.1 L667.5,257.7 L669.4,258.3 L671.3,258.9 L673.2,259.4
		L675.0,259.8 L676.9,260.3 L678.8,260.7 L680.6,261.0 L682.5,261.3 L684.4,261.7 L686.3,262.0 L688.1,262.3
		L690.0,262.7 L691.9,263.1 L693.7,263.6 L695.6,264.1 L697.5,264.8 L699.3,265.6 L701.2,266.5 L703.1,267.5
		L705.0,268.7 L706.8,270.1 L708.7,271.6 L710.6,273.2 L712.4,275.0 L714.3,277.0 L716.2,279.1 L718.1,281.4
		L719.9,283.8 L721.8,286.4 L723.7,289.2 L725.5,292.1 L727.4,295.1 L729.3,298.4 L731.1,301.7 L733.0,305.2
		L734.9,308.8 L736.8,312.6 L738.6,316.4 L740.5,320.4 L742.4,324.4 L744.2,328.5 L746.1,332.6 L748.0,336.8
		L749.9,341.0 L751.7,345.3 L753.6,349.5 L755.5,353.7 L757.3,357.9 L759.2,362.0 L761.1,366.1 L762.9,370.1
		L764.8,374.2 L766.7,378.1 L768.6,382.0 L770.4,385.9 L772.3,389.7 L774.2,393.5 L776.0,397.2 L777.9,400.9
		L779.8,404.5 L781.7,408.0 L783.5,411.5 L785.4,415.0 L787.3,418.4 L789.1,421.7 L791.0,425.0 L792.9,428.2
		L794.7,431.4 L796.6,434.5 L798.5,437.5 L800.4,440.4 L802.2,443.3 L804.1,446.1 L806.0,448.8 L807.8,451.4
		L809.7,454.0 L811.6,456.5 L813.5,458.9 L815.3,461.3 L817.2,463.6 L819.1,465.8 L820.9,467.9 L822.8,470.0
		L824.7,472.0 L826.5,473.9 L828.4,475.8 L830.3,477.6 L832.2,479.3 L834.0,481.0 L835.9,482.7 L837.8,484.3
		L839.6,485.9 L841.5,487.5 L843.4,489.0 L845.3,490.6 L847.1,492.1 L849.0,493.7 L850.9,495.3 L852.7,496.9
		L854.6,498.5 L856.5,500.1 L858.3,501.8 L860.2,503.6 L862.1,505.4 L864.0,507.2 L865.8,509.2 L867.7,511.1
		L869.6,513.2 L871.4,515.2 L873.3,517.4 L875.2,519.6 L877.1,521.8 L878.9,524.1 L880.8,526.4 L882.7,528.8
		L884.5,531.2 L886.4,533.6 L888.3,536.1 L890.1,538.5 L892.0,541.0 L893.9,543.5 L895.8,545.9 L897.6,548.3
		L899.5,550.8 L901.4,553.2 L903.2,555.5 L905.1,557.8 L907.0,560.1 L908.8,562.4 L910.7,564.6 L912.6,566.8
		L914.5,568.9 L916.3,570.9 L918.2,573.0 L920.1,574.9 L921.9,576.8 L923.8,578.7 L925.7,580.4 L927.6,582.2
		L929.4,583.8 L931.3,585.4 L933.2,586.9 L935.0,588.4 L936.9,589.8 L938.8,591.1 L940.6,592.3 L942.5,593.5
		L944.4,594.7 L946.3,595.7 L948.1,596.7 L950.0,597.7 L951.9,598.6 L953.7,599.5 L955.6,600.3 L957.5,601.1
		L959.4,601.9 L961.2,602.7 L963.1,603.4 L965.0,604.1 L966.8,604.8 L968.7,605.5 L970.6,606.3 L972.4,607.0
		L974.3,607.7 L976.2,608.4 L978.1,609.2 L979.9,610.0 L981.8,610.8 L983.7,611.6 L985.5,612.4 L987.4,613.3
		L989.3,614.2 L991.2,615.1 L993.0,616.0 L994.9,617.0 L996.8,618.0 L998.6,619.0 L1000.5,620.0 L1002.4,621.1
		L1004.2,622.1 L1006.1,623.1 L1008.0,624.2 L1009.9,625.3 L1011.7,626.3 L1013.6,627.3  '/></g>
	</g>
	<g id="gnuplot_plot_2" ><title>Confidence interval</title>
<g fill="none" color="white" stroke="rgb( 31, 120, 180)" stroke-width="1.00" stroke-linecap="butt" stroke-linejoin="miter">
</g>
<g fill="none" color="black" stroke="currentColor" stroke-width="1.00" stroke-linecap="butt" stroke-linejoin="miter">
	<g transform="translate(1089.0,85.0)" stroke="none" fill="black" font-family="Helvetica" font-size="12.00"  text-anchor="start">
		<text><tspan font-family="Helvetica" >Confidence interval</tspan></text>
	</g>
</g>
<g fill="none" color="black" stroke="currentColor" stroke-width="1.00" stroke-linecap="butt" stroke-linejoin="miter">
	<g stroke='none' shape-rendering='crispEdges'>
		<polygon fill = 'rgb( 31, 120, 180)' fill-opacity = '0.250000' points = '1038.5,85.6 1080.7,85.6 1080.7,76.6 1038.5,76.6 '/>
		<polygon fill = 'rgb( 31, 120, 180)' fill-opacity = '0.250000' points = '166.2,520.3 168.1,515.5 170.0,511.0 171.9,506.7 173.7,502.7 175.6,499.0 177.5,495.7 179.3,492.7 181.2,490.2 183.1,488.0 185.0,486.2 186.8,484.8 188.7,483.7 190.6,483.0 192.4,482.7 194.3,482.6
196.2,482.7 198.0,483.1 199.9,483.6 201.8,484.2 203.7,484.8 205.5,485.4 207.4,485.9 209.3,486.2 211.1,486.4 213.0,486.2 214.9,485.7 216.7,484.9 218.6,483.6 220.5,481.9 222.4,479.7 224.2,477.1
226.1,473.9 228.0,470.2 229.8,466.0 231.7,461.4 233.6,456.3 235.5,450.8 237.3,444.9 239.2,438.8 241.1,432.4 242.9,425.8 244.8,419.2 246.7,412.5 248.5,405.9 250.4,399.4 252.3,393.1 254.2,387.0
256.0,381.4 257.9,376.1 259.8,371.2 261.6,366.9 263.5,363.0 265.4,359.7 267.3,357.0 269.1,354.8 271.0,353.1 272.9,352.0 274.7,351.3 276.6,351.1 278.5,351.2 280.3,351.6 282.2,352.3 284.1,353.1
286.0,354.0 287.8,354.9 289.7,355.7 291.6,356.4 293.4,356.9 295.3,357.1 297.2,357.0 299.1,356.6 300.9,355.8 302.8,354.5 304.7,352.9 306.5,350.8 308.4,348.4 310.3,345.6 312.1,342.5 314.0,339.2
315.9,335.7 317.8,332.1 319.6,328.5 321.5,324.9 323.4,321.4 325.2,318.0 327.1,315.0 329.0,312.2 330.9,309.9 332.7,307.9 334.6,306.4 336.5,305.3 338.3,304.8 340.2,304.6 342.1,305.0 343.9,305.7
345.8,306.8 347.7,308.3 349.6,309.9 351.4,311.8 353.3,313.8 355.2,315.8 357.0,317.8 358.9,319.7 360.8,321.4 362.7,322.9 364.5,324.0 366.4,324.8 368.3,325.3 370.1,325.3 372.0,325.0 373.9,324.2
375.7,323.1 377.6,321.5 379.5,319.7 381.4,317.5 383.2,315.2 385.1,312.6 387.0,309.9 388.8,307.2 390.7,304.6 392.6,301.9 394.5,299.5 396.3,297.2 398.2,295.1 400.1,293.3 401.9,291.8 403.8,290.6
405.7,289.7 407.5,289.0 409.4,288.6 411.3,288.4 413.2,288.4 415.0,288.4 416.9,288.6 418.8,288.7 420.6,288.7 422.5,288.5 424.4,288.2 426.3,287.5 428.1,286.6 430.0,285.2 431.9,283.5 433.7,281.3
435.6,278.7 437.5,275.7 439.3,272.3 441.2,268.5 443.1,264.4 445.0,260.1 446.8,255.5 448.7,250.8 450.6,246.1 452.4,241.3 454.3,236.7 456.2,232.1 458.0,227.8 459.9,223.6 461.8,219.7 463.7,216.1
465.5,212.8 467.4,209.7 469.3,206.8 471.1,204.1 473.0,201.6 474.9,199.2 476.8,196.7 478.6,194.3 480.5,191.8 482.4,189.1 484.2,186.2 486.1,183.1 488.0,179.7 489.8,176.1 491.7,172.2 493.6,168.1
495.5,163.8 497.3,159.3 499.2,154.8 501.1,150.2 502.9,145.6 504.8,141.2 506.7,136.9 508.6,132.9 510.4,129.2 512.3,125.8 514.2,122.9 516.0,120.3 517.9,118.2 519.8,116.5 521.6,115.2 523.5,114.3
525.4,113.7 527.3,113.4 529.1,113.4 531.0,113.5 532.9,113.7 534.7,114.0 536.6,114.3 538.5,114.6 540.4,114.9 542.2,115.2 544.1,115.4 546.0,115.6 547.8,115.8 549.7,116.1 551.6,116.4 553.4,116.8
555.3,117.4 557.2,118.1 559.1,119.1 560.9,120.4 562.8,122.0 564.7,123.8 566.5,126.0 568.4,128.5 570.3,131.2 572.2,134.2 574.0,137.5 575.9,140.9 577.8,144.5 579.6,148.2 581.5,151.9 583.4,155.7
585.2,159.5 587.1,163.2 589.0,166.9 590.9,170.5 592.7,174.1 594.6,177.5 596.5,180.9 598.3,184.2 600.2,187.5 602.1,190.7 604.0,193.9 605.8,197.0 607.7,200.2 609.6,203.4 611.4,206.5 613.3,209.7
615.2,212.9 617.0,216.1 618.9,219.2 620.8,222.2 622.7,225.2 624.5,228.1 626.4,230.8 628.3,233.5 630.1,235.9 632.0,238.2 633.9,240.3 635.8,242.2 637.6,243.9 639.5,245.4 641.4,246.8 643.2,248.0
645.1,249.1 647.0,250.1 648.8,250.9 650.7,251.7 652.6,252.5 654.5,253.2 656.3,253.9 658.2,254.6 660.1,255.2 661.9,255.9 663.8,256.5 665.7,257.1 667.5,257.7 669.4,258.3 671.3,258.9 673.2,259.4
675.0,259.8 676.9,260.3 678.8,260.7 680.6,261.0 682.5,261.3 684.4,261.7 686.3,262.0 688.1,262.3 690.0,262.7 691.9,263.1 693.7,263.6 695.6,264.1 697.5,264.8 699.3,265.6 701.2,266.5 703.1,267.5
705.0,268.7 706.8,270.1 708.7,271.6 710.6,273.2 712.4,275.0 714.3,277.0 716.2,279.1 718.1,281.4 719.9,283.8 721.8,286.4 723.7,289.2 725.5,292.1 727.4,295.1 729.3,298.4 731.1,301.7 733.0,305.2
734.9,308.8 736.8,312.6 738.6,316.4 740.5,320.4 742.4,324.4 744.2,328.5 746.1,332.6 748.0,336.8 749.9,341.0 751.7,345.3 753.6,349.5 755.5,353.7 757.3,357.9 759.2,362.0 761.1,366.1 762.9,370.1
764.8,374.2 766.7,378.1 768.6,382.0 770.4,385.9 772.3,389.7 774.2,393.5 776.0,397.2 777.9,400.9 779.8,404.5 781.7,408.0 783.5,411.5 785.4,415.0 787.3,418.4 789.1,421.7 791.0,425.0 792.9,428.2
794.7,431.4 796.6,434.5 798.5,437.5 800.4,440.4 802.2,443.3 804.1,446.1 806.0,448.8 807.8,451.4 809.7,454.0 811.6,456.5 813.5,458.9 815.3,461.3 817.2,463.6 819.1,465.8 820.9,467.9 822.8,470.0
824.7,472.0 826.5,473.9 828.4,475.8 830.3,477.6 832.2,479.3 834.0,481.0 835.9,482.7 837.8,484.3 839.6,485.9 841.5,487.5 843.4,489.0 845.3,490.6 847.1,492.1 849.0,493.7 850.9,495.3 852.7,496.9
854.6,498.5 856.5,500.1 858.3,501.8 860.2,503.6 862.1,505.4 864.0,507.2 865.8,509.2 867.7,511.1 869.6,513.2 871.4,515.2 873.3,517.4 875.2,519.6 877.1,521.8 878.9,524.1 880.8,526.4 882.7,528.8
884.5,531.2 886.4,533.6 888.3,536.1 890.1,538.5 892.0,541.0 893.9,543.5 895.8,545.9 897.6,548.3 899.5,550.8 901.4,553.2 903.2,555.5 905.1,557.8 907.0,560.1 908.8,562.4 910.7,564.6 912.6,566.8
914.5,568.9 916.3,570.9 918.2,573.0 920.1,574.9 921.9,576.8 923.8,578.7 925.7,580.4 925.7,662.4 923.8,662.4 921.9,662.4 920.1,662.4 918.2,662.4 916.3,662.4 914.5,662.4 912.6,662.4 910.7,662.4
908.8,662.4 907.0,662.4 905.1,662.4 903.2,662.4 901.4,662.4 899.5,662.4 897.6,662.4 895.8,662.4 893.9,662.4 892.0,662.4 890.1,662.4 888.3,662.4 886.4,662.4 884.5,662.4 882.7,662.4 880.8,662.4
878.9,662.4 877.1,662.4 875.2,662.4 873.3,662.4 871.4,662.4 869.6,662.4 867.7,662.4 865.8,662.4 864.0,662.4 862.1,662.4 860.2,662.4 858.3,662.4 856.5,662.4 854.6,662.4 852.7,662.4 850.9,662.4
849.0,662.4 847.1,662.4 845.3,662.4 843.4,662.4 841.5,662.4 839.6,662.4 837.8,662.4 835.9,662.4 834.0,662.4 832.2,662.4 830.3,662.4 828.4,662.4 826.5,662.4 824.7,662.4 822.8,662.4 820.9,662.4
819.1,662.4 817.2,662.4 815.3,662.4 813.5,662.4 811.6,662.4 809.7,662.4 807.8,662.4 806.0,662.4 804.1,662.4 802.2,662.4 800.4,662.4 798.5,662.4 796.6,662.4 794.7,662.4 792.9,662.4 791.0,662.4
789.1,662.4 787.3,662.4 785.4,662.4 783.5,662.4 781.7,662.4 779.8,662.4 777.9,662.4 776.0,662.4 774.2,662.4 772.3,662.4 770.4,662.4 768.6,662.4 766.7,662.4 764.8,662.4 762.9,662.4 761.1,662.4
759.2,662.4 757.3,662.4 755.5,662.4 753.6,662.4 751.7,662.4 749.9,662.4 748.0,662.4 746.1,662.4 744.2,662.4 742.4,662.4 740.5,662.4 738.6,662.4 736.8,662.4 734.9,662.4 733.0,662.4 731.1,662.4
729.3,662.4 727.4,662.4 725.5,662.4 723.7,662.4 721.8,662.4 719.9,662.4 718.1,662.4 716.2,662.4 714.3,662.4 712.4,662.4 710.6,662.4 708.7,662.4 706.8,662.4 705.0,662.4 703.1,662.4 701.2,662.4
699.3,662.4 697.5,662.4 695.6,662.4 693.7,662.4 691.9,662.4 690.0,662.4 688.1,662.4 686.3,662.4 684.4,662.4 682.5,662.4 680.6,662.4 678.8,662.4 676.9,662.4 675.0,662.4 673.2,662.4 671.3,662.4
669.4,662.4 667.5,662.4 665.7,662.4 663.8,662.4 661.9,662.4 660.1,662.4 658.2,662.4 656.3,662.4 654.5,662.4 652.6,662.4 650.7,662.4 648.8,662.4 647.0,662.4 645.1,662.4 643.2,662.4 641.4,662.4
639.5,662.4 637.6,662.4 635.8,662.4 633.9,662.4 632.0,662.4 630.1,662.4 628.3,662.4 626.4,662.4 624.5,662.4 622.7,662.4 620.8,662.4 618.9,662.4 617.0,662.4 615.2,662.4 613.3,662.4 611.4,662.4
609.6,662.4 607.7,662.4 605.8,662.4 604.0,662.4 602.1,662.4 600.2,662.4 598.3,662.4 596.5,662.4 594.6,662.4 592.7,662.4 590.9,662.4 589.0,662.4 587.1,662.4 585.2,662.4 583.4,662.4 581.5,662.4
579.6,662.4 577.8,662.4 575.9,662.4 574.0,662.4 572.2,662.4 570.3,662.4 568.4,662.4 566.5,662.4 564.7,662.4 562.8,662.4 560.9,662.4 559.1,662.4 557.2,662.4 555.3,662.4 553.4,662.4 551.6,662.4
549.7,662.4 547.8,662.4 546.0,662.4 544.1,662.4 542.2,662.4 540.4,662.4 538.5,662.4 536.6,662.4 534.7,662.4 532.9,662.4 531.0,662.4 529.1,662.4 527.3,662.4 525.4,662.4 523.5,662.4 521.6,662.4
519.8,662.4 517.9,662.4 516.0,662.4 514.2,662.4 512.3,662.4 510.4,662.4 508.6,662.4 506.7,662.4 504.8,662.4 502.9,662.4 501.1,662.4 499.2,662.4 497.3,662.4 495.5,662.4 493.6,662.4 491.7,662.4
489.8,662.4 488.0,662.4 486.1,662.4 484.2,662.4 482.4,662.4 480.5,662.4 478.6,662.4 476.8,662.4 474.9,662.4 473.0,662.4 471.1,662.4 469.3,662.4 467.4,662.4 465.5,662.4 463.7,662.4 461.8,662.4
459.9,662.4 458.0,662.4 456.2,662.4 454.3,662.4 452.4,662.4 450.6,662.4 448.7,662.4 446.8,662.4 445.0,662.4 443.1,662.4 441.2,662.4 439.3,662.4 437.5,662.4 435.6,662.4 433.7,662.4 431.9,662.4
430.0,662.4 428.1,662.4 426.3,662.4 424.4,662.4 422.5,662.4 420.6,662.4 418.8,662.4 416.9,662.4 415.0,662.4 413.2,662.4 411.3,662.4 409.4,662.4 407.5,662.4 405.7,662.4 403.8,662.4 401.9,662.4
400.1,662.4 398.2,662.4 396.3,662.4 394.5,662.4 392.6,662.4 390.7,662.4 388.8,662.4 387.0,662.4 385.1,662.4 383.2,662.4 381.4,662.4 379.5,662.4 377.6,662.4 375.7,662.4 373.9,662.4 372.0,662.4
370.1,662.4 368.3,662.4 366.4,662.4 364.5,662.4 362.7,662.4 360.8,662.4 358.9,662.4 357.0,662.4 355.2,662.4 353.3,662.4 351.4,662.4 349.6,662.4 347.7,662.4 345.8,662.4 343.9,662.4 342.1,662.4
340.2,662.4 338.3,662.4 336.5,662.4 334.6,662.4 332.7,662.4 330.9,662.4 329.0,662.4 327.1,662.4 325.2,662.4 323.4,662.4 321.5,662.4 319.6,662.4 317.8,662.4 315.9,662.4 314.0,662.4 312.1,662.4
310.3,662.4 308.4,662.4 306.5,662.4 304.7,662.4 302.8,662.4 300.9,662.4 299.1,662.4 297.2,662.4 295.3,662.4 293.4,662.4 291.6,662.4 289.7,662.4 287.8,662.4 286.0,662.4 284.1,662.4 282.2,662.4
280.3,662.4 278.5,662.4 276.6,662.4 274.7,662.4 272.9,662.4 271.0,662.4 269.1,662.4 267.3,662.4 265.4,662.4 263.5,662.4 261.6,662.4 259.8,662.4 257.9,662.4 256.0,662.4 254.2,662.4 252.3,662.4
250.4,662.4 248.5,662.4 246.7,662.4 244.8,662.4 242.9,662.4 241.1,662.4 239.2,662.4 237.3,662.4 235.5,662.4 233.6,662.4 231.7,662.4 229.8,662.4 228.0,662.4 226.1,662.4 224.2,662.4 222.4,662.4
220.5,662.4 218.6,662.4 216.7,662.4 214.9,662.4 213.0,662.4 211.1,662.4 209.3,662.4 207.4,662.4 205.5,662.4 203.7,662.4 201.8,662.4 199.9,662.4 198.0,662.4 196.2,662.4 194.3,662.4 192.4,662.4
190.6,662.4 188.7,662.4 186.8,662.4 185.0,662.4 183.1,662.4 181.2,662.4 179.3,662.4 177.5,662.4 175.6,662.4 173.7,662.4 171.9,662.4 170.0,662.4 168.1,662.4 166.2,662.4 '/>
	</g>
</g>
	</g>
	<g id="gnuplot_plot_3" ><title>Point estimate</title>
<g fill="none" color="white" stroke="rgb( 31, 120, 180)" stroke-width="2.00" stroke-linecap="butt" stroke-linejoin="miter">
</g>
<g fill="none" color="black" stroke="currentColor" stroke-width="2.00" stroke-linecap="butt" stroke-linejoin="miter">
	<g transform="translate(1089.0,103.0)" stroke="none" fill="black" font-family="Helvetica" font-size="12.00"  text-anchor="start">
		<text><tspan font-family="Helvetica" >Point estimate</tspan></text>
	</g>
</g>
<g fill="none" color="black" stroke="currentColor" stroke-width="2.00" stroke-linecap="butt" stroke-linejoin="miter">
	<path stroke='rgb( 31, 120, 180)'  d='M1038.5,99.1 L1080.7,99.1 M564.7,662.4 L564.7,123.8  '/></g>
	</g>
<g fill="none" color="black" stroke="currentColor" stroke-width="2.00" stroke-linecap="butt" stroke-linejoin="miter">
</g>
<g fill="none" color="black" stroke="black" stroke-width="1.00" stroke-linecap="butt" stroke-linejoin="miter">
</g>
<g fill="none" color="black" stroke="currentColor" stroke-width="1.00" stroke-linecap="butt" stroke-linejoin="miter">
	<path stroke='black'  d='M80.2,54.1 L80.2,662.4 L1013.6,662.4 L1013.6,54.1 L80.2,54.1 Z  '/></g>
<g fill="none" color="black" stroke="currentColor" stroke-width="1.00" stroke-linecap="butt" stroke-linejoin="miter">
</g>
</g>
</svg>

