<?xml version="1.0" encoding="utf-8"  standalone="no"?>
<svg 
 viewBox="0 0 1280 720"
 xmlns="http://www.w3.org/2000/svg"
 xmlns:xlink="http://www.w3.org/1999/xlink"
>

<title>Gnuplot</title>
<desc>Produced by GNUPLOT 5.2 patchlevel 8 </desc>

<g id="gnuplot_canvas">

<rect x="0" y="0" width="1280" height="720" fill="none"/>
<defs>

	<circle id='gpDot' r='0.5' stroke-width='0.5' stroke='currentColor'/>
	<path id='gpPt0' stroke-width='0.222' stroke='currentColor' d='M-1,0 h2 M0,-1 v2'/>
	<path id='gpPt1' stroke-width='0.222' stroke='currentColor' d='M-1,-1 L1,1 M1,-1 L-1,1'/>
	<path id='gpPt2' stroke-width='0.222' stroke='currentColor' d='M-1,0 L1,0 M0,-1 L0,1 M-1,-1 L1,1 M-1,1 L1,-1'/>
	<rect id='gpPt3' stroke-width='0.222' stroke='currentColor' x='-1' y='-1' width='2' height='2'/>
	<rect id='gpPt4' stroke-width='0.222' stroke='currentColor' fill='currentColor' x='-1' y='-1' width='2' height='2'/>
	<circle id='gpPt5' stroke-width='0.222' stroke='currentColor' cx='0' cy='0' r='1'/>
	<use xlink:href='#gpPt5' id='gpPt6' fill='currentColor' stroke='none'/>
	<path id='gpPt7' stroke-width='0.222' stroke='currentColor' d='M0,-1.33 L-1.33,0.67 L1.33,0.67 z'/>
	<use xlink:href='#gpPt7' id='gpPt8' fill='currentColor' stroke='none'/>
	<use xlink:href='#gpPt7' id='gpPt9' stroke='currentColor' transform='rotate(180)'/>
	<use xlink:href='#gpPt9' id='gpPt10' fill='currentColor' stroke='none'/>
	<use xlink:href='#gpPt3' id='gpPt11' stroke='currentColor' transform='rotate(45)'/>
	<use xlink:href='#gpPt11' id='gpPt12' fill='currentColor' stroke='none'/>
	<path id='gpPt13' stroke-width='0.222' stroke='currentColor' d='M0,1.330 L1.265,0.411 L0.782,-1.067 L-0.782,-1.076 L-1.265,0.411 z'/>
	<use xlink:href='#gpPt13' id='gpPt14' fill='currentColor' stroke='none'/>
	<filter id='textbox' filterUnits='objectBoundingBox' x='0' y='0' height='1' width='1'>
	  <feFlood flood-color='white' flood-opacity='1' result='bgnd'/>
	  <feComposite in='SourceGraphic' in2='bgnd' operator='atop'/>
	</filter>
	<filter id='greybox' filterUnits='objectBoundingBox' x='0' y='0' height='1' width='1'>
	  <feFlood flood-color='lightgrey' flood-opacity='1' result='grey'/>
	  <feComposite in='SourceGraphic' in2='grey' operator='atop'/>
	</filter>
</defs>
<g fill="none" color="white" stroke="currentColor" stroke-width="1.00" stroke-linecap="butt" stroke-linejoin="miter">
</g>
<g fill="none" color="black" stroke="currentColor" stroke-width="1.00" stroke-linecap="butt" stroke-linejoin="miter">
	<path stroke='black'  d='M63.6,662.4 L72.6,662.4  '/>	<g transform="translate(55.3,666.3)" stroke="none" fill="black" font-family="Helvetica" font-size="12.00"  text-anchor="end">
		<text><tspan font-family="Helvetica" > 0</tspan></text>
	</g>
</g>
<g fill="none" color="black" stroke="currentColor" stroke-width="1.00" stroke-linecap="butt" stroke-linejoin="miter">
	<path stroke='black'  d='M63.6,585.2 L72.6,585.2  '/>	<g transform="translate(55.3,589.1)" stroke="none" fill="black" font-family="Helvetica" font-size="12.00"  text-anchor="end">
		<text><tspan font-family="Helvetica" > 5</tspan></text>
	</g>
</g>
<g fill="none" color="black" stroke="currentColor" stroke-width="1.00" stroke-linecap="butt" stroke-linejoin="miter">
	<path stroke='black'  d='M63.6,508.0 L72.6,508.0  '/>	<g transform="translate(55.3,511.9)" stroke="none" fill="black" font-family="Helvetica" font-size="12.00"  text-anchor="end">
		<text><tspan font-family="Helvetica" > 10</tspan></text>
	</g>
</g>
<g fill="none" color="black" stroke="currentColor" stroke-width="1.00" stroke-linecap="butt" stroke-linejoin="miter">
	<path stroke='black'  d='M63.6,430.8 L72.6,430.8  '/>	<g transform="translate(55.3,434.7)" stroke="none" fill="black" font-family="Helvetica" font-size="12.00"  text-anchor="end">
		<text><tspan font-family="Helvetica" > 15</tspan></text>
	</g>
</g>
<g fill="none" color="black" stroke="currentColor" stroke-width="1.00" stroke-linecap="butt" stroke-linejoin="miter">
	<path stroke='black'  d='M63.6,353.6 L72.6,353.6  '/>	<g transform="translate(55.3,357.5)" stroke="none" fill="black" font-family="Helvetica" font-size="12.00"  text-anchor="end">
		<text><tspan font-family="Helvetica" > 20</tspan></text>
	</g>
</g>
<g fill="none" color="black" stroke="currentColor" stroke-width="1.00" stroke-linecap="butt" stroke-linejoin="miter">
	<path stroke='black'  d='M63.6,276.4 L72.6,276.4  '/>	<g transform="translate(55.3,280.3)" stroke="none" fill="black" font-family="Helvetica" font-size="12.00"  text-anchor="end">
		<text><tspan font-family="Helvetica" > 25</tspan></text>
	</g>
</g>
<g fill="none" color="black" stroke="currentColor" stroke-width="1.00" stroke-linecap="butt" stroke-linejoin="miter">
	<path stroke='black'  d='M63.6,199.2 L72.6,199.2  '/>	<g transform="translate(55.3,203.1)" stroke="none" fill="black" font-family="Helvetica" font-size="12.00"  text-anchor="end">
		<text><tspan font-family="Helvetica" > 30</tspan></text>
	</g>
</g>
<g fill="none" color="black" stroke="currentColor" stroke-width="1.00" stroke-linecap="butt" stroke-linejoin="miter">
	<path stroke='black'  d='M63.6,122.0 L72.6,122.0  '/>	<g transform="translate(55.3,125.9)" stroke="none" fill="black" font-family="Helvetica" font-size="12.00"  text-anchor="end">
		<text><tspan font-family="Helvetica" > 35</tspan></text>
	</g>
</g>
<g fill="none" color="black" stroke="currentColor" stroke-width="1.00" stroke-linecap="butt" stroke-linejoin="miter">
	<path stroke='black'  d='M118.9,662.4 L118.9,653.4  '/>	<g transform="translate(118.9,684.3)" stroke="none" fill="black" font-family="Helvetica" font-size="12.00"  text-anchor="middle">
		<text><tspan font-family="Helvetica" > 2.495</tspan></text>
	</g>
</g>
<g fill="none" color="black" stroke="currentColor" stroke-width="1.00" stroke-linecap="butt" stroke-linejoin="miter">
	<path stroke='black'  d='M227.6,662.4 L227.6,653.4  '/>	<g transform="translate(227.6,684.3)" stroke="none" fill="black" font-family="Helvetica" font-size="12.00"  text-anchor="middle">
		<text><tspan font-family="Helvetica" > 2.5</tspan></text>
	</g>
</g>
<g fill="none" color="black" stroke="currentColor" stroke-width="1.00" stroke-linecap="butt" stroke-linejoin="miter">
	<path stroke='black'  d='M336.3,662.4 L336.3,653.4  '/>	<g transform="translate(336.3,684.3)" stroke="none" fill="black" font-family="Helvetica" font-size="12.00"  text-anchor="middle">
		<text><tspan font-family="Helvetica" > 2.505</tspan></text>
	</g>
</g>
<g fill="none" color="black" stroke="currentColor" stroke-width="1.00" stroke-linecap="butt" stroke-linejoin="miter">
	<path stroke='black'  d='M444.9,662.4 L444.9,653.4  '/>	<g transform="translate(444.9,684.3)" stroke="none" fill="black" font-family="Helvetica" font-size="12.00"  text-anchor="middle">
		<text><tspan font-family="Helvetica" > 2.51</tspan></text>
	</g>
</g>
<g fill="none" color="black" stroke="currentColor" stroke-width="1.00" stroke-linecap="butt" stroke-linejoin="miter">
	<path stroke='black'  d='M553.6,662.4 L553.6,653.4  '/>	<g transform="translate(553.6,684.3)" stroke="none" fill="black" font-family="Helvetica" font-size="12.00"  text-anchor="middle">
		<text><tspan font-family="Helvetica" > 2.515</tspan></text>
	</g>
</g>
<g fill="none" color="black" stroke="currentColor" stroke-width="1.00" stroke-linecap="butt" stroke-linejoin="miter">
	<path stroke='black'  d='M662.3,662.4 L662.3,653.4  '/>	<g transform="translate(662.3,684.3)" stroke="none" fill="black" font-family="Helvetica" font-size="12.00"  text-anchor="middle">
		<text><tspan font-family="Helvetica" > 2.52</tspan></text>
	</g>
</g>
<g fill="none" color="black" stroke="currentColor" stroke-width="1.00" stroke-linecap="butt" stroke-linejoin="miter">
	<path stroke='black'  d='M771.0,662.4 L771.0,653.4  '/>	<g transform="translate(771.0,684.3)" stroke="none" fill="black" font-family="Helvetica" font-size="12.00"  text-anchor="middle">
		<text><tspan font-family="Helvetica" > 2.525</tspan></text>
	</g>
</g>
<g fill="none" color="black" stroke="currentColor" stroke-width="1.00" stroke-linecap="butt" stroke-linejoin="miter">
	<path stroke='black'  d='M879.6,662.4 L879.6,653.4  '/>	<g transform="translate(879.6,684.3)" stroke="none" fill="black" font-family="Helvetica" font-size="12.00"  text-anchor="middle">
		<text><tspan font-family="Helvetica" > 2.53</tspan></text>
	</g>
</g>
<g fill="none" color="black" stroke="currentColor" stroke-width="1.00" stroke-linecap="butt" stroke-linejoin="miter">
	<path stroke='black'  d='M988.3,662.4 L988.3,653.4  '/>	<g transform="translate(988.3,684.3)" stroke="none" fill="black" font-family="Helvetica" font-size="12.00"  text-anchor="middle">
		<text><tspan font-family="Helvetica" > 2.535</tspan></text>
	</g>
</g>
<g fill="none" color="black" stroke="currentColor" stroke-width="1.00" stroke-linecap="butt" stroke-linejoin="miter">
	<path stroke='black'  d='M1003.9,662.4 L994.9,662.4  '/>	<g transform="translate(1012.2,666.3)" stroke="none" fill="black" font-family="Helvetica" font-size="12.00"  text-anchor="start">
		<text><tspan font-family="Helvetica" > 0</tspan></text>
	</g>
</g>
<g fill="none" color="black" stroke="currentColor" stroke-width="1.00" stroke-linecap="butt" stroke-linejoin="miter">
	<path stroke='black'  d='M1003.9,594.8 L994.9,594.8  '/>	<g transform="translate(1012.2,598.7)" stroke="none" fill="black" font-family="Helvetica" font-size="12.00"  text-anchor="start">
		<text><tspan font-family="Helvetica" > 20</tspan></text>
	</g>
</g>
<g fill="none" color="black" stroke="currentColor" stroke-width="1.00" stroke-linecap="butt" stroke-linejoin="miter">
	<path stroke='black'  d='M1003.9,527.2 L994.9,527.2  '/>	<g transform="translate(1012.2,531.1)" stroke="none" fill="black" font-family="Helvetica" font-size="12.00"  text-anchor="start">
		<text><tspan font-family="Helvetica" > 40</tspan></text>
	</g>
</g>
<g fill="none" color="black" stroke="currentColor" stroke-width="1.00" stroke-linecap="butt" stroke-linejoin="miter">
	<path stroke='black'  d='M1003.9,459.6 L994.9,459.6  '/>	<g transform="translate(1012.2,463.5)" stroke="none" fill="black" font-family="Helvetica" font-size="12.00"  text-anchor="start">
		<text><tspan font-family="Helvetica" > 60</tspan></text>
	</g>
</g>
<g fill="none" color="black" stroke="currentColor" stroke-width="1.00" stroke-linecap="butt" stroke-linejoin="miter">
	<path stroke='black'  d='M1003.9,392.0 L994.9,392.0  '/>	<g transform="translate(1012.2,395.9)" stroke="none" fill="black" font-family="Helvetica" font-size="12.00"  text-anchor="start">
		<text><tspan font-family="Helvetica" > 80</tspan></text>
	</g>
</g>
<g fill="none" color="black" stroke="currentColor" stroke-width="1.00" stroke-linecap="butt" stroke-linejoin="miter">
	<path stroke='black'  d='M1003.9,324.5 L994.9,324.5  '/>	<g transform="translate(1012.2,328.4)" stroke="none" fill="black" font-family="Helvetica" font-size="12.00"  text-anchor="start">
		<text><tspan font-family="Helvetica" > 100</tspan></text>
	</g>
</g>
<g fill="none" color="black" stroke="currentColor" stroke-width="1.00" stroke-linecap="butt" stroke-linejoin="miter">
	<path stroke='black'  d='M1003.9,256.9 L994.9,256.9  '/>	<g transform="translate(1012.2,260.8)" stroke="none" fill="black" font-family="Helvetica" font-size="12.00"  text-anchor="start">
		<text><tspan font-family="Helvetica" > 120</tspan></text>
	</g>
</g>
<g fill="none" color="black" stroke="currentColor" stroke-width="1.00" stroke-linecap="butt" stroke-linejoin="miter">
	<path stroke='black'  d='M1003.9,189.3 L994.9,189.3  '/>	<g transform="translate(1012.2,193.2)" stroke="none" fill="black" font-family="Helvetica" font-size="12.00"  text-anchor="start">
		<text><tspan font-family="Helvetica" > 140</tspan></text>
	</g>
</g>
<g fill="none" color="black" stroke="currentColor" stroke-width="1.00" stroke-linecap="butt" stroke-linejoin="miter">
	<path stroke='black'  d='M1003.9,121.7 L994.9,121.7  '/>	<g transform="translate(1012.2,125.6)" stroke="none" fill="black" font-family="Helvetica" font-size="12.00"  text-anchor="start">
		<text><tspan font-family="Helvetica" > 160</tspan></text>
	</g>
</g>
<g fill="none" color="black" stroke="currentColor" stroke-width="1.00" stroke-linecap="butt" stroke-linejoin="miter">
	<path stroke='black'  d='M1003.9,54.1 L994.9,54.1  '/>	<g transform="translate(1012.2,58.0)" stroke="none" fill="black" font-family="Helvetica" font-size="12.00"  text-anchor="start">
		<text><tspan font-family="Helvetica" > 180</tspan></text>
	</g>
</g>
<g fill="none" color="black" stroke="currentColor" stroke-width="1.00" stroke-linecap="butt" stroke-linejoin="miter">
</g>
<g fill="none" color="black" stroke="currentColor" stroke-width="1.00" stroke-linecap="butt" stroke-linejoin="miter">
	<path stroke='black'  d='M63.6,54.1 L63.6,662.4 L1003.9,662.4 L1003.9,54.1 L63.6,54.1 Z  '/></g>
<g fill="none" color="black" stroke="currentColor" stroke-width="1.00" stroke-linecap="butt" stroke-linejoin="miter">
	<g transform="translate(19.0,358.3) rotate(270)" stroke="none" fill="black" font-family="Helvetica" font-size="12.00"  text-anchor="middle">
		<text><tspan font-family="Helvetica" >Iterations (x 10</tspan><tspan font-family="Helvetica"  font-size="9.6" dy="-6.00px">3</tspan><tspan font-family="Helvetica"  font-size="12.0" dy="6.00px">)</tspan></text>
	</g>
</g>
<g fill="none" color="black" stroke="currentColor" stroke-width="1.00" stroke-linecap="butt" stroke-linejoin="miter">
	<g transform="translate(1066.6,358.3) rotate(270)" stroke="none" fill="black" font-family="Helvetica" font-size="12.00"  text-anchor="middle">
		<text><tspan font-family="Helvetica" >Density (a.u.)</tspan></text>
	</g>
</g>
<g fill="none" color="black" stroke="currentColor" stroke-width="1.00" stroke-linecap="butt" stroke-linejoin="miter">
	<g transform="translate(533.7,711.3)" stroke="none" fill="black" font-family="Helvetica" font-size="12.00"  text-anchor="middle">
		<text><tspan font-family="Helvetica" >Average time (us)</tspan></text>
	</g>
</g>
<g fill="none" color="black" stroke="currentColor" stroke-width="1.00" stroke-linecap="butt" stroke-linejoin="miter">
	<g transform="translate(533.7,31.0)" stroke="none" fill="black" font-family="Helvetica" font-size="12.00"  text-anchor="middle">
		<text><tspan font-family="Helvetica" >bench_group/blake3/896</tspan></text>
	</g>
</g>
<g fill="none" color="black" stroke="currentColor" stroke-width="1.00" stroke-linecap="butt" stroke-linejoin="miter">
</g>
	<g id="gnuplot_plot_1" ><title>PDF</title>
<g fill="none" color="black" stroke="currentColor" stroke-width="1.00" stroke-linecap="butt" stroke-linejoin="miter">
	<g transform="translate(1147.1,67.0)" stroke="none" fill="black" font-family="Helvetica" font-size="12.00"  text-anchor="start">
		<text><tspan font-family="Helvetica" >PDF</tspan></text>
	</g>
</g>
<g fill="none" color="black" stroke="currentColor" stroke-width="1.00" stroke-linecap="butt" stroke-linejoin="miter">
	<g stroke='none' shape-rendering='crispEdges'>
		<polygon fill = 'rgb( 31, 120, 180)' fill-opacity = '0.250000' points = '1096.6,67.6 1138.8,67.6 1138.8,58.6 1096.6,58.6 '/>
		<polygon fill = 'rgb( 31, 120, 180)' fill-opacity = '0.250000' points = '63.6,662.3 65.5,662.3 67.4,662.3 69.3,662.2 71.1,662.2 73.0,662.2 74.9,662.2 76.8,662.1 78.7,662.1 80.6,662.0 82.4,662.0 84.3,661.9 86.2,661.8 88.1,661.8 90.0,661.7 91.9,661.6
93.7,661.5 95.6,661.4 97.5,661.3 99.4,661.1 101.3,661.0 103.2,660.8 105.1,660.7 106.9,660.5 108.8,660.3 110.7,660.1 112.6,659.9 114.5,659.7 116.4,659.4 118.2,659.2 120.1,658.9 122.0,658.7
123.9,658.4 125.8,658.1 127.7,657.9 129.6,657.6 131.4,657.3 133.3,657.0 135.2,656.7 137.1,656.4 139.0,656.1 140.9,655.9 142.7,655.6 144.6,655.4 146.5,655.1 148.4,654.9 150.3,654.7 152.2,654.5
154.0,654.3 155.9,654.1 157.8,654.0 159.7,653.8 161.6,653.7 163.5,653.7 165.4,653.6 167.2,653.6 169.1,653.6 171.0,653.6 172.9,653.6 174.8,653.6 176.7,653.7 178.5,653.8 180.4,653.9 182.3,654.0
184.2,654.1 186.1,654.2 188.0,654.3 189.9,654.4 191.7,654.5 193.6,654.7 195.5,654.8 197.4,654.9 199.3,655.0 201.2,655.1 203.0,655.1 204.9,655.2 206.8,655.2 208.7,655.3 210.6,655.3 212.5,655.3
214.3,655.2 216.2,655.2 218.1,655.1 220.0,655.1 221.9,655.0 223.8,654.8 225.7,654.7 227.5,654.6 229.4,654.4 231.3,654.3 233.2,654.1 235.1,653.9 237.0,653.7 238.8,653.6 240.7,653.4 242.6,653.2
244.5,653.0 246.4,652.8 248.3,652.7 250.2,652.5 252.0,652.3 253.9,652.2 255.8,652.0 257.7,651.9 259.6,651.8 261.5,651.7 263.3,651.6 265.2,651.5 267.1,651.4 269.0,651.3 270.9,651.2 272.8,651.1
274.6,651.1 276.5,651.0 278.4,650.9 280.3,650.9 282.2,650.8 284.1,650.8 286.0,650.7 287.8,650.7 289.7,650.6 291.6,650.5 293.5,650.5 295.4,650.4 297.3,650.3 299.1,650.3 301.0,650.2 302.9,650.1
304.8,650.0 306.7,649.9 308.6,649.8 310.5,649.7 312.3,649.6 314.2,649.5 316.1,649.4 318.0,649.3 319.9,649.1 321.8,649.0 323.6,648.9 325.5,648.7 327.4,648.6 329.3,648.4 331.2,648.3 333.1,648.1
334.9,647.9 336.8,647.7 338.7,647.6 340.6,647.4 342.5,647.2 344.4,647.0 346.3,646.8 348.1,646.6 350.0,646.4 351.9,646.1 353.8,645.9 355.7,645.7 357.6,645.5 359.4,645.3 361.3,645.1 363.2,644.9
365.1,644.7 367.0,644.5 368.9,644.4 370.8,644.2 372.6,644.0 374.5,643.9 376.4,643.8 378.3,643.6 380.2,643.5 382.1,643.4 383.9,643.3 385.8,643.2 387.7,643.1 389.6,643.0 391.5,642.9 393.4,642.8
395.2,642.7 397.1,642.5 399.0,642.4 400.9,642.1 402.8,641.9 404.7,641.6 406.6,641.2 408.4,640.7 410.3,640.1 412.2,639.5 414.1,638.7 416.0,637.8 417.9,636.8 419.7,635.6 421.6,634.3 423.5,632.8
425.4,631.0 427.3,629.1 429.2,626.9 431.1,624.4 432.9,621.7 434.8,618.7 436.7,615.4 438.6,611.7 440.5,607.7 442.4,603.3 444.2,598.6 446.1,593.4 448.0,587.8 449.9,581.7 451.8,575.2 453.7,568.2
455.5,560.7 457.4,552.7 459.3,544.2 461.2,535.1 463.1,525.4 465.0,515.3 466.9,504.5 468.7,493.2 470.6,481.4 472.5,469.0 474.4,456.1 476.3,442.7 478.2,428.8 480.0,414.4 481.9,399.6 483.8,384.4
485.7,368.9 487.6,353.0 489.5,336.9 491.4,320.6 493.2,304.2 495.1,287.7 497.0,271.2 498.9,254.8 500.8,238.5 502.7,222.5 504.5,206.8 506.4,191.5 508.3,176.7 510.2,162.5 512.1,148.9 514.0,136.0
515.8,124.0 517.7,112.8 519.6,102.6 521.5,93.3 523.4,85.1 525.3,78.1 527.2,72.1 529.0,67.4 530.9,63.9 532.8,61.5 534.7,60.5 536.6,60.6 538.5,62.0 540.3,64.5 542.2,68.3 544.1,73.2
546.0,79.2 547.9,86.3 549.8,94.3 551.7,103.4 553.5,113.3 555.4,124.0 557.3,135.5 559.2,147.7 561.1,160.5 563.0,173.8 564.8,187.5 566.7,201.7 568.6,216.1 570.5,230.8 572.4,245.6 574.3,260.5
576.1,275.4 578.0,290.3 579.9,305.2 581.8,319.8 583.7,334.3 585.6,348.5 587.5,362.5 589.3,376.1 591.2,389.4 593.1,402.3 595.0,414.9 596.9,427.0 598.8,438.7 600.6,450.0 602.5,460.8 604.4,471.2
606.3,481.1 608.2,490.6 610.1,499.7 612.0,508.3 613.8,516.6 615.7,524.4 617.6,531.8 619.5,538.8 621.4,545.5 623.3,551.8 625.1,557.8 627.0,563.5 628.9,568.8 630.8,573.9 632.7,578.7 634.6,583.3
636.4,587.5 638.3,591.6 640.2,595.4 642.1,599.1 644.0,602.5 645.9,605.7 647.8,608.8 649.6,611.7 651.5,614.4 653.4,616.9 655.3,619.3 657.2,621.6 659.1,623.7 660.9,625.7 662.8,627.5 664.7,629.2
666.6,630.8 668.5,632.3 670.4,633.6 672.3,634.8 674.1,635.9 676.0,636.8 677.9,637.7 679.8,638.4 681.7,639.0 683.6,639.5 685.4,640.0 687.3,640.3 689.2,640.6 691.1,640.7 693.0,640.8 694.9,640.8
696.7,640.8 698.6,640.7 700.5,640.5 702.4,640.3 704.3,640.1 706.2,639.8 708.1,639.6 709.9,639.3 711.8,639.0 713.7,638.7 715.6,638.4 717.5,638.2 719.4,637.9 721.2,637.7 723.1,637.5 725.0,637.4
726.9,637.3 728.8,637.3 730.7,637.3 732.6,637.4 734.4,637.5 736.3,637.7 738.2,637.9 740.1,638.2 742.0,638.6 743.9,639.0 745.7,639.4 747.6,639.9 749.5,640.5 751.4,641.1 753.3,641.7 755.2,642.3
757.0,643.0 758.9,643.8 760.8,644.5 762.7,645.3 764.6,646.0 766.5,646.8 768.4,647.6 770.2,648.4 772.1,649.1 774.0,649.9 775.9,650.7 777.8,651.4 779.7,652.1 781.5,652.8 783.4,653.5 785.3,654.1
787.2,654.7 789.1,655.3 791.0,655.9 792.9,656.4 794.7,656.9 796.6,657.4 798.5,657.8 800.4,658.2 802.3,658.6 804.2,658.9 806.0,659.3 807.9,659.5 809.8,659.8 811.7,660.0 813.6,660.2 815.5,660.4
817.3,660.5 819.2,660.6 821.1,660.7 823.0,660.8 824.9,660.8 826.8,660.8 828.7,660.8 830.5,660.8 832.4,660.8 834.3,660.7 836.2,660.6 838.1,660.5 840.0,660.4 841.8,660.3 843.7,660.1 845.6,660.0
847.5,659.8 849.4,659.6 851.3,659.4 853.2,659.1 855.0,658.9 856.9,658.6 858.8,658.4 860.7,658.1 862.6,657.8 864.5,657.6 866.3,657.3 868.2,657.0 870.1,656.7 872.0,656.4 873.9,656.2 875.8,655.9
877.6,655.6 879.5,655.4 881.4,655.2 883.3,654.9 885.2,654.7 887.1,654.5 889.0,654.4 890.8,654.2 892.7,654.1 894.6,654.0 896.5,653.9 898.4,653.9 900.3,653.8 902.1,653.8 904.0,653.9 905.9,653.9
907.8,654.0 909.7,654.1 911.6,654.2 913.5,654.4 915.3,654.5 917.2,654.7 919.1,654.9 921.0,655.2 922.9,655.4 924.8,655.6 926.6,655.9 928.5,656.2 930.4,656.4 932.3,656.7 934.2,657.0 936.1,657.3
937.9,657.6 939.8,657.9 941.7,658.1 943.6,658.4 945.5,658.7 947.4,658.9 949.3,659.2 951.1,659.4 953.0,659.7 954.9,659.9 956.8,660.1 958.7,660.3 960.6,660.5 962.4,660.7 964.3,660.8 966.2,661.0
968.1,661.1 970.0,661.3 971.9,661.4 973.8,661.5 975.6,661.6 977.5,661.7 979.4,661.8 981.3,661.8 983.2,661.9 985.1,662.0 986.9,662.0 988.8,662.1 990.7,662.1 992.6,662.2 994.5,662.2 996.4,662.2
998.2,662.2 1000.1,662.3 1002.0,662.3 1003.9,662.3 1003.9,662.4 1002.0,662.4 1000.1,662.4 998.2,662.4 996.4,662.4 994.5,662.4 992.6,662.4 990.7,662.4 988.8,662.4 986.9,662.4 985.1,662.4 983.2,662.4
981.3,662.4 979.4,662.4 977.5,662.4 975.6,662.4 973.8,662.4 971.9,662.4 970.0,662.4 968.1,662.4 966.2,662.4 964.3,662.4 962.4,662.4 960.6,662.4 958.7,662.4 956.8,662.4 954.9,662.4 953.0,662.4
951.1,662.4 949.3,662.4 947.4,662.4 945.5,662.4 943.6,662.4 941.7,662.4 939.8,662.4 937.9,662.4 936.1,662.4 934.2,662.4 932.3,662.4 930.4,662.4 928.5,662.4 926.6,662.4 924.8,662.4 922.9,662.4
921.0,662.4 919.1,662.4 917.2,662.4 915.3,662.4 913.5,662.4 911.6,662.4 909.7,662.4 907.8,662.4 905.9,662.4 904.0,662.4 902.1,662.4 900.3,662.4 898.4,662.4 896.5,662.4 894.6,662.4 892.7,662.4
890.8,662.4 889.0,662.4 887.1,662.4 885.2,662.4 883.3,662.4 881.4,662.4 879.5,662.4 877.6,662.4 875.8,662.4 873.9,662.4 872.0,662.4 870.1,662.4 868.2,662.4 866.3,662.4 864.5,662.4 862.6,662.4
860.7,662.4 858.8,662.4 856.9,662.4 855.0,662.4 853.2,662.4 851.3,662.4 849.4,662.4 847.5,662.4 845.6,662.4 843.7,662.4 841.8,662.4 840.0,662.4 838.1,662.4 836.2,662.4 834.3,662.4 832.4,662.4
830.5,662.4 828.7,662.4 826.8,662.4 824.9,662.4 823.0,662.4 821.1,662.4 819.2,662.4 817.3,662.4 815.5,662.4 813.6,662.4 811.7,662.4 809.8,662.4 807.9,662.4 806.0,662.4 804.2,662.4 802.3,662.4
800.4,662.4 798.5,662.4 796.6,662.4 794.7,662.4 792.9,662.4 791.0,662.4 789.1,662.4 787.2,662.4 785.3,662.4 783.4,662.4 781.5,662.4 779.7,662.4 777.8,662.4 775.9,662.4 774.0,662.4 772.1,662.4
770.2,662.4 768.4,662.4 766.5,662.4 764.6,662.4 762.7,662.4 760.8,662.4 758.9,662.4 757.0,662.4 755.2,662.4 753.3,662.4 751.4,662.4 749.5,662.4 747.6,662.4 745.7,662.4 743.9,662.4 742.0,662.4
740.1,662.4 738.2,662.4 736.3,662.4 734.4,662.4 732.6,662.4 730.7,662.4 728.8,662.4 726.9,662.4 725.0,662.4 723.1,662.4 721.2,662.4 719.4,662.4 717.5,662.4 715.6,662.4 713.7,662.4 711.8,662.4
709.9,662.4 708.1,662.4 706.2,662.4 704.3,662.4 702.4,662.4 700.5,662.4 698.6,662.4 696.7,662.4 694.9,662.4 693.0,662.4 691.1,662.4 689.2,662.4 687.3,662.4 685.4,662.4 683.6,662.4 681.7,662.4
679.8,662.4 677.9,662.4 676.0,662.4 674.1,662.4 672.3,662.4 670.4,662.4 668.5,662.4 666.6,662.4 664.7,662.4 662.8,662.4 660.9,662.4 659.1,662.4 657.2,662.4 655.3,662.4 653.4,662.4 651.5,662.4
649.6,662.4 647.8,662.4 645.9,662.4 644.0,662.4 642.1,662.4 640.2,662.4 638.3,662.4 636.4,662.4 634.6,662.4 632.7,662.4 630.8,662.4 628.9,662.4 627.0,662.4 625.1,662.4 623.3,662.4 621.4,662.4
619.5,662.4 617.6,662.4 615.7,662.4 613.8,662.4 612.0,662.4 610.1,662.4 608.2,662.4 606.3,662.4 604.4,662.4 602.5,662.4 600.6,662.4 598.8,662.4 596.9,662.4 595.0,662.4 593.1,662.4 591.2,662.4
589.3,662.4 587.5,662.4 585.6,662.4 583.7,662.4 581.8,662.4 579.9,662.4 578.0,662.4 576.1,662.4 574.3,662.4 572.4,662.4 570.5,662.4 568.6,662.4 566.7,662.4 564.8,662.4 563.0,662.4 561.1,662.4
559.2,662.4 557.3,662.4 555.4,662.4 553.5,662.4 551.7,662.4 549.8,662.4 547.9,662.4 546.0,662.4 544.1,662.4 542.2,662.4 540.3,662.4 538.5,662.4 536.6,662.4 534.7,662.4 532.8,662.4 530.9,662.4
529.0,662.4 527.2,662.4 525.3,662.4 523.4,662.4 521.5,662.4 519.6,662.4 517.7,662.4 515.8,662.4 514.0,662.4 512.1,662.4 510.2,662.4 508.3,662.4 506.4,662.4 504.5,662.4 502.7,662.4 500.8,662.4
498.9,662.4 497.0,662.4 495.1,662.4 493.2,662.4 491.4,662.4 489.5,662.4 487.6,662.4 485.7,662.4 483.8,662.4 481.9,662.4 480.0,662.4 478.2,662.4 476.3,662.4 474.4,662.4 472.5,662.4 470.6,662.4
468.7,662.4 466.9,662.4 465.0,662.4 463.1,662.4 461.2,662.4 459.3,662.4 457.4,662.4 455.5,662.4 453.7,662.4 451.8,662.4 449.9,662.4 448.0,662.4 446.1,662.4 444.2,662.4 442.4,662.4 440.5,662.4
438.6,662.4 436.7,662.4 434.8,662.4 432.9,662.4 431.1,662.4 429.2,662.4 427.3,662.4 425.4,662.4 423.5,662.4 421.6,662.4 419.7,662.4 417.9,662.4 416.0,662.4 414.1,662.4 412.2,662.4 410.3,662.4
408.4,662.4 406.6,662.4 404.7,662.4 402.8,662.4 400.9,662.4 399.0,662.4 397.1,662.4 395.2,662.4 393.4,662.4 391.5,662.4 389.6,662.4 387.7,662.4 385.8,662.4 383.9,662.4 382.1,662.4 380.2,662.4
378.3,662.4 376.4,662.4 374.5,662.4 372.6,662.4 370.8,662.4 368.9,662.4 367.0,662.4 365.1,662.4 363.2,662.4 361.3,662.4 359.4,662.4 357.6,662.4 355.7,662.4 353.8,662.4 351.9,662.4 350.0,662.4
348.1,662.4 346.3,662.4 344.4,662.4 342.5,662.4 340.6,662.4 338.7,662.4 336.8,662.4 334.9,662.4 333.1,662.4 331.2,662.4 329.3,662.4 327.4,662.4 325.5,662.4 323.6,662.4 321.8,662.4 319.9,662.4
318.0,662.4 316.1,662.4 314.2,662.4 312.3,662.4 310.5,662.4 308.6,662.4 306.7,662.4 304.8,662.4 302.9,662.4 301.0,662.4 299.1,662.4 297.3,662.4 295.4,662.4 293.5,662.4 291.6,662.4 289.7,662.4
287.8,662.4 286.0,662.4 284.1,662.4 282.2,662.4 280.3,662.4 278.4,662.4 276.5,662.4 274.6,662.4 272.8,662.4 270.9,662.4 269.0,662.4 267.1,662.4 265.2,662.4 263.3,662.4 261.5,662.4 259.6,662.4
257.7,662.4 255.8,662.4 253.9,662.4 252.0,662.4 250.2,662.4 248.3,662.4 246.4,662.4 244.5,662.4 242.6,662.4 240.7,662.4 238.8,662.4 237.0,662.4 235.1,662.4 233.2,662.4 231.3,662.4 229.4,662.4
227.5,662.4 225.7,662.4 223.8,662.4 221.9,662.4 220.0,662.4 218.1,662.4 216.2,662.4 214.3,662.4 212.5,662.4 210.6,662.4 208.7,662.4 206.8,662.4 204.9,662.4 203.0,662.4 201.2,662.4 199.3,662.4
197.4,662.4 195.5,662.4 193.6,662.4 191.7,662.4 189.9,662.4 188.0,662.4 186.1,662.4 184.2,662.4 182.3,662.4 180.4,662.4 178.5,662.4 176.7,662.4 174.8,662.4 172.9,662.4 171.0,662.4 169.1,662.4
167.2,662.4 165.4,662.4 163.5,662.4 161.6,662.4 159.7,662.4 157.8,662.4 155.9,662.4 154.0,662.4 152.2,662.4 150.3,662.4 148.4,662.4 146.5,662.4 144.6,662.4 142.7,662.4 140.9,662.4 139.0,662.4
137.1,662.4 135.2,662.4 133.3,662.4 131.4,662.4 129.6,662.4 127.7,662.4 125.8,662.4 123.9,662.4 122.0,662.4 120.1,662.4 118.2,662.4 116.4,662.4 114.5,662.4 112.6,662.4 110.7,662.4 108.8,662.4
106.9,662.4 105.1,662.4 103.2,662.4 101.3,662.4 99.4,662.4 97.5,662.4 95.6,662.4 93.7,662.4 91.9,662.4 90.0,662.4 88.1,662.4 86.2,662.4 84.3,662.4 82.4,662.4 80.6,662.4 78.7,662.4
76.8,662.4 74.9,662.4 73.0,662.4 71.1,662.4 69.3,662.4 67.4,662.4 65.5,662.4 63.6,662.4 '/>
	</g>
</g>
	</g>
	<g id="gnuplot_plot_2" ><title>Mean</title>
<g fill="none" color="white" stroke="rgb( 31, 120, 180)" stroke-width="2.00" stroke-linecap="butt" stroke-linejoin="miter">
</g>
<g fill="none" color="black" stroke="currentColor" stroke-width="2.00" stroke-linecap="butt" stroke-linejoin="miter">
	<g transform="translate(1147.1,85.0)" stroke="none" fill="black" font-family="Helvetica" font-size="12.00"  text-anchor="start">
		<text><tspan font-family="Helvetica" >Mean</tspan></text>
	</g>
</g>
<g fill="none" color="black" stroke="currentColor" stroke-width="2.00" stroke-linecap="butt" stroke-linejoin="miter">
	<path stroke='rgb( 31, 120, 180)'  d='M1096.6,81.1 L1138.8,81.1 M537.9,662.4 L537.9,54.1  '/></g>
	</g>
	<g id="gnuplot_plot_3" ><title>"Clean" sample</title>
<g fill="none" color="white" stroke="rgb( 31, 120, 180)" stroke-width="1.00" stroke-linecap="butt" stroke-linejoin="miter">
</g>
<g fill="none" color="black" stroke="currentColor" stroke-width="1.00" stroke-linecap="butt" stroke-linejoin="miter">
	<g transform="translate(1147.1,103.0)" stroke="none" fill="black" font-family="Helvetica" font-size="12.00"  text-anchor="start">
		<text><tspan font-family="Helvetica" >"Clean" sample</tspan></text>
	</g>
</g>
<g fill="none" color="black" stroke="currentColor" stroke-width="1.00" stroke-linecap="butt" stroke-linejoin="miter">
	<use xlink:href='#gpPt6' transform='translate(599.4,607.7) scale(3.38)' color='rgb( 31, 120, 180)'/>
	<use xlink:href='#gpPt6' transform='translate(579.5,589.4) scale(3.38)' color='rgb( 31, 120, 180)'/>
	<use xlink:href='#gpPt6' transform='translate(523.8,583.3) scale(3.38)' color='rgb( 31, 120, 180)'/>
	<use xlink:href='#gpPt6' transform='translate(474.8,571.2) scale(3.38)' color='rgb( 31, 120, 180)'/>
	<use xlink:href='#gpPt6' transform='translate(488.5,565.1) scale(3.38)' color='rgb( 31, 120, 180)'/>
	<use xlink:href='#gpPt6' transform='translate(555.1,552.9) scale(3.38)' color='rgb( 31, 120, 180)'/>
	<use xlink:href='#gpPt6' transform='translate(561.8,546.8) scale(3.38)' color='rgb( 31, 120, 180)'/>
	<use xlink:href='#gpPt6' transform='translate(507.2,540.7) scale(3.38)' color='rgb( 31, 120, 180)'/>
	<use xlink:href='#gpPt6' transform='translate(527.9,534.7) scale(3.38)' color='rgb( 31, 120, 180)'/>
	<use xlink:href='#gpPt6' transform='translate(588.5,528.6) scale(3.38)' color='rgb( 31, 120, 180)'/>
	<use xlink:href='#gpPt6' transform='translate(482.5,522.5) scale(3.38)' color='rgb( 31, 120, 180)'/>
	<use xlink:href='#gpPt6' transform='translate(561.5,516.4) scale(3.38)' color='rgb( 31, 120, 180)'/>
	<use xlink:href='#gpPt6' transform='translate(547.8,504.2) scale(3.38)' color='rgb( 31, 120, 180)'/>
	<use xlink:href='#gpPt6' transform='translate(560.2,498.2) scale(3.38)' color='rgb( 31, 120, 180)'/>
	<use xlink:href='#gpPt6' transform='translate(528.5,492.1) scale(3.38)' color='rgb( 31, 120, 180)'/>
	<use xlink:href='#gpPt6' transform='translate(515.2,486.0) scale(3.38)' color='rgb( 31, 120, 180)'/>
	<use xlink:href='#gpPt6' transform='translate(515.2,479.9) scale(3.38)' color='rgb( 31, 120, 180)'/>
	<use xlink:href='#gpPt6' transform='translate(503.7,473.8) scale(3.38)' color='rgb( 31, 120, 180)'/>
	<use xlink:href='#gpPt6' transform='translate(518.3,467.7) scale(3.38)' color='rgb( 31, 120, 180)'/>
	<use xlink:href='#gpPt6' transform='translate(580.9,461.7) scale(3.38)' color='rgb( 31, 120, 180)'/>
	<use xlink:href='#gpPt6' transform='translate(481.2,455.6) scale(3.38)' color='rgb( 31, 120, 180)'/>
	<use xlink:href='#gpPt6' transform='translate(535.5,449.5) scale(3.38)' color='rgb( 31, 120, 180)'/>
	<use xlink:href='#gpPt6' transform='translate(540.6,443.4) scale(3.38)' color='rgb( 31, 120, 180)'/>
	<use xlink:href='#gpPt6' transform='translate(541.0,437.3) scale(3.38)' color='rgb( 31, 120, 180)'/>
	<use xlink:href='#gpPt6' transform='translate(576.8,425.2) scale(3.38)' color='rgb( 31, 120, 180)'/>
	<use xlink:href='#gpPt6' transform='translate(526.7,419.1) scale(3.38)' color='rgb( 31, 120, 180)'/>
	<use xlink:href='#gpPt6' transform='translate(513.3,413.0) scale(3.38)' color='rgb( 31, 120, 180)'/>
	<use xlink:href='#gpPt6' transform='translate(516.0,406.9) scale(3.38)' color='rgb( 31, 120, 180)'/>
	<use xlink:href='#gpPt6' transform='translate(558.6,400.8) scale(3.38)' color='rgb( 31, 120, 180)'/>
	<use xlink:href='#gpPt6' transform='translate(516.9,394.7) scale(3.38)' color='rgb( 31, 120, 180)'/>
	<use xlink:href='#gpPt6' transform='translate(529.5,388.7) scale(3.38)' color='rgb( 31, 120, 180)'/>
	<use xlink:href='#gpPt6' transform='translate(546.2,382.6) scale(3.38)' color='rgb( 31, 120, 180)'/>
	<use xlink:href='#gpPt6' transform='translate(577.8,376.5) scale(3.38)' color='rgb( 31, 120, 180)'/>
	<use xlink:href='#gpPt6' transform='translate(526.1,370.4) scale(3.38)' color='rgb( 31, 120, 180)'/>
	<use xlink:href='#gpPt6' transform='translate(515.8,364.3) scale(3.38)' color='rgb( 31, 120, 180)'/>
	<use xlink:href='#gpPt6' transform='translate(524.2,358.2) scale(3.38)' color='rgb( 31, 120, 180)'/>
	<use xlink:href='#gpPt6' transform='translate(511.3,352.2) scale(3.38)' color='rgb( 31, 120, 180)'/>
	<use xlink:href='#gpPt6' transform='translate(575.4,346.1) scale(3.38)' color='rgb( 31, 120, 180)'/>
	<use xlink:href='#gpPt6' transform='translate(563.4,340.0) scale(3.38)' color='rgb( 31, 120, 180)'/>
	<use xlink:href='#gpPt6' transform='translate(554.5,333.9) scale(3.38)' color='rgb( 31, 120, 180)'/>
	<use xlink:href='#gpPt6' transform='translate(536.2,327.8) scale(3.38)' color='rgb( 31, 120, 180)'/>
	<use xlink:href='#gpPt6' transform='translate(538.3,321.8) scale(3.38)' color='rgb( 31, 120, 180)'/>
	<use xlink:href='#gpPt6' transform='translate(495.2,315.7) scale(3.38)' color='rgb( 31, 120, 180)'/>
	<use xlink:href='#gpPt6' transform='translate(521.1,309.6) scale(3.38)' color='rgb( 31, 120, 180)'/>
	<use xlink:href='#gpPt6' transform='translate(524.8,303.5) scale(3.38)' color='rgb( 31, 120, 180)'/>
	<use xlink:href='#gpPt6' transform='translate(520.7,297.4) scale(3.38)' color='rgb( 31, 120, 180)'/>
	<use xlink:href='#gpPt6' transform='translate(555.6,291.3) scale(3.38)' color='rgb( 31, 120, 180)'/>
	<use xlink:href='#gpPt6' transform='translate(537.9,285.3) scale(3.38)' color='rgb( 31, 120, 180)'/>
	<use xlink:href='#gpPt6' transform='translate(539.8,279.2) scale(3.38)' color='rgb( 31, 120, 180)'/>
	<use xlink:href='#gpPt6' transform='translate(556.0,273.1) scale(3.38)' color='rgb( 31, 120, 180)'/>
	<use xlink:href='#gpPt6' transform='translate(548.5,267.0) scale(3.38)' color='rgb( 31, 120, 180)'/>
	<use xlink:href='#gpPt6' transform='translate(537.1,260.9) scale(3.38)' color='rgb( 31, 120, 180)'/>
	<use xlink:href='#gpPt6' transform='translate(528.1,254.8) scale(3.38)' color='rgb( 31, 120, 180)'/>
	<use xlink:href='#gpPt6' transform='translate(548.9,248.8) scale(3.38)' color='rgb( 31, 120, 180)'/>
	<use xlink:href='#gpPt6' transform='translate(508.5,242.7) scale(3.38)' color='rgb( 31, 120, 180)'/>
	<use xlink:href='#gpPt6' transform='translate(539.1,236.6) scale(3.38)' color='rgb( 31, 120, 180)'/>
	<use xlink:href='#gpPt6' transform='translate(527.2,230.5) scale(3.38)' color='rgb( 31, 120, 180)'/>
	<use xlink:href='#gpPt6' transform='translate(590.0,224.4) scale(3.38)' color='rgb( 31, 120, 180)'/>
	<use xlink:href='#gpPt6' transform='translate(529.2,218.3) scale(3.38)' color='rgb( 31, 120, 180)'/>
	<use xlink:href='#gpPt6' transform='translate(549.5,212.3) scale(3.38)' color='rgb( 31, 120, 180)'/>
	<use xlink:href='#gpPt6' transform='translate(536.3,206.2) scale(3.38)' color='rgb( 31, 120, 180)'/>
	<use xlink:href='#gpPt6' transform='translate(567.2,200.1) scale(3.38)' color='rgb( 31, 120, 180)'/>
	<use xlink:href='#gpPt6' transform='translate(537.8,194.0) scale(3.38)' color='rgb( 31, 120, 180)'/>
	<use xlink:href='#gpPt6' transform='translate(534.9,187.9) scale(3.38)' color='rgb( 31, 120, 180)'/>
	<use xlink:href='#gpPt6' transform='translate(525.4,181.8) scale(3.38)' color='rgb( 31, 120, 180)'/>
	<use xlink:href='#gpPt6' transform='translate(548.6,175.8) scale(3.38)' color='rgb( 31, 120, 180)'/>
	<use xlink:href='#gpPt6' transform='translate(513.4,169.7) scale(3.38)' color='rgb( 31, 120, 180)'/>
	<use xlink:href='#gpPt6' transform='translate(558.9,163.6) scale(3.38)' color='rgb( 31, 120, 180)'/>
	<use xlink:href='#gpPt6' transform='translate(519.3,157.5) scale(3.38)' color='rgb( 31, 120, 180)'/>
	<use xlink:href='#gpPt6' transform='translate(540.5,151.4) scale(3.38)' color='rgb( 31, 120, 180)'/>
	<use xlink:href='#gpPt6' transform='translate(538.3,145.3) scale(3.38)' color='rgb( 31, 120, 180)'/>
	<use xlink:href='#gpPt6' transform='translate(528.0,139.3) scale(3.38)' color='rgb( 31, 120, 180)'/>
	<use xlink:href='#gpPt6' transform='translate(523.7,133.2) scale(3.38)' color='rgb( 31, 120, 180)'/>
	<use xlink:href='#gpPt6' transform='translate(521.1,127.1) scale(3.38)' color='rgb( 31, 120, 180)'/>
	<use xlink:href='#gpPt6' transform='translate(522.8,121.0) scale(3.38)' color='rgb( 31, 120, 180)'/>
	<use xlink:href='#gpPt6' transform='translate(547.3,114.9) scale(3.38)' color='rgb( 31, 120, 180)'/>
	<use xlink:href='#gpPt6' transform='translate(594.1,108.8) scale(3.38)' color='rgb( 31, 120, 180)'/>
	<use xlink:href='#gpPt6' transform='translate(540.1,102.8) scale(3.38)' color='rgb( 31, 120, 180)'/>
	<use xlink:href='#gpPt6' transform='translate(528.8,96.7) scale(3.38)' color='rgb( 31, 120, 180)'/>
	<use xlink:href='#gpPt6' transform='translate(579.0,90.6) scale(3.38)' color='rgb( 31, 120, 180)'/>
	<use xlink:href='#gpPt6' transform='translate(529.1,84.5) scale(3.38)' color='rgb( 31, 120, 180)'/>
	<use xlink:href='#gpPt6' transform='translate(532.1,78.4) scale(3.38)' color='rgb( 31, 120, 180)'/>
	<use xlink:href='#gpPt6' transform='translate(537.1,72.3) scale(3.38)' color='rgb( 31, 120, 180)'/>
	<use xlink:href='#gpPt6' transform='translate(526.4,66.3) scale(3.38)' color='rgb( 31, 120, 180)'/>
	<use xlink:href='#gpPt6' transform='translate(534.6,60.2) scale(3.38)' color='rgb( 31, 120, 180)'/>
	<use xlink:href='#gpPt6' transform='translate(537.7,54.1) scale(3.38)' color='rgb( 31, 120, 180)'/>
	<use xlink:href='#gpPt6' transform='translate(1117.7,99.1) scale(3.38)' color='rgb( 31, 120, 180)'/>
</g>
	</g>
	<g id="gnuplot_plot_4" ><title>Mild outliers</title>
<g fill="none" color="black" stroke="currentColor" stroke-width="1.00" stroke-linecap="butt" stroke-linejoin="miter">
	<g transform="translate(1147.1,121.0)" stroke="none" fill="black" font-family="Helvetica" font-size="12.00"  text-anchor="start">
		<text><tspan font-family="Helvetica" >Mild outliers</tspan></text>
	</g>
</g>
<g fill="none" color="black" stroke="currentColor" stroke-width="1.00" stroke-linecap="butt" stroke-linejoin="miter">
	<use xlink:href='#gpPt6' transform='translate(634.6,601.6) scale(3.38)' color='rgb(255, 127,   0)'/>
	<use xlink:href='#gpPt6' transform='translate(640.3,577.2) scale(3.38)' color='rgb(255, 127,   0)'/>
	<use xlink:href='#gpPt6' transform='translate(633.7,559.0) scale(3.38)' color='rgb(255, 127,   0)'/>
	<use xlink:href='#gpPt6' transform='translate(462.9,510.3) scale(3.38)' color='rgb(255, 127,   0)'/>
	<use xlink:href='#gpPt6' transform='translate(619.4,431.2) scale(3.38)' color='rgb(255, 127,   0)'/>
	<use xlink:href='#gpPt6' transform='translate(1117.7,117.1) scale(3.38)' color='rgb(255, 127,   0)'/>
</g>
	</g>
	<g id="gnuplot_plot_5" ><title>Severe outliers</title>
<g fill="none" color="black" stroke="currentColor" stroke-width="1.00" stroke-linecap="butt" stroke-linejoin="miter">
	<g transform="translate(1147.1,139.0)" stroke="none" fill="black" font-family="Helvetica" font-size="12.00"  text-anchor="start">
		<text><tspan font-family="Helvetica" >Severe outliers</tspan></text>
	</g>
</g>
<g fill="none" color="black" stroke="currentColor" stroke-width="1.00" stroke-linecap="butt" stroke-linejoin="miter">
	<use xlink:href='#gpPt6' transform='translate(166.3,656.3) scale(3.38)' color='rgb(227,  26,  28)'/>
	<use xlink:href='#gpPt6' transform='translate(374.4,650.2) scale(3.38)' color='rgb(227,  26,  28)'/>
	<use xlink:href='#gpPt6' transform='translate(257.3,644.2) scale(3.38)' color='rgb(227,  26,  28)'/>
	<use xlink:href='#gpPt6' transform='translate(901.2,638.1) scale(3.38)' color='rgb(227,  26,  28)'/>
	<use xlink:href='#gpPt6' transform='translate(319.6,632.0) scale(3.38)' color='rgb(227,  26,  28)'/>
	<use xlink:href='#gpPt6' transform='translate(719.2,625.9) scale(3.38)' color='rgb(227,  26,  28)'/>
	<use xlink:href='#gpPt6' transform='translate(732.2,619.8) scale(3.38)' color='rgb(227,  26,  28)'/>
	<use xlink:href='#gpPt6' transform='translate(397.0,613.7) scale(3.38)' color='rgb(227,  26,  28)'/>
	<use xlink:href='#gpPt6' transform='translate(745.5,595.5) scale(3.38)' color='rgb(227,  26,  28)'/>
	<use xlink:href='#gpPt6' transform='translate(1117.7,135.1) scale(3.38)' color='rgb(227,  26,  28)'/>
</g>
	</g>
	<g id="gnuplot_plot_6" ><title>gnuplot_plot_6</title>
<g fill="none" color="white" stroke="rgb(227,  26,  28)" stroke-width="2.00" stroke-linecap="butt" stroke-linejoin="miter">
</g>
<g fill="none" color="black" stroke="currentColor" stroke-width="2.00" stroke-linecap="butt" stroke-linejoin="miter">
	<path stroke='rgb(255, 127,   0)'  d='M467.6,662.4 L467.6,54.1  '/></g>
	</g>
	<g id="gnuplot_plot_7" ><title>gnuplot_plot_7</title>
<g fill="none" color="black" stroke="currentColor" stroke-width="2.00" stroke-linecap="butt" stroke-linejoin="miter">
	<path stroke='rgb(255, 127,   0)'  d='M610.0,662.4 L610.0,54.1  '/></g>
	</g>
	<g id="gnuplot_plot_8" ><title>gnuplot_plot_8</title>
<g fill="none" color="black" stroke="currentColor" stroke-width="2.00" stroke-linecap="butt" stroke-linejoin="miter">
	<path stroke='rgb(227,  26,  28)'  d='M414.2,662.4 L414.2,54.1  '/></g>
	</g>
	<g id="gnuplot_plot_9" ><title>gnuplot_plot_9</title>
<g fill="none" color="black" stroke="currentColor" stroke-width="2.00" stroke-linecap="butt" stroke-linejoin="miter">
	<path stroke='rgb(227,  26,  28)'  d='M663.5,662.4 L663.5,54.1  '/></g>
	</g>
<g fill="none" color="black" stroke="currentColor" stroke-width="2.00" stroke-linecap="butt" stroke-linejoin="miter">
</g>
<g fill="none" color="black" stroke="black" stroke-width="1.00" stroke-linecap="butt" stroke-linejoin="miter">
</g>
<g fill="none" color="black" stroke="currentColor" stroke-width="1.00" stroke-linecap="butt" stroke-linejoin="miter">
	<path stroke='black'  d='M63.6,54.1 L63.6,662.4 L1003.9,662.4 L1003.9,54.1 L63.6,54.1 Z  '/></g>
<g fill="none" color="black" stroke="currentColor" stroke-width="1.00" stroke-linecap="butt" stroke-linejoin="miter">
</g>
</g>
</svg>

