<?xml version="1.0" encoding="utf-8"  standalone="no"?>
<svg 
 viewBox="0 0 1280 720"
 xmlns="http://www.w3.org/2000/svg"
 xmlns:xlink="http://www.w3.org/1999/xlink"
>

<title>Gnuplot</title>
<desc>Produced by GNUPLOT 5.2 patchlevel 8 </desc>

<g id="gnuplot_canvas">

<rect x="0" y="0" width="1280" height="720" fill="none"/>
<defs>

	<circle id='gpDot' r='0.5' stroke-width='0.5' stroke='currentColor'/>
	<path id='gpPt0' stroke-width='0.222' stroke='currentColor' d='M-1,0 h2 M0,-1 v2'/>
	<path id='gpPt1' stroke-width='0.222' stroke='currentColor' d='M-1,-1 L1,1 M1,-1 L-1,1'/>
	<path id='gpPt2' stroke-width='0.222' stroke='currentColor' d='M-1,0 L1,0 M0,-1 L0,1 M-1,-1 L1,1 M-1,1 L1,-1'/>
	<rect id='gpPt3' stroke-width='0.222' stroke='currentColor' x='-1' y='-1' width='2' height='2'/>
	<rect id='gpPt4' stroke-width='0.222' stroke='currentColor' fill='currentColor' x='-1' y='-1' width='2' height='2'/>
	<circle id='gpPt5' stroke-width='0.222' stroke='currentColor' cx='0' cy='0' r='1'/>
	<use xlink:href='#gpPt5' id='gpPt6' fill='currentColor' stroke='none'/>
	<path id='gpPt7' stroke-width='0.222' stroke='currentColor' d='M0,-1.33 L-1.33,0.67 L1.33,0.67 z'/>
	<use xlink:href='#gpPt7' id='gpPt8' fill='currentColor' stroke='none'/>
	<use xlink:href='#gpPt7' id='gpPt9' stroke='currentColor' transform='rotate(180)'/>
	<use xlink:href='#gpPt9' id='gpPt10' fill='currentColor' stroke='none'/>
	<use xlink:href='#gpPt3' id='gpPt11' stroke='currentColor' transform='rotate(45)'/>
	<use xlink:href='#gpPt11' id='gpPt12' fill='currentColor' stroke='none'/>
	<path id='gpPt13' stroke-width='0.222' stroke='currentColor' d='M0,1.330 L1.265,0.411 L0.782,-1.067 L-0.782,-1.076 L-1.265,0.411 z'/>
	<use xlink:href='#gpPt13' id='gpPt14' fill='currentColor' stroke='none'/>
	<filter id='textbox' filterUnits='objectBoundingBox' x='0' y='0' height='1' width='1'>
	  <feFlood flood-color='white' flood-opacity='1' result='bgnd'/>
	  <feComposite in='SourceGraphic' in2='bgnd' operator='atop'/>
	</filter>
	<filter id='greybox' filterUnits='objectBoundingBox' x='0' y='0' height='1' width='1'>
	  <feFlood flood-color='lightgrey' flood-opacity='1' result='grey'/>
	  <feComposite in='SourceGraphic' in2='grey' operator='atop'/>
	</filter>
</defs>
<g fill="none" color="white" stroke="currentColor" stroke-width="1.00" stroke-linecap="butt" stroke-linejoin="miter">
</g>
<g fill="none" color="black" stroke="currentColor" stroke-width="1.00" stroke-linecap="butt" stroke-linejoin="miter">
	<path stroke='black'  d='M96.8,662.4 L105.8,662.4  '/>	<g transform="translate(88.5,666.3)" stroke="none" fill="black" font-family="Helvetica" font-size="12.00"  text-anchor="end">
		<text><tspan font-family="Helvetica" > 0</tspan></text>
	</g>
</g>
<g fill="none" color="black" stroke="currentColor" stroke-width="1.00" stroke-linecap="butt" stroke-linejoin="miter">
	<path stroke='black'  d='M96.8,594.8 L105.8,594.8  '/>	<g transform="translate(88.5,598.7)" stroke="none" fill="black" font-family="Helvetica" font-size="12.00"  text-anchor="end">
		<text><tspan font-family="Helvetica" > 0.0005</tspan></text>
	</g>
</g>
<g fill="none" color="black" stroke="currentColor" stroke-width="1.00" stroke-linecap="butt" stroke-linejoin="miter">
	<path stroke='black'  d='M96.8,527.2 L105.8,527.2  '/>	<g transform="translate(88.5,531.1)" stroke="none" fill="black" font-family="Helvetica" font-size="12.00"  text-anchor="end">
		<text><tspan font-family="Helvetica" > 0.001</tspan></text>
	</g>
</g>
<g fill="none" color="black" stroke="currentColor" stroke-width="1.00" stroke-linecap="butt" stroke-linejoin="miter">
	<path stroke='black'  d='M96.8,459.6 L105.8,459.6  '/>	<g transform="translate(88.5,463.5)" stroke="none" fill="black" font-family="Helvetica" font-size="12.00"  text-anchor="end">
		<text><tspan font-family="Helvetica" > 0.0015</tspan></text>
	</g>
</g>
<g fill="none" color="black" stroke="currentColor" stroke-width="1.00" stroke-linecap="butt" stroke-linejoin="miter">
	<path stroke='black'  d='M96.8,392.0 L105.8,392.0  '/>	<g transform="translate(88.5,395.9)" stroke="none" fill="black" font-family="Helvetica" font-size="12.00"  text-anchor="end">
		<text><tspan font-family="Helvetica" > 0.002</tspan></text>
	</g>
</g>
<g fill="none" color="black" stroke="currentColor" stroke-width="1.00" stroke-linecap="butt" stroke-linejoin="miter">
	<path stroke='black'  d='M96.8,324.5 L105.8,324.5  '/>	<g transform="translate(88.5,328.4)" stroke="none" fill="black" font-family="Helvetica" font-size="12.00"  text-anchor="end">
		<text><tspan font-family="Helvetica" > 0.0025</tspan></text>
	</g>
</g>
<g fill="none" color="black" stroke="currentColor" stroke-width="1.00" stroke-linecap="butt" stroke-linejoin="miter">
	<path stroke='black'  d='M96.8,256.9 L105.8,256.9  '/>	<g transform="translate(88.5,260.8)" stroke="none" fill="black" font-family="Helvetica" font-size="12.00"  text-anchor="end">
		<text><tspan font-family="Helvetica" > 0.003</tspan></text>
	</g>
</g>
<g fill="none" color="black" stroke="currentColor" stroke-width="1.00" stroke-linecap="butt" stroke-linejoin="miter">
	<path stroke='black'  d='M96.8,189.3 L105.8,189.3  '/>	<g transform="translate(88.5,193.2)" stroke="none" fill="black" font-family="Helvetica" font-size="12.00"  text-anchor="end">
		<text><tspan font-family="Helvetica" > 0.0035</tspan></text>
	</g>
</g>
<g fill="none" color="black" stroke="currentColor" stroke-width="1.00" stroke-linecap="butt" stroke-linejoin="miter">
	<path stroke='black'  d='M96.8,121.7 L105.8,121.7  '/>	<g transform="translate(88.5,125.6)" stroke="none" fill="black" font-family="Helvetica" font-size="12.00"  text-anchor="end">
		<text><tspan font-family="Helvetica" > 0.004</tspan></text>
	</g>
</g>
<g fill="none" color="black" stroke="currentColor" stroke-width="1.00" stroke-linecap="butt" stroke-linejoin="miter">
	<path stroke='black'  d='M96.8,54.1 L105.8,54.1  '/>	<g transform="translate(88.5,58.0)" stroke="none" fill="black" font-family="Helvetica" font-size="12.00"  text-anchor="end">
		<text><tspan font-family="Helvetica" > 0.0045</tspan></text>
	</g>
</g>
<g fill="none" color="black" stroke="currentColor" stroke-width="1.00" stroke-linecap="butt" stroke-linejoin="miter">
	<path stroke='black'  d='M117.2,662.4 L117.2,653.4  '/>	<g transform="translate(117.2,684.3)" stroke="none" fill="black" font-family="Helvetica" font-size="12.00"  text-anchor="middle">
		<text><tspan font-family="Helvetica" > 500</tspan></text>
	</g>
</g>
<g fill="none" color="black" stroke="currentColor" stroke-width="1.00" stroke-linecap="butt" stroke-linejoin="miter">
	<path stroke='black'  d='M292.4,662.4 L292.4,653.4  '/>	<g transform="translate(292.4,684.3)" stroke="none" fill="black" font-family="Helvetica" font-size="12.00"  text-anchor="middle">
		<text><tspan font-family="Helvetica" > 600</tspan></text>
	</g>
</g>
<g fill="none" color="black" stroke="currentColor" stroke-width="1.00" stroke-linecap="butt" stroke-linejoin="miter">
	<path stroke='black'  d='M467.5,662.4 L467.5,653.4  '/>	<g transform="translate(467.5,684.3)" stroke="none" fill="black" font-family="Helvetica" font-size="12.00"  text-anchor="middle">
		<text><tspan font-family="Helvetica" > 700</tspan></text>
	</g>
</g>
<g fill="none" color="black" stroke="currentColor" stroke-width="1.00" stroke-linecap="butt" stroke-linejoin="miter">
	<path stroke='black'  d='M642.6,662.4 L642.6,653.4  '/>	<g transform="translate(642.6,684.3)" stroke="none" fill="black" font-family="Helvetica" font-size="12.00"  text-anchor="middle">
		<text><tspan font-family="Helvetica" > 800</tspan></text>
	</g>
</g>
<g fill="none" color="black" stroke="currentColor" stroke-width="1.00" stroke-linecap="butt" stroke-linejoin="miter">
	<path stroke='black'  d='M817.8,662.4 L817.8,653.4  '/>	<g transform="translate(817.8,684.3)" stroke="none" fill="black" font-family="Helvetica" font-size="12.00"  text-anchor="middle">
		<text><tspan font-family="Helvetica" > 900</tspan></text>
	</g>
</g>
<g fill="none" color="black" stroke="currentColor" stroke-width="1.00" stroke-linecap="butt" stroke-linejoin="miter">
	<path stroke='black'  d='M992.9,662.4 L992.9,653.4  '/>	<g transform="translate(992.9,684.3)" stroke="none" fill="black" font-family="Helvetica" font-size="12.00"  text-anchor="middle">
		<text><tspan font-family="Helvetica" > 1000</tspan></text>
	</g>
</g>
<g fill="none" color="black" stroke="currentColor" stroke-width="1.00" stroke-linecap="butt" stroke-linejoin="miter">
</g>
<g fill="none" color="black" stroke="currentColor" stroke-width="1.00" stroke-linecap="butt" stroke-linejoin="miter">
	<path stroke='black'  d='M96.8,54.1 L96.8,662.4 L1013.6,662.4 L1013.6,54.1 L96.8,54.1 Z  '/></g>
<g fill="none" color="black" stroke="currentColor" stroke-width="1.00" stroke-linecap="butt" stroke-linejoin="miter">
	<g transform="translate(19.0,358.3) rotate(270)" stroke="none" fill="black" font-family="Helvetica" font-size="12.00"  text-anchor="middle">
		<text><tspan font-family="Helvetica" >Density (a.u.)</tspan></text>
	</g>
</g>
<g fill="none" color="black" stroke="currentColor" stroke-width="1.00" stroke-linecap="butt" stroke-linejoin="miter">
	<g transform="translate(555.2,711.3)" stroke="none" fill="black" font-family="Helvetica" font-size="12.00"  text-anchor="middle">
		<text><tspan font-family="Helvetica" >Average time (ps)</tspan></text>
	</g>
</g>
<g fill="none" color="black" stroke="currentColor" stroke-width="1.00" stroke-linecap="butt" stroke-linejoin="miter">
	<g transform="translate(555.2,31.0)" stroke="none" fill="black" font-family="Helvetica" font-size="12.00"  text-anchor="middle">
		<text><tspan font-family="Helvetica" >bench_group/blake3/160: MAD</tspan></text>
	</g>
</g>
<g fill="none" color="black" stroke="currentColor" stroke-width="1.00" stroke-linecap="butt" stroke-linejoin="miter">
</g>
	<g id="gnuplot_plot_1" ><title>Bootstrap distribution</title>
<g fill="none" color="white" stroke="currentColor" stroke-width="2.00" stroke-linecap="butt" stroke-linejoin="miter">
</g>
<g fill="none" color="black" stroke="currentColor" stroke-width="2.00" stroke-linecap="butt" stroke-linejoin="miter">
	<g transform="translate(1089.0,67.0)" stroke="none" fill="black" font-family="Helvetica" font-size="12.00"  text-anchor="start">
		<text><tspan font-family="Helvetica" >Bootstrap distribution</tspan></text>
	</g>
</g>
<g fill="none" color="black" stroke="currentColor" stroke-width="2.00" stroke-linecap="butt" stroke-linejoin="miter">
	<path stroke='rgb( 31, 120, 180)'  d='M1038.5,63.1 L1080.7,63.1 M96.8,636.9 L98.6,636.3 L100.5,635.7 L102.3,634.9 L104.1,634.1 L106.0,633.2
		L107.8,632.3 L109.7,631.3 L111.5,630.2 L113.3,629.0 L115.2,627.7 L117.0,626.4 L118.8,625.0 L120.7,623.6
		L122.5,622.1 L124.4,620.6 L126.2,619.0 L128.0,617.4 L129.9,615.8 L131.7,614.2 L133.5,612.6 L135.4,610.9
		L137.2,609.3 L139.1,607.7 L140.9,606.1 L142.7,604.5 L144.6,603.0 L146.4,601.4 L148.2,599.9 L150.1,598.4
		L151.9,596.9 L153.8,595.4 L155.6,594.0 L157.4,592.6 L159.3,591.1 L161.1,589.7 L162.9,588.3 L164.8,586.9
		L166.6,585.5 L168.5,584.1 L170.3,582.6 L172.1,581.1 L174.0,579.5 L175.8,577.9 L177.6,576.2 L179.5,574.4
		L181.3,572.5 L183.2,570.5 L185.0,568.3 L186.8,566.1 L188.7,563.7 L190.5,561.2 L192.3,558.6 L194.2,555.9
		L196.0,553.1 L197.9,550.2 L199.7,547.2 L201.5,544.2 L203.4,541.2 L205.2,538.2 L207.0,535.2 L208.9,532.3
		L210.7,529.4 L212.5,526.5 L214.4,523.8 L216.2,521.1 L218.1,518.6 L219.9,516.1 L221.7,513.8 L223.6,511.5
		L225.4,509.4 L227.2,507.3 L229.1,505.4 L230.9,503.5 L232.8,501.7 L234.6,500.0 L236.4,498.4 L238.3,496.8
		L240.1,495.2 L241.9,493.7 L243.8,492.1 L245.6,490.6 L247.5,489.1 L249.3,487.5 L251.1,485.9 L253.0,484.1
		L254.8,482.3 L256.6,480.4 L258.5,478.3 L260.3,476.0 L262.2,473.4 L264.0,470.7 L265.8,467.6 L267.7,464.3
		L269.5,460.6 L271.3,456.6 L273.2,452.3 L275.0,447.6 L276.9,442.7 L278.7,437.4 L280.5,431.8 L282.4,426.1
		L284.2,420.1 L286.0,414.0 L287.9,407.8 L289.7,401.7 L291.6,395.6 L293.4,389.7 L295.2,384.0 L297.1,378.5
		L298.9,373.4 L300.7,368.7 L302.6,364.5 L304.4,360.7 L306.2,357.3 L308.1,354.5 L309.9,352.2 L311.8,350.3
		L313.6,348.9 L315.4,347.9 L317.3,347.2 L319.1,346.8 L320.9,346.6 L322.8,346.5 L324.6,346.4 L326.5,346.3
		L328.3,345.9 L330.1,345.3 L332.0,344.4 L333.8,343.0 L335.6,341.0 L337.5,338.4 L339.3,335.2 L341.2,331.1
		L343.0,326.3 L344.8,320.6 L346.7,314.1 L348.5,306.7 L350.3,298.4 L352.2,289.3 L354.0,279.5 L355.9,268.9
		L357.7,257.6 L359.5,245.9 L361.4,233.6 L363.2,221.1 L365.0,208.4 L366.9,195.7 L368.7,183.0 L370.6,170.7
		L372.4,158.7 L374.2,147.3 L376.1,136.6 L377.9,126.6 L379.7,117.6 L381.6,109.6 L383.4,102.6 L385.3,96.8
		L387.1,92.1 L388.9,88.6 L390.8,86.3 L392.6,85.1 L394.4,84.9 L396.3,85.7 L398.1,87.5 L400.0,90.1
		L401.8,93.4 L403.6,97.4 L405.5,101.8 L407.3,106.7 L409.1,111.9 L411.0,117.3 L412.8,122.8 L414.6,128.4
		L416.5,133.9 L418.3,139.3 L420.2,144.5 L422.0,149.5 L423.8,154.2 L425.7,158.5 L427.5,162.5 L429.3,166.0
		L431.2,169.2 L433.0,171.9 L434.9,174.2 L436.7,175.9 L438.5,177.3 L440.4,178.1 L442.2,178.5 L444.0,178.5
		L445.9,178.1 L447.7,177.2 L449.6,176.0 L451.4,174.5 L453.2,172.7 L455.1,170.7 L456.9,168.5 L458.7,166.1
		L460.6,163.6 L462.4,161.1 L464.3,158.5 L466.1,155.9 L467.9,153.4 L469.8,151.0 L471.6,148.6 L473.4,146.4
		L475.3,144.3 L477.1,142.4 L479.0,140.6 L480.8,139.0 L482.6,137.7 L484.5,136.5 L486.3,135.5 L488.1,134.8
		L490.0,134.3 L491.8,134.1 L493.7,134.1 L495.5,134.4 L497.3,135.0 L499.2,136.0 L501.0,137.2 L502.8,138.7
		L504.7,140.6 L506.5,142.7 L508.3,145.1 L510.2,147.8 L512.0,150.7 L513.9,153.8 L515.7,157.1 L517.5,160.6
		L519.4,164.2 L521.2,167.8 L523.0,171.5 L524.9,175.1 L526.7,178.7 L528.6,182.3 L530.4,185.7 L532.2,189.0
		L534.1,192.1 L535.9,195.1 L537.7,197.9 L539.6,200.5 L541.4,202.9 L543.3,205.1 L545.1,207.1 L546.9,209.0
		L548.8,210.7 L550.6,212.2 L552.4,213.6 L554.3,214.8 L556.1,216.0 L558.0,217.0 L559.8,217.9 L561.6,218.8
		L563.5,219.6 L565.3,220.4 L567.1,221.1 L569.0,221.7 L570.8,222.4 L572.7,223.0 L574.5,223.6 L576.3,224.3
		L578.2,224.9 L580.0,225.6 L581.8,226.4 L583.7,227.3 L585.5,228.3 L587.4,229.4 L589.2,230.7 L591.0,232.2
		L592.9,233.9 L594.7,235.8 L596.5,238.0 L598.4,240.5 L600.2,243.2 L602.1,246.2 L603.9,249.5 L605.7,253.1
		L607.6,256.9 L609.4,261.0 L611.2,265.3 L613.1,269.8 L614.9,274.4 L616.7,279.1 L618.6,283.8 L620.4,288.6
		L622.3,293.3 L624.1,298.0 L625.9,302.5 L627.8,306.9 L629.6,311.0 L631.4,315.0 L633.3,318.8 L635.1,322.3
		L637.0,325.5 L638.8,328.6 L640.6,331.3 L642.5,333.9 L644.3,336.2 L646.1,338.4 L648.0,340.3 L649.8,342.1
		L651.7,343.7 L653.5,345.2 L655.3,346.5 L657.2,347.8 L659.0,348.9 L660.8,349.9 L662.7,350.8 L664.5,351.7
		L666.4,352.5 L668.2,353.2 L670.0,353.9 L671.9,354.5 L673.7,355.2 L675.5,355.8 L677.4,356.5 L679.2,357.3
		L681.1,358.1 L682.9,359.0 L684.7,360.1 L686.6,361.3 L688.4,362.7 L690.2,364.3 L692.1,366.1 L693.9,368.0
		L695.8,370.2 L697.6,372.6 L699.4,375.3 L701.3,378.1 L703.1,381.1 L704.9,384.4 L706.8,387.8 L708.6,391.4
		L710.4,395.1 L712.3,399.0 L714.1,403.0 L716.0,407.1 L717.8,411.3 L719.6,415.6 L721.5,419.9 L723.3,424.3
		L725.1,428.7 L727.0,433.1 L728.8,437.5 L730.7,441.9 L732.5,446.2 L734.3,450.5 L736.2,454.7 L738.0,458.9
		L739.8,463.0 L741.7,467.0 L743.5,470.9 L745.4,474.7 L747.2,478.4 L749.0,482.0 L750.9,485.5 L752.7,488.9
		L754.5,492.2 L756.4,495.4 L758.2,498.4 L760.1,501.3 L761.9,504.1 L763.7,506.7 L765.6,509.2 L767.4,511.6
		L769.2,513.8 L771.1,515.9 L772.9,517.9 L774.8,519.7 L776.6,521.4 L778.4,522.9 L780.3,524.4 L782.1,525.7
		L783.9,526.9 L785.8,528.0 L787.6,529.0 L789.5,530.0 L791.3,530.8 L793.1,531.6 L795.0,532.2 L796.8,532.9
		L798.6,533.4 L800.5,533.9 L802.3,534.4 L804.2,534.7 L806.0,535.1 L807.8,535.4 L809.7,535.6 L811.5,535.9
		L813.3,536.1 L815.2,536.2 L817.0,536.4 L818.8,536.6 L820.7,536.7 L822.5,536.9 L824.4,537.1 L826.2,537.3
		L828.0,537.5 L829.9,537.8 L831.7,538.1 L833.5,538.5 L835.4,538.9 L837.2,539.5 L839.1,540.0 L840.9,540.7
		L842.7,541.5 L844.6,542.3 L846.4,543.2 L848.2,544.3 L850.1,545.3 L851.9,546.5 L853.8,547.8 L855.6,549.1
		L857.4,550.5 L859.3,552.0 L861.1,553.5 L862.9,555.1 L864.8,556.7 L866.6,558.4 L868.5,560.1 L870.3,561.8
		L872.1,563.5 L874.0,565.2 L875.8,566.9 L877.6,568.6 L879.5,570.3 L881.3,572.0 L883.2,573.6 L885.0,575.2
		L886.8,576.7 L888.7,578.2 L890.5,579.6 L892.3,581.0 L894.2,582.4 L896.0,583.6 L897.9,584.9 L899.7,586.0
		L901.5,587.1 L903.4,588.2 L905.2,589.2 L907.0,590.1 L908.9,591.0 L910.7,591.9 L912.5,592.7 L914.4,593.5
		L916.2,594.3 L918.1,595.0 L919.9,595.8 L921.7,596.5 L923.6,597.2 L925.4,597.9 L927.2,598.6 L929.1,599.2
		L930.9,599.9 L932.8,600.5 L934.6,601.2 L936.4,601.8 L938.3,602.4 L940.1,603.0 L941.9,603.7 L943.8,604.3
		L945.6,604.9 L947.5,605.5 L949.3,606.1 L951.1,606.7 L953.0,607.3 L954.8,607.9 L956.6,608.6 L958.5,609.3
		L960.3,610.0 L962.2,610.7 L964.0,611.5 L965.8,612.3 L967.7,613.2 L969.5,614.0 L971.3,615.0 L973.2,615.9
		L975.0,616.9 L976.9,618.0 L978.7,619.0 L980.5,620.1 L982.4,621.2 L984.2,622.3 L986.0,623.4 L987.9,624.5
		L989.7,625.6 L991.6,626.6 L993.4,627.6 L995.2,628.6 L997.1,629.6 L998.9,630.5 L1000.7,631.3 L1002.6,632.1
		L1004.4,632.9 L1006.3,633.6 L1008.1,634.2 L1009.9,634.8 L1011.8,635.4 L1013.6,635.9  '/></g>
	</g>
	<g id="gnuplot_plot_2" ><title>Confidence interval</title>
<g fill="none" color="white" stroke="rgb( 31, 120, 180)" stroke-width="1.00" stroke-linecap="butt" stroke-linejoin="miter">
</g>
<g fill="none" color="black" stroke="currentColor" stroke-width="1.00" stroke-linecap="butt" stroke-linejoin="miter">
	<g transform="translate(1089.0,85.0)" stroke="none" fill="black" font-family="Helvetica" font-size="12.00"  text-anchor="start">
		<text><tspan font-family="Helvetica" >Confidence interval</tspan></text>
	</g>
</g>
<g fill="none" color="black" stroke="currentColor" stroke-width="1.00" stroke-linecap="butt" stroke-linejoin="miter">
	<g stroke='none' shape-rendering='crispEdges'>
		<polygon fill = 'rgb( 31, 120, 180)' fill-opacity = '0.250000' points = '1038.5,85.6 1080.7,85.6 1080.7,76.6 1038.5,76.6 '/>
		<polygon fill = 'rgb( 31, 120, 180)' fill-opacity = '0.250000' points = '181.3,572.5 183.2,570.5 185.0,568.3 186.8,566.1 188.7,563.7 190.5,561.2 192.3,558.6 194.2,555.9 196.0,553.1 197.9,550.2 199.7,547.2 201.5,544.2 203.4,541.2 205.2,538.2 207.0,535.2 208.9,532.3
210.7,529.4 212.5,526.5 214.4,523.8 216.2,521.1 218.1,518.6 219.9,516.1 221.7,513.8 223.6,511.5 225.4,509.4 227.2,507.3 229.1,505.4 230.9,503.5 232.8,501.7 234.6,500.0 236.4,498.4 238.3,496.8
240.1,495.2 241.9,493.7 243.8,492.1 245.6,490.6 247.5,489.1 249.3,487.5 251.1,485.9 253.0,484.1 254.8,482.3 256.6,480.4 258.5,478.3 260.3,476.0 262.2,473.4 264.0,470.7 265.8,467.6 267.7,464.3
269.5,460.6 271.3,456.6 273.2,452.3 275.0,447.6 276.9,442.7 278.7,437.4 280.5,431.8 282.4,426.1 284.2,420.1 286.0,414.0 287.9,407.8 289.7,401.7 291.6,395.6 293.4,389.7 295.2,384.0 297.1,378.5
298.9,373.4 300.7,368.7 302.6,364.5 304.4,360.7 306.2,357.3 308.1,354.5 309.9,352.2 311.8,350.3 313.6,348.9 315.4,347.9 317.3,347.2 319.1,346.8 320.9,346.6 322.8,346.5 324.6,346.4 326.5,346.3
328.3,345.9 330.1,345.3 332.0,344.4 333.8,343.0 335.6,341.0 337.5,338.4 339.3,335.2 341.2,331.1 343.0,326.3 344.8,320.6 346.7,314.1 348.5,306.7 350.3,298.4 352.2,289.3 354.0,279.5 355.9,268.9
357.7,257.6 359.5,245.9 361.4,233.6 363.2,221.1 365.0,208.4 366.9,195.7 368.7,183.0 370.6,170.7 372.4,158.7 374.2,147.3 376.1,136.6 377.9,126.6 379.7,117.6 381.6,109.6 383.4,102.6 385.3,96.8
387.1,92.1 388.9,88.6 390.8,86.3 392.6,85.1 394.4,84.9 396.3,85.7 398.1,87.5 400.0,90.1 401.8,93.4 403.6,97.4 405.5,101.8 407.3,106.7 409.1,111.9 411.0,117.3 412.8,122.8 414.6,128.4
416.5,133.9 418.3,139.3 420.2,144.5 422.0,149.5 423.8,154.2 425.7,158.5 427.5,162.5 429.3,166.0 431.2,169.2 433.0,171.9 434.9,174.2 436.7,175.9 438.5,177.3 440.4,178.1 442.2,178.5 444.0,178.5
445.9,178.1 447.7,177.2 449.6,176.0 451.4,174.5 453.2,172.7 455.1,170.7 456.9,168.5 458.7,166.1 460.6,163.6 462.4,161.1 464.3,158.5 466.1,155.9 467.9,153.4 469.8,151.0 471.6,148.6 473.4,146.4
475.3,144.3 477.1,142.4 479.0,140.6 480.8,139.0 482.6,137.7 484.5,136.5 486.3,135.5 488.1,134.8 490.0,134.3 491.8,134.1 493.7,134.1 495.5,134.4 497.3,135.0 499.2,136.0 501.0,137.2 502.8,138.7
504.7,140.6 506.5,142.7 508.3,145.1 510.2,147.8 512.0,150.7 513.9,153.8 515.7,157.1 517.5,160.6 519.4,164.2 521.2,167.8 523.0,171.5 524.9,175.1 526.7,178.7 528.6,182.3 530.4,185.7 532.2,189.0
534.1,192.1 535.9,195.1 537.7,197.9 539.6,200.5 541.4,202.9 543.3,205.1 545.1,207.1 546.9,209.0 548.8,210.7 550.6,212.2 552.4,213.6 554.3,214.8 556.1,216.0 558.0,217.0 559.8,217.9 561.6,218.8
563.5,219.6 565.3,220.4 567.1,221.1 569.0,221.7 570.8,222.4 572.7,223.0 574.5,223.6 576.3,224.3 578.2,224.9 580.0,225.6 581.8,226.4 583.7,227.3 585.5,228.3 587.4,229.4 589.2,230.7 591.0,232.2
592.9,233.9 594.7,235.8 596.5,238.0 598.4,240.5 600.2,243.2 602.1,246.2 603.9,249.5 605.7,253.1 607.6,256.9 609.4,261.0 611.2,265.3 613.1,269.8 614.9,274.4 616.7,279.1 618.6,283.8 620.4,288.6
622.3,293.3 624.1,298.0 625.9,302.5 627.8,306.9 629.6,311.0 631.4,315.0 633.3,318.8 635.1,322.3 637.0,325.5 638.8,328.6 640.6,331.3 642.5,333.9 644.3,336.2 646.1,338.4 648.0,340.3 649.8,342.1
651.7,343.7 653.5,345.2 655.3,346.5 657.2,347.8 659.0,348.9 660.8,349.9 662.7,350.8 664.5,351.7 666.4,352.5 668.2,353.2 670.0,353.9 671.9,354.5 673.7,355.2 675.5,355.8 677.4,356.5 679.2,357.3
681.1,358.1 682.9,359.0 684.7,360.1 686.6,361.3 688.4,362.7 690.2,364.3 692.1,366.1 693.9,368.0 695.8,370.2 697.6,372.6 699.4,375.3 701.3,378.1 703.1,381.1 704.9,384.4 706.8,387.8 708.6,391.4
710.4,395.1 712.3,399.0 714.1,403.0 716.0,407.1 717.8,411.3 719.6,415.6 721.5,419.9 723.3,424.3 725.1,428.7 727.0,433.1 728.8,437.5 730.7,441.9 732.5,446.2 734.3,450.5 736.2,454.7 738.0,458.9
739.8,463.0 741.7,467.0 743.5,470.9 745.4,474.7 747.2,478.4 749.0,482.0 750.9,485.5 752.7,488.9 754.5,492.2 756.4,495.4 758.2,498.4 760.1,501.3 761.9,504.1 763.7,506.7 765.6,509.2 767.4,511.6
769.2,513.8 771.1,515.9 772.9,517.9 774.8,519.7 776.6,521.4 778.4,522.9 780.3,524.4 782.1,525.7 783.9,526.9 785.8,528.0 787.6,529.0 789.5,530.0 791.3,530.8 793.1,531.6 795.0,532.2 796.8,532.9
798.6,533.4 800.5,533.9 802.3,534.4 804.2,534.7 806.0,535.1 807.8,535.4 809.7,535.6 811.5,535.9 813.3,536.1 815.2,536.2 817.0,536.4 818.8,536.6 820.7,536.7 822.5,536.9 824.4,537.1 826.2,537.3
828.0,537.5 829.9,537.8 831.7,538.1 833.5,538.5 835.4,538.9 837.2,539.5 839.1,540.0 840.9,540.7 842.7,541.5 844.6,542.3 846.4,543.2 848.2,544.3 850.1,545.3 851.9,546.5 853.8,547.8 855.6,549.1
857.4,550.5 859.3,552.0 861.1,553.5 862.9,555.1 864.8,556.7 866.6,558.4 868.5,560.1 870.3,561.8 872.1,563.5 874.0,565.2 875.8,566.9 877.6,568.6 879.5,570.3 881.3,572.0 883.2,573.6 885.0,575.2
886.8,576.7 888.7,578.2 890.5,579.6 892.3,581.0 894.2,582.4 896.0,583.6 897.9,584.9 899.7,586.0 901.5,587.1 903.4,588.2 905.2,589.2 907.0,590.1 908.9,591.0 910.7,591.9 912.5,592.7 914.4,593.5
916.2,594.3 918.1,595.0 919.9,595.8 921.7,596.5 923.6,597.2 925.4,597.9 927.2,598.6 927.2,662.4 925.4,662.4 923.6,662.4 921.7,662.4 919.9,662.4 918.1,662.4 916.2,662.4 914.4,662.4 912.5,662.4
910.7,662.4 908.9,662.4 907.0,662.4 905.2,662.4 903.4,662.4 901.5,662.4 899.7,662.4 897.9,662.4 896.0,662.4 894.2,662.4 892.3,662.4 890.5,662.4 888.7,662.4 886.8,662.4 885.0,662.4 883.2,662.4
881.3,662.4 879.5,662.4 877.6,662.4 875.8,662.4 874.0,662.4 872.1,662.4 870.3,662.4 868.5,662.4 866.6,662.4 864.8,662.4 862.9,662.4 861.1,662.4 859.3,662.4 857.4,662.4 855.6,662.4 853.8,662.4
851.9,662.4 850.1,662.4 848.2,662.4 846.4,662.4 844.6,662.4 842.7,662.4 840.9,662.4 839.1,662.4 837.2,662.4 835.4,662.4 833.5,662.4 831.7,662.4 829.9,662.4 828.0,662.4 826.2,662.4 824.4,662.4
822.5,662.4 820.7,662.4 818.8,662.4 817.0,662.4 815.2,662.4 813.3,662.4 811.5,662.4 809.7,662.4 807.8,662.4 806.0,662.4 804.2,662.4 802.3,662.4 800.5,662.4 798.6,662.4 796.8,662.4 795.0,662.4
793.1,662.4 791.3,662.4 789.5,662.4 787.6,662.4 785.8,662.4 783.9,662.4 782.1,662.4 780.3,662.4 778.4,662.4 776.6,662.4 774.8,662.4 772.9,662.4 771.1,662.4 769.2,662.4 767.4,662.4 765.6,662.4
763.7,662.4 761.9,662.4 760.1,662.4 758.2,662.4 756.4,662.4 754.5,662.4 752.7,662.4 750.9,662.4 749.0,662.4 747.2,662.4 745.4,662.4 743.5,662.4 741.7,662.4 739.8,662.4 738.0,662.4 736.2,662.4
734.3,662.4 732.5,662.4 730.7,662.4 728.8,662.4 727.0,662.4 725.1,662.4 723.3,662.4 721.5,662.4 719.6,662.4 717.8,662.4 716.0,662.4 714.1,662.4 712.3,662.4 710.4,662.4 708.6,662.4 706.8,662.4
704.9,662.4 703.1,662.4 701.3,662.4 699.4,662.4 697.6,662.4 695.8,662.4 693.9,662.4 692.1,662.4 690.2,662.4 688.4,662.4 686.6,662.4 684.7,662.4 682.9,662.4 681.1,662.4 679.2,662.4 677.4,662.4
675.5,662.4 673.7,662.4 671.9,662.4 670.0,662.4 668.2,662.4 666.4,662.4 664.5,662.4 662.7,662.4 660.8,662.4 659.0,662.4 657.2,662.4 655.3,662.4 653.5,662.4 651.7,662.4 649.8,662.4 648.0,662.4
646.1,662.4 644.3,662.4 642.5,662.4 640.6,662.4 638.8,662.4 637.0,662.4 635.1,662.4 633.3,662.4 631.4,662.4 629.6,662.4 627.8,662.4 625.9,662.4 624.1,662.4 622.3,662.4 620.4,662.4 618.6,662.4
616.7,662.4 614.9,662.4 613.1,662.4 611.2,662.4 609.4,662.4 607.6,662.4 605.7,662.4 603.9,662.4 602.1,662.4 600.2,662.4 598.4,662.4 596.5,662.4 594.7,662.4 592.9,662.4 591.0,662.4 589.2,662.4
587.4,662.4 585.5,662.4 583.7,662.4 581.8,662.4 580.0,662.4 578.2,662.4 576.3,662.4 574.5,662.4 572.7,662.4 570.8,662.4 569.0,662.4 567.1,662.4 565.3,662.4 563.5,662.4 561.6,662.4 559.8,662.4
558.0,662.4 556.1,662.4 554.3,662.4 552.4,662.4 550.6,662.4 548.8,662.4 546.9,662.4 545.1,662.4 543.3,662.4 541.4,662.4 539.6,662.4 537.7,662.4 535.9,662.4 534.1,662.4 532.2,662.4 530.4,662.4
528.6,662.4 526.7,662.4 524.9,662.4 523.0,662.4 521.2,662.4 519.4,662.4 517.5,662.4 515.7,662.4 513.9,662.4 512.0,662.4 510.2,662.4 508.3,662.4 506.5,662.4 504.7,662.4 502.8,662.4 501.0,662.4
499.2,662.4 497.3,662.4 495.5,662.4 493.7,662.4 491.8,662.4 490.0,662.4 488.1,662.4 486.3,662.4 484.5,662.4 482.6,662.4 480.8,662.4 479.0,662.4 477.1,662.4 475.3,662.4 473.4,662.4 471.6,662.4
469.8,662.4 467.9,662.4 466.1,662.4 464.3,662.4 462.4,662.4 460.6,662.4 458.7,662.4 456.9,662.4 455.1,662.4 453.2,662.4 451.4,662.4 449.6,662.4 447.7,662.4 445.9,662.4 444.0,662.4 442.2,662.4
440.4,662.4 438.5,662.4 436.7,662.4 434.9,662.4 433.0,662.4 431.2,662.4 429.3,662.4 427.5,662.4 425.7,662.4 423.8,662.4 422.0,662.4 420.2,662.4 418.3,662.4 416.5,662.4 414.6,662.4 412.8,662.4
411.0,662.4 409.1,662.4 407.3,662.4 405.5,662.4 403.6,662.4 401.8,662.4 400.0,662.4 398.1,662.4 396.3,662.4 394.4,662.4 392.6,662.4 390.8,662.4 388.9,662.4 387.1,662.4 385.3,662.4 383.4,662.4
381.6,662.4 379.7,662.4 377.9,662.4 376.1,662.4 374.2,662.4 372.4,662.4 370.6,662.4 368.7,662.4 366.9,662.4 365.0,662.4 363.2,662.4 361.4,662.4 359.5,662.4 357.7,662.4 355.9,662.4 354.0,662.4
352.2,662.4 350.3,662.4 348.5,662.4 346.7,662.4 344.8,662.4 343.0,662.4 341.2,662.4 339.3,662.4 337.5,662.4 335.6,662.4 333.8,662.4 332.0,662.4 330.1,662.4 328.3,662.4 326.5,662.4 324.6,662.4
322.8,662.4 320.9,662.4 319.1,662.4 317.3,662.4 315.4,662.4 313.6,662.4 311.8,662.4 309.9,662.4 308.1,662.4 306.2,662.4 304.4,662.4 302.6,662.4 300.7,662.4 298.9,662.4 297.1,662.4 295.2,662.4
293.4,662.4 291.6,662.4 289.7,662.4 287.9,662.4 286.0,662.4 284.2,662.4 282.4,662.4 280.5,662.4 278.7,662.4 276.9,662.4 275.0,662.4 273.2,662.4 271.3,662.4 269.5,662.4 267.7,662.4 265.8,662.4
264.0,662.4 262.2,662.4 260.3,662.4 258.5,662.4 256.6,662.4 254.8,662.4 253.0,662.4 251.1,662.4 249.3,662.4 247.5,662.4 245.6,662.4 243.8,662.4 241.9,662.4 240.1,662.4 238.3,662.4 236.4,662.4
234.6,662.4 232.8,662.4 230.9,662.4 229.1,662.4 227.2,662.4 225.4,662.4 223.6,662.4 221.7,662.4 219.9,662.4 218.1,662.4 216.2,662.4 214.4,662.4 212.5,662.4 210.7,662.4 208.9,662.4 207.0,662.4
205.2,662.4 203.4,662.4 201.5,662.4 199.7,662.4 197.9,662.4 196.0,662.4 194.2,662.4 192.3,662.4 190.5,662.4 188.7,662.4 186.8,662.4 185.0,662.4 183.2,662.4 181.3,662.4 '/>
	</g>
</g>
	</g>
	<g id="gnuplot_plot_3" ><title>Point estimate</title>
<g fill="none" color="white" stroke="rgb( 31, 120, 180)" stroke-width="2.00" stroke-linecap="butt" stroke-linejoin="miter">
</g>
<g fill="none" color="black" stroke="currentColor" stroke-width="2.00" stroke-linecap="butt" stroke-linejoin="miter">
	<g transform="translate(1089.0,103.0)" stroke="none" fill="black" font-family="Helvetica" font-size="12.00"  text-anchor="start">
		<text><tspan font-family="Helvetica" >Point estimate</tspan></text>
	</g>
</g>
<g fill="none" color="black" stroke="currentColor" stroke-width="2.00" stroke-linecap="butt" stroke-linejoin="miter">
	<path stroke='rgb( 31, 120, 180)'  d='M1038.5,99.1 L1080.7,99.1 M499.3,662.4 L499.3,136.0  '/></g>
	</g>
<g fill="none" color="black" stroke="currentColor" stroke-width="2.00" stroke-linecap="butt" stroke-linejoin="miter">
</g>
<g fill="none" color="black" stroke="black" stroke-width="1.00" stroke-linecap="butt" stroke-linejoin="miter">
</g>
<g fill="none" color="black" stroke="currentColor" stroke-width="1.00" stroke-linecap="butt" stroke-linejoin="miter">
	<path stroke='black'  d='M96.8,54.1 L96.8,662.4 L1013.6,662.4 L1013.6,54.1 L96.8,54.1 Z  '/></g>
<g fill="none" color="black" stroke="currentColor" stroke-width="1.00" stroke-linecap="butt" stroke-linejoin="miter">
</g>
</g>
</svg>

