<?xml version="1.0" encoding="utf-8"  standalone="no"?>
<svg 
 viewBox="0 0 450 300"
 xmlns="http://www.w3.org/2000/svg"
 xmlns:xlink="http://www.w3.org/1999/xlink"
>

<title>Gnuplot</title>
<desc>Produced by GNUPLOT 5.2 patchlevel 8 </desc>

<g id="gnuplot_canvas">

<rect x="0" y="0" width="450" height="300" fill="none"/>
<defs>

	<circle id='gpDot' r='0.5' stroke-width='0.5' stroke='currentColor'/>
	<path id='gpPt0' stroke-width='0.222' stroke='currentColor' d='M-1,0 h2 M0,-1 v2'/>
	<path id='gpPt1' stroke-width='0.222' stroke='currentColor' d='M-1,-1 L1,1 M1,-1 L-1,1'/>
	<path id='gpPt2' stroke-width='0.222' stroke='currentColor' d='M-1,0 L1,0 M0,-1 L0,1 M-1,-1 L1,1 M-1,1 L1,-1'/>
	<rect id='gpPt3' stroke-width='0.222' stroke='currentColor' x='-1' y='-1' width='2' height='2'/>
	<rect id='gpPt4' stroke-width='0.222' stroke='currentColor' fill='currentColor' x='-1' y='-1' width='2' height='2'/>
	<circle id='gpPt5' stroke-width='0.222' stroke='currentColor' cx='0' cy='0' r='1'/>
	<use xlink:href='#gpPt5' id='gpPt6' fill='currentColor' stroke='none'/>
	<path id='gpPt7' stroke-width='0.222' stroke='currentColor' d='M0,-1.33 L-1.33,0.67 L1.33,0.67 z'/>
	<use xlink:href='#gpPt7' id='gpPt8' fill='currentColor' stroke='none'/>
	<use xlink:href='#gpPt7' id='gpPt9' stroke='currentColor' transform='rotate(180)'/>
	<use xlink:href='#gpPt9' id='gpPt10' fill='currentColor' stroke='none'/>
	<use xlink:href='#gpPt3' id='gpPt11' stroke='currentColor' transform='rotate(45)'/>
	<use xlink:href='#gpPt11' id='gpPt12' fill='currentColor' stroke='none'/>
	<path id='gpPt13' stroke-width='0.222' stroke='currentColor' d='M0,1.330 L1.265,0.411 L0.782,-1.067 L-0.782,-1.076 L-1.265,0.411 z'/>
	<use xlink:href='#gpPt13' id='gpPt14' fill='currentColor' stroke='none'/>
	<filter id='textbox' filterUnits='objectBoundingBox' x='0' y='0' height='1' width='1'>
	  <feFlood flood-color='white' flood-opacity='1' result='bgnd'/>
	  <feComposite in='SourceGraphic' in2='bgnd' operator='atop'/>
	</filter>
	<filter id='greybox' filterUnits='objectBoundingBox' x='0' y='0' height='1' width='1'>
	  <feFlood flood-color='lightgrey' flood-opacity='1' result='grey'/>
	  <feComposite in='SourceGraphic' in2='grey' operator='atop'/>
	</filter>
</defs>
<g fill="none" color="white" stroke="currentColor" stroke-width="1.00" stroke-linecap="butt" stroke-linejoin="miter">
</g>
<g fill="none" color="black" stroke="currentColor" stroke-width="1.00" stroke-linecap="butt" stroke-linejoin="miter">
</g>
<g fill="none" color="black" stroke="black" stroke-width="0.50" stroke-linecap="butt" stroke-linejoin="miter">
</g>
<g fill="none" color="gray" stroke="currentColor" stroke-width="0.50" stroke-linecap="butt" stroke-linejoin="miter">
	<path stroke='gray' stroke-dasharray='2,4' class="gridline"  d='M71.9,224.4 L425.0,224.4  '/></g>
<g fill="none" color="gray" stroke="gray" stroke-width="1.00" stroke-linecap="butt" stroke-linejoin="miter">
</g>
<g fill="none" color="black" stroke="currentColor" stroke-width="1.00" stroke-linecap="butt" stroke-linejoin="miter">
	<path stroke='black'  d='M71.9,224.4 L80.9,224.4  '/>	<g transform="translate(63.6,228.3)" stroke="none" fill="black" font-family="Helvetica" font-size="12.00"  text-anchor="end">
		<text><tspan font-family="Helvetica" > 0</tspan></text>
	</g>
</g>
<g fill="none" color="black" stroke="currentColor" stroke-width="1.00" stroke-linecap="butt" stroke-linejoin="miter">
</g>
<g fill="none" color="black" stroke="black" stroke-width="0.50" stroke-linecap="butt" stroke-linejoin="miter">
</g>
<g fill="none" color="gray" stroke="currentColor" stroke-width="0.50" stroke-linecap="butt" stroke-linejoin="miter">
	<path stroke='gray' stroke-dasharray='2,4' class="gridline"  d='M71.9,203.8 L425.0,203.8  '/></g>
<g fill="none" color="gray" stroke="gray" stroke-width="1.00" stroke-linecap="butt" stroke-linejoin="miter">
</g>
<g fill="none" color="black" stroke="currentColor" stroke-width="1.00" stroke-linecap="butt" stroke-linejoin="miter">
	<path stroke='black'  d='M71.9,203.8 L80.9,203.8  '/>	<g transform="translate(63.6,207.7)" stroke="none" fill="black" font-family="Helvetica" font-size="12.00"  text-anchor="end">
		<text><tspan font-family="Helvetica" > 10</tspan></text>
	</g>
</g>
<g fill="none" color="black" stroke="currentColor" stroke-width="1.00" stroke-linecap="butt" stroke-linejoin="miter">
</g>
<g fill="none" color="black" stroke="black" stroke-width="0.50" stroke-linecap="butt" stroke-linejoin="miter">
</g>
<g fill="none" color="gray" stroke="currentColor" stroke-width="0.50" stroke-linecap="butt" stroke-linejoin="miter">
	<path stroke='gray' stroke-dasharray='2,4' class="gridline"  d='M71.9,183.1 L425.0,183.1  '/></g>
<g fill="none" color="gray" stroke="gray" stroke-width="1.00" stroke-linecap="butt" stroke-linejoin="miter">
</g>
<g fill="none" color="black" stroke="currentColor" stroke-width="1.00" stroke-linecap="butt" stroke-linejoin="miter">
	<path stroke='black'  d='M71.9,183.1 L80.9,183.1  '/>	<g transform="translate(63.6,187.0)" stroke="none" fill="black" font-family="Helvetica" font-size="12.00"  text-anchor="end">
		<text><tspan font-family="Helvetica" > 20</tspan></text>
	</g>
</g>
<g fill="none" color="black" stroke="currentColor" stroke-width="1.00" stroke-linecap="butt" stroke-linejoin="miter">
</g>
<g fill="none" color="black" stroke="black" stroke-width="0.50" stroke-linecap="butt" stroke-linejoin="miter">
</g>
<g fill="none" color="gray" stroke="currentColor" stroke-width="0.50" stroke-linecap="butt" stroke-linejoin="miter">
	<path stroke='gray' stroke-dasharray='2,4' class="gridline"  d='M71.9,162.5 L425.0,162.5  '/></g>
<g fill="none" color="gray" stroke="gray" stroke-width="1.00" stroke-linecap="butt" stroke-linejoin="miter">
</g>
<g fill="none" color="black" stroke="currentColor" stroke-width="1.00" stroke-linecap="butt" stroke-linejoin="miter">
	<path stroke='black'  d='M71.9,162.5 L80.9,162.5  '/>	<g transform="translate(63.6,166.4)" stroke="none" fill="black" font-family="Helvetica" font-size="12.00"  text-anchor="end">
		<text><tspan font-family="Helvetica" > 30</tspan></text>
	</g>
</g>
<g fill="none" color="black" stroke="currentColor" stroke-width="1.00" stroke-linecap="butt" stroke-linejoin="miter">
</g>
<g fill="none" color="black" stroke="black" stroke-width="0.50" stroke-linecap="butt" stroke-linejoin="miter">
</g>
<g fill="none" color="gray" stroke="currentColor" stroke-width="0.50" stroke-linecap="butt" stroke-linejoin="miter">
	<path stroke='gray' stroke-dasharray='2,4' class="gridline"  d='M71.9,141.9 L425.0,141.9  '/></g>
<g fill="none" color="gray" stroke="gray" stroke-width="1.00" stroke-linecap="butt" stroke-linejoin="miter">
</g>
<g fill="none" color="black" stroke="currentColor" stroke-width="1.00" stroke-linecap="butt" stroke-linejoin="miter">
	<path stroke='black'  d='M71.9,141.9 L80.9,141.9  '/>	<g transform="translate(63.6,145.8)" stroke="none" fill="black" font-family="Helvetica" font-size="12.00"  text-anchor="end">
		<text><tspan font-family="Helvetica" > 40</tspan></text>
	</g>
</g>
<g fill="none" color="black" stroke="currentColor" stroke-width="1.00" stroke-linecap="butt" stroke-linejoin="miter">
</g>
<g fill="none" color="black" stroke="black" stroke-width="0.50" stroke-linecap="butt" stroke-linejoin="miter">
</g>
<g fill="none" color="gray" stroke="currentColor" stroke-width="0.50" stroke-linecap="butt" stroke-linejoin="miter">
	<path stroke='gray' stroke-dasharray='2,4' class="gridline"  d='M71.9,121.2 L425.0,121.2  '/></g>
<g fill="none" color="gray" stroke="gray" stroke-width="1.00" stroke-linecap="butt" stroke-linejoin="miter">
</g>
<g fill="none" color="black" stroke="currentColor" stroke-width="1.00" stroke-linecap="butt" stroke-linejoin="miter">
	<path stroke='black'  d='M71.9,121.2 L80.9,121.2  '/>	<g transform="translate(63.6,125.1)" stroke="none" fill="black" font-family="Helvetica" font-size="12.00"  text-anchor="end">
		<text><tspan font-family="Helvetica" > 50</tspan></text>
	</g>
</g>
<g fill="none" color="black" stroke="currentColor" stroke-width="1.00" stroke-linecap="butt" stroke-linejoin="miter">
</g>
<g fill="none" color="black" stroke="black" stroke-width="0.50" stroke-linecap="butt" stroke-linejoin="miter">
</g>
<g fill="none" color="gray" stroke="currentColor" stroke-width="0.50" stroke-linecap="butt" stroke-linejoin="miter">
	<path stroke='gray' stroke-dasharray='2,4' class="gridline"  d='M71.9,100.6 L425.0,100.6  '/></g>
<g fill="none" color="gray" stroke="gray" stroke-width="1.00" stroke-linecap="butt" stroke-linejoin="miter">
</g>
<g fill="none" color="black" stroke="currentColor" stroke-width="1.00" stroke-linecap="butt" stroke-linejoin="miter">
	<path stroke='black'  d='M71.9,100.6 L80.9,100.6  '/>	<g transform="translate(63.6,104.5)" stroke="none" fill="black" font-family="Helvetica" font-size="12.00"  text-anchor="end">
		<text><tspan font-family="Helvetica" > 60</tspan></text>
	</g>
</g>
<g fill="none" color="black" stroke="currentColor" stroke-width="1.00" stroke-linecap="butt" stroke-linejoin="miter">
</g>
<g fill="none" color="black" stroke="black" stroke-width="0.50" stroke-linecap="butt" stroke-linejoin="miter">
</g>
<g fill="none" color="gray" stroke="currentColor" stroke-width="0.50" stroke-linecap="butt" stroke-linejoin="miter">
	<path stroke='gray' stroke-dasharray='2,4' class="gridline"  d='M71.9,80.0 L425.0,80.0  '/></g>
<g fill="none" color="gray" stroke="gray" stroke-width="1.00" stroke-linecap="butt" stroke-linejoin="miter">
</g>
<g fill="none" color="black" stroke="currentColor" stroke-width="1.00" stroke-linecap="butt" stroke-linejoin="miter">
	<path stroke='black'  d='M71.9,80.0 L80.9,80.0  '/>	<g transform="translate(63.6,83.9)" stroke="none" fill="black" font-family="Helvetica" font-size="12.00"  text-anchor="end">
		<text><tspan font-family="Helvetica" > 70</tspan></text>
	</g>
</g>
<g fill="none" color="black" stroke="currentColor" stroke-width="1.00" stroke-linecap="butt" stroke-linejoin="miter">
</g>
<g fill="none" color="black" stroke="black" stroke-width="0.50" stroke-linecap="butt" stroke-linejoin="miter">
</g>
<g fill="none" color="gray" stroke="currentColor" stroke-width="0.50" stroke-linecap="butt" stroke-linejoin="miter">
	<path stroke='gray' stroke-dasharray='2,4' class="gridline"  d='M71.9,59.4 L425.0,59.4  '/></g>
<g fill="none" color="gray" stroke="gray" stroke-width="1.00" stroke-linecap="butt" stroke-linejoin="miter">
</g>
<g fill="none" color="black" stroke="currentColor" stroke-width="1.00" stroke-linecap="butt" stroke-linejoin="miter">
	<path stroke='black'  d='M71.9,59.4 L80.9,59.4  '/>	<g transform="translate(63.6,63.3)" stroke="none" fill="black" font-family="Helvetica" font-size="12.00"  text-anchor="end">
		<text><tspan font-family="Helvetica" > 80</tspan></text>
	</g>
</g>
<g fill="none" color="black" stroke="currentColor" stroke-width="1.00" stroke-linecap="butt" stroke-linejoin="miter">
</g>
<g fill="none" color="black" stroke="black" stroke-width="0.50" stroke-linecap="butt" stroke-linejoin="miter">
</g>
<g fill="none" color="gray" stroke="currentColor" stroke-width="0.50" stroke-linecap="butt" stroke-linejoin="miter">
	<path stroke='gray' stroke-dasharray='2,4' class="gridline"  d='M71.9,38.7 L425.0,38.7  '/></g>
<g fill="none" color="gray" stroke="gray" stroke-width="1.00" stroke-linecap="butt" stroke-linejoin="miter">
</g>
<g fill="none" color="black" stroke="currentColor" stroke-width="1.00" stroke-linecap="butt" stroke-linejoin="miter">
	<path stroke='black'  d='M71.9,38.7 L80.9,38.7  '/>	<g transform="translate(63.6,42.6)" stroke="none" fill="black" font-family="Helvetica" font-size="12.00"  text-anchor="end">
		<text><tspan font-family="Helvetica" > 90</tspan></text>
	</g>
</g>
<g fill="none" color="black" stroke="currentColor" stroke-width="1.00" stroke-linecap="butt" stroke-linejoin="miter">
</g>
<g fill="none" color="black" stroke="black" stroke-width="0.50" stroke-linecap="butt" stroke-linejoin="miter">
</g>
<g fill="none" color="gray" stroke="currentColor" stroke-width="0.50" stroke-linecap="butt" stroke-linejoin="miter">
	<path stroke='gray' stroke-dasharray='2,4' class="gridline"  d='M71.9,18.1 L425.0,18.1  '/></g>
<g fill="none" color="gray" stroke="gray" stroke-width="1.00" stroke-linecap="butt" stroke-linejoin="miter">
</g>
<g fill="none" color="black" stroke="currentColor" stroke-width="1.00" stroke-linecap="butt" stroke-linejoin="miter">
	<path stroke='black'  d='M71.9,18.1 L80.9,18.1  '/>	<g transform="translate(63.6,22.0)" stroke="none" fill="black" font-family="Helvetica" font-size="12.00"  text-anchor="end">
		<text><tspan font-family="Helvetica" > 100</tspan></text>
	</g>
</g>
<g fill="none" color="black" stroke="currentColor" stroke-width="1.00" stroke-linecap="butt" stroke-linejoin="miter">
</g>
<g fill="none" color="black" stroke="black" stroke-width="0.50" stroke-linecap="butt" stroke-linejoin="miter">
</g>
<g fill="none" color="gray" stroke="currentColor" stroke-width="0.50" stroke-linecap="butt" stroke-linejoin="miter">
	<path stroke='gray' stroke-dasharray='2,4' class="gridline"  d='M71.9,224.4 L71.9,18.1  '/></g>
<g fill="none" color="gray" stroke="gray" stroke-width="1.00" stroke-linecap="butt" stroke-linejoin="miter">
</g>
<g fill="none" color="black" stroke="currentColor" stroke-width="1.00" stroke-linecap="butt" stroke-linejoin="miter">
	<path stroke='black'  d='M71.9,224.4 L71.9,215.4  '/>	<g transform="translate(71.9,246.3)" stroke="none" fill="black" font-family="Helvetica" font-size="12.00"  text-anchor="middle">
		<text><tspan font-family="Helvetica" > 0</tspan></text>
	</g>
</g>
<g fill="none" color="black" stroke="currentColor" stroke-width="1.00" stroke-linecap="butt" stroke-linejoin="miter">
</g>
<g fill="none" color="black" stroke="black" stroke-width="0.50" stroke-linecap="butt" stroke-linejoin="miter">
</g>
<g fill="none" color="gray" stroke="currentColor" stroke-width="0.50" stroke-linecap="butt" stroke-linejoin="miter">
	<path stroke='gray' stroke-dasharray='2,4' class="gridline"  d='M111.1,224.4 L111.1,18.1  '/></g>
<g fill="none" color="gray" stroke="gray" stroke-width="1.00" stroke-linecap="butt" stroke-linejoin="miter">
</g>
<g fill="none" color="black" stroke="currentColor" stroke-width="1.00" stroke-linecap="butt" stroke-linejoin="miter">
	<path stroke='black'  d='M111.1,224.4 L111.1,215.4  '/>	<g transform="translate(111.1,246.3)" stroke="none" fill="black" font-family="Helvetica" font-size="12.00"  text-anchor="middle">
		<text><tspan font-family="Helvetica" > 20</tspan></text>
	</g>
</g>
<g fill="none" color="black" stroke="currentColor" stroke-width="1.00" stroke-linecap="butt" stroke-linejoin="miter">
</g>
<g fill="none" color="black" stroke="black" stroke-width="0.50" stroke-linecap="butt" stroke-linejoin="miter">
</g>
<g fill="none" color="gray" stroke="currentColor" stroke-width="0.50" stroke-linecap="butt" stroke-linejoin="miter">
	<path stroke='gray' stroke-dasharray='2,4' class="gridline"  d='M150.4,224.4 L150.4,18.1  '/></g>
<g fill="none" color="gray" stroke="gray" stroke-width="1.00" stroke-linecap="butt" stroke-linejoin="miter">
</g>
<g fill="none" color="black" stroke="currentColor" stroke-width="1.00" stroke-linecap="butt" stroke-linejoin="miter">
	<path stroke='black'  d='M150.4,224.4 L150.4,215.4  '/>	<g transform="translate(150.4,246.3)" stroke="none" fill="black" font-family="Helvetica" font-size="12.00"  text-anchor="middle">
		<text><tspan font-family="Helvetica" > 40</tspan></text>
	</g>
</g>
<g fill="none" color="black" stroke="currentColor" stroke-width="1.00" stroke-linecap="butt" stroke-linejoin="miter">
</g>
<g fill="none" color="black" stroke="black" stroke-width="0.50" stroke-linecap="butt" stroke-linejoin="miter">
</g>
<g fill="none" color="gray" stroke="currentColor" stroke-width="0.50" stroke-linecap="butt" stroke-linejoin="miter">
	<path stroke='gray' stroke-dasharray='2,4' class="gridline"  d='M189.6,224.4 L189.6,18.1  '/></g>
<g fill="none" color="gray" stroke="gray" stroke-width="1.00" stroke-linecap="butt" stroke-linejoin="miter">
</g>
<g fill="none" color="black" stroke="currentColor" stroke-width="1.00" stroke-linecap="butt" stroke-linejoin="miter">
	<path stroke='black'  d='M189.6,224.4 L189.6,215.4  '/>	<g transform="translate(189.6,246.3)" stroke="none" fill="black" font-family="Helvetica" font-size="12.00"  text-anchor="middle">
		<text><tspan font-family="Helvetica" > 60</tspan></text>
	</g>
</g>
<g fill="none" color="black" stroke="currentColor" stroke-width="1.00" stroke-linecap="butt" stroke-linejoin="miter">
</g>
<g fill="none" color="black" stroke="black" stroke-width="0.50" stroke-linecap="butt" stroke-linejoin="miter">
</g>
<g fill="none" color="gray" stroke="currentColor" stroke-width="0.50" stroke-linecap="butt" stroke-linejoin="miter">
	<path stroke='gray' stroke-dasharray='2,4' class="gridline"  d='M228.8,224.4 L228.8,18.1  '/></g>
<g fill="none" color="gray" stroke="gray" stroke-width="1.00" stroke-linecap="butt" stroke-linejoin="miter">
</g>
<g fill="none" color="black" stroke="currentColor" stroke-width="1.00" stroke-linecap="butt" stroke-linejoin="miter">
	<path stroke='black'  d='M228.8,224.4 L228.8,215.4  '/>	<g transform="translate(228.8,246.3)" stroke="none" fill="black" font-family="Helvetica" font-size="12.00"  text-anchor="middle">
		<text><tspan font-family="Helvetica" > 80</tspan></text>
	</g>
</g>
<g fill="none" color="black" stroke="currentColor" stroke-width="1.00" stroke-linecap="butt" stroke-linejoin="miter">
</g>
<g fill="none" color="black" stroke="black" stroke-width="0.50" stroke-linecap="butt" stroke-linejoin="miter">
</g>
<g fill="none" color="gray" stroke="currentColor" stroke-width="0.50" stroke-linecap="butt" stroke-linejoin="miter">
	<path stroke='gray' stroke-dasharray='2,4' class="gridline"  d='M268.1,224.4 L268.1,18.1  '/></g>
<g fill="none" color="gray" stroke="gray" stroke-width="1.00" stroke-linecap="butt" stroke-linejoin="miter">
</g>
<g fill="none" color="black" stroke="currentColor" stroke-width="1.00" stroke-linecap="butt" stroke-linejoin="miter">
	<path stroke='black'  d='M268.1,224.4 L268.1,215.4  '/>	<g transform="translate(268.1,246.3)" stroke="none" fill="black" font-family="Helvetica" font-size="12.00"  text-anchor="middle">
		<text><tspan font-family="Helvetica" > 100</tspan></text>
	</g>
</g>
<g fill="none" color="black" stroke="currentColor" stroke-width="1.00" stroke-linecap="butt" stroke-linejoin="miter">
</g>
<g fill="none" color="black" stroke="black" stroke-width="0.50" stroke-linecap="butt" stroke-linejoin="miter">
</g>
<g fill="none" color="gray" stroke="currentColor" stroke-width="0.50" stroke-linecap="butt" stroke-linejoin="miter">
	<path stroke='gray' stroke-dasharray='2,4' class="gridline"  d='M307.3,224.4 L307.3,18.1  '/></g>
<g fill="none" color="gray" stroke="gray" stroke-width="1.00" stroke-linecap="butt" stroke-linejoin="miter">
</g>
<g fill="none" color="black" stroke="currentColor" stroke-width="1.00" stroke-linecap="butt" stroke-linejoin="miter">
	<path stroke='black'  d='M307.3,224.4 L307.3,215.4  '/>	<g transform="translate(307.3,246.3)" stroke="none" fill="black" font-family="Helvetica" font-size="12.00"  text-anchor="middle">
		<text><tspan font-family="Helvetica" > 120</tspan></text>
	</g>
</g>
<g fill="none" color="black" stroke="currentColor" stroke-width="1.00" stroke-linecap="butt" stroke-linejoin="miter">
</g>
<g fill="none" color="black" stroke="black" stroke-width="0.50" stroke-linecap="butt" stroke-linejoin="miter">
</g>
<g fill="none" color="gray" stroke="currentColor" stroke-width="0.50" stroke-linecap="butt" stroke-linejoin="miter">
	<path stroke='gray' stroke-dasharray='2,4' class="gridline"  d='M346.5,224.4 L346.5,18.1  '/></g>
<g fill="none" color="gray" stroke="gray" stroke-width="1.00" stroke-linecap="butt" stroke-linejoin="miter">
</g>
<g fill="none" color="black" stroke="currentColor" stroke-width="1.00" stroke-linecap="butt" stroke-linejoin="miter">
	<path stroke='black'  d='M346.5,224.4 L346.5,215.4  '/>	<g transform="translate(346.5,246.3)" stroke="none" fill="black" font-family="Helvetica" font-size="12.00"  text-anchor="middle">
		<text><tspan font-family="Helvetica" > 140</tspan></text>
	</g>
</g>
<g fill="none" color="black" stroke="currentColor" stroke-width="1.00" stroke-linecap="butt" stroke-linejoin="miter">
</g>
<g fill="none" color="black" stroke="black" stroke-width="0.50" stroke-linecap="butt" stroke-linejoin="miter">
</g>
<g fill="none" color="gray" stroke="currentColor" stroke-width="0.50" stroke-linecap="butt" stroke-linejoin="miter">
	<path stroke='gray' stroke-dasharray='2,4' class="gridline"  d='M385.8,224.4 L385.8,18.1  '/></g>
<g fill="none" color="gray" stroke="gray" stroke-width="1.00" stroke-linecap="butt" stroke-linejoin="miter">
</g>
<g fill="none" color="black" stroke="currentColor" stroke-width="1.00" stroke-linecap="butt" stroke-linejoin="miter">
	<path stroke='black'  d='M385.8,224.4 L385.8,215.4  '/>	<g transform="translate(385.8,246.3)" stroke="none" fill="black" font-family="Helvetica" font-size="12.00"  text-anchor="middle">
		<text><tspan font-family="Helvetica" > 160</tspan></text>
	</g>
</g>
<g fill="none" color="black" stroke="currentColor" stroke-width="1.00" stroke-linecap="butt" stroke-linejoin="miter">
</g>
<g fill="none" color="black" stroke="black" stroke-width="0.50" stroke-linecap="butt" stroke-linejoin="miter">
</g>
<g fill="none" color="gray" stroke="currentColor" stroke-width="0.50" stroke-linecap="butt" stroke-linejoin="miter">
	<path stroke='gray' stroke-dasharray='2,4' class="gridline"  d='M425.0,224.4 L425.0,18.1  '/></g>
<g fill="none" color="gray" stroke="gray" stroke-width="1.00" stroke-linecap="butt" stroke-linejoin="miter">
</g>
<g fill="none" color="black" stroke="currentColor" stroke-width="1.00" stroke-linecap="butt" stroke-linejoin="miter">
	<path stroke='black'  d='M425.0,224.4 L425.0,215.4  '/>	<g transform="translate(425.0,246.3)" stroke="none" fill="black" font-family="Helvetica" font-size="12.00"  text-anchor="middle">
		<text><tspan font-family="Helvetica" > 180</tspan></text>
	</g>
</g>
<g fill="none" color="black" stroke="currentColor" stroke-width="1.00" stroke-linecap="butt" stroke-linejoin="miter">
</g>
<g fill="none" color="black" stroke="currentColor" stroke-width="1.00" stroke-linecap="butt" stroke-linejoin="miter">
	<path stroke='black'  d='M71.9,18.1 L71.9,224.4 L425.0,224.4 L425.0,18.1 L71.9,18.1 Z  '/></g>
<g fill="none" color="black" stroke="currentColor" stroke-width="1.00" stroke-linecap="butt" stroke-linejoin="miter">
	<g transform="translate(19.0,121.3) rotate(270)" stroke="none" fill="black" font-family="Helvetica" font-size="12.00"  text-anchor="middle">
		<text><tspan font-family="Helvetica" >Total sample time (ms)</tspan></text>
	</g>
</g>
<g fill="none" color="black" stroke="currentColor" stroke-width="1.00" stroke-linecap="butt" stroke-linejoin="miter">
	<g transform="translate(248.4,273.3)" stroke="none" fill="black" font-family="Helvetica" font-size="12.00"  text-anchor="middle">
		<text><tspan font-family="Helvetica" >Iterations (x 10</tspan><tspan font-family="Helvetica"  font-size="9.6" dy="-6.00px">3</tspan><tspan font-family="Helvetica"  font-size="12.0" dy="6.00px">)</tspan></text>
	</g>
</g>
<g fill="none" color="black" stroke="currentColor" stroke-width="1.00" stroke-linecap="butt" stroke-linejoin="miter">
</g>
	<g id="gnuplot_plot_1" ><title>Sample</title>
<g fill="none" color="black" stroke="currentColor" stroke-width="1.00" stroke-linecap="butt" stroke-linejoin="miter">
	<use xlink:href='#gpPt6' transform='translate(75.3,222.3) scale(2.25)' color='rgb( 31, 120, 180)'/>
	<use xlink:href='#gpPt6' transform='translate(78.6,220.3) scale(2.25)' color='rgb( 31, 120, 180)'/>
	<use xlink:href='#gpPt6' transform='translate(82.0,218.3) scale(2.25)' color='rgb( 31, 120, 180)'/>
	<use xlink:href='#gpPt6' transform='translate(85.3,216.1) scale(2.25)' color='rgb( 31, 120, 180)'/>
	<use xlink:href='#gpPt6' transform='translate(88.7,214.2) scale(2.25)' color='rgb( 31, 120, 180)'/>
	<use xlink:href='#gpPt6' transform='translate(92.0,212.0) scale(2.25)' color='rgb( 31, 120, 180)'/>
	<use xlink:href='#gpPt6' transform='translate(95.4,210.0) scale(2.25)' color='rgb( 31, 120, 180)'/>
	<use xlink:href='#gpPt6' transform='translate(98.8,207.9) scale(2.25)' color='rgb( 31, 120, 180)'/>
	<use xlink:href='#gpPt6' transform='translate(102.1,205.8) scale(2.25)' color='rgb( 31, 120, 180)'/>
	<use xlink:href='#gpPt6' transform='translate(105.5,203.8) scale(2.25)' color='rgb( 31, 120, 180)'/>
	<use xlink:href='#gpPt6' transform='translate(108.8,201.7) scale(2.25)' color='rgb( 31, 120, 180)'/>
	<use xlink:href='#gpPt6' transform='translate(112.2,199.8) scale(2.25)' color='rgb( 31, 120, 180)'/>
	<use xlink:href='#gpPt6' transform='translate(115.5,197.8) scale(2.25)' color='rgb( 31, 120, 180)'/>
	<use xlink:href='#gpPt6' transform='translate(118.9,195.6) scale(2.25)' color='rgb( 31, 120, 180)'/>
	<use xlink:href='#gpPt6' transform='translate(122.2,193.6) scale(2.25)' color='rgb( 31, 120, 180)'/>
	<use xlink:href='#gpPt6' transform='translate(125.6,191.7) scale(2.25)' color='rgb( 31, 120, 180)'/>
	<use xlink:href='#gpPt6' transform='translate(129.0,189.5) scale(2.25)' color='rgb( 31, 120, 180)'/>
	<use xlink:href='#gpPt6' transform='translate(132.3,187.3) scale(2.25)' color='rgb( 31, 120, 180)'/>
	<use xlink:href='#gpPt6' transform='translate(135.7,185.5) scale(2.25)' color='rgb( 31, 120, 180)'/>
	<use xlink:href='#gpPt6' transform='translate(139.0,183.5) scale(2.25)' color='rgb( 31, 120, 180)'/>
	<use xlink:href='#gpPt6' transform='translate(142.4,181.4) scale(2.25)' color='rgb( 31, 120, 180)'/>
	<use xlink:href='#gpPt6' transform='translate(145.7,179.3) scale(2.25)' color='rgb( 31, 120, 180)'/>
	<use xlink:href='#gpPt6' transform='translate(149.1,177.2) scale(2.25)' color='rgb( 31, 120, 180)'/>
	<use xlink:href='#gpPt6' transform='translate(152.5,175.3) scale(2.25)' color='rgb( 31, 120, 180)'/>
	<use xlink:href='#gpPt6' transform='translate(155.8,173.1) scale(2.25)' color='rgb( 31, 120, 180)'/>
	<use xlink:href='#gpPt6' transform='translate(159.2,171.0) scale(2.25)' color='rgb( 31, 120, 180)'/>
	<use xlink:href='#gpPt6' transform='translate(162.5,169.0) scale(2.25)' color='rgb( 31, 120, 180)'/>
	<use xlink:href='#gpPt6' transform='translate(165.9,167.1) scale(2.25)' color='rgb( 31, 120, 180)'/>
	<use xlink:href='#gpPt6' transform='translate(169.2,164.8) scale(2.25)' color='rgb( 31, 120, 180)'/>
	<use xlink:href='#gpPt6' transform='translate(172.6,162.9) scale(2.25)' color='rgb( 31, 120, 180)'/>
	<use xlink:href='#gpPt6' transform='translate(175.9,160.9) scale(2.25)' color='rgb( 31, 120, 180)'/>
	<use xlink:href='#gpPt6' transform='translate(179.3,158.7) scale(2.25)' color='rgb( 31, 120, 180)'/>
	<use xlink:href='#gpPt6' transform='translate(182.7,156.7) scale(2.25)' color='rgb( 31, 120, 180)'/>
	<use xlink:href='#gpPt6' transform='translate(186.0,154.6) scale(2.25)' color='rgb( 31, 120, 180)'/>
	<use xlink:href='#gpPt6' transform='translate(189.4,152.6) scale(2.25)' color='rgb( 31, 120, 180)'/>
	<use xlink:href='#gpPt6' transform='translate(192.7,150.5) scale(2.25)' color='rgb( 31, 120, 180)'/>
	<use xlink:href='#gpPt6' transform='translate(196.1,148.4) scale(2.25)' color='rgb( 31, 120, 180)'/>
	<use xlink:href='#gpPt6' transform='translate(199.4,146.5) scale(2.25)' color='rgb( 31, 120, 180)'/>
	<use xlink:href='#gpPt6' transform='translate(202.8,144.4) scale(2.25)' color='rgb( 31, 120, 180)'/>
	<use xlink:href='#gpPt6' transform='translate(206.2,142.3) scale(2.25)' color='rgb( 31, 120, 180)'/>
	<use xlink:href='#gpPt6' transform='translate(209.5,140.3) scale(2.25)' color='rgb( 31, 120, 180)'/>
	<use xlink:href='#gpPt6' transform='translate(212.9,138.1) scale(2.25)' color='rgb( 31, 120, 180)'/>
	<use xlink:href='#gpPt6' transform='translate(216.2,136.4) scale(2.25)' color='rgb( 31, 120, 180)'/>
	<use xlink:href='#gpPt6' transform='translate(219.6,134.2) scale(2.25)' color='rgb( 31, 120, 180)'/>
	<use xlink:href='#gpPt6' transform='translate(222.9,132.1) scale(2.25)' color='rgb( 31, 120, 180)'/>
	<use xlink:href='#gpPt6' transform='translate(226.3,130.0) scale(2.25)' color='rgb( 31, 120, 180)'/>
	<use xlink:href='#gpPt6' transform='translate(229.7,128.0) scale(2.25)' color='rgb( 31, 120, 180)'/>
	<use xlink:href='#gpPt6' transform='translate(233.0,125.8) scale(2.25)' color='rgb( 31, 120, 180)'/>
	<use xlink:href='#gpPt6' transform='translate(236.4,123.7) scale(2.25)' color='rgb( 31, 120, 180)'/>
	<use xlink:href='#gpPt6' transform='translate(239.7,121.8) scale(2.25)' color='rgb( 31, 120, 180)'/>
	<use xlink:href='#gpPt6' transform='translate(243.1,119.7) scale(2.25)' color='rgb( 31, 120, 180)'/>
	<use xlink:href='#gpPt6' transform='translate(246.4,117.8) scale(2.25)' color='rgb( 31, 120, 180)'/>
	<use xlink:href='#gpPt6' transform='translate(249.8,115.6) scale(2.25)' color='rgb( 31, 120, 180)'/>
	<use xlink:href='#gpPt6' transform='translate(253.1,113.8) scale(2.25)' color='rgb( 31, 120, 180)'/>
	<use xlink:href='#gpPt6' transform='translate(256.5,111.6) scale(2.25)' color='rgb( 31, 120, 180)'/>
	<use xlink:href='#gpPt6' transform='translate(259.9,109.5) scale(2.25)' color='rgb( 31, 120, 180)'/>
	<use xlink:href='#gpPt6' transform='translate(263.2,107.6) scale(2.25)' color='rgb( 31, 120, 180)'/>
	<use xlink:href='#gpPt6' transform='translate(266.6,105.2) scale(2.25)' color='rgb( 31, 120, 180)'/>
	<use xlink:href='#gpPt6' transform='translate(269.9,103.4) scale(2.25)' color='rgb( 31, 120, 180)'/>
	<use xlink:href='#gpPt6' transform='translate(273.3,101.2) scale(2.25)' color='rgb( 31, 120, 180)'/>
	<use xlink:href='#gpPt6' transform='translate(276.6,99.5) scale(2.25)' color='rgb( 31, 120, 180)'/>
	<use xlink:href='#gpPt6' transform='translate(280.0,97.3) scale(2.25)' color='rgb( 31, 120, 180)'/>
	<use xlink:href='#gpPt6' transform='translate(283.4,95.2) scale(2.25)' color='rgb( 31, 120, 180)'/>
	<use xlink:href='#gpPt6' transform='translate(286.7,93.2) scale(2.25)' color='rgb( 31, 120, 180)'/>
	<use xlink:href='#gpPt6' transform='translate(290.1,91.4) scale(2.25)' color='rgb( 31, 120, 180)'/>
	<use xlink:href='#gpPt6' transform='translate(293.4,88.9) scale(2.25)' color='rgb( 31, 120, 180)'/>
	<use xlink:href='#gpPt6' transform='translate(296.8,86.8) scale(2.25)' color='rgb( 31, 120, 180)'/>
	<use xlink:href='#gpPt6' transform='translate(300.1,84.8) scale(2.25)' color='rgb( 31, 120, 180)'/>
	<use xlink:href='#gpPt6' transform='translate(303.5,82.6) scale(2.25)' color='rgb( 31, 120, 180)'/>
	<use xlink:href='#gpPt6' transform='translate(306.8,80.9) scale(2.25)' color='rgb( 31, 120, 180)'/>
	<use xlink:href='#gpPt6' transform='translate(310.2,78.8) scale(2.25)' color='rgb( 31, 120, 180)'/>
	<use xlink:href='#gpPt6' transform='translate(313.6,76.9) scale(2.25)' color='rgb( 31, 120, 180)'/>
	<use xlink:href='#gpPt6' transform='translate(316.9,74.7) scale(2.25)' color='rgb( 31, 120, 180)'/>
	<use xlink:href='#gpPt6' transform='translate(320.3,72.6) scale(2.25)' color='rgb( 31, 120, 180)'/>
	<use xlink:href='#gpPt6' transform='translate(323.6,70.6) scale(2.25)' color='rgb( 31, 120, 180)'/>
	<use xlink:href='#gpPt6' transform='translate(327.0,68.7) scale(2.25)' color='rgb( 31, 120, 180)'/>
	<use xlink:href='#gpPt6' transform='translate(330.3,66.3) scale(2.25)' color='rgb( 31, 120, 180)'/>
	<use xlink:href='#gpPt6' transform='translate(333.7,64.3) scale(2.25)' color='rgb( 31, 120, 180)'/>
	<use xlink:href='#gpPt6' transform='translate(337.1,62.5) scale(2.25)' color='rgb( 31, 120, 180)'/>
	<use xlink:href='#gpPt6' transform='translate(340.4,60.0) scale(2.25)' color='rgb( 31, 120, 180)'/>
	<use xlink:href='#gpPt6' transform='translate(343.8,58.3) scale(2.25)' color='rgb( 31, 120, 180)'/>
	<use xlink:href='#gpPt6' transform='translate(347.1,56.0) scale(2.25)' color='rgb( 31, 120, 180)'/>
	<use xlink:href='#gpPt6' transform='translate(350.5,54.4) scale(2.25)' color='rgb( 31, 120, 180)'/>
	<use xlink:href='#gpPt6' transform='translate(353.8,52.2) scale(2.25)' color='rgb( 31, 120, 180)'/>
	<use xlink:href='#gpPt6' transform='translate(357.2,49.8) scale(2.25)' color='rgb( 31, 120, 180)'/>
	<use xlink:href='#gpPt6' transform='translate(360.6,48.0) scale(2.25)' color='rgb( 31, 120, 180)'/>
	<use xlink:href='#gpPt6' transform='translate(363.9,45.9) scale(2.25)' color='rgb( 31, 120, 180)'/>
	<use xlink:href='#gpPt6' transform='translate(367.3,44.0) scale(2.25)' color='rgb( 31, 120, 180)'/>
	<use xlink:href='#gpPt6' transform='translate(370.6,41.7) scale(2.25)' color='rgb( 31, 120, 180)'/>
	<use xlink:href='#gpPt6' transform='translate(374.0,39.9) scale(2.25)' color='rgb( 31, 120, 180)'/>
	<use xlink:href='#gpPt6' transform='translate(377.3,37.7) scale(2.25)' color='rgb( 31, 120, 180)'/>
	<use xlink:href='#gpPt6' transform='translate(380.7,35.6) scale(2.25)' color='rgb( 31, 120, 180)'/>
	<use xlink:href='#gpPt6' transform='translate(384.0,33.6) scale(2.25)' color='rgb( 31, 120, 180)'/>
	<use xlink:href='#gpPt6' transform='translate(387.4,31.7) scale(2.25)' color='rgb( 31, 120, 180)'/>
	<use xlink:href='#gpPt6' transform='translate(390.8,29.6) scale(2.25)' color='rgb( 31, 120, 180)'/>
	<use xlink:href='#gpPt6' transform='translate(394.1,27.7) scale(2.25)' color='rgb( 31, 120, 180)'/>
	<use xlink:href='#gpPt6' transform='translate(397.5,25.5) scale(2.25)' color='rgb( 31, 120, 180)'/>
	<use xlink:href='#gpPt6' transform='translate(400.8,23.0) scale(2.25)' color='rgb( 31, 120, 180)'/>
	<use xlink:href='#gpPt6' transform='translate(404.2,20.3) scale(2.25)' color='rgb( 31, 120, 180)'/>
	<use xlink:href='#gpPt6' transform='translate(407.5,19.5) scale(2.25)' color='rgb( 31, 120, 180)'/>
</g>
	</g>
	<g id="gnuplot_plot_2" ><title>Linear regression</title>
<g fill="none" color="white" stroke="rgb( 31, 120, 180)" stroke-width="2.00" stroke-linecap="butt" stroke-linejoin="miter">
</g>
<g fill="none" color="black" stroke="currentColor" stroke-width="2.00" stroke-linecap="butt" stroke-linejoin="miter">
	<path stroke='rgb( 31, 120, 180)'  d='M71.9,224.4 L407.5,19.2  '/></g>
	</g>
	<g id="gnuplot_plot_3" ><title>Confidence interval</title>
<g fill="none" color="white" stroke="rgb( 31, 120, 180)" stroke-width="1.00" stroke-linecap="butt" stroke-linejoin="miter">
</g>
<g fill="none" color="black" stroke="currentColor" stroke-width="1.00" stroke-linecap="butt" stroke-linejoin="miter">
	<g stroke='none' shape-rendering='crispEdges'>
		<polygon fill = 'rgb( 31, 120, 180)' fill-opacity = '0.250000' points = '71.9,224.4 71.9,224.4 71.9,224.4 '/>
		<polygon fill = 'rgb( 31, 120, 180)' fill-opacity = '0.250000' points = '71.9,224.4 407.5,19.3 407.5,19.2 '/>
	</g>
</g>
	</g>
<g fill="none" color="white" stroke="rgb( 31, 120, 180)" stroke-width="2.00" stroke-linecap="butt" stroke-linejoin="miter">
</g>
<g fill="none" color="black" stroke="currentColor" stroke-width="2.00" stroke-linecap="butt" stroke-linejoin="miter">
</g>
<g fill="none" color="black" stroke="black" stroke-width="1.00" stroke-linecap="butt" stroke-linejoin="miter">
</g>
<g fill="none" color="black" stroke="currentColor" stroke-width="1.00" stroke-linecap="butt" stroke-linejoin="miter">
	<path stroke='black'  d='M71.9,18.1 L71.9,224.4 L425.0,224.4 L425.0,18.1 L71.9,18.1 Z  '/></g>
<g fill="none" color="black" stroke="currentColor" stroke-width="1.00" stroke-linecap="butt" stroke-linejoin="miter">
</g>
</g>
</svg>

