<?xml version="1.0" encoding="utf-8"  standalone="no"?>
<svg 
 viewBox="0 0 1280 720"
 xmlns="http://www.w3.org/2000/svg"
 xmlns:xlink="http://www.w3.org/1999/xlink"
>

<title>Gnuplot</title>
<desc>Produced by GNUPLOT 5.2 patchlevel 8 </desc>

<g id="gnuplot_canvas">

<rect x="0" y="0" width="1280" height="720" fill="none"/>
<defs>

	<circle id='gpDot' r='0.5' stroke-width='0.5' stroke='currentColor'/>
	<path id='gpPt0' stroke-width='0.222' stroke='currentColor' d='M-1,0 h2 M0,-1 v2'/>
	<path id='gpPt1' stroke-width='0.222' stroke='currentColor' d='M-1,-1 L1,1 M1,-1 L-1,1'/>
	<path id='gpPt2' stroke-width='0.222' stroke='currentColor' d='M-1,0 L1,0 M0,-1 L0,1 M-1,-1 L1,1 M-1,1 L1,-1'/>
	<rect id='gpPt3' stroke-width='0.222' stroke='currentColor' x='-1' y='-1' width='2' height='2'/>
	<rect id='gpPt4' stroke-width='0.222' stroke='currentColor' fill='currentColor' x='-1' y='-1' width='2' height='2'/>
	<circle id='gpPt5' stroke-width='0.222' stroke='currentColor' cx='0' cy='0' r='1'/>
	<use xlink:href='#gpPt5' id='gpPt6' fill='currentColor' stroke='none'/>
	<path id='gpPt7' stroke-width='0.222' stroke='currentColor' d='M0,-1.33 L-1.33,0.67 L1.33,0.67 z'/>
	<use xlink:href='#gpPt7' id='gpPt8' fill='currentColor' stroke='none'/>
	<use xlink:href='#gpPt7' id='gpPt9' stroke='currentColor' transform='rotate(180)'/>
	<use xlink:href='#gpPt9' id='gpPt10' fill='currentColor' stroke='none'/>
	<use xlink:href='#gpPt3' id='gpPt11' stroke='currentColor' transform='rotate(45)'/>
	<use xlink:href='#gpPt11' id='gpPt12' fill='currentColor' stroke='none'/>
	<path id='gpPt13' stroke-width='0.222' stroke='currentColor' d='M0,1.330 L1.265,0.411 L0.782,-1.067 L-0.782,-1.076 L-1.265,0.411 z'/>
	<use xlink:href='#gpPt13' id='gpPt14' fill='currentColor' stroke='none'/>
	<filter id='textbox' filterUnits='objectBoundingBox' x='0' y='0' height='1' width='1'>
	  <feFlood flood-color='white' flood-opacity='1' result='bgnd'/>
	  <feComposite in='SourceGraphic' in2='bgnd' operator='atop'/>
	</filter>
	<filter id='greybox' filterUnits='objectBoundingBox' x='0' y='0' height='1' width='1'>
	  <feFlood flood-color='lightgrey' flood-opacity='1' result='grey'/>
	  <feComposite in='SourceGraphic' in2='grey' operator='atop'/>
	</filter>
</defs>
<g fill="none" color="white" stroke="currentColor" stroke-width="1.00" stroke-linecap="butt" stroke-linejoin="miter">
</g>
<g fill="none" color="black" stroke="currentColor" stroke-width="1.00" stroke-linecap="butt" stroke-linejoin="miter">
	<path stroke='black'  d='M88.5,662.4 L97.5,662.4  '/>	<g transform="translate(80.2,666.3)" stroke="none" fill="black" font-family="Helvetica" font-size="12.00"  text-anchor="end">
		<text><tspan font-family="Helvetica" > 0</tspan></text>
	</g>
</g>
<g fill="none" color="black" stroke="currentColor" stroke-width="1.00" stroke-linecap="butt" stroke-linejoin="miter">
	<path stroke='black'  d='M88.5,594.8 L97.5,594.8  '/>	<g transform="translate(80.2,598.7)" stroke="none" fill="black" font-family="Helvetica" font-size="12.00"  text-anchor="end">
		<text><tspan font-family="Helvetica" > 2000</tspan></text>
	</g>
</g>
<g fill="none" color="black" stroke="currentColor" stroke-width="1.00" stroke-linecap="butt" stroke-linejoin="miter">
	<path stroke='black'  d='M88.5,527.2 L97.5,527.2  '/>	<g transform="translate(80.2,531.1)" stroke="none" fill="black" font-family="Helvetica" font-size="12.00"  text-anchor="end">
		<text><tspan font-family="Helvetica" > 4000</tspan></text>
	</g>
</g>
<g fill="none" color="black" stroke="currentColor" stroke-width="1.00" stroke-linecap="butt" stroke-linejoin="miter">
	<path stroke='black'  d='M88.5,459.6 L97.5,459.6  '/>	<g transform="translate(80.2,463.5)" stroke="none" fill="black" font-family="Helvetica" font-size="12.00"  text-anchor="end">
		<text><tspan font-family="Helvetica" > 6000</tspan></text>
	</g>
</g>
<g fill="none" color="black" stroke="currentColor" stroke-width="1.00" stroke-linecap="butt" stroke-linejoin="miter">
	<path stroke='black'  d='M88.5,392.0 L97.5,392.0  '/>	<g transform="translate(80.2,395.9)" stroke="none" fill="black" font-family="Helvetica" font-size="12.00"  text-anchor="end">
		<text><tspan font-family="Helvetica" > 8000</tspan></text>
	</g>
</g>
<g fill="none" color="black" stroke="currentColor" stroke-width="1.00" stroke-linecap="butt" stroke-linejoin="miter">
	<path stroke='black'  d='M88.5,324.5 L97.5,324.5  '/>	<g transform="translate(80.2,328.4)" stroke="none" fill="black" font-family="Helvetica" font-size="12.00"  text-anchor="end">
		<text><tspan font-family="Helvetica" > 10000</tspan></text>
	</g>
</g>
<g fill="none" color="black" stroke="currentColor" stroke-width="1.00" stroke-linecap="butt" stroke-linejoin="miter">
	<path stroke='black'  d='M88.5,256.9 L97.5,256.9  '/>	<g transform="translate(80.2,260.8)" stroke="none" fill="black" font-family="Helvetica" font-size="12.00"  text-anchor="end">
		<text><tspan font-family="Helvetica" > 12000</tspan></text>
	</g>
</g>
<g fill="none" color="black" stroke="currentColor" stroke-width="1.00" stroke-linecap="butt" stroke-linejoin="miter">
	<path stroke='black'  d='M88.5,189.3 L97.5,189.3  '/>	<g transform="translate(80.2,193.2)" stroke="none" fill="black" font-family="Helvetica" font-size="12.00"  text-anchor="end">
		<text><tspan font-family="Helvetica" > 14000</tspan></text>
	</g>
</g>
<g fill="none" color="black" stroke="currentColor" stroke-width="1.00" stroke-linecap="butt" stroke-linejoin="miter">
	<path stroke='black'  d='M88.5,121.7 L97.5,121.7  '/>	<g transform="translate(80.2,125.6)" stroke="none" fill="black" font-family="Helvetica" font-size="12.00"  text-anchor="end">
		<text><tspan font-family="Helvetica" > 16000</tspan></text>
	</g>
</g>
<g fill="none" color="black" stroke="currentColor" stroke-width="1.00" stroke-linecap="butt" stroke-linejoin="miter">
	<path stroke='black'  d='M88.5,54.1 L97.5,54.1  '/>	<g transform="translate(80.2,58.0)" stroke="none" fill="black" font-family="Helvetica" font-size="12.00"  text-anchor="end">
		<text><tspan font-family="Helvetica" > 18000</tspan></text>
	</g>
</g>
<g fill="none" color="black" stroke="currentColor" stroke-width="1.00" stroke-linecap="butt" stroke-linejoin="miter">
	<path stroke='black'  d='M111.6,662.4 L111.6,653.4  '/>	<g transform="translate(111.6,684.3)" stroke="none" fill="black" font-family="Helvetica" font-size="12.00"  text-anchor="middle">
		<text><tspan font-family="Helvetica" >-70.452</tspan></text>
	</g>
</g>
<g fill="none" color="black" stroke="currentColor" stroke-width="1.00" stroke-linecap="butt" stroke-linejoin="miter">
	<path stroke='black'  d='M239.0,662.4 L239.0,653.4  '/>	<g transform="translate(239.0,684.3)" stroke="none" fill="black" font-family="Helvetica" font-size="12.00"  text-anchor="middle">
		<text><tspan font-family="Helvetica" >-70.45</tspan></text>
	</g>
</g>
<g fill="none" color="black" stroke="currentColor" stroke-width="1.00" stroke-linecap="butt" stroke-linejoin="miter">
	<path stroke='black'  d='M366.5,662.4 L366.5,653.4  '/>	<g transform="translate(366.5,684.3)" stroke="none" fill="black" font-family="Helvetica" font-size="12.00"  text-anchor="middle">
		<text><tspan font-family="Helvetica" >-70.448</tspan></text>
	</g>
</g>
<g fill="none" color="black" stroke="currentColor" stroke-width="1.00" stroke-linecap="butt" stroke-linejoin="miter">
	<path stroke='black'  d='M493.9,662.4 L493.9,653.4  '/>	<g transform="translate(493.9,684.3)" stroke="none" fill="black" font-family="Helvetica" font-size="12.00"  text-anchor="middle">
		<text><tspan font-family="Helvetica" >-70.446</tspan></text>
	</g>
</g>
<g fill="none" color="black" stroke="currentColor" stroke-width="1.00" stroke-linecap="butt" stroke-linejoin="miter">
	<path stroke='black'  d='M621.3,662.4 L621.3,653.4  '/>	<g transform="translate(621.3,684.3)" stroke="none" fill="black" font-family="Helvetica" font-size="12.00"  text-anchor="middle">
		<text><tspan font-family="Helvetica" >-70.444</tspan></text>
	</g>
</g>
<g fill="none" color="black" stroke="currentColor" stroke-width="1.00" stroke-linecap="butt" stroke-linejoin="miter">
	<path stroke='black'  d='M748.8,662.4 L748.8,653.4  '/>	<g transform="translate(748.8,684.3)" stroke="none" fill="black" font-family="Helvetica" font-size="12.00"  text-anchor="middle">
		<text><tspan font-family="Helvetica" >-70.442</tspan></text>
	</g>
</g>
<g fill="none" color="black" stroke="currentColor" stroke-width="1.00" stroke-linecap="butt" stroke-linejoin="miter">
	<path stroke='black'  d='M876.2,662.4 L876.2,653.4  '/>	<g transform="translate(876.2,684.3)" stroke="none" fill="black" font-family="Helvetica" font-size="12.00"  text-anchor="middle">
		<text><tspan font-family="Helvetica" >-70.44</tspan></text>
	</g>
</g>
<g fill="none" color="black" stroke="currentColor" stroke-width="1.00" stroke-linecap="butt" stroke-linejoin="miter">
	<path stroke='black'  d='M1003.7,662.4 L1003.7,653.4  '/>	<g transform="translate(1003.7,684.3)" stroke="none" fill="black" font-family="Helvetica" font-size="12.00"  text-anchor="middle">
		<text><tspan font-family="Helvetica" >-70.438</tspan></text>
	</g>
</g>
<g fill="none" color="black" stroke="currentColor" stroke-width="1.00" stroke-linecap="butt" stroke-linejoin="miter">
</g>
<g fill="none" color="black" stroke="currentColor" stroke-width="1.00" stroke-linecap="butt" stroke-linejoin="miter">
	<path stroke='black'  d='M88.5,54.1 L88.5,662.4 L1013.6,662.4 L1013.6,54.1 L88.5,54.1 Z  '/></g>
<g fill="none" color="black" stroke="currentColor" stroke-width="1.00" stroke-linecap="butt" stroke-linejoin="miter">
	<g transform="translate(19.0,358.3) rotate(270)" stroke="none" fill="black" font-family="Helvetica" font-size="12.00"  text-anchor="middle">
		<text><tspan font-family="Helvetica" >Density (a.u.)</tspan></text>
	</g>
</g>
<g fill="none" color="black" stroke="currentColor" stroke-width="1.00" stroke-linecap="butt" stroke-linejoin="miter">
	<g transform="translate(551.0,711.3)" stroke="none" fill="black" font-family="Helvetica" font-size="12.00"  text-anchor="middle">
		<text><tspan font-family="Helvetica" >Relative change (%)</tspan></text>
	</g>
</g>
<g fill="none" color="black" stroke="currentColor" stroke-width="1.00" stroke-linecap="butt" stroke-linejoin="miter">
	<g transform="translate(551.0,31.0)" stroke="none" fill="black" font-family="Helvetica" font-size="12.00"  text-anchor="middle">
		<text><tspan font-family="Helvetica" >bench_group/blake3/32768: median</tspan></text>
	</g>
</g>
<g fill="none" color="black" stroke="currentColor" stroke-width="1.00" stroke-linecap="butt" stroke-linejoin="miter">
</g>
	<g id="gnuplot_plot_1" ><title>Bootstrap distribution</title>
<g fill="none" color="white" stroke="currentColor" stroke-width="2.00" stroke-linecap="butt" stroke-linejoin="miter">
</g>
<g fill="none" color="black" stroke="currentColor" stroke-width="2.00" stroke-linecap="butt" stroke-linejoin="miter">
	<g transform="translate(1089.0,67.0)" stroke="none" fill="black" font-family="Helvetica" font-size="12.00"  text-anchor="start">
		<text><tspan font-family="Helvetica" >Bootstrap distribution</tspan></text>
	</g>
</g>
<g fill="none" color="black" stroke="currentColor" stroke-width="2.00" stroke-linecap="butt" stroke-linejoin="miter">
	<path stroke='rgb( 31, 120, 180)'  d='M1038.5,63.1 L1080.7,63.1 M88.5,644.7 L90.4,644.4 L92.2,644.1 L94.1,643.8 L95.9,643.4 L97.8,643.0
		L99.6,642.6 L101.5,642.1 L103.3,641.6 L105.2,641.0 L107.0,640.4 L108.9,639.8 L110.7,639.2 L112.6,638.5
		L114.5,637.9 L116.3,637.2 L118.2,636.5 L120.0,635.8 L121.9,635.0 L123.7,634.3 L125.6,633.6 L127.4,632.9
		L129.3,632.2 L131.1,631.5 L133.0,630.8 L134.8,630.2 L136.7,629.5 L138.6,628.9 L140.4,628.2 L142.3,627.6
		L144.1,627.0 L146.0,626.4 L147.8,625.8 L149.7,625.2 L151.5,624.6 L153.4,624.0 L155.2,623.3 L157.1,622.7
		L158.9,622.1 L160.8,621.4 L162.7,620.7 L164.5,620.0 L166.4,619.2 L168.2,618.4 L170.1,617.6 L171.9,616.7
		L173.8,615.8 L175.6,614.8 L177.5,613.8 L179.3,612.7 L181.2,611.6 L183.0,610.4 L184.9,609.2 L186.8,607.9
		L188.6,606.6 L190.5,605.2 L192.3,603.8 L194.2,602.3 L196.0,600.9 L197.9,599.4 L199.7,597.9 L201.6,596.4
		L203.4,594.8 L205.3,593.3 L207.2,591.8 L209.0,590.3 L210.9,588.8 L212.7,587.3 L214.6,585.8 L216.4,584.3
		L218.3,582.8 L220.1,581.4 L222.0,579.9 L223.8,578.4 L225.7,576.9 L227.5,575.4 L229.4,573.8 L231.3,572.2
		L233.1,570.6 L235.0,568.9 L236.8,567.2 L238.7,565.4 L240.5,563.6 L242.4,561.7 L244.2,559.8 L246.1,557.8
		L247.9,555.7 L249.8,553.7 L251.6,551.5 L253.5,549.4 L255.4,547.2 L257.2,545.0 L259.1,542.7 L260.9,540.5
		L262.8,538.2 L264.6,535.8 L266.5,533.4 L268.3,531.0 L270.2,528.5 L272.0,525.9 L273.9,523.3 L275.7,520.6
		L277.6,517.8 L279.5,514.9 L281.3,511.9 L283.2,508.8 L285.0,505.5 L286.9,502.2 L288.7,498.8 L290.6,495.2
		L292.4,491.5 L294.3,487.7 L296.1,483.8 L298.0,479.8 L299.8,475.6 L301.7,471.4 L303.6,467.0 L305.4,462.5
		L307.3,458.0 L309.1,453.3 L311.0,448.5 L312.8,443.6 L314.7,438.7 L316.5,433.7 L318.4,428.6 L320.2,423.4
		L322.1,418.2 L323.9,413.0 L325.8,407.8 L327.7,402.6 L329.5,397.5 L331.4,392.4 L333.2,387.4 L335.1,382.6
		L336.9,377.9 L338.8,373.4 L340.6,369.0 L342.5,365.0 L344.3,361.1 L346.2,357.6 L348.0,354.4 L349.9,351.4
		L351.8,348.8 L353.6,346.4 L355.5,344.4 L357.3,342.7 L359.2,341.2 L361.0,340.1 L362.9,339.2 L364.7,338.5
		L366.6,338.0 L368.4,337.7 L370.3,337.5 L372.1,337.5 L374.0,337.5 L375.9,337.6 L377.7,337.8 L379.6,338.0
		L381.4,338.3 L383.3,338.5 L385.1,338.7 L387.0,339.0 L388.8,339.2 L390.7,339.4 L392.5,339.7 L394.4,340.0
		L396.2,340.2 L398.1,340.5 L400.0,340.9 L401.8,341.2 L403.7,341.6 L405.5,342.1 L407.4,342.5 L409.2,343.0
		L411.1,343.4 L412.9,343.9 L414.8,344.3 L416.6,344.6 L418.5,344.9 L420.3,345.0 L422.2,345.0 L424.1,344.9
		L425.9,344.5 L427.8,344.0 L429.6,343.3 L431.5,342.3 L433.3,341.2 L435.2,339.8 L437.0,338.2 L438.9,336.4
		L440.7,334.4 L442.6,332.3 L444.5,330.1 L446.3,327.8 L448.2,325.4 L450.0,323.0 L451.9,320.6 L453.7,318.2
		L455.6,315.9 L457.4,313.8 L459.3,311.7 L461.1,309.8 L463.0,308.0 L464.8,306.5 L466.7,305.0 L468.6,303.7
		L470.4,302.6 L472.3,301.5 L474.1,300.6 L476.0,299.7 L477.8,298.8 L479.7,298.0 L481.5,297.1 L483.4,296.2
		L485.2,295.2 L487.1,294.0 L488.9,292.8 L490.8,291.3 L492.7,289.7 L494.5,287.9 L496.4,285.9 L498.2,283.6
		L500.1,281.2 L501.9,278.5 L503.8,275.6 L505.6,272.6 L507.5,269.3 L509.3,265.9 L511.2,262.3 L513.0,258.6
		L514.9,254.8 L516.8,250.9 L518.6,246.9 L520.5,242.9 L522.3,238.9 L524.2,234.9 L526.0,231.0 L527.9,227.1
		L529.7,223.4 L531.6,219.7 L533.4,216.2 L535.3,212.9 L537.1,209.7 L539.0,206.6 L540.9,203.8 L542.7,201.1
		L544.6,198.6 L546.4,196.3 L548.3,194.0 L550.1,192.0 L552.0,190.0 L553.8,188.1 L555.7,186.3 L557.5,184.6
		L559.4,182.8 L561.2,181.1 L563.1,179.4 L565.0,177.7 L566.8,176.0 L568.7,174.2 L570.5,172.4 L572.4,170.5
		L574.2,168.7 L576.1,166.8 L577.9,164.8 L579.8,162.9 L581.6,160.9 L583.5,158.9 L585.3,156.8 L587.2,154.7
		L589.1,152.6 L590.9,150.5 L592.8,148.3 L594.6,146.0 L596.5,143.7 L598.3,141.3 L600.2,138.8 L602.0,136.1
		L603.9,133.4 L605.7,130.5 L607.6,127.6 L609.4,124.5 L611.3,121.4 L613.2,118.2 L615.0,114.9 L616.9,111.7
		L618.7,108.6 L620.6,105.5 L622.4,102.6 L624.3,99.9 L626.1,97.4 L628.0,95.2 L629.8,93.3 L631.7,91.9
		L633.5,90.8 L635.4,90.3 L637.3,90.2 L639.1,90.6 L641.0,91.6 L642.8,93.1 L644.7,95.1 L646.5,97.7
		L648.4,100.7 L650.2,104.3 L652.1,108.3 L653.9,112.7 L655.8,117.5 L657.6,122.7 L659.5,128.3 L661.4,134.1
		L663.2,140.1 L665.1,146.4 L666.9,152.8 L668.8,159.4 L670.6,166.2 L672.5,173.0 L674.3,180.0 L676.2,187.0
		L678.0,194.0 L679.9,201.2 L681.8,208.3 L683.6,215.5 L685.5,222.7 L687.3,230.0 L689.2,237.2 L691.0,244.4
		L692.9,251.5 L694.7,258.7 L696.6,265.7 L698.4,272.7 L700.3,279.6 L702.1,286.3 L704.0,292.9 L705.9,299.4
		L707.7,305.6 L709.6,311.7 L711.4,317.6 L713.3,323.3 L715.1,328.9 L717.0,334.2 L718.8,339.4 L720.7,344.4
		L722.5,349.2 L724.4,354.0 L726.2,358.6 L728.1,363.2 L730.0,367.6 L731.8,372.1 L733.7,376.5 L735.5,381.0
		L737.4,385.4 L739.2,389.9 L741.1,394.5 L742.9,399.1 L744.8,403.8 L746.6,408.6 L748.5,413.4 L750.3,418.4
		L752.2,423.4 L754.1,428.5 L755.9,433.7 L757.8,438.9 L759.6,444.2 L761.5,449.6 L763.3,455.0 L765.2,460.4
		L767.0,465.9 L768.9,471.3 L770.7,476.8 L772.6,482.2 L774.4,487.6 L776.3,493.0 L778.2,498.4 L780.0,503.6
		L781.9,508.8 L783.7,514.0 L785.6,519.0 L787.4,523.9 L789.3,528.7 L791.1,533.3 L793.0,537.8 L794.8,542.2
		L796.7,546.4 L798.5,550.4 L800.4,554.3 L802.3,557.9 L804.1,561.4 L806.0,564.8 L807.8,567.9 L809.7,570.9
		L811.5,573.7 L813.4,576.4 L815.2,578.9 L817.1,581.3 L818.9,583.6 L820.8,585.8 L822.6,587.8 L824.5,589.8
		L826.4,591.7 L828.2,593.5 L830.1,595.3 L831.9,596.9 L833.8,598.6 L835.6,600.1 L837.5,601.7 L839.3,603.1
		L841.2,604.5 L843.0,605.9 L844.9,607.2 L846.7,608.5 L848.6,609.8 L850.5,610.9 L852.3,612.1 L854.2,613.2
		L856.0,614.3 L857.9,615.3 L859.7,616.3 L861.6,617.2 L863.4,618.1 L865.3,619.0 L867.1,619.9 L869.0,620.7
		L870.8,621.5 L872.7,622.3 L874.6,623.0 L876.4,623.7 L878.3,624.4 L880.1,625.0 L882.0,625.7 L883.8,626.3
		L885.7,626.9 L887.5,627.4 L889.4,627.9 L891.2,628.4 L893.1,628.9 L894.9,629.3 L896.8,629.7 L898.7,630.1
		L900.5,630.4 L902.4,630.7 L904.2,631.0 L906.1,631.3 L907.9,631.5 L909.8,631.7 L911.6,631.9 L913.5,632.1
		L915.3,632.2 L917.2,632.3 L919.1,632.4 L920.9,632.4 L922.8,632.5 L924.6,632.5 L926.5,632.5 L928.3,632.5
		L930.2,632.5 L932.0,632.4 L933.9,632.4 L935.7,632.3 L937.6,632.3 L939.4,632.2 L941.3,632.1 L943.2,632.0
		L945.0,632.0 L946.9,631.9 L948.7,631.8 L950.6,631.8 L952.4,631.8 L954.3,631.8 L956.1,631.8 L958.0,631.8
		L959.8,631.8 L961.7,631.9 L963.5,631.9 L965.4,632.0 L967.3,632.2 L969.1,632.3 L971.0,632.4 L972.8,632.6
		L974.7,632.8 L976.5,633.0 L978.4,633.2 L980.2,633.4 L982.1,633.6 L983.9,633.8 L985.8,634.0 L987.6,634.1
		L989.5,634.3 L991.4,634.5 L993.2,634.7 L995.1,634.8 L996.9,635.0 L998.8,635.1 L1000.6,635.2 L1002.5,635.3
		L1004.3,635.5 L1006.2,635.6 L1008.0,635.7 L1009.9,635.8 L1011.7,635.9 L1013.6,636.0  '/></g>
	</g>
	<g id="gnuplot_plot_2" ><title>Confidence interval</title>
<g fill="none" color="white" stroke="rgb( 31, 120, 180)" stroke-width="1.00" stroke-linecap="butt" stroke-linejoin="miter">
</g>
<g fill="none" color="black" stroke="currentColor" stroke-width="1.00" stroke-linecap="butt" stroke-linejoin="miter">
	<g transform="translate(1089.0,85.0)" stroke="none" fill="black" font-family="Helvetica" font-size="12.00"  text-anchor="start">
		<text><tspan font-family="Helvetica" >Confidence interval</tspan></text>
	</g>
</g>
<g fill="none" color="black" stroke="currentColor" stroke-width="1.00" stroke-linecap="butt" stroke-linejoin="miter">
	<g stroke='none' shape-rendering='crispEdges'>
		<polygon fill = 'rgb( 31, 120, 180)' fill-opacity = '0.250000' points = '1038.5,85.6 1080.7,85.6 1080.7,76.6 1038.5,76.6 '/>
		<polygon fill = 'rgb( 31, 120, 180)' fill-opacity = '0.250000' points = '173.8,615.8 175.6,614.8 177.5,613.8 179.3,612.7 181.2,611.6 183.0,610.4 184.9,609.2 186.8,607.9 188.6,606.6 190.5,605.2 192.3,603.8 194.2,602.3 196.0,600.9 197.9,599.4 199.7,597.9 201.6,596.4
203.4,594.8 205.3,593.3 207.2,591.8 209.0,590.3 210.9,588.8 212.7,587.3 214.6,585.8 216.4,584.3 218.3,582.8 220.1,581.4 222.0,579.9 223.8,578.4 225.7,576.9 227.5,575.4 229.4,573.8 231.3,572.2
233.1,570.6 235.0,568.9 236.8,567.2 238.7,565.4 240.5,563.6 242.4,561.7 244.2,559.8 246.1,557.8 247.9,555.7 249.8,553.7 251.6,551.5 253.5,549.4 255.4,547.2 257.2,545.0 259.1,542.7 260.9,540.5
262.8,538.2 264.6,535.8 266.5,533.4 268.3,531.0 270.2,528.5 272.0,525.9 273.9,523.3 275.7,520.6 277.6,517.8 279.5,514.9 281.3,511.9 283.2,508.8 285.0,505.5 286.9,502.2 288.7,498.8 290.6,495.2
292.4,491.5 294.3,487.7 296.1,483.8 298.0,479.8 299.8,475.6 301.7,471.4 303.6,467.0 305.4,462.5 307.3,458.0 309.1,453.3 311.0,448.5 312.8,443.6 314.7,438.7 316.5,433.7 318.4,428.6 320.2,423.4
322.1,418.2 323.9,413.0 325.8,407.8 327.7,402.6 329.5,397.5 331.4,392.4 333.2,387.4 335.1,382.6 336.9,377.9 338.8,373.4 340.6,369.0 342.5,365.0 344.3,361.1 346.2,357.6 348.0,354.4 349.9,351.4
351.8,348.8 353.6,346.4 355.5,344.4 357.3,342.7 359.2,341.2 361.0,340.1 362.9,339.2 364.7,338.5 366.6,338.0 368.4,337.7 370.3,337.5 372.1,337.5 374.0,337.5 375.9,337.6 377.7,337.8 379.6,338.0
381.4,338.3 383.3,338.5 385.1,338.7 387.0,339.0 388.8,339.2 390.7,339.4 392.5,339.7 394.4,340.0 396.2,340.2 398.1,340.5 400.0,340.9 401.8,341.2 403.7,341.6 405.5,342.1 407.4,342.5 409.2,343.0
411.1,343.4 412.9,343.9 414.8,344.3 416.6,344.6 418.5,344.9 420.3,345.0 422.2,345.0 424.1,344.9 425.9,344.5 427.8,344.0 429.6,343.3 431.5,342.3 433.3,341.2 435.2,339.8 437.0,338.2 438.9,336.4
440.7,334.4 442.6,332.3 444.5,330.1 446.3,327.8 448.2,325.4 450.0,323.0 451.9,320.6 453.7,318.2 455.6,315.9 457.4,313.8 459.3,311.7 461.1,309.8 463.0,308.0 464.8,306.5 466.7,305.0 468.6,303.7
470.4,302.6 472.3,301.5 474.1,300.6 476.0,299.7 477.8,298.8 479.7,298.0 481.5,297.1 483.4,296.2 485.2,295.2 487.1,294.0 488.9,292.8 490.8,291.3 492.7,289.7 494.5,287.9 496.4,285.9 498.2,283.6
500.1,281.2 501.9,278.5 503.8,275.6 505.6,272.6 507.5,269.3 509.3,265.9 511.2,262.3 513.0,258.6 514.9,254.8 516.8,250.9 518.6,246.9 520.5,242.9 522.3,238.9 524.2,234.9 526.0,231.0 527.9,227.1
529.7,223.4 531.6,219.7 533.4,216.2 535.3,212.9 537.1,209.7 539.0,206.6 540.9,203.8 542.7,201.1 544.6,198.6 546.4,196.3 548.3,194.0 550.1,192.0 552.0,190.0 553.8,188.1 555.7,186.3 557.5,184.6
559.4,182.8 561.2,181.1 563.1,179.4 565.0,177.7 566.8,176.0 568.7,174.2 570.5,172.4 572.4,170.5 574.2,168.7 576.1,166.8 577.9,164.8 579.8,162.9 581.6,160.9 583.5,158.9 585.3,156.8 587.2,154.7
589.1,152.6 590.9,150.5 592.8,148.3 594.6,146.0 596.5,143.7 598.3,141.3 600.2,138.8 602.0,136.1 603.9,133.4 605.7,130.5 607.6,127.6 609.4,124.5 611.3,121.4 613.2,118.2 615.0,114.9 616.9,111.7
618.7,108.6 620.6,105.5 622.4,102.6 624.3,99.9 626.1,97.4 628.0,95.2 629.8,93.3 631.7,91.9 633.5,90.8 635.4,90.3 637.3,90.2 639.1,90.6 641.0,91.6 642.8,93.1 644.7,95.1 646.5,97.7
648.4,100.7 650.2,104.3 652.1,108.3 653.9,112.7 655.8,117.5 657.6,122.7 659.5,128.3 661.4,134.1 663.2,140.1 665.1,146.4 666.9,152.8 668.8,159.4 670.6,166.2 672.5,173.0 674.3,180.0 676.2,187.0
678.0,194.0 679.9,201.2 681.8,208.3 683.6,215.5 685.5,222.7 687.3,230.0 689.2,237.2 691.0,244.4 692.9,251.5 694.7,258.7 696.6,265.7 698.4,272.7 700.3,279.6 702.1,286.3 704.0,292.9 705.9,299.4
707.7,305.6 709.6,311.7 711.4,317.6 713.3,323.3 715.1,328.9 717.0,334.2 718.8,339.4 720.7,344.4 722.5,349.2 724.4,354.0 726.2,358.6 728.1,363.2 730.0,367.6 731.8,372.1 733.7,376.5 735.5,381.0
737.4,385.4 739.2,389.9 741.1,394.5 742.9,399.1 744.8,403.8 746.6,408.6 748.5,413.4 750.3,418.4 752.2,423.4 754.1,428.5 755.9,433.7 757.8,438.9 759.6,444.2 761.5,449.6 763.3,455.0 765.2,460.4
767.0,465.9 768.9,471.3 770.7,476.8 772.6,482.2 774.4,487.6 776.3,493.0 778.2,498.4 780.0,503.6 781.9,508.8 783.7,514.0 785.6,519.0 787.4,523.9 789.3,528.7 791.1,533.3 793.0,537.8 794.8,542.2
796.7,546.4 798.5,550.4 800.4,554.3 802.3,557.9 804.1,561.4 806.0,564.8 807.8,567.9 809.7,570.9 811.5,573.7 813.4,576.4 815.2,578.9 817.1,581.3 818.9,583.6 820.8,585.8 822.6,587.8 824.5,589.8
826.4,591.7 828.2,593.5 830.1,595.3 831.9,596.9 833.8,598.6 835.6,600.1 837.5,601.7 839.3,603.1 841.2,604.5 843.0,605.9 844.9,607.2 846.7,608.5 848.6,609.8 850.5,610.9 852.3,612.1 854.2,613.2
856.0,614.3 857.9,615.3 859.7,616.3 861.6,617.2 863.4,618.1 865.3,619.0 867.1,619.9 869.0,620.7 870.8,621.5 872.7,622.3 874.6,623.0 876.4,623.7 878.3,624.4 880.1,625.0 882.0,625.7 883.8,626.3
885.7,626.9 887.5,627.4 889.4,627.9 891.2,628.4 893.1,628.9 894.9,629.3 896.8,629.7 898.7,630.1 900.5,630.4 902.4,630.7 904.2,631.0 906.1,631.3 907.9,631.5 909.8,631.7 911.6,631.9 913.5,632.1
915.3,632.2 917.2,632.3 919.1,632.4 920.9,632.4 922.8,632.5 924.6,632.5 926.5,632.5 926.5,662.4 924.6,662.4 922.8,662.4 920.9,662.4 919.1,662.4 917.2,662.4 915.3,662.4 913.5,662.4 911.6,662.4
909.8,662.4 907.9,662.4 906.1,662.4 904.2,662.4 902.4,662.4 900.5,662.4 898.7,662.4 896.8,662.4 894.9,662.4 893.1,662.4 891.2,662.4 889.4,662.4 887.5,662.4 885.7,662.4 883.8,662.4 882.0,662.4
880.1,662.4 878.3,662.4 876.4,662.4 874.6,662.4 872.7,662.4 870.8,662.4 869.0,662.4 867.1,662.4 865.3,662.4 863.4,662.4 861.6,662.4 859.7,662.4 857.9,662.4 856.0,662.4 854.2,662.4 852.3,662.4
850.5,662.4 848.6,662.4 846.7,662.4 844.9,662.4 843.0,662.4 841.2,662.4 839.3,662.4 837.5,662.4 835.6,662.4 833.8,662.4 831.9,662.4 830.1,662.4 828.2,662.4 826.4,662.4 824.5,662.4 822.6,662.4
820.8,662.4 818.9,662.4 817.1,662.4 815.2,662.4 813.4,662.4 811.5,662.4 809.7,662.4 807.8,662.4 806.0,662.4 804.1,662.4 802.3,662.4 800.4,662.4 798.5,662.4 796.7,662.4 794.8,662.4 793.0,662.4
791.1,662.4 789.3,662.4 787.4,662.4 785.6,662.4 783.7,662.4 781.9,662.4 780.0,662.4 778.2,662.4 776.3,662.4 774.4,662.4 772.6,662.4 770.7,662.4 768.9,662.4 767.0,662.4 765.2,662.4 763.3,662.4
761.5,662.4 759.6,662.4 757.8,662.4 755.9,662.4 754.1,662.4 752.2,662.4 750.3,662.4 748.5,662.4 746.6,662.4 744.8,662.4 742.9,662.4 741.1,662.4 739.2,662.4 737.4,662.4 735.5,662.4 733.7,662.4
731.8,662.4 730.0,662.4 728.1,662.4 726.2,662.4 724.4,662.4 722.5,662.4 720.7,662.4 718.8,662.4 717.0,662.4 715.1,662.4 713.3,662.4 711.4,662.4 709.6,662.4 707.7,662.4 705.9,662.4 704.0,662.4
702.1,662.4 700.3,662.4 698.4,662.4 696.6,662.4 694.7,662.4 692.9,662.4 691.0,662.4 689.2,662.4 687.3,662.4 685.5,662.4 683.6,662.4 681.8,662.4 679.9,662.4 678.0,662.4 676.2,662.4 674.3,662.4
672.5,662.4 670.6,662.4 668.8,662.4 666.9,662.4 665.1,662.4 663.2,662.4 661.4,662.4 659.5,662.4 657.6,662.4 655.8,662.4 653.9,662.4 652.1,662.4 650.2,662.4 648.4,662.4 646.5,662.4 644.7,662.4
642.8,662.4 641.0,662.4 639.1,662.4 637.3,662.4 635.4,662.4 633.5,662.4 631.7,662.4 629.8,662.4 628.0,662.4 626.1,662.4 624.3,662.4 622.4,662.4 620.6,662.4 618.7,662.4 616.9,662.4 615.0,662.4
613.2,662.4 611.3,662.4 609.4,662.4 607.6,662.4 605.7,662.4 603.9,662.4 602.0,662.4 600.2,662.4 598.3,662.4 596.5,662.4 594.6,662.4 592.8,662.4 590.9,662.4 589.1,662.4 587.2,662.4 585.3,662.4
583.5,662.4 581.6,662.4 579.8,662.4 577.9,662.4 576.1,662.4 574.2,662.4 572.4,662.4 570.5,662.4 568.7,662.4 566.8,662.4 565.0,662.4 563.1,662.4 561.2,662.4 559.4,662.4 557.5,662.4 555.7,662.4
553.8,662.4 552.0,662.4 550.1,662.4 548.3,662.4 546.4,662.4 544.6,662.4 542.7,662.4 540.9,662.4 539.0,662.4 537.1,662.4 535.3,662.4 533.4,662.4 531.6,662.4 529.7,662.4 527.9,662.4 526.0,662.4
524.2,662.4 522.3,662.4 520.5,662.4 518.6,662.4 516.8,662.4 514.9,662.4 513.0,662.4 511.2,662.4 509.3,662.4 507.5,662.4 505.6,662.4 503.8,662.4 501.9,662.4 500.1,662.4 498.2,662.4 496.4,662.4
494.5,662.4 492.7,662.4 490.8,662.4 488.9,662.4 487.1,662.4 485.2,662.4 483.4,662.4 481.5,662.4 479.7,662.4 477.8,662.4 476.0,662.4 474.1,662.4 472.3,662.4 470.4,662.4 468.6,662.4 466.7,662.4
464.8,662.4 463.0,662.4 461.1,662.4 459.3,662.4 457.4,662.4 455.6,662.4 453.7,662.4 451.9,662.4 450.0,662.4 448.2,662.4 446.3,662.4 444.5,662.4 442.6,662.4 440.7,662.4 438.9,662.4 437.0,662.4
435.2,662.4 433.3,662.4 431.5,662.4 429.6,662.4 427.8,662.4 425.9,662.4 424.1,662.4 422.2,662.4 420.3,662.4 418.5,662.4 416.6,662.4 414.8,662.4 412.9,662.4 411.1,662.4 409.2,662.4 407.4,662.4
405.5,662.4 403.7,662.4 401.8,662.4 400.0,662.4 398.1,662.4 396.2,662.4 394.4,662.4 392.5,662.4 390.7,662.4 388.8,662.4 387.0,662.4 385.1,662.4 383.3,662.4 381.4,662.4 379.6,662.4 377.7,662.4
375.9,662.4 374.0,662.4 372.1,662.4 370.3,662.4 368.4,662.4 366.6,662.4 364.7,662.4 362.9,662.4 361.0,662.4 359.2,662.4 357.3,662.4 355.5,662.4 353.6,662.4 351.8,662.4 349.9,662.4 348.0,662.4
346.2,662.4 344.3,662.4 342.5,662.4 340.6,662.4 338.8,662.4 336.9,662.4 335.1,662.4 333.2,662.4 331.4,662.4 329.5,662.4 327.7,662.4 325.8,662.4 323.9,662.4 322.1,662.4 320.2,662.4 318.4,662.4
316.5,662.4 314.7,662.4 312.8,662.4 311.0,662.4 309.1,662.4 307.3,662.4 305.4,662.4 303.6,662.4 301.7,662.4 299.8,662.4 298.0,662.4 296.1,662.4 294.3,662.4 292.4,662.4 290.6,662.4 288.7,662.4
286.9,662.4 285.0,662.4 283.2,662.4 281.3,662.4 279.5,662.4 277.6,662.4 275.7,662.4 273.9,662.4 272.0,662.4 270.2,662.4 268.3,662.4 266.5,662.4 264.6,662.4 262.8,662.4 260.9,662.4 259.1,662.4
257.2,662.4 255.4,662.4 253.5,662.4 251.6,662.4 249.8,662.4 247.9,662.4 246.1,662.4 244.2,662.4 242.4,662.4 240.5,662.4 238.7,662.4 236.8,662.4 235.0,662.4 233.1,662.4 231.3,662.4 229.4,662.4
227.5,662.4 225.7,662.4 223.8,662.4 222.0,662.4 220.1,662.4 218.3,662.4 216.4,662.4 214.6,662.4 212.7,662.4 210.9,662.4 209.0,662.4 207.2,662.4 205.3,662.4 203.4,662.4 201.6,662.4 199.7,662.4
197.9,662.4 196.0,662.4 194.2,662.4 192.3,662.4 190.5,662.4 188.6,662.4 186.8,662.4 184.9,662.4 183.0,662.4 181.2,662.4 179.3,662.4 177.5,662.4 175.6,662.4 173.8,662.4 '/>
	</g>
</g>
	</g>
	<g id="gnuplot_plot_3" ><title>Point estimate</title>
<g fill="none" color="white" stroke="rgb( 31, 120, 180)" stroke-width="2.00" stroke-linecap="butt" stroke-linejoin="miter">
</g>
<g fill="none" color="black" stroke="currentColor" stroke-width="2.00" stroke-linecap="butt" stroke-linejoin="miter">
	<g transform="translate(1089.0,103.0)" stroke="none" fill="black" font-family="Helvetica" font-size="12.00"  text-anchor="start">
		<text><tspan font-family="Helvetica" >Point estimate</tspan></text>
	</g>
</g>
<g fill="none" color="black" stroke="currentColor" stroke-width="2.00" stroke-linecap="butt" stroke-linejoin="miter">
	<path stroke='rgb( 31, 120, 180)'  d='M1038.5,99.1 L1080.7,99.1 M571.4,662.4 L571.4,171.5  '/></g>
	</g>
	<g id="gnuplot_plot_4" ><title>Noise threshold</title>
<g fill="none" color="white" stroke="rgb( 31, 120, 180)" stroke-width="1.00" stroke-linecap="butt" stroke-linejoin="miter">
</g>
<g fill="none" color="black" stroke="currentColor" stroke-width="1.00" stroke-linecap="butt" stroke-linejoin="miter">
	<g transform="translate(1089.0,121.0)" stroke="none" fill="black" font-family="Helvetica" font-size="12.00"  text-anchor="start">
		<text><tspan font-family="Helvetica" >Noise threshold</tspan></text>
	</g>
</g>
<g fill="none" color="black" stroke="currentColor" stroke-width="1.00" stroke-linecap="butt" stroke-linejoin="miter">
	<g stroke='none' shape-rendering='crispEdges'>
		<polygon fill = 'rgb(227,  26,  28)' fill-opacity = '0.100000' points = '1038.5,121.6 1080.7,121.6 1080.7,112.6 1038.5,112.6 '/>
		<polygon fill = 'rgb(227,  26,  28)' fill-opacity = '0.100000' points = '551.1,54.1 551.1,54.1 551.1,662.4 551.1,662.4 '/>
	</g>
</g>
	</g>
<g fill="none" color="white" stroke="rgb(227,  26,  28)" stroke-width="2.00" stroke-linecap="butt" stroke-linejoin="miter">
</g>
<g fill="none" color="black" stroke="currentColor" stroke-width="2.00" stroke-linecap="butt" stroke-linejoin="miter">
</g>
<g fill="none" color="black" stroke="black" stroke-width="1.00" stroke-linecap="butt" stroke-linejoin="miter">
</g>
<g fill="none" color="black" stroke="currentColor" stroke-width="1.00" stroke-linecap="butt" stroke-linejoin="miter">
	<path stroke='black'  d='M88.5,54.1 L88.5,662.4 L1013.6,662.4 L1013.6,54.1 L88.5,54.1 Z  '/></g>
<g fill="none" color="black" stroke="currentColor" stroke-width="1.00" stroke-linecap="butt" stroke-linejoin="miter">
</g>
</g>
</svg>

