<?xml version="1.0" encoding="utf-8"  standalone="no"?>
<svg 
 viewBox="0 0 1280 720"
 xmlns="http://www.w3.org/2000/svg"
 xmlns:xlink="http://www.w3.org/1999/xlink"
>

<title>Gnuplot</title>
<desc>Produced by GNUPLOT 5.2 patchlevel 8 </desc>

<g id="gnuplot_canvas">

<rect x="0" y="0" width="1280" height="720" fill="none"/>
<defs>

	<circle id='gpDot' r='0.5' stroke-width='0.5' stroke='currentColor'/>
	<path id='gpPt0' stroke-width='0.222' stroke='currentColor' d='M-1,0 h2 M0,-1 v2'/>
	<path id='gpPt1' stroke-width='0.222' stroke='currentColor' d='M-1,-1 L1,1 M1,-1 L-1,1'/>
	<path id='gpPt2' stroke-width='0.222' stroke='currentColor' d='M-1,0 L1,0 M0,-1 L0,1 M-1,-1 L1,1 M-1,1 L1,-1'/>
	<rect id='gpPt3' stroke-width='0.222' stroke='currentColor' x='-1' y='-1' width='2' height='2'/>
	<rect id='gpPt4' stroke-width='0.222' stroke='currentColor' fill='currentColor' x='-1' y='-1' width='2' height='2'/>
	<circle id='gpPt5' stroke-width='0.222' stroke='currentColor' cx='0' cy='0' r='1'/>
	<use xlink:href='#gpPt5' id='gpPt6' fill='currentColor' stroke='none'/>
	<path id='gpPt7' stroke-width='0.222' stroke='currentColor' d='M0,-1.33 L-1.33,0.67 L1.33,0.67 z'/>
	<use xlink:href='#gpPt7' id='gpPt8' fill='currentColor' stroke='none'/>
	<use xlink:href='#gpPt7' id='gpPt9' stroke='currentColor' transform='rotate(180)'/>
	<use xlink:href='#gpPt9' id='gpPt10' fill='currentColor' stroke='none'/>
	<use xlink:href='#gpPt3' id='gpPt11' stroke='currentColor' transform='rotate(45)'/>
	<use xlink:href='#gpPt11' id='gpPt12' fill='currentColor' stroke='none'/>
	<path id='gpPt13' stroke-width='0.222' stroke='currentColor' d='M0,1.330 L1.265,0.411 L0.782,-1.067 L-0.782,-1.076 L-1.265,0.411 z'/>
	<use xlink:href='#gpPt13' id='gpPt14' fill='currentColor' stroke='none'/>
	<filter id='textbox' filterUnits='objectBoundingBox' x='0' y='0' height='1' width='1'>
	  <feFlood flood-color='white' flood-opacity='1' result='bgnd'/>
	  <feComposite in='SourceGraphic' in2='bgnd' operator='atop'/>
	</filter>
	<filter id='greybox' filterUnits='objectBoundingBox' x='0' y='0' height='1' width='1'>
	  <feFlood flood-color='lightgrey' flood-opacity='1' result='grey'/>
	  <feComposite in='SourceGraphic' in2='grey' operator='atop'/>
	</filter>
</defs>
<g fill="none" color="white" stroke="currentColor" stroke-width="1.00" stroke-linecap="butt" stroke-linejoin="miter">
</g>
<g fill="none" color="black" stroke="currentColor" stroke-width="1.00" stroke-linecap="butt" stroke-linejoin="miter">
	<path stroke='black'  d='M80.2,662.4 L89.2,662.4  '/>	<g transform="translate(71.9,666.3)" stroke="none" fill="black" font-family="Helvetica" font-size="12.00"  text-anchor="end">
		<text><tspan font-family="Helvetica" > 0</tspan></text>
	</g>
</g>
<g fill="none" color="black" stroke="currentColor" stroke-width="1.00" stroke-linecap="butt" stroke-linejoin="miter">
	<path stroke='black'  d='M80.2,561.0 L89.2,561.0  '/>	<g transform="translate(71.9,564.9)" stroke="none" fill="black" font-family="Helvetica" font-size="12.00"  text-anchor="end">
		<text><tspan font-family="Helvetica" > 0.01</tspan></text>
	</g>
</g>
<g fill="none" color="black" stroke="currentColor" stroke-width="1.00" stroke-linecap="butt" stroke-linejoin="miter">
	<path stroke='black'  d='M80.2,459.6 L89.2,459.6  '/>	<g transform="translate(71.9,463.5)" stroke="none" fill="black" font-family="Helvetica" font-size="12.00"  text-anchor="end">
		<text><tspan font-family="Helvetica" > 0.02</tspan></text>
	</g>
</g>
<g fill="none" color="black" stroke="currentColor" stroke-width="1.00" stroke-linecap="butt" stroke-linejoin="miter">
	<path stroke='black'  d='M80.2,358.2 L89.2,358.2  '/>	<g transform="translate(71.9,362.1)" stroke="none" fill="black" font-family="Helvetica" font-size="12.00"  text-anchor="end">
		<text><tspan font-family="Helvetica" > 0.03</tspan></text>
	</g>
</g>
<g fill="none" color="black" stroke="currentColor" stroke-width="1.00" stroke-linecap="butt" stroke-linejoin="miter">
	<path stroke='black'  d='M80.2,256.9 L89.2,256.9  '/>	<g transform="translate(71.9,260.8)" stroke="none" fill="black" font-family="Helvetica" font-size="12.00"  text-anchor="end">
		<text><tspan font-family="Helvetica" > 0.04</tspan></text>
	</g>
</g>
<g fill="none" color="black" stroke="currentColor" stroke-width="1.00" stroke-linecap="butt" stroke-linejoin="miter">
	<path stroke='black'  d='M80.2,155.5 L89.2,155.5  '/>	<g transform="translate(71.9,159.4)" stroke="none" fill="black" font-family="Helvetica" font-size="12.00"  text-anchor="end">
		<text><tspan font-family="Helvetica" > 0.05</tspan></text>
	</g>
</g>
<g fill="none" color="black" stroke="currentColor" stroke-width="1.00" stroke-linecap="butt" stroke-linejoin="miter">
	<path stroke='black'  d='M80.2,54.1 L89.2,54.1  '/>	<g transform="translate(71.9,58.0)" stroke="none" fill="black" font-family="Helvetica" font-size="12.00"  text-anchor="end">
		<text><tspan font-family="Helvetica" > 0.06</tspan></text>
	</g>
</g>
<g fill="none" color="black" stroke="currentColor" stroke-width="1.00" stroke-linecap="butt" stroke-linejoin="miter">
	<path stroke='black'  d='M137.3,662.4 L137.3,653.4  '/>	<g transform="translate(137.3,684.3)" stroke="none" fill="black" font-family="Helvetica" font-size="12.00"  text-anchor="middle">
		<text><tspan font-family="Helvetica" > 35</tspan></text>
	</g>
</g>
<g fill="none" color="black" stroke="currentColor" stroke-width="1.00" stroke-linecap="butt" stroke-linejoin="miter">
	<path stroke='black'  d='M262.3,662.4 L262.3,653.4  '/>	<g transform="translate(262.3,684.3)" stroke="none" fill="black" font-family="Helvetica" font-size="12.00"  text-anchor="middle">
		<text><tspan font-family="Helvetica" > 40</tspan></text>
	</g>
</g>
<g fill="none" color="black" stroke="currentColor" stroke-width="1.00" stroke-linecap="butt" stroke-linejoin="miter">
	<path stroke='black'  d='M387.3,662.4 L387.3,653.4  '/>	<g transform="translate(387.3,684.3)" stroke="none" fill="black" font-family="Helvetica" font-size="12.00"  text-anchor="middle">
		<text><tspan font-family="Helvetica" > 45</tspan></text>
	</g>
</g>
<g fill="none" color="black" stroke="currentColor" stroke-width="1.00" stroke-linecap="butt" stroke-linejoin="miter">
	<path stroke='black'  d='M512.3,662.4 L512.3,653.4  '/>	<g transform="translate(512.3,684.3)" stroke="none" fill="black" font-family="Helvetica" font-size="12.00"  text-anchor="middle">
		<text><tspan font-family="Helvetica" > 50</tspan></text>
	</g>
</g>
<g fill="none" color="black" stroke="currentColor" stroke-width="1.00" stroke-linecap="butt" stroke-linejoin="miter">
	<path stroke='black'  d='M637.3,662.4 L637.3,653.4  '/>	<g transform="translate(637.3,684.3)" stroke="none" fill="black" font-family="Helvetica" font-size="12.00"  text-anchor="middle">
		<text><tspan font-family="Helvetica" > 55</tspan></text>
	</g>
</g>
<g fill="none" color="black" stroke="currentColor" stroke-width="1.00" stroke-linecap="butt" stroke-linejoin="miter">
	<path stroke='black'  d='M762.3,662.4 L762.3,653.4  '/>	<g transform="translate(762.3,684.3)" stroke="none" fill="black" font-family="Helvetica" font-size="12.00"  text-anchor="middle">
		<text><tspan font-family="Helvetica" > 60</tspan></text>
	</g>
</g>
<g fill="none" color="black" stroke="currentColor" stroke-width="1.00" stroke-linecap="butt" stroke-linejoin="miter">
	<path stroke='black'  d='M887.4,662.4 L887.4,653.4  '/>	<g transform="translate(887.4,684.3)" stroke="none" fill="black" font-family="Helvetica" font-size="12.00"  text-anchor="middle">
		<text><tspan font-family="Helvetica" > 65</tspan></text>
	</g>
</g>
<g fill="none" color="black" stroke="currentColor" stroke-width="1.00" stroke-linecap="butt" stroke-linejoin="miter">
	<path stroke='black'  d='M1012.4,662.4 L1012.4,653.4  '/>	<g transform="translate(1012.4,684.3)" stroke="none" fill="black" font-family="Helvetica" font-size="12.00"  text-anchor="middle">
		<text><tspan font-family="Helvetica" > 70</tspan></text>
	</g>
</g>
<g fill="none" color="black" stroke="currentColor" stroke-width="1.00" stroke-linecap="butt" stroke-linejoin="miter">
</g>
<g fill="none" color="black" stroke="currentColor" stroke-width="1.00" stroke-linecap="butt" stroke-linejoin="miter">
	<path stroke='black'  d='M80.2,54.1 L80.2,662.4 L1013.6,662.4 L1013.6,54.1 L80.2,54.1 Z  '/></g>
<g fill="none" color="black" stroke="currentColor" stroke-width="1.00" stroke-linecap="butt" stroke-linejoin="miter">
	<g transform="translate(19.0,358.3) rotate(270)" stroke="none" fill="black" font-family="Helvetica" font-size="12.00"  text-anchor="middle">
		<text><tspan font-family="Helvetica" >Density (a.u.)</tspan></text>
	</g>
</g>
<g fill="none" color="black" stroke="currentColor" stroke-width="1.00" stroke-linecap="butt" stroke-linejoin="miter">
	<g transform="translate(546.9,711.3)" stroke="none" fill="black" font-family="Helvetica" font-size="12.00"  text-anchor="middle">
		<text><tspan font-family="Helvetica" >Average time (ns)</tspan></text>
	</g>
</g>
<g fill="none" color="black" stroke="currentColor" stroke-width="1.00" stroke-linecap="butt" stroke-linejoin="miter">
	<g transform="translate(546.9,31.0)" stroke="none" fill="black" font-family="Helvetica" font-size="12.00"  text-anchor="middle">
		<text><tspan font-family="Helvetica" >bench_group/blake3/65536: MAD</tspan></text>
	</g>
</g>
<g fill="none" color="black" stroke="currentColor" stroke-width="1.00" stroke-linecap="butt" stroke-linejoin="miter">
</g>
	<g id="gnuplot_plot_1" ><title>Bootstrap distribution</title>
<g fill="none" color="white" stroke="currentColor" stroke-width="2.00" stroke-linecap="butt" stroke-linejoin="miter">
</g>
<g fill="none" color="black" stroke="currentColor" stroke-width="2.00" stroke-linecap="butt" stroke-linejoin="miter">
	<g transform="translate(1089.0,67.0)" stroke="none" fill="black" font-family="Helvetica" font-size="12.00"  text-anchor="start">
		<text><tspan font-family="Helvetica" >Bootstrap distribution</tspan></text>
	</g>
</g>
<g fill="none" color="black" stroke="currentColor" stroke-width="2.00" stroke-linecap="butt" stroke-linejoin="miter">
	<path stroke='rgb( 31, 120, 180)'  d='M1038.5,63.1 L1080.7,63.1 M80.2,633.0 L82.1,631.8 L83.9,630.6 L85.8,629.5 L87.7,628.3 L89.6,627.1
		L91.4,625.9 L93.3,624.7 L95.2,623.5 L97.0,622.3 L98.9,621.0 L100.8,619.7 L102.6,618.4 L104.5,617.0
		L106.4,615.6 L108.3,614.2 L110.1,612.7 L112.0,611.1 L113.9,609.5 L115.7,607.9 L117.6,606.2 L119.5,604.4
		L121.4,602.6 L123.2,600.7 L125.1,598.8 L127.0,596.8 L128.8,594.7 L130.7,592.6 L132.6,590.5 L134.4,588.3
		L136.3,586.1 L138.2,583.8 L140.1,581.5 L141.9,579.2 L143.8,576.9 L145.7,574.5 L147.5,572.1 L149.4,569.7
		L151.3,567.3 L153.2,564.8 L155.0,562.4 L156.9,559.9 L158.8,557.3 L160.6,554.8 L162.5,552.2 L164.4,549.6
		L166.2,547.0 L168.1,544.4 L170.0,541.7 L171.9,539.1 L173.7,536.4 L175.6,533.7 L177.5,531.0 L179.3,528.2
		L181.2,525.5 L183.1,522.8 L185.0,520.1 L186.8,517.3 L188.7,514.6 L190.6,511.8 L192.4,509.1 L194.3,506.3
		L196.2,503.6 L198.0,500.9 L199.9,498.1 L201.8,495.4 L203.7,492.7 L205.5,490.0 L207.4,487.3 L209.3,484.7
		L211.1,482.1 L213.0,479.6 L214.9,477.1 L216.7,474.6 L218.6,472.3 L220.5,470.0 L222.4,467.8 L224.2,465.7
		L226.1,463.7 L228.0,461.7 L229.8,459.9 L231.7,458.1 L233.6,456.4 L235.5,454.8 L237.3,453.2 L239.2,451.6
		L241.1,450.1 L242.9,448.6 L244.8,447.1 L246.7,445.6 L248.5,444.0 L250.4,442.4 L252.3,440.6 L254.2,438.8
		L256.0,436.9 L257.9,434.8 L259.8,432.7 L261.6,430.3 L263.5,427.8 L265.4,425.2 L267.3,422.4 L269.1,419.5
		L271.0,416.5 L272.9,413.4 L274.7,410.1 L276.6,406.8 L278.5,403.5 L280.3,400.1 L282.2,396.8 L284.1,393.4
		L286.0,390.2 L287.8,387.0 L289.7,383.9 L291.6,380.9 L293.4,378.0 L295.3,375.3 L297.2,372.8 L299.1,370.3
		L300.9,368.1 L302.8,366.0 L304.7,364.1 L306.5,362.3 L308.4,360.6 L310.3,359.1 L312.1,357.7 L314.0,356.4
		L315.9,355.3 L317.8,354.3 L319.6,353.4 L321.5,352.7 L323.4,352.1 L325.2,351.8 L327.1,351.6 L329.0,351.6
		L330.9,351.8 L332.7,352.3 L334.6,352.9 L336.5,353.9 L338.3,355.0 L340.2,356.3 L342.1,357.9 L343.9,359.6
		L345.8,361.5 L347.7,363.5 L349.6,365.6 L351.4,367.7 L353.3,369.8 L355.2,371.9 L357.0,373.9 L358.9,375.7
		L360.8,377.4 L362.7,378.9 L364.5,380.0 L366.4,380.9 L368.3,381.5 L370.1,381.6 L372.0,381.4 L373.9,380.8
		L375.7,379.8 L377.6,378.3 L379.5,376.5 L381.4,374.2 L383.2,371.6 L385.1,368.5 L387.0,365.2 L388.8,361.5
		L390.7,357.6 L392.6,353.5 L394.5,349.2 L396.3,344.8 L398.2,340.4 L400.1,335.9 L401.9,331.4 L403.8,326.9
		L405.7,322.5 L407.5,318.2 L409.4,314.0 L411.3,309.9 L413.2,305.9 L415.0,302.0 L416.9,298.2 L418.8,294.4
		L420.6,290.7 L422.5,286.9 L424.4,283.2 L426.3,279.4 L428.1,275.5 L430.0,271.6 L431.9,267.5 L433.7,263.3
		L435.6,258.9 L437.5,254.5 L439.3,249.9 L441.2,245.2 L443.1,240.4 L445.0,235.5 L446.8,230.5 L448.7,225.5
		L450.6,220.5 L452.4,215.5 L454.3,210.6 L456.2,205.8 L458.0,201.1 L459.9,196.5 L461.8,192.2 L463.7,188.0
		L465.5,184.0 L467.4,180.2 L469.3,176.7 L471.1,173.5 L473.0,170.5 L474.9,167.7 L476.8,165.2 L478.6,162.9
		L480.5,160.8 L482.4,158.8 L484.2,157.1 L486.1,155.4 L488.0,153.9 L489.8,152.3 L491.7,150.8 L493.6,149.3
		L495.5,147.7 L497.3,146.1 L499.2,144.3 L501.1,142.4 L502.9,140.3 L504.8,138.1 L506.7,135.7 L508.6,133.1
		L510.4,130.4 L512.3,127.5 L514.2,124.6 L516.0,121.5 L517.9,118.4 L519.8,115.4 L521.6,112.3 L523.5,109.4
		L525.4,106.6 L527.3,104.1 L529.1,101.7 L531.0,99.6 L532.9,97.9 L534.7,96.5 L536.6,95.4 L538.5,94.7
		L540.4,94.4 L542.2,94.5 L544.1,94.9 L546.0,95.8 L547.8,96.9 L549.7,98.4 L551.6,100.3 L553.4,102.4
		L555.3,104.8 L557.2,107.4 L559.1,110.3 L560.9,113.4 L562.8,116.7 L564.7,120.1 L566.5,123.7 L568.4,127.4
		L570.3,131.3 L572.2,135.2 L574.0,139.1 L575.9,143.1 L577.8,147.1 L579.6,151.0 L581.5,154.8 L583.4,158.5
		L585.2,162.0 L587.1,165.3 L589.0,168.2 L590.9,170.9 L592.7,173.1 L594.6,175.0 L596.5,176.4 L598.3,177.4
		L600.2,178.0 L602.1,178.1 L604.0,177.9 L605.8,177.3 L607.7,176.3 L609.6,175.2 L611.4,173.8 L613.3,172.4
		L615.2,170.9 L617.0,169.5 L618.9,168.2 L620.8,167.1 L622.7,166.3 L624.5,165.9 L626.4,165.9 L628.3,166.2
		L630.1,167.1 L632.0,168.4 L633.9,170.2 L635.8,172.5 L637.6,175.2 L639.5,178.4 L641.4,182.0 L643.2,186.1
		L645.1,190.4 L647.0,195.1 L648.8,200.2 L650.7,205.5 L652.6,211.0 L654.5,216.8 L656.3,222.7 L658.2,228.9
		L660.1,235.2 L661.9,241.7 L663.8,248.3 L665.7,255.0 L667.5,261.7 L669.4,268.6 L671.3,275.5 L673.2,282.4
		L675.0,289.3 L676.9,296.1 L678.8,302.9 L680.6,309.6 L682.5,316.2 L684.4,322.5 L686.3,328.7 L688.1,334.7
		L690.0,340.4 L691.9,345.9 L693.7,351.1 L695.6,356.0 L697.5,360.6 L699.3,365.0 L701.2,369.1 L703.1,372.9
		L705.0,376.5 L706.8,379.9 L708.7,383.1 L710.6,386.2 L712.4,389.1 L714.3,391.9 L716.2,394.6 L718.1,397.2
		L719.9,399.7 L721.8,402.2 L723.7,404.7 L725.5,407.1 L727.4,409.4 L729.3,411.6 L731.1,413.8 L733.0,415.9
		L734.9,417.8 L736.8,419.7 L738.6,421.4 L740.5,423.0 L742.4,424.4 L744.2,425.7 L746.1,426.8 L748.0,427.8
		L749.9,428.7 L751.7,429.4 L753.6,430.0 L755.5,430.5 L757.3,430.9 L759.2,431.2 L761.1,431.5 L762.9,431.7
		L764.8,431.9 L766.7,432.1 L768.6,432.3 L770.4,432.5 L772.3,432.8 L774.2,433.0 L776.0,433.4 L777.9,433.8
		L779.8,434.2 L781.7,434.8 L783.5,435.4 L785.4,436.1 L787.3,436.9 L789.1,437.8 L791.0,438.8 L792.9,439.9
		L794.7,441.1 L796.6,442.4 L798.5,443.7 L800.4,445.1 L802.2,446.6 L804.1,448.2 L806.0,449.8 L807.8,451.4
		L809.7,453.1 L811.6,454.8 L813.5,456.6 L815.3,458.4 L817.2,460.2 L819.1,462.1 L820.9,463.9 L822.8,465.9
		L824.7,467.8 L826.5,469.8 L828.4,471.8 L830.3,473.9 L832.2,476.0 L834.0,478.1 L835.9,480.3 L837.8,482.5
		L839.6,484.7 L841.5,486.9 L843.4,489.2 L845.3,491.5 L847.1,493.8 L849.0,496.1 L850.9,498.4 L852.7,500.7
		L854.6,503.0 L856.5,505.3 L858.3,507.6 L860.2,509.9 L862.1,512.3 L864.0,514.6 L865.8,516.9 L867.7,519.3
		L869.6,521.6 L871.4,524.0 L873.3,526.4 L875.2,528.9 L877.1,531.4 L878.9,534.0 L880.8,536.6 L882.7,539.2
		L884.5,541.9 L886.4,544.6 L888.3,547.4 L890.1,550.2 L892.0,553.1 L893.9,556.0 L895.8,558.9 L897.6,561.8
		L899.5,564.7 L901.4,567.5 L903.2,570.4 L905.1,573.2 L907.0,575.9 L908.8,578.6 L910.7,581.2 L912.6,583.8
		L914.5,586.2 L916.3,588.6 L918.2,590.8 L920.1,593.0 L921.9,595.0 L923.8,597.0 L925.7,598.8 L927.6,600.5
		L929.4,602.2 L931.3,603.7 L933.2,605.1 L935.0,606.5 L936.9,607.7 L938.8,608.9 L940.6,610.0 L942.5,611.0
		L944.4,611.9 L946.3,612.7 L948.1,613.5 L950.0,614.2 L951.9,614.8 L953.7,615.4 L955.6,615.9 L957.5,616.3
		L959.4,616.7 L961.2,617.0 L963.1,617.3 L965.0,617.5 L966.8,617.7 L968.7,617.9 L970.6,618.0 L972.4,618.2
		L974.3,618.3 L976.2,618.4 L978.1,618.5 L979.9,618.7 L981.8,618.9 L983.7,619.1 L985.5,619.4 L987.4,619.7
		L989.3,620.1 L991.2,620.5 L993.0,621.0 L994.9,621.5 L996.8,622.1 L998.6,622.7 L1000.5,623.4 L1002.4,624.2
		L1004.2,625.0 L1006.1,625.8 L1008.0,626.7 L1009.9,627.6 L1011.7,628.5 L1013.6,629.4  '/></g>
	</g>
	<g id="gnuplot_plot_2" ><title>Confidence interval</title>
<g fill="none" color="white" stroke="rgb( 31, 120, 180)" stroke-width="1.00" stroke-linecap="butt" stroke-linejoin="miter">
</g>
<g fill="none" color="black" stroke="currentColor" stroke-width="1.00" stroke-linecap="butt" stroke-linejoin="miter">
	<g transform="translate(1089.0,85.0)" stroke="none" fill="black" font-family="Helvetica" font-size="12.00"  text-anchor="start">
		<text><tspan font-family="Helvetica" >Confidence interval</tspan></text>
	</g>
</g>
<g fill="none" color="black" stroke="currentColor" stroke-width="1.00" stroke-linecap="butt" stroke-linejoin="miter">
	<g stroke='none' shape-rendering='crispEdges'>
		<polygon fill = 'rgb( 31, 120, 180)' fill-opacity = '0.250000' points = '1038.5,85.6 1080.7,85.6 1080.7,76.6 1038.5,76.6 '/>
		<polygon fill = 'rgb( 31, 120, 180)' fill-opacity = '0.250000' points = '166.2,547.0 168.1,544.4 170.0,541.7 171.9,539.1 173.7,536.4 175.6,533.7 177.5,531.0 179.3,528.2 181.2,525.5 183.1,522.8 185.0,520.1 186.8,517.3 188.7,514.6 190.6,511.8 192.4,509.1 194.3,506.3
196.2,503.6 198.0,500.9 199.9,498.1 201.8,495.4 203.7,492.7 205.5,490.0 207.4,487.3 209.3,484.7 211.1,482.1 213.0,479.6 214.9,477.1 216.7,474.6 218.6,472.3 220.5,470.0 222.4,467.8 224.2,465.7
226.1,463.7 228.0,461.7 229.8,459.9 231.7,458.1 233.6,456.4 235.5,454.8 237.3,453.2 239.2,451.6 241.1,450.1 242.9,448.6 244.8,447.1 246.7,445.6 248.5,444.0 250.4,442.4 252.3,440.6 254.2,438.8
256.0,436.9 257.9,434.8 259.8,432.7 261.6,430.3 263.5,427.8 265.4,425.2 267.3,422.4 269.1,419.5 271.0,416.5 272.9,413.4 274.7,410.1 276.6,406.8 278.5,403.5 280.3,400.1 282.2,396.8 284.1,393.4
286.0,390.2 287.8,387.0 289.7,383.9 291.6,380.9 293.4,378.0 295.3,375.3 297.2,372.8 299.1,370.3 300.9,368.1 302.8,366.0 304.7,364.1 306.5,362.3 308.4,360.6 310.3,359.1 312.1,357.7 314.0,356.4
315.9,355.3 317.8,354.3 319.6,353.4 321.5,352.7 323.4,352.1 325.2,351.8 327.1,351.6 329.0,351.6 330.9,351.8 332.7,352.3 334.6,352.9 336.5,353.9 338.3,355.0 340.2,356.3 342.1,357.9 343.9,359.6
345.8,361.5 347.7,363.5 349.6,365.6 351.4,367.7 353.3,369.8 355.2,371.9 357.0,373.9 358.9,375.7 360.8,377.4 362.7,378.9 364.5,380.0 366.4,380.9 368.3,381.5 370.1,381.6 372.0,381.4 373.9,380.8
375.7,379.8 377.6,378.3 379.5,376.5 381.4,374.2 383.2,371.6 385.1,368.5 387.0,365.2 388.8,361.5 390.7,357.6 392.6,353.5 394.5,349.2 396.3,344.8 398.2,340.4 400.1,335.9 401.9,331.4 403.8,326.9
405.7,322.5 407.5,318.2 409.4,314.0 411.3,309.9 413.2,305.9 415.0,302.0 416.9,298.2 418.8,294.4 420.6,290.7 422.5,286.9 424.4,283.2 426.3,279.4 428.1,275.5 430.0,271.6 431.9,267.5 433.7,263.3
435.6,258.9 437.5,254.5 439.3,249.9 441.2,245.2 443.1,240.4 445.0,235.5 446.8,230.5 448.7,225.5 450.6,220.5 452.4,215.5 454.3,210.6 456.2,205.8 458.0,201.1 459.9,196.5 461.8,192.2 463.7,188.0
465.5,184.0 467.4,180.2 469.3,176.7 471.1,173.5 473.0,170.5 474.9,167.7 476.8,165.2 478.6,162.9 480.5,160.8 482.4,158.8 484.2,157.1 486.1,155.4 488.0,153.9 489.8,152.3 491.7,150.8 493.6,149.3
495.5,147.7 497.3,146.1 499.2,144.3 501.1,142.4 502.9,140.3 504.8,138.1 506.7,135.7 508.6,133.1 510.4,130.4 512.3,127.5 514.2,124.6 516.0,121.5 517.9,118.4 519.8,115.4 521.6,112.3 523.5,109.4
525.4,106.6 527.3,104.1 529.1,101.7 531.0,99.6 532.9,97.9 534.7,96.5 536.6,95.4 538.5,94.7 540.4,94.4 542.2,94.5 544.1,94.9 546.0,95.8 547.8,96.9 549.7,98.4 551.6,100.3 553.4,102.4
555.3,104.8 557.2,107.4 559.1,110.3 560.9,113.4 562.8,116.7 564.7,120.1 566.5,123.7 568.4,127.4 570.3,131.3 572.2,135.2 574.0,139.1 575.9,143.1 577.8,147.1 579.6,151.0 581.5,154.8 583.4,158.5
585.2,162.0 587.1,165.3 589.0,168.2 590.9,170.9 592.7,173.1 594.6,175.0 596.5,176.4 598.3,177.4 600.2,178.0 602.1,178.1 604.0,177.9 605.8,177.3 607.7,176.3 609.6,175.2 611.4,173.8 613.3,172.4
615.2,170.9 617.0,169.5 618.9,168.2 620.8,167.1 622.7,166.3 624.5,165.9 626.4,165.9 628.3,166.2 630.1,167.1 632.0,168.4 633.9,170.2 635.8,172.5 637.6,175.2 639.5,178.4 641.4,182.0 643.2,186.1
645.1,190.4 647.0,195.1 648.8,200.2 650.7,205.5 652.6,211.0 654.5,216.8 656.3,222.7 658.2,228.9 660.1,235.2 661.9,241.7 663.8,248.3 665.7,255.0 667.5,261.7 669.4,268.6 671.3,275.5 673.2,282.4
675.0,289.3 676.9,296.1 678.8,302.9 680.6,309.6 682.5,316.2 684.4,322.5 686.3,328.7 688.1,334.7 690.0,340.4 691.9,345.9 693.7,351.1 695.6,356.0 697.5,360.6 699.3,365.0 701.2,369.1 703.1,372.9
705.0,376.5 706.8,379.9 708.7,383.1 710.6,386.2 712.4,389.1 714.3,391.9 716.2,394.6 718.1,397.2 719.9,399.7 721.8,402.2 723.7,404.7 725.5,407.1 727.4,409.4 729.3,411.6 731.1,413.8 733.0,415.9
734.9,417.8 736.8,419.7 738.6,421.4 740.5,423.0 742.4,424.4 744.2,425.7 746.1,426.8 748.0,427.8 749.9,428.7 751.7,429.4 753.6,430.0 755.5,430.5 757.3,430.9 759.2,431.2 761.1,431.5 762.9,431.7
764.8,431.9 766.7,432.1 768.6,432.3 770.4,432.5 772.3,432.8 774.2,433.0 776.0,433.4 777.9,433.8 779.8,434.2 781.7,434.8 783.5,435.4 785.4,436.1 787.3,436.9 789.1,437.8 791.0,438.8 792.9,439.9
794.7,441.1 796.6,442.4 798.5,443.7 800.4,445.1 802.2,446.6 804.1,448.2 806.0,449.8 807.8,451.4 809.7,453.1 811.6,454.8 813.5,456.6 815.3,458.4 817.2,460.2 819.1,462.1 820.9,463.9 822.8,465.9
824.7,467.8 826.5,469.8 828.4,471.8 830.3,473.9 832.2,476.0 834.0,478.1 835.9,480.3 837.8,482.5 839.6,484.7 841.5,486.9 843.4,489.2 845.3,491.5 847.1,493.8 849.0,496.1 850.9,498.4 852.7,500.7
854.6,503.0 856.5,505.3 858.3,507.6 860.2,509.9 862.1,512.3 864.0,514.6 865.8,516.9 867.7,519.3 869.6,521.6 871.4,524.0 873.3,526.4 875.2,528.9 877.1,531.4 878.9,534.0 880.8,536.6 882.7,539.2
884.5,541.9 886.4,544.6 888.3,547.4 890.1,550.2 892.0,553.1 893.9,556.0 895.8,558.9 897.6,561.8 899.5,564.7 901.4,567.5 903.2,570.4 905.1,573.2 907.0,575.9 908.8,578.6 910.7,581.2 912.6,583.8
914.5,586.2 916.3,588.6 918.2,590.8 920.1,593.0 921.9,595.0 923.8,597.0 925.7,598.8 925.7,662.4 923.8,662.4 921.9,662.4 920.1,662.4 918.2,662.4 916.3,662.4 914.5,662.4 912.6,662.4 910.7,662.4
908.8,662.4 907.0,662.4 905.1,662.4 903.2,662.4 901.4,662.4 899.5,662.4 897.6,662.4 895.8,662.4 893.9,662.4 892.0,662.4 890.1,662.4 888.3,662.4 886.4,662.4 884.5,662.4 882.7,662.4 880.8,662.4
878.9,662.4 877.1,662.4 875.2,662.4 873.3,662.4 871.4,662.4 869.6,662.4 867.7,662.4 865.8,662.4 864.0,662.4 862.1,662.4 860.2,662.4 858.3,662.4 856.5,662.4 854.6,662.4 852.7,662.4 850.9,662.4
849.0,662.4 847.1,662.4 845.3,662.4 843.4,662.4 841.5,662.4 839.6,662.4 837.8,662.4 835.9,662.4 834.0,662.4 832.2,662.4 830.3,662.4 828.4,662.4 826.5,662.4 824.7,662.4 822.8,662.4 820.9,662.4
819.1,662.4 817.2,662.4 815.3,662.4 813.5,662.4 811.6,662.4 809.7,662.4 807.8,662.4 806.0,662.4 804.1,662.4 802.2,662.4 800.4,662.4 798.5,662.4 796.6,662.4 794.7,662.4 792.9,662.4 791.0,662.4
789.1,662.4 787.3,662.4 785.4,662.4 783.5,662.4 781.7,662.4 779.8,662.4 777.9,662.4 776.0,662.4 774.2,662.4 772.3,662.4 770.4,662.4 768.6,662.4 766.7,662.4 764.8,662.4 762.9,662.4 761.1,662.4
759.2,662.4 757.3,662.4 755.5,662.4 753.6,662.4 751.7,662.4 749.9,662.4 748.0,662.4 746.1,662.4 744.2,662.4 742.4,662.4 740.5,662.4 738.6,662.4 736.8,662.4 734.9,662.4 733.0,662.4 731.1,662.4
729.3,662.4 727.4,662.4 725.5,662.4 723.7,662.4 721.8,662.4 719.9,662.4 718.1,662.4 716.2,662.4 714.3,662.4 712.4,662.4 710.6,662.4 708.7,662.4 706.8,662.4 705.0,662.4 703.1,662.4 701.2,662.4
699.3,662.4 697.5,662.4 695.6,662.4 693.7,662.4 691.9,662.4 690.0,662.4 688.1,662.4 686.3,662.4 684.4,662.4 682.5,662.4 680.6,662.4 678.8,662.4 676.9,662.4 675.0,662.4 673.2,662.4 671.3,662.4
669.4,662.4 667.5,662.4 665.7,662.4 663.8,662.4 661.9,662.4 660.1,662.4 658.2,662.4 656.3,662.4 654.5,662.4 652.6,662.4 650.7,662.4 648.8,662.4 647.0,662.4 645.1,662.4 643.2,662.4 641.4,662.4
639.5,662.4 637.6,662.4 635.8,662.4 633.9,662.4 632.0,662.4 630.1,662.4 628.3,662.4 626.4,662.4 624.5,662.4 622.7,662.4 620.8,662.4 618.9,662.4 617.0,662.4 615.2,662.4 613.3,662.4 611.4,662.4
609.6,662.4 607.7,662.4 605.8,662.4 604.0,662.4 602.1,662.4 600.2,662.4 598.3,662.4 596.5,662.4 594.6,662.4 592.7,662.4 590.9,662.4 589.0,662.4 587.1,662.4 585.2,662.4 583.4,662.4 581.5,662.4
579.6,662.4 577.8,662.4 575.9,662.4 574.0,662.4 572.2,662.4 570.3,662.4 568.4,662.4 566.5,662.4 564.7,662.4 562.8,662.4 560.9,662.4 559.1,662.4 557.2,662.4 555.3,662.4 553.4,662.4 551.6,662.4
549.7,662.4 547.8,662.4 546.0,662.4 544.1,662.4 542.2,662.4 540.4,662.4 538.5,662.4 536.6,662.4 534.7,662.4 532.9,662.4 531.0,662.4 529.1,662.4 527.3,662.4 525.4,662.4 523.5,662.4 521.6,662.4
519.8,662.4 517.9,662.4 516.0,662.4 514.2,662.4 512.3,662.4 510.4,662.4 508.6,662.4 506.7,662.4 504.8,662.4 502.9,662.4 501.1,662.4 499.2,662.4 497.3,662.4 495.5,662.4 493.6,662.4 491.7,662.4
489.8,662.4 488.0,662.4 486.1,662.4 484.2,662.4 482.4,662.4 480.5,662.4 478.6,662.4 476.8,662.4 474.9,662.4 473.0,662.4 471.1,662.4 469.3,662.4 467.4,662.4 465.5,662.4 463.7,662.4 461.8,662.4
459.9,662.4 458.0,662.4 456.2,662.4 454.3,662.4 452.4,662.4 450.6,662.4 448.7,662.4 446.8,662.4 445.0,662.4 443.1,662.4 441.2,662.4 439.3,662.4 437.5,662.4 435.6,662.4 433.7,662.4 431.9,662.4
430.0,662.4 428.1,662.4 426.3,662.4 424.4,662.4 422.5,662.4 420.6,662.4 418.8,662.4 416.9,662.4 415.0,662.4 413.2,662.4 411.3,662.4 409.4,662.4 407.5,662.4 405.7,662.4 403.8,662.4 401.9,662.4
400.1,662.4 398.2,662.4 396.3,662.4 394.5,662.4 392.6,662.4 390.7,662.4 388.8,662.4 387.0,662.4 385.1,662.4 383.2,662.4 381.4,662.4 379.5,662.4 377.6,662.4 375.7,662.4 373.9,662.4 372.0,662.4
370.1,662.4 368.3,662.4 366.4,662.4 364.5,662.4 362.7,662.4 360.8,662.4 358.9,662.4 357.0,662.4 355.2,662.4 353.3,662.4 351.4,662.4 349.6,662.4 347.7,662.4 345.8,662.4 343.9,662.4 342.1,662.4
340.2,662.4 338.3,662.4 336.5,662.4 334.6,662.4 332.7,662.4 330.9,662.4 329.0,662.4 327.1,662.4 325.2,662.4 323.4,662.4 321.5,662.4 319.6,662.4 317.8,662.4 315.9,662.4 314.0,662.4 312.1,662.4
310.3,662.4 308.4,662.4 306.5,662.4 304.7,662.4 302.8,662.4 300.9,662.4 299.1,662.4 297.2,662.4 295.3,662.4 293.4,662.4 291.6,662.4 289.7,662.4 287.8,662.4 286.0,662.4 284.1,662.4 282.2,662.4
280.3,662.4 278.5,662.4 276.6,662.4 274.7,662.4 272.9,662.4 271.0,662.4 269.1,662.4 267.3,662.4 265.4,662.4 263.5,662.4 261.6,662.4 259.8,662.4 257.9,662.4 256.0,662.4 254.2,662.4 252.3,662.4
250.4,662.4 248.5,662.4 246.7,662.4 244.8,662.4 242.9,662.4 241.1,662.4 239.2,662.4 237.3,662.4 235.5,662.4 233.6,662.4 231.7,662.4 229.8,662.4 228.0,662.4 226.1,662.4 224.2,662.4 222.4,662.4
220.5,662.4 218.6,662.4 216.7,662.4 214.9,662.4 213.0,662.4 211.1,662.4 209.3,662.4 207.4,662.4 205.5,662.4 203.7,662.4 201.8,662.4 199.9,662.4 198.0,662.4 196.2,662.4 194.3,662.4 192.4,662.4
190.6,662.4 188.7,662.4 186.8,662.4 185.0,662.4 183.1,662.4 181.2,662.4 179.3,662.4 177.5,662.4 175.6,662.4 173.7,662.4 171.9,662.4 170.0,662.4 168.1,662.4 166.2,662.4 '/>
	</g>
</g>
	</g>
	<g id="gnuplot_plot_3" ><title>Point estimate</title>
<g fill="none" color="white" stroke="rgb( 31, 120, 180)" stroke-width="2.00" stroke-linecap="butt" stroke-linejoin="miter">
</g>
<g fill="none" color="black" stroke="currentColor" stroke-width="2.00" stroke-linecap="butt" stroke-linejoin="miter">
	<g transform="translate(1089.0,103.0)" stroke="none" fill="black" font-family="Helvetica" font-size="12.00"  text-anchor="start">
		<text><tspan font-family="Helvetica" >Point estimate</tspan></text>
	</g>
</g>
<g fill="none" color="black" stroke="currentColor" stroke-width="2.00" stroke-linecap="butt" stroke-linejoin="miter">
	<path stroke='rgb( 31, 120, 180)'  d='M1038.5,99.1 L1080.7,99.1 M568.5,662.4 L568.5,127.6  '/></g>
	</g>
<g fill="none" color="black" stroke="currentColor" stroke-width="2.00" stroke-linecap="butt" stroke-linejoin="miter">
</g>
<g fill="none" color="black" stroke="black" stroke-width="1.00" stroke-linecap="butt" stroke-linejoin="miter">
</g>
<g fill="none" color="black" stroke="currentColor" stroke-width="1.00" stroke-linecap="butt" stroke-linejoin="miter">
	<path stroke='black'  d='M80.2,54.1 L80.2,662.4 L1013.6,662.4 L1013.6,54.1 L80.2,54.1 Z  '/></g>
<g fill="none" color="black" stroke="currentColor" stroke-width="1.00" stroke-linecap="butt" stroke-linejoin="miter">
</g>
</g>
</svg>

