<?xml version="1.0" encoding="utf-8"  standalone="no"?>
<svg 
 viewBox="0 0 1280 720"
 xmlns="http://www.w3.org/2000/svg"
 xmlns:xlink="http://www.w3.org/1999/xlink"
>

<title>Gnuplot</title>
<desc>Produced by GNUPLOT 5.2 patchlevel 8 </desc>

<g id="gnuplot_canvas">

<rect x="0" y="0" width="1280" height="720" fill="none"/>
<defs>

	<circle id='gpDot' r='0.5' stroke-width='0.5' stroke='currentColor'/>
	<path id='gpPt0' stroke-width='0.222' stroke='currentColor' d='M-1,0 h2 M0,-1 v2'/>
	<path id='gpPt1' stroke-width='0.222' stroke='currentColor' d='M-1,-1 L1,1 M1,-1 L-1,1'/>
	<path id='gpPt2' stroke-width='0.222' stroke='currentColor' d='M-1,0 L1,0 M0,-1 L0,1 M-1,-1 L1,1 M-1,1 L1,-1'/>
	<rect id='gpPt3' stroke-width='0.222' stroke='currentColor' x='-1' y='-1' width='2' height='2'/>
	<rect id='gpPt4' stroke-width='0.222' stroke='currentColor' fill='currentColor' x='-1' y='-1' width='2' height='2'/>
	<circle id='gpPt5' stroke-width='0.222' stroke='currentColor' cx='0' cy='0' r='1'/>
	<use xlink:href='#gpPt5' id='gpPt6' fill='currentColor' stroke='none'/>
	<path id='gpPt7' stroke-width='0.222' stroke='currentColor' d='M0,-1.33 L-1.33,0.67 L1.33,0.67 z'/>
	<use xlink:href='#gpPt7' id='gpPt8' fill='currentColor' stroke='none'/>
	<use xlink:href='#gpPt7' id='gpPt9' stroke='currentColor' transform='rotate(180)'/>
	<use xlink:href='#gpPt9' id='gpPt10' fill='currentColor' stroke='none'/>
	<use xlink:href='#gpPt3' id='gpPt11' stroke='currentColor' transform='rotate(45)'/>
	<use xlink:href='#gpPt11' id='gpPt12' fill='currentColor' stroke='none'/>
	<path id='gpPt13' stroke-width='0.222' stroke='currentColor' d='M0,1.330 L1.265,0.411 L0.782,-1.067 L-0.782,-1.076 L-1.265,0.411 z'/>
	<use xlink:href='#gpPt13' id='gpPt14' fill='currentColor' stroke='none'/>
	<filter id='textbox' filterUnits='objectBoundingBox' x='0' y='0' height='1' width='1'>
	  <feFlood flood-color='white' flood-opacity='1' result='bgnd'/>
	  <feComposite in='SourceGraphic' in2='bgnd' operator='atop'/>
	</filter>
	<filter id='greybox' filterUnits='objectBoundingBox' x='0' y='0' height='1' width='1'>
	  <feFlood flood-color='lightgrey' flood-opacity='1' result='grey'/>
	  <feComposite in='SourceGraphic' in2='grey' operator='atop'/>
	</filter>
</defs>
<g fill="none" color="white" stroke="currentColor" stroke-width="1.00" stroke-linecap="butt" stroke-linejoin="miter">
</g>
<g fill="none" color="black" stroke="currentColor" stroke-width="1.00" stroke-linecap="butt" stroke-linejoin="miter">
	<path stroke='black'  d='M71.9,662.4 L80.9,662.4  '/>	<g transform="translate(63.6,666.3)" stroke="none" fill="black" font-family="Helvetica" font-size="12.00"  text-anchor="end">
		<text><tspan font-family="Helvetica" > 0</tspan></text>
	</g>
</g>
<g fill="none" color="black" stroke="currentColor" stroke-width="1.00" stroke-linecap="butt" stroke-linejoin="miter">
	<path stroke='black'  d='M71.9,575.5 L80.9,575.5  '/>	<g transform="translate(63.6,579.4)" stroke="none" fill="black" font-family="Helvetica" font-size="12.00"  text-anchor="end">
		<text><tspan font-family="Helvetica" > 0.5</tspan></text>
	</g>
</g>
<g fill="none" color="black" stroke="currentColor" stroke-width="1.00" stroke-linecap="butt" stroke-linejoin="miter">
	<path stroke='black'  d='M71.9,488.6 L80.9,488.6  '/>	<g transform="translate(63.6,492.5)" stroke="none" fill="black" font-family="Helvetica" font-size="12.00"  text-anchor="end">
		<text><tspan font-family="Helvetica" > 1</tspan></text>
	</g>
</g>
<g fill="none" color="black" stroke="currentColor" stroke-width="1.00" stroke-linecap="butt" stroke-linejoin="miter">
	<path stroke='black'  d='M71.9,401.7 L80.9,401.7  '/>	<g transform="translate(63.6,405.6)" stroke="none" fill="black" font-family="Helvetica" font-size="12.00"  text-anchor="end">
		<text><tspan font-family="Helvetica" > 1.5</tspan></text>
	</g>
</g>
<g fill="none" color="black" stroke="currentColor" stroke-width="1.00" stroke-linecap="butt" stroke-linejoin="miter">
	<path stroke='black'  d='M71.9,314.8 L80.9,314.8  '/>	<g transform="translate(63.6,318.7)" stroke="none" fill="black" font-family="Helvetica" font-size="12.00"  text-anchor="end">
		<text><tspan font-family="Helvetica" > 2</tspan></text>
	</g>
</g>
<g fill="none" color="black" stroke="currentColor" stroke-width="1.00" stroke-linecap="butt" stroke-linejoin="miter">
	<path stroke='black'  d='M71.9,227.9 L80.9,227.9  '/>	<g transform="translate(63.6,231.8)" stroke="none" fill="black" font-family="Helvetica" font-size="12.00"  text-anchor="end">
		<text><tspan font-family="Helvetica" > 2.5</tspan></text>
	</g>
</g>
<g fill="none" color="black" stroke="currentColor" stroke-width="1.00" stroke-linecap="butt" stroke-linejoin="miter">
	<path stroke='black'  d='M71.9,141.0 L80.9,141.0  '/>	<g transform="translate(63.6,144.9)" stroke="none" fill="black" font-family="Helvetica" font-size="12.00"  text-anchor="end">
		<text><tspan font-family="Helvetica" > 3</tspan></text>
	</g>
</g>
<g fill="none" color="black" stroke="currentColor" stroke-width="1.00" stroke-linecap="butt" stroke-linejoin="miter">
	<path stroke='black'  d='M71.9,54.1 L80.9,54.1  '/>	<g transform="translate(63.6,58.0)" stroke="none" fill="black" font-family="Helvetica" font-size="12.00"  text-anchor="end">
		<text><tspan font-family="Helvetica" > 3.5</tspan></text>
	</g>
</g>
<g fill="none" color="black" stroke="currentColor" stroke-width="1.00" stroke-linecap="butt" stroke-linejoin="miter">
	<path stroke='black'  d='M79.8,662.4 L79.8,653.4  '/>	<g transform="translate(79.8,684.3)" stroke="none" fill="black" font-family="Helvetica" font-size="12.00"  text-anchor="middle">
		<text><tspan font-family="Helvetica" > 761.8</tspan></text>
	</g>
</g>
<g fill="none" color="black" stroke="currentColor" stroke-width="1.00" stroke-linecap="butt" stroke-linejoin="miter">
	<path stroke='black'  d='M234.2,662.4 L234.2,653.4  '/>	<g transform="translate(234.2,684.3)" stroke="none" fill="black" font-family="Helvetica" font-size="12.00"  text-anchor="middle">
		<text><tspan font-family="Helvetica" > 761.9</tspan></text>
	</g>
</g>
<g fill="none" color="black" stroke="currentColor" stroke-width="1.00" stroke-linecap="butt" stroke-linejoin="miter">
	<path stroke='black'  d='M388.5,662.4 L388.5,653.4  '/>	<g transform="translate(388.5,684.3)" stroke="none" fill="black" font-family="Helvetica" font-size="12.00"  text-anchor="middle">
		<text><tspan font-family="Helvetica" > 762</tspan></text>
	</g>
</g>
<g fill="none" color="black" stroke="currentColor" stroke-width="1.00" stroke-linecap="butt" stroke-linejoin="miter">
	<path stroke='black'  d='M542.9,662.4 L542.9,653.4  '/>	<g transform="translate(542.9,684.3)" stroke="none" fill="black" font-family="Helvetica" font-size="12.00"  text-anchor="middle">
		<text><tspan font-family="Helvetica" > 762.1</tspan></text>
	</g>
</g>
<g fill="none" color="black" stroke="currentColor" stroke-width="1.00" stroke-linecap="butt" stroke-linejoin="miter">
	<path stroke='black'  d='M697.3,662.4 L697.3,653.4  '/>	<g transform="translate(697.3,684.3)" stroke="none" fill="black" font-family="Helvetica" font-size="12.00"  text-anchor="middle">
		<text><tspan font-family="Helvetica" > 762.2</tspan></text>
	</g>
</g>
<g fill="none" color="black" stroke="currentColor" stroke-width="1.00" stroke-linecap="butt" stroke-linejoin="miter">
	<path stroke='black'  d='M851.7,662.4 L851.7,653.4  '/>	<g transform="translate(851.7,684.3)" stroke="none" fill="black" font-family="Helvetica" font-size="12.00"  text-anchor="middle">
		<text><tspan font-family="Helvetica" > 762.3</tspan></text>
	</g>
</g>
<g fill="none" color="black" stroke="currentColor" stroke-width="1.00" stroke-linecap="butt" stroke-linejoin="miter">
	<path stroke='black'  d='M1006.0,662.4 L1006.0,653.4  '/>	<g transform="translate(1006.0,684.3)" stroke="none" fill="black" font-family="Helvetica" font-size="12.00"  text-anchor="middle">
		<text><tspan font-family="Helvetica" > 762.4</tspan></text>
	</g>
</g>
<g fill="none" color="black" stroke="currentColor" stroke-width="1.00" stroke-linecap="butt" stroke-linejoin="miter">
</g>
<g fill="none" color="black" stroke="currentColor" stroke-width="1.00" stroke-linecap="butt" stroke-linejoin="miter">
	<path stroke='black'  d='M71.9,54.1 L71.9,662.4 L1013.6,662.4 L1013.6,54.1 L71.9,54.1 Z  '/></g>
<g fill="none" color="black" stroke="currentColor" stroke-width="1.00" stroke-linecap="butt" stroke-linejoin="miter">
	<g transform="translate(19.0,358.3) rotate(270)" stroke="none" fill="black" font-family="Helvetica" font-size="12.00"  text-anchor="middle">
		<text><tspan font-family="Helvetica" >Density (a.u.)</tspan></text>
	</g>
</g>
<g fill="none" color="black" stroke="currentColor" stroke-width="1.00" stroke-linecap="butt" stroke-linejoin="miter">
	<g transform="translate(542.7,711.3)" stroke="none" fill="black" font-family="Helvetica" font-size="12.00"  text-anchor="middle">
		<text><tspan font-family="Helvetica" >Average time (ns)</tspan></text>
	</g>
</g>
<g fill="none" color="black" stroke="currentColor" stroke-width="1.00" stroke-linecap="butt" stroke-linejoin="miter">
	<g transform="translate(542.7,31.0)" stroke="none" fill="black" font-family="Helvetica" font-size="12.00"  text-anchor="middle">
		<text><tspan font-family="Helvetica" >bench_group/blake3/256: mean</tspan></text>
	</g>
</g>
<g fill="none" color="black" stroke="currentColor" stroke-width="1.00" stroke-linecap="butt" stroke-linejoin="miter">
</g>
	<g id="gnuplot_plot_1" ><title>Bootstrap distribution</title>
<g fill="none" color="white" stroke="currentColor" stroke-width="2.00" stroke-linecap="butt" stroke-linejoin="miter">
</g>
<g fill="none" color="black" stroke="currentColor" stroke-width="2.00" stroke-linecap="butt" stroke-linejoin="miter">
	<g transform="translate(1089.0,67.0)" stroke="none" fill="black" font-family="Helvetica" font-size="12.00"  text-anchor="start">
		<text><tspan font-family="Helvetica" >Bootstrap distribution</tspan></text>
	</g>
</g>
<g fill="none" color="black" stroke="currentColor" stroke-width="2.00" stroke-linecap="butt" stroke-linejoin="miter">
	<path stroke='rgb( 31, 120, 180)'  d='M1038.5,63.1 L1080.7,63.1 M71.9,630.8 L73.8,630.0 L75.7,629.2 L77.6,628.3 L79.4,627.5 L81.3,626.6
		L83.2,625.6 L85.1,624.7 L87.0,623.7 L88.9,622.8 L90.8,621.7 L92.7,620.7 L94.5,619.6 L96.4,618.5
		L98.3,617.4 L100.2,616.3 L102.1,615.1 L104.0,613.9 L105.9,612.7 L107.8,611.5 L109.6,610.2 L111.5,608.9
		L113.4,607.6 L115.3,606.3 L117.2,605.0 L119.1,603.6 L121.0,602.2 L122.9,600.8 L124.7,599.3 L126.6,597.9
		L128.5,596.4 L130.4,594.9 L132.3,593.4 L134.2,591.9 L136.1,590.3 L138.0,588.8 L139.8,587.2 L141.7,585.6
		L143.6,584.0 L145.5,582.3 L147.4,580.7 L149.3,579.0 L151.2,577.3 L153.0,575.6 L154.9,573.8 L156.8,572.0
		L158.7,570.2 L160.6,568.4 L162.5,566.6 L164.4,564.7 L166.3,562.8 L168.1,560.9 L170.0,558.9 L171.9,556.9
		L173.8,554.9 L175.7,552.8 L177.6,550.7 L179.5,548.5 L181.4,546.3 L183.2,544.1 L185.1,541.9 L187.0,539.6
		L188.9,537.3 L190.8,535.0 L192.7,532.6 L194.6,530.3 L196.5,527.9 L198.3,525.5 L200.2,523.1 L202.1,520.7
		L204.0,518.3 L205.9,516.0 L207.8,513.6 L209.7,511.2 L211.6,508.8 L213.4,506.4 L215.3,504.0 L217.2,501.6
		L219.1,499.2 L221.0,496.8 L222.9,494.4 L224.8,491.9 L226.6,489.4 L228.5,486.9 L230.4,484.4 L232.3,481.8
		L234.2,479.2 L236.1,476.5 L238.0,473.8 L239.9,471.0 L241.7,468.2 L243.6,465.3 L245.5,462.4 L247.4,459.5
		L249.3,456.5 L251.2,453.4 L253.1,450.3 L255.0,447.2 L256.8,444.0 L258.7,440.8 L260.6,437.6 L262.5,434.3
		L264.4,431.0 L266.3,427.6 L268.2,424.2 L270.1,420.8 L271.9,417.3 L273.8,413.8 L275.7,410.3 L277.6,406.7
		L279.5,403.1 L281.4,399.4 L283.3,395.7 L285.2,392.0 L287.0,388.3 L288.9,384.5 L290.8,380.6 L292.7,376.8
		L294.6,372.9 L296.5,369.1 L298.4,365.2 L300.2,361.3 L302.1,357.4 L304.0,353.5 L305.9,349.7 L307.8,345.8
		L309.7,342.0 L311.6,338.3 L313.5,334.6 L315.3,330.9 L317.2,327.2 L319.1,323.6 L321.0,320.1 L322.9,316.6
		L324.8,313.1 L326.7,309.7 L328.6,306.3 L330.4,303.0 L332.3,299.8 L334.2,296.5 L336.1,293.3 L338.0,290.2
		L339.9,287.1 L341.8,284.0 L343.7,281.0 L345.5,278.1 L347.4,275.2 L349.3,272.3 L351.2,269.5 L353.1,266.7
		L355.0,264.0 L356.9,261.3 L358.8,258.7 L360.6,256.1 L362.5,253.5 L364.4,251.0 L366.3,248.5 L368.2,246.0
		L370.1,243.5 L372.0,241.1 L373.8,238.6 L375.7,236.1 L377.6,233.6 L379.5,231.1 L381.4,228.6 L383.3,226.0
		L385.2,223.4 L387.1,220.8 L388.9,218.2 L390.8,215.5 L392.7,212.8 L394.6,210.1 L396.5,207.3 L398.4,204.6
		L400.3,201.8 L402.2,199.1 L404.0,196.3 L405.9,193.5 L407.8,190.8 L409.7,188.0 L411.6,185.3 L413.5,182.7
		L415.4,180.0 L417.3,177.4 L419.1,174.8 L421.0,172.3 L422.9,169.8 L424.8,167.4 L426.7,165.0 L428.6,162.7
		L430.5,160.4 L432.4,158.1 L434.2,156.0 L436.1,153.8 L438.0,151.8 L439.9,149.7 L441.8,147.8 L443.7,145.9
		L445.6,144.0 L447.4,142.2 L449.3,140.5 L451.2,138.8 L453.1,137.2 L455.0,135.7 L456.9,134.2 L458.8,132.8
		L460.7,131.5 L462.5,130.2 L464.4,129.1 L466.3,128.0 L468.2,127.0 L470.1,126.1 L472.0,125.3 L473.9,124.5
		L475.8,123.8 L477.6,123.1 L479.5,122.5 L481.4,122.0 L483.3,121.5 L485.2,121.1 L487.1,120.7 L489.0,120.3
		L490.9,119.9 L492.7,119.5 L494.6,119.2 L496.5,118.8 L498.4,118.5 L500.3,118.2 L502.2,117.9 L504.1,117.6
		L506.0,117.3 L507.8,117.0 L509.7,116.7 L511.6,116.5 L513.5,116.3 L515.4,116.1 L517.3,116.0 L519.2,115.9
		L521.0,115.8 L522.9,115.9 L524.8,116.0 L526.7,116.1 L528.6,116.3 L530.5,116.6 L532.4,117.0 L534.3,117.4
		L536.1,118.0 L538.0,118.6 L539.9,119.3 L541.8,120.1 L543.7,120.9 L545.6,121.9 L547.5,122.9 L549.4,124.0
		L551.2,125.3 L553.1,126.6 L555.0,128.0 L556.9,129.5 L558.8,131.1 L560.7,132.8 L562.6,134.6 L564.5,136.5
		L566.3,138.4 L568.2,140.5 L570.1,142.6 L572.0,144.7 L573.9,146.9 L575.8,149.2 L577.7,151.5 L579.5,153.8
		L581.4,156.1 L583.3,158.4 L585.2,160.7 L587.1,163.0 L589.0,165.3 L590.9,167.5 L592.8,169.7 L594.6,171.8
		L596.5,173.9 L598.4,175.9 L600.3,177.9 L602.2,179.8 L604.1,181.6 L606.0,183.5 L607.9,185.3 L609.7,187.0
		L611.6,188.8 L613.5,190.5 L615.4,192.2 L617.3,194.0 L619.2,195.8 L621.1,197.6 L623.0,199.5 L624.8,201.4
		L626.7,203.4 L628.6,205.5 L630.5,207.6 L632.4,209.8 L634.3,212.1 L636.2,214.4 L638.1,216.9 L639.9,219.4
		L641.8,221.9 L643.7,224.6 L645.6,227.3 L647.5,230.1 L649.4,232.9 L651.3,235.8 L653.1,238.7 L655.0,241.7
		L656.9,244.7 L658.8,247.8 L660.7,250.9 L662.6,254.0 L664.5,257.2 L666.4,260.4 L668.2,263.6 L670.1,266.9
		L672.0,270.1 L673.9,273.4 L675.8,276.7 L677.7,280.0 L679.6,283.4 L681.5,286.7 L683.3,290.0 L685.2,293.3
		L687.1,296.7 L689.0,300.0 L690.9,303.3 L692.8,306.5 L694.7,309.8 L696.6,313.0 L698.4,316.3 L700.3,319.5
		L702.2,322.6 L704.1,325.8 L706.0,328.9 L707.9,332.0 L709.8,335.1 L711.7,338.1 L713.5,341.1 L715.4,344.1
		L717.3,347.1 L719.2,350.0 L721.1,353.0 L723.0,355.8 L724.9,358.7 L726.7,361.5 L728.6,364.3 L730.5,367.1
		L732.4,369.8 L734.3,372.5 L736.2,375.2 L738.1,377.9 L740.0,380.5 L741.8,383.1 L743.7,385.7 L745.6,388.3
		L747.5,390.8 L749.4,393.4 L751.3,395.9 L753.2,398.4 L755.1,400.9 L756.9,403.4 L758.8,406.0 L760.7,408.5
		L762.6,411.0 L764.5,413.6 L766.4,416.1 L768.3,418.7 L770.2,421.3 L772.0,423.8 L773.9,426.4 L775.8,429.1
		L777.7,431.7 L779.6,434.3 L781.5,437.0 L783.4,439.6 L785.3,442.3 L787.1,444.9 L789.0,447.6 L790.9,450.3
		L792.8,452.9 L794.7,455.6 L796.6,458.3 L798.5,460.9 L800.3,463.6 L802.2,466.2 L804.1,468.8 L806.0,471.4
		L807.9,474.0 L809.8,476.6 L811.7,479.1 L813.6,481.7 L815.4,484.1 L817.3,486.6 L819.2,489.0 L821.1,491.4
		L823.0,493.8 L824.9,496.2 L826.8,498.5 L828.7,500.8 L830.5,503.0 L832.4,505.3 L834.3,507.5 L836.2,509.7
		L838.1,511.9 L840.0,514.1 L841.9,516.3 L843.8,518.4 L845.6,520.6 L847.5,522.7 L849.4,524.8 L851.3,526.9
		L853.2,529.0 L855.1,531.1 L857.0,533.2 L858.9,535.2 L860.7,537.3 L862.6,539.3 L864.5,541.2 L866.4,543.2
		L868.3,545.1 L870.2,547.0 L872.1,548.8 L873.9,550.6 L875.8,552.4 L877.7,554.1 L879.6,555.8 L881.5,557.5
		L883.4,559.1 L885.3,560.7 L887.2,562.3 L889.0,563.8 L890.9,565.3 L892.8,566.8 L894.7,568.2 L896.6,569.7
		L898.5,571.1 L900.4,572.5 L902.3,573.9 L904.1,575.2 L906.0,576.6 L907.9,577.9 L909.8,579.3 L911.7,580.6
		L913.6,581.9 L915.5,583.2 L917.4,584.5 L919.2,585.8 L921.1,587.0 L923.0,588.3 L924.9,589.6 L926.8,590.8
		L928.7,592.0 L930.6,593.3 L932.5,594.4 L934.3,595.6 L936.2,596.8 L938.1,597.9 L940.0,599.0 L941.9,600.1
		L943.8,601.2 L945.7,602.3 L947.5,603.3 L949.4,604.3 L951.3,605.3 L953.2,606.2 L955.1,607.2 L957.0,608.1
		L958.9,609.0 L960.8,609.9 L962.6,610.8 L964.5,611.7 L966.4,612.5 L968.3,613.4 L970.2,614.3 L972.1,615.1
		L974.0,616.0 L975.9,616.8 L977.7,617.7 L979.6,618.6 L981.5,619.4 L983.4,620.3 L985.3,621.1 L987.2,622.0
		L989.1,622.8 L991.0,623.7 L992.8,624.5 L994.7,625.3 L996.6,626.1 L998.5,626.9 L1000.4,627.6 L1002.3,628.3
		L1004.2,629.0 L1006.1,629.7 L1007.9,630.4 L1009.8,631.0 L1011.7,631.6 L1013.6,632.2  '/></g>
	</g>
	<g id="gnuplot_plot_2" ><title>Confidence interval</title>
<g fill="none" color="white" stroke="rgb( 31, 120, 180)" stroke-width="1.00" stroke-linecap="butt" stroke-linejoin="miter">
</g>
<g fill="none" color="black" stroke="currentColor" stroke-width="1.00" stroke-linecap="butt" stroke-linejoin="miter">
	<g transform="translate(1089.0,85.0)" stroke="none" fill="black" font-family="Helvetica" font-size="12.00"  text-anchor="start">
		<text><tspan font-family="Helvetica" >Confidence interval</tspan></text>
	</g>
</g>
<g fill="none" color="black" stroke="currentColor" stroke-width="1.00" stroke-linecap="butt" stroke-linejoin="miter">
	<g stroke='none' shape-rendering='crispEdges'>
		<polygon fill = 'rgb( 31, 120, 180)' fill-opacity = '0.250000' points = '1038.5,85.6 1080.7,85.6 1080.7,76.6 1038.5,76.6 '/>
		<polygon fill = 'rgb( 31, 120, 180)' fill-opacity = '0.250000' points = '158.7,570.2 160.6,568.4 162.5,566.6 164.4,564.7 166.3,562.8 168.1,560.9 170.0,558.9 171.9,556.9 173.8,554.9 175.7,552.8 177.6,550.7 179.5,548.5 181.4,546.3 183.2,544.1 185.1,541.9 187.0,539.6
188.9,537.3 190.8,535.0 192.7,532.6 194.6,530.3 196.5,527.9 198.3,525.5 200.2,523.1 202.1,520.7 204.0,518.3 205.9,516.0 207.8,513.6 209.7,511.2 211.6,508.8 213.4,506.4 215.3,504.0 217.2,501.6
219.1,499.2 221.0,496.8 222.9,494.4 224.8,491.9 226.6,489.4 228.5,486.9 230.4,484.4 232.3,481.8 234.2,479.2 236.1,476.5 238.0,473.8 239.9,471.0 241.7,468.2 243.6,465.3 245.5,462.4 247.4,459.5
249.3,456.5 251.2,453.4 253.1,450.3 255.0,447.2 256.8,444.0 258.7,440.8 260.6,437.6 262.5,434.3 264.4,431.0 266.3,427.6 268.2,424.2 270.1,420.8 271.9,417.3 273.8,413.8 275.7,410.3 277.6,406.7
279.5,403.1 281.4,399.4 283.3,395.7 285.2,392.0 287.0,388.3 288.9,384.5 290.8,380.6 292.7,376.8 294.6,372.9 296.5,369.1 298.4,365.2 300.2,361.3 302.1,357.4 304.0,353.5 305.9,349.7 307.8,345.8
309.7,342.0 311.6,338.3 313.5,334.6 315.3,330.9 317.2,327.2 319.1,323.6 321.0,320.1 322.9,316.6 324.8,313.1 326.7,309.7 328.6,306.3 330.4,303.0 332.3,299.8 334.2,296.5 336.1,293.3 338.0,290.2
339.9,287.1 341.8,284.0 343.7,281.0 345.5,278.1 347.4,275.2 349.3,272.3 351.2,269.5 353.1,266.7 355.0,264.0 356.9,261.3 358.8,258.7 360.6,256.1 362.5,253.5 364.4,251.0 366.3,248.5 368.2,246.0
370.1,243.5 372.0,241.1 373.8,238.6 375.7,236.1 377.6,233.6 379.5,231.1 381.4,228.6 383.3,226.0 385.2,223.4 387.1,220.8 388.9,218.2 390.8,215.5 392.7,212.8 394.6,210.1 396.5,207.3 398.4,204.6
400.3,201.8 402.2,199.1 404.0,196.3 405.9,193.5 407.8,190.8 409.7,188.0 411.6,185.3 413.5,182.7 415.4,180.0 417.3,177.4 419.1,174.8 421.0,172.3 422.9,169.8 424.8,167.4 426.7,165.0 428.6,162.7
430.5,160.4 432.4,158.1 434.2,156.0 436.1,153.8 438.0,151.8 439.9,149.7 441.8,147.8 443.7,145.9 445.6,144.0 447.4,142.2 449.3,140.5 451.2,138.8 453.1,137.2 455.0,135.7 456.9,134.2 458.8,132.8
460.7,131.5 462.5,130.2 464.4,129.1 466.3,128.0 468.2,127.0 470.1,126.1 472.0,125.3 473.9,124.5 475.8,123.8 477.6,123.1 479.5,122.5 481.4,122.0 483.3,121.5 485.2,121.1 487.1,120.7 489.0,120.3
490.9,119.9 492.7,119.5 494.6,119.2 496.5,118.8 498.4,118.5 500.3,118.2 502.2,117.9 504.1,117.6 506.0,117.3 507.8,117.0 509.7,116.7 511.6,116.5 513.5,116.3 515.4,116.1 517.3,116.0 519.2,115.9
521.0,115.8 522.9,115.9 524.8,116.0 526.7,116.1 528.6,116.3 530.5,116.6 532.4,117.0 534.3,117.4 536.1,118.0 538.0,118.6 539.9,119.3 541.8,120.1 543.7,120.9 545.6,121.9 547.5,122.9 549.4,124.0
551.2,125.3 553.1,126.6 555.0,128.0 556.9,129.5 558.8,131.1 560.7,132.8 562.6,134.6 564.5,136.5 566.3,138.4 568.2,140.5 570.1,142.6 572.0,144.7 573.9,146.9 575.8,149.2 577.7,151.5 579.5,153.8
581.4,156.1 583.3,158.4 585.2,160.7 587.1,163.0 589.0,165.3 590.9,167.5 592.8,169.7 594.6,171.8 596.5,173.9 598.4,175.9 600.3,177.9 602.2,179.8 604.1,181.6 606.0,183.5 607.9,185.3 609.7,187.0
611.6,188.8 613.5,190.5 615.4,192.2 617.3,194.0 619.2,195.8 621.1,197.6 623.0,199.5 624.8,201.4 626.7,203.4 628.6,205.5 630.5,207.6 632.4,209.8 634.3,212.1 636.2,214.4 638.1,216.9 639.9,219.4
641.8,221.9 643.7,224.6 645.6,227.3 647.5,230.1 649.4,232.9 651.3,235.8 653.1,238.7 655.0,241.7 656.9,244.7 658.8,247.8 660.7,250.9 662.6,254.0 664.5,257.2 666.4,260.4 668.2,263.6 670.1,266.9
672.0,270.1 673.9,273.4 675.8,276.7 677.7,280.0 679.6,283.4 681.5,286.7 683.3,290.0 685.2,293.3 687.1,296.7 689.0,300.0 690.9,303.3 692.8,306.5 694.7,309.8 696.6,313.0 698.4,316.3 700.3,319.5
702.2,322.6 704.1,325.8 706.0,328.9 707.9,332.0 709.8,335.1 711.7,338.1 713.5,341.1 715.4,344.1 717.3,347.1 719.2,350.0 721.1,353.0 723.0,355.8 724.9,358.7 726.7,361.5 728.6,364.3 730.5,367.1
732.4,369.8 734.3,372.5 736.2,375.2 738.1,377.9 740.0,380.5 741.8,383.1 743.7,385.7 745.6,388.3 747.5,390.8 749.4,393.4 751.3,395.9 753.2,398.4 755.1,400.9 756.9,403.4 758.8,406.0 760.7,408.5
762.6,411.0 764.5,413.6 766.4,416.1 768.3,418.7 770.2,421.3 772.0,423.8 773.9,426.4 775.8,429.1 777.7,431.7 779.6,434.3 781.5,437.0 783.4,439.6 785.3,442.3 787.1,444.9 789.0,447.6 790.9,450.3
792.8,452.9 794.7,455.6 796.6,458.3 798.5,460.9 800.3,463.6 802.2,466.2 804.1,468.8 806.0,471.4 807.9,474.0 809.8,476.6 811.7,479.1 813.6,481.7 815.4,484.1 817.3,486.6 819.2,489.0 821.1,491.4
823.0,493.8 824.9,496.2 826.8,498.5 828.7,500.8 830.5,503.0 832.4,505.3 834.3,507.5 836.2,509.7 838.1,511.9 840.0,514.1 841.9,516.3 843.8,518.4 845.6,520.6 847.5,522.7 849.4,524.8 851.3,526.9
853.2,529.0 855.1,531.1 857.0,533.2 858.9,535.2 860.7,537.3 862.6,539.3 864.5,541.2 866.4,543.2 868.3,545.1 870.2,547.0 872.1,548.8 873.9,550.6 875.8,552.4 877.7,554.1 879.6,555.8 881.5,557.5
883.4,559.1 885.3,560.7 887.2,562.3 889.0,563.8 890.9,565.3 892.8,566.8 894.7,568.2 896.6,569.7 898.5,571.1 900.4,572.5 902.3,573.9 904.1,575.2 906.0,576.6 907.9,577.9 909.8,579.3 911.7,580.6
913.6,581.9 915.5,583.2 917.4,584.5 919.2,585.8 921.1,587.0 923.0,588.3 924.9,589.6 924.9,662.4 923.0,662.4 921.1,662.4 919.2,662.4 917.4,662.4 915.5,662.4 913.6,662.4 911.7,662.4 909.8,662.4
907.9,662.4 906.0,662.4 904.1,662.4 902.3,662.4 900.4,662.4 898.5,662.4 896.6,662.4 894.7,662.4 892.8,662.4 890.9,662.4 889.0,662.4 887.2,662.4 885.3,662.4 883.4,662.4 881.5,662.4 879.6,662.4
877.7,662.4 875.8,662.4 873.9,662.4 872.1,662.4 870.2,662.4 868.3,662.4 866.4,662.4 864.5,662.4 862.6,662.4 860.7,662.4 858.9,662.4 857.0,662.4 855.1,662.4 853.2,662.4 851.3,662.4 849.4,662.4
847.5,662.4 845.6,662.4 843.8,662.4 841.9,662.4 840.0,662.4 838.1,662.4 836.2,662.4 834.3,662.4 832.4,662.4 830.5,662.4 828.7,662.4 826.8,662.4 824.9,662.4 823.0,662.4 821.1,662.4 819.2,662.4
817.3,662.4 815.4,662.4 813.6,662.4 811.7,662.4 809.8,662.4 807.9,662.4 806.0,662.4 804.1,662.4 802.2,662.4 800.3,662.4 798.5,662.4 796.6,662.4 794.7,662.4 792.8,662.4 790.9,662.4 789.0,662.4
787.1,662.4 785.3,662.4 783.4,662.4 781.5,662.4 779.6,662.4 777.7,662.4 775.8,662.4 773.9,662.4 772.0,662.4 770.2,662.4 768.3,662.4 766.4,662.4 764.5,662.4 762.6,662.4 760.7,662.4 758.8,662.4
756.9,662.4 755.1,662.4 753.2,662.4 751.3,662.4 749.4,662.4 747.5,662.4 745.6,662.4 743.7,662.4 741.8,662.4 740.0,662.4 738.1,662.4 736.2,662.4 734.3,662.4 732.4,662.4 730.5,662.4 728.6,662.4
726.7,662.4 724.9,662.4 723.0,662.4 721.1,662.4 719.2,662.4 717.3,662.4 715.4,662.4 713.5,662.4 711.7,662.4 709.8,662.4 707.9,662.4 706.0,662.4 704.1,662.4 702.2,662.4 700.3,662.4 698.4,662.4
696.6,662.4 694.7,662.4 692.8,662.4 690.9,662.4 689.0,662.4 687.1,662.4 685.2,662.4 683.3,662.4 681.5,662.4 679.6,662.4 677.7,662.4 675.8,662.4 673.9,662.4 672.0,662.4 670.1,662.4 668.2,662.4
666.4,662.4 664.5,662.4 662.6,662.4 660.7,662.4 658.8,662.4 656.9,662.4 655.0,662.4 653.1,662.4 651.3,662.4 649.4,662.4 647.5,662.4 645.6,662.4 643.7,662.4 641.8,662.4 639.9,662.4 638.1,662.4
636.2,662.4 634.3,662.4 632.4,662.4 630.5,662.4 628.6,662.4 626.7,662.4 624.8,662.4 623.0,662.4 621.1,662.4 619.2,662.4 617.3,662.4 615.4,662.4 613.5,662.4 611.6,662.4 609.7,662.4 607.9,662.4
606.0,662.4 604.1,662.4 602.2,662.4 600.3,662.4 598.4,662.4 596.5,662.4 594.6,662.4 592.8,662.4 590.9,662.4 589.0,662.4 587.1,662.4 585.2,662.4 583.3,662.4 581.4,662.4 579.5,662.4 577.7,662.4
575.8,662.4 573.9,662.4 572.0,662.4 570.1,662.4 568.2,662.4 566.3,662.4 564.5,662.4 562.6,662.4 560.7,662.4 558.8,662.4 556.9,662.4 555.0,662.4 553.1,662.4 551.2,662.4 549.4,662.4 547.5,662.4
545.6,662.4 543.7,662.4 541.8,662.4 539.9,662.4 538.0,662.4 536.1,662.4 534.3,662.4 532.4,662.4 530.5,662.4 528.6,662.4 526.7,662.4 524.8,662.4 522.9,662.4 521.0,662.4 519.2,662.4 517.3,662.4
515.4,662.4 513.5,662.4 511.6,662.4 509.7,662.4 507.8,662.4 506.0,662.4 504.1,662.4 502.2,662.4 500.3,662.4 498.4,662.4 496.5,662.4 494.6,662.4 492.7,662.4 490.9,662.4 489.0,662.4 487.1,662.4
485.2,662.4 483.3,662.4 481.4,662.4 479.5,662.4 477.6,662.4 475.8,662.4 473.9,662.4 472.0,662.4 470.1,662.4 468.2,662.4 466.3,662.4 464.4,662.4 462.5,662.4 460.7,662.4 458.8,662.4 456.9,662.4
455.0,662.4 453.1,662.4 451.2,662.4 449.3,662.4 447.4,662.4 445.6,662.4 443.7,662.4 441.8,662.4 439.9,662.4 438.0,662.4 436.1,662.4 434.2,662.4 432.4,662.4 430.5,662.4 428.6,662.4 426.7,662.4
424.8,662.4 422.9,662.4 421.0,662.4 419.1,662.4 417.3,662.4 415.4,662.4 413.5,662.4 411.6,662.4 409.7,662.4 407.8,662.4 405.9,662.4 404.0,662.4 402.2,662.4 400.3,662.4 398.4,662.4 396.5,662.4
394.6,662.4 392.7,662.4 390.8,662.4 388.9,662.4 387.1,662.4 385.2,662.4 383.3,662.4 381.4,662.4 379.5,662.4 377.6,662.4 375.7,662.4 373.8,662.4 372.0,662.4 370.1,662.4 368.2,662.4 366.3,662.4
364.4,662.4 362.5,662.4 360.6,662.4 358.8,662.4 356.9,662.4 355.0,662.4 353.1,662.4 351.2,662.4 349.3,662.4 347.4,662.4 345.5,662.4 343.7,662.4 341.8,662.4 339.9,662.4 338.0,662.4 336.1,662.4
334.2,662.4 332.3,662.4 330.4,662.4 328.6,662.4 326.7,662.4 324.8,662.4 322.9,662.4 321.0,662.4 319.1,662.4 317.2,662.4 315.3,662.4 313.5,662.4 311.6,662.4 309.7,662.4 307.8,662.4 305.9,662.4
304.0,662.4 302.1,662.4 300.2,662.4 298.4,662.4 296.5,662.4 294.6,662.4 292.7,662.4 290.8,662.4 288.9,662.4 287.0,662.4 285.2,662.4 283.3,662.4 281.4,662.4 279.5,662.4 277.6,662.4 275.7,662.4
273.8,662.4 271.9,662.4 270.1,662.4 268.2,662.4 266.3,662.4 264.4,662.4 262.5,662.4 260.6,662.4 258.7,662.4 256.8,662.4 255.0,662.4 253.1,662.4 251.2,662.4 249.3,662.4 247.4,662.4 245.5,662.4
243.6,662.4 241.7,662.4 239.9,662.4 238.0,662.4 236.1,662.4 234.2,662.4 232.3,662.4 230.4,662.4 228.5,662.4 226.6,662.4 224.8,662.4 222.9,662.4 221.0,662.4 219.1,662.4 217.2,662.4 215.3,662.4
213.4,662.4 211.6,662.4 209.7,662.4 207.8,662.4 205.9,662.4 204.0,662.4 202.1,662.4 200.2,662.4 198.3,662.4 196.5,662.4 194.6,662.4 192.7,662.4 190.8,662.4 188.9,662.4 187.0,662.4 185.1,662.4
183.2,662.4 181.4,662.4 179.5,662.4 177.6,662.4 175.7,662.4 173.8,662.4 171.9,662.4 170.0,662.4 168.1,662.4 166.3,662.4 164.4,662.4 162.5,662.4 160.6,662.4 158.7,662.4 '/>
	</g>
</g>
	</g>
	<g id="gnuplot_plot_3" ><title>Point estimate</title>
<g fill="none" color="white" stroke="rgb( 31, 120, 180)" stroke-width="2.00" stroke-linecap="butt" stroke-linejoin="miter">
</g>
<g fill="none" color="black" stroke="currentColor" stroke-width="2.00" stroke-linecap="butt" stroke-linejoin="miter">
	<g transform="translate(1089.0,103.0)" stroke="none" fill="black" font-family="Helvetica" font-size="12.00"  text-anchor="start">
		<text><tspan font-family="Helvetica" >Point estimate</tspan></text>
	</g>
</g>
<g fill="none" color="black" stroke="currentColor" stroke-width="2.00" stroke-linecap="butt" stroke-linejoin="miter">
	<path stroke='rgb( 31, 120, 180)'  d='M1038.5,99.1 L1080.7,99.1 M526.3,662.4 L526.3,116.1  '/></g>
	</g>
<g fill="none" color="black" stroke="currentColor" stroke-width="2.00" stroke-linecap="butt" stroke-linejoin="miter">
</g>
<g fill="none" color="black" stroke="black" stroke-width="1.00" stroke-linecap="butt" stroke-linejoin="miter">
</g>
<g fill="none" color="black" stroke="currentColor" stroke-width="1.00" stroke-linecap="butt" stroke-linejoin="miter">
	<path stroke='black'  d='M71.9,54.1 L71.9,662.4 L1013.6,662.4 L1013.6,54.1 L71.9,54.1 Z  '/></g>
<g fill="none" color="black" stroke="currentColor" stroke-width="1.00" stroke-linecap="butt" stroke-linejoin="miter">
</g>
</g>
</svg>

