<?xml version="1.0" encoding="utf-8"  standalone="no"?>
<svg 
 viewBox="0 0 1280 720"
 xmlns="http://www.w3.org/2000/svg"
 xmlns:xlink="http://www.w3.org/1999/xlink"
>

<title>Gnuplot</title>
<desc>Produced by GNUPLOT 5.2 patchlevel 8 </desc>

<g id="gnuplot_canvas">

<rect x="0" y="0" width="1280" height="720" fill="none"/>
<defs>

	<circle id='gpDot' r='0.5' stroke-width='0.5' stroke='currentColor'/>
	<path id='gpPt0' stroke-width='0.222' stroke='currentColor' d='M-1,0 h2 M0,-1 v2'/>
	<path id='gpPt1' stroke-width='0.222' stroke='currentColor' d='M-1,-1 L1,1 M1,-1 L-1,1'/>
	<path id='gpPt2' stroke-width='0.222' stroke='currentColor' d='M-1,0 L1,0 M0,-1 L0,1 M-1,-1 L1,1 M-1,1 L1,-1'/>
	<rect id='gpPt3' stroke-width='0.222' stroke='currentColor' x='-1' y='-1' width='2' height='2'/>
	<rect id='gpPt4' stroke-width='0.222' stroke='currentColor' fill='currentColor' x='-1' y='-1' width='2' height='2'/>
	<circle id='gpPt5' stroke-width='0.222' stroke='currentColor' cx='0' cy='0' r='1'/>
	<use xlink:href='#gpPt5' id='gpPt6' fill='currentColor' stroke='none'/>
	<path id='gpPt7' stroke-width='0.222' stroke='currentColor' d='M0,-1.33 L-1.33,0.67 L1.33,0.67 z'/>
	<use xlink:href='#gpPt7' id='gpPt8' fill='currentColor' stroke='none'/>
	<use xlink:href='#gpPt7' id='gpPt9' stroke='currentColor' transform='rotate(180)'/>
	<use xlink:href='#gpPt9' id='gpPt10' fill='currentColor' stroke='none'/>
	<use xlink:href='#gpPt3' id='gpPt11' stroke='currentColor' transform='rotate(45)'/>
	<use xlink:href='#gpPt11' id='gpPt12' fill='currentColor' stroke='none'/>
	<path id='gpPt13' stroke-width='0.222' stroke='currentColor' d='M0,1.330 L1.265,0.411 L0.782,-1.067 L-0.782,-1.076 L-1.265,0.411 z'/>
	<use xlink:href='#gpPt13' id='gpPt14' fill='currentColor' stroke='none'/>
	<filter id='textbox' filterUnits='objectBoundingBox' x='0' y='0' height='1' width='1'>
	  <feFlood flood-color='white' flood-opacity='1' result='bgnd'/>
	  <feComposite in='SourceGraphic' in2='bgnd' operator='atop'/>
	</filter>
	<filter id='greybox' filterUnits='objectBoundingBox' x='0' y='0' height='1' width='1'>
	  <feFlood flood-color='lightgrey' flood-opacity='1' result='grey'/>
	  <feComposite in='SourceGraphic' in2='grey' operator='atop'/>
	</filter>
</defs>
<g fill="none" color="white" stroke="currentColor" stroke-width="1.00" stroke-linecap="butt" stroke-linejoin="miter">
</g>
<g fill="none" color="black" stroke="currentColor" stroke-width="1.00" stroke-linecap="butt" stroke-linejoin="miter">
	<path stroke='black'  d='M63.6,662.4 L72.6,662.4  '/>	<g transform="translate(55.3,666.3)" stroke="none" fill="black" font-family="Helvetica" font-size="12.00"  text-anchor="end">
		<text><tspan font-family="Helvetica" > 0</tspan></text>
	</g>
</g>
<g fill="none" color="black" stroke="currentColor" stroke-width="1.00" stroke-linecap="butt" stroke-linejoin="miter">
	<path stroke='black'  d='M63.6,575.5 L72.6,575.5  '/>	<g transform="translate(55.3,579.4)" stroke="none" fill="black" font-family="Helvetica" font-size="12.00"  text-anchor="end">
		<text><tspan font-family="Helvetica" > 5</tspan></text>
	</g>
</g>
<g fill="none" color="black" stroke="currentColor" stroke-width="1.00" stroke-linecap="butt" stroke-linejoin="miter">
	<path stroke='black'  d='M63.6,488.6 L72.6,488.6  '/>	<g transform="translate(55.3,492.5)" stroke="none" fill="black" font-family="Helvetica" font-size="12.00"  text-anchor="end">
		<text><tspan font-family="Helvetica" > 10</tspan></text>
	</g>
</g>
<g fill="none" color="black" stroke="currentColor" stroke-width="1.00" stroke-linecap="butt" stroke-linejoin="miter">
	<path stroke='black'  d='M63.6,401.7 L72.6,401.7  '/>	<g transform="translate(55.3,405.6)" stroke="none" fill="black" font-family="Helvetica" font-size="12.00"  text-anchor="end">
		<text><tspan font-family="Helvetica" > 15</tspan></text>
	</g>
</g>
<g fill="none" color="black" stroke="currentColor" stroke-width="1.00" stroke-linecap="butt" stroke-linejoin="miter">
	<path stroke='black'  d='M63.6,314.8 L72.6,314.8  '/>	<g transform="translate(55.3,318.7)" stroke="none" fill="black" font-family="Helvetica" font-size="12.00"  text-anchor="end">
		<text><tspan font-family="Helvetica" > 20</tspan></text>
	</g>
</g>
<g fill="none" color="black" stroke="currentColor" stroke-width="1.00" stroke-linecap="butt" stroke-linejoin="miter">
	<path stroke='black'  d='M63.6,227.9 L72.6,227.9  '/>	<g transform="translate(55.3,231.8)" stroke="none" fill="black" font-family="Helvetica" font-size="12.00"  text-anchor="end">
		<text><tspan font-family="Helvetica" > 25</tspan></text>
	</g>
</g>
<g fill="none" color="black" stroke="currentColor" stroke-width="1.00" stroke-linecap="butt" stroke-linejoin="miter">
	<path stroke='black'  d='M63.6,141.0 L72.6,141.0  '/>	<g transform="translate(55.3,144.9)" stroke="none" fill="black" font-family="Helvetica" font-size="12.00"  text-anchor="end">
		<text><tspan font-family="Helvetica" > 30</tspan></text>
	</g>
</g>
<g fill="none" color="black" stroke="currentColor" stroke-width="1.00" stroke-linecap="butt" stroke-linejoin="miter">
	<path stroke='black'  d='M63.6,54.1 L72.6,54.1  '/>	<g transform="translate(55.3,58.0)" stroke="none" fill="black" font-family="Helvetica" font-size="12.00"  text-anchor="end">
		<text><tspan font-family="Helvetica" > 35</tspan></text>
	</g>
</g>
<g fill="none" color="black" stroke="currentColor" stroke-width="1.00" stroke-linecap="butt" stroke-linejoin="miter">
	<path stroke='black'  d='M105.6,662.4 L105.6,653.4  '/>	<g transform="translate(105.6,684.3)" stroke="none" fill="black" font-family="Helvetica" font-size="12.00"  text-anchor="middle">
		<text><tspan font-family="Helvetica" > 227.76</tspan></text>
	</g>
</g>
<g fill="none" color="black" stroke="currentColor" stroke-width="1.00" stroke-linecap="butt" stroke-linejoin="miter">
	<path stroke='black'  d='M272.9,662.4 L272.9,653.4  '/>	<g transform="translate(272.9,684.3)" stroke="none" fill="black" font-family="Helvetica" font-size="12.00"  text-anchor="middle">
		<text><tspan font-family="Helvetica" > 227.77</tspan></text>
	</g>
</g>
<g fill="none" color="black" stroke="currentColor" stroke-width="1.00" stroke-linecap="butt" stroke-linejoin="miter">
	<path stroke='black'  d='M440.2,662.4 L440.2,653.4  '/>	<g transform="translate(440.2,684.3)" stroke="none" fill="black" font-family="Helvetica" font-size="12.00"  text-anchor="middle">
		<text><tspan font-family="Helvetica" > 227.78</tspan></text>
	</g>
</g>
<g fill="none" color="black" stroke="currentColor" stroke-width="1.00" stroke-linecap="butt" stroke-linejoin="miter">
	<path stroke='black'  d='M607.5,662.4 L607.5,653.4  '/>	<g transform="translate(607.5,684.3)" stroke="none" fill="black" font-family="Helvetica" font-size="12.00"  text-anchor="middle">
		<text><tspan font-family="Helvetica" > 227.79</tspan></text>
	</g>
</g>
<g fill="none" color="black" stroke="currentColor" stroke-width="1.00" stroke-linecap="butt" stroke-linejoin="miter">
	<path stroke='black'  d='M774.9,662.4 L774.9,653.4  '/>	<g transform="translate(774.9,684.3)" stroke="none" fill="black" font-family="Helvetica" font-size="12.00"  text-anchor="middle">
		<text><tspan font-family="Helvetica" > 227.8</tspan></text>
	</g>
</g>
<g fill="none" color="black" stroke="currentColor" stroke-width="1.00" stroke-linecap="butt" stroke-linejoin="miter">
	<path stroke='black'  d='M942.2,662.4 L942.2,653.4  '/>	<g transform="translate(942.2,684.3)" stroke="none" fill="black" font-family="Helvetica" font-size="12.00"  text-anchor="middle">
		<text><tspan font-family="Helvetica" > 227.81</tspan></text>
	</g>
</g>
<g fill="none" color="black" stroke="currentColor" stroke-width="1.00" stroke-linecap="butt" stroke-linejoin="miter">
</g>
<g fill="none" color="black" stroke="currentColor" stroke-width="1.00" stroke-linecap="butt" stroke-linejoin="miter">
	<path stroke='black'  d='M63.6,54.1 L63.6,662.4 L1013.6,662.4 L1013.6,54.1 L63.6,54.1 Z  '/></g>
<g fill="none" color="black" stroke="currentColor" stroke-width="1.00" stroke-linecap="butt" stroke-linejoin="miter">
	<g transform="translate(19.0,358.3) rotate(270)" stroke="none" fill="black" font-family="Helvetica" font-size="12.00"  text-anchor="middle">
		<text><tspan font-family="Helvetica" >Density (a.u.)</tspan></text>
	</g>
</g>
<g fill="none" color="black" stroke="currentColor" stroke-width="1.00" stroke-linecap="butt" stroke-linejoin="miter">
	<g transform="translate(538.6,711.3)" stroke="none" fill="black" font-family="Helvetica" font-size="12.00"  text-anchor="middle">
		<text><tspan font-family="Helvetica" >Average time (ns)</tspan></text>
	</g>
</g>
<g fill="none" color="black" stroke="currentColor" stroke-width="1.00" stroke-linecap="butt" stroke-linejoin="miter">
	<g transform="translate(538.6,31.0)" stroke="none" fill="black" font-family="Helvetica" font-size="12.00"  text-anchor="middle">
		<text><tspan font-family="Helvetica" >bench_group/blake3/64: mean</tspan></text>
	</g>
</g>
<g fill="none" color="black" stroke="currentColor" stroke-width="1.00" stroke-linecap="butt" stroke-linejoin="miter">
</g>
	<g id="gnuplot_plot_1" ><title>Bootstrap distribution</title>
<g fill="none" color="white" stroke="currentColor" stroke-width="2.00" stroke-linecap="butt" stroke-linejoin="miter">
</g>
<g fill="none" color="black" stroke="currentColor" stroke-width="2.00" stroke-linecap="butt" stroke-linejoin="miter">
	<g transform="translate(1089.0,67.0)" stroke="none" fill="black" font-family="Helvetica" font-size="12.00"  text-anchor="start">
		<text><tspan font-family="Helvetica" >Bootstrap distribution</tspan></text>
	</g>
</g>
<g fill="none" color="black" stroke="currentColor" stroke-width="2.00" stroke-linecap="butt" stroke-linejoin="miter">
	<path stroke='rgb( 31, 120, 180)'  d='M1038.5,63.1 L1080.7,63.1 M63.6,627.7 L65.5,626.9 L67.4,626.1 L69.3,625.2 L71.2,624.4 L73.1,623.5
		L75.0,622.6 L76.9,621.7 L78.8,620.8 L80.7,619.9 L82.6,618.9 L84.5,617.9 L86.4,616.9 L88.3,615.8
		L90.3,614.7 L92.2,613.6 L94.1,612.5 L96.0,611.3 L97.9,610.1 L99.8,608.8 L101.7,607.5 L103.6,606.2
		L105.5,604.8 L107.4,603.3 L109.3,601.9 L111.2,600.4 L113.1,598.8 L115.0,597.2 L116.9,595.5 L118.8,593.9
		L120.7,592.1 L122.6,590.4 L124.5,588.6 L126.4,586.8 L128.3,585.0 L130.2,583.1 L132.1,581.3 L134.0,579.4
		L135.9,577.5 L137.8,575.6 L139.8,573.7 L141.7,571.8 L143.6,570.0 L145.5,568.1 L147.4,566.2 L149.3,564.2
		L151.2,562.3 L153.1,560.4 L155.0,558.5 L156.9,556.5 L158.8,554.5 L160.7,552.5 L162.6,550.5 L164.5,548.4
		L166.4,546.2 L168.3,544.0 L170.2,541.8 L172.1,539.4 L174.0,537.1 L175.9,534.6 L177.8,532.1 L179.7,529.5
		L181.6,526.8 L183.5,524.1 L185.4,521.3 L187.3,518.5 L189.3,515.5 L191.2,512.6 L193.1,509.5 L195.0,506.5
		L196.9,503.4 L198.8,500.3 L200.7,497.1 L202.6,494.0 L204.5,490.8 L206.4,487.7 L208.3,484.5 L210.2,481.3
		L212.1,478.2 L214.0,475.1 L215.9,471.9 L217.8,468.8 L219.7,465.7 L221.6,462.6 L223.5,459.4 L225.4,456.3
		L227.3,453.2 L229.2,450.1 L231.1,446.9 L233.0,443.8 L234.9,440.6 L236.8,437.4 L238.8,434.2 L240.7,431.0
		L242.6,427.7 L244.5,424.4 L246.4,421.2 L248.3,417.9 L250.2,414.6 L252.1,411.3 L254.0,407.9 L255.9,404.6
		L257.8,401.3 L259.7,398.0 L261.6,394.6 L263.5,391.3 L265.4,388.0 L267.3,384.7 L269.2,381.4 L271.1,378.1
		L273.0,374.8 L274.9,371.6 L276.8,368.4 L278.7,365.1 L280.6,361.9 L282.5,358.7 L284.4,355.5 L286.3,352.3
		L288.2,349.1 L290.2,345.9 L292.1,342.8 L294.0,339.6 L295.9,336.4 L297.8,333.2 L299.7,330.0 L301.6,326.7
		L303.5,323.5 L305.4,320.2 L307.3,316.9 L309.2,313.5 L311.1,310.2 L313.0,306.8 L314.9,303.4 L316.8,299.9
		L318.7,296.5 L320.6,293.0 L322.5,289.4 L324.4,285.9 L326.3,282.4 L328.2,278.8 L330.1,275.2 L332.0,271.7
		L333.9,268.1 L335.8,264.6 L337.7,261.1 L339.7,257.6 L341.6,254.1 L343.5,250.7 L345.4,247.3 L347.3,243.9
		L349.2,240.6 L351.1,237.3 L353.0,234.0 L354.9,230.8 L356.8,227.5 L358.7,224.3 L360.6,221.2 L362.5,218.0
		L364.4,214.9 L366.3,211.7 L368.2,208.6 L370.1,205.4 L372.0,202.3 L373.9,199.2 L375.8,196.0 L377.7,192.9
		L379.6,189.8 L381.5,186.6 L383.4,183.5 L385.3,180.3 L387.2,177.2 L389.2,174.1 L391.1,171.0 L393.0,167.8
		L394.9,164.8 L396.8,161.7 L398.7,158.6 L400.6,155.6 L402.5,152.6 L404.4,149.6 L406.3,146.7 L408.2,143.8
		L410.1,140.9 L412.0,138.1 L413.9,135.4 L415.8,132.7 L417.7,130.1 L419.6,127.6 L421.5,125.1 L423.4,122.7
		L425.3,120.4 L427.2,118.1 L429.1,116.0 L431.0,113.9 L432.9,112.0 L434.8,110.1 L436.7,108.2 L438.7,106.5
		L440.6,104.8 L442.5,103.2 L444.4,101.7 L446.3,100.2 L448.2,98.8 L450.1,97.4 L452.0,96.1 L453.9,94.9
		L455.8,93.6 L457.7,92.5 L459.6,91.3 L461.5,90.2 L463.4,89.1 L465.3,88.1 L467.2,87.1 L469.1,86.2
		L471.0,85.2 L472.9,84.4 L474.8,83.5 L476.7,82.7 L478.6,82.0 L480.5,81.3 L482.4,80.7 L484.3,80.1
		L486.2,79.6 L488.1,79.1 L490.1,78.7 L492.0,78.3 L493.9,78.0 L495.8,77.8 L497.7,77.6 L499.6,77.4
		L501.5,77.4 L503.4,77.4 L505.3,77.4 L507.2,77.5 L509.1,77.7 L511.0,77.9 L512.9,78.2 L514.8,78.5
		L516.7,78.9 L518.6,79.4 L520.5,79.9 L522.4,80.5 L524.3,81.2 L526.2,81.9 L528.1,82.7 L530.0,83.5
		L531.9,84.5 L533.8,85.5 L535.7,86.6 L537.6,87.7 L539.6,89.0 L541.5,90.3 L543.4,91.7 L545.3,93.1
		L547.2,94.6 L549.1,96.2 L551.0,97.8 L552.9,99.4 L554.8,101.2 L556.7,102.9 L558.6,104.7 L560.5,106.5
		L562.4,108.4 L564.3,110.3 L566.2,112.1 L568.1,114.0 L570.0,115.9 L571.9,117.8 L573.8,119.7 L575.7,121.6
		L577.6,123.5 L579.5,125.4 L581.4,127.3 L583.3,129.2 L585.2,131.0 L587.1,132.9 L589.1,134.7 L591.0,136.6
		L592.9,138.4 L594.8,140.3 L596.7,142.2 L598.6,144.1 L600.5,146.0 L602.4,147.9 L604.3,149.9 L606.2,151.9
		L608.1,153.9 L610.0,156.0 L611.9,158.1 L613.8,160.3 L615.7,162.5 L617.6,164.8 L619.5,167.1 L621.4,169.5
		L623.3,171.9 L625.2,174.3 L627.1,176.8 L629.0,179.4 L630.9,182.0 L632.8,184.6 L634.7,187.3 L636.6,190.0
		L638.5,192.7 L640.5,195.5 L642.4,198.3 L644.3,201.1 L646.2,204.0 L648.1,206.9 L650.0,209.8 L651.9,212.7
		L653.8,215.7 L655.7,218.7 L657.6,221.8 L659.5,224.8 L661.4,227.9 L663.3,231.1 L665.2,234.2 L667.1,237.4
		L669.0,240.6 L670.9,243.8 L672.8,247.0 L674.7,250.3 L676.6,253.5 L678.5,256.8 L680.4,260.1 L682.3,263.4
		L684.2,266.7 L686.1,270.0 L688.0,273.3 L690.0,276.6 L691.9,279.8 L693.8,283.1 L695.7,286.4 L697.6,289.7
		L699.5,293.0 L701.4,296.3 L703.3,299.5 L705.2,302.8 L707.1,306.1 L709.0,309.3 L710.9,312.5 L712.8,315.7
		L714.7,318.9 L716.6,322.1 L718.5,325.2 L720.4,328.4 L722.3,331.5 L724.2,334.6 L726.1,337.7 L728.0,340.8
		L729.9,343.8 L731.8,346.9 L733.7,349.9 L735.6,352.9 L737.5,356.0 L739.5,359.0 L741.4,362.0 L743.3,365.1
		L745.2,368.1 L747.1,371.2 L749.0,374.2 L750.9,377.3 L752.8,380.4 L754.7,383.5 L756.6,386.6 L758.5,389.8
		L760.4,392.9 L762.3,396.1 L764.2,399.2 L766.1,402.4 L768.0,405.6 L769.9,408.7 L771.8,411.9 L773.7,415.1
		L775.6,418.2 L777.5,421.4 L779.4,424.5 L781.3,427.6 L783.2,430.7 L785.1,433.7 L787.0,436.7 L789.0,439.7
		L790.9,442.7 L792.8,445.6 L794.7,448.5 L796.6,451.4 L798.5,454.2 L800.4,457.0 L802.3,459.8 L804.2,462.5
		L806.1,465.2 L808.0,467.8 L809.9,470.4 L811.8,473.0 L813.7,475.5 L815.6,478.0 L817.5,480.5 L819.4,482.9
		L821.3,485.3 L823.2,487.6 L825.1,489.9 L827.0,492.2 L828.9,494.5 L830.8,496.7 L832.7,498.9 L834.6,501.0
		L836.5,503.1 L838.4,505.2 L840.4,507.3 L842.3,509.3 L844.2,511.3 L846.1,513.2 L848.0,515.1 L849.9,517.0
		L851.8,518.8 L853.7,520.7 L855.6,522.5 L857.5,524.2 L859.4,526.0 L861.3,527.8 L863.2,529.5 L865.1,531.2
		L867.0,532.9 L868.9,534.7 L870.8,536.4 L872.7,538.1 L874.6,539.8 L876.5,541.6 L878.4,543.3 L880.3,545.1
		L882.2,546.9 L884.1,548.6 L886.0,550.4 L887.9,552.2 L889.9,554.0 L891.8,555.8 L893.7,557.6 L895.6,559.4
		L897.5,561.2 L899.4,562.9 L901.3,564.7 L903.2,566.4 L905.1,568.1 L907.0,569.7 L908.9,571.4 L910.8,573.0
		L912.7,574.5 L914.6,576.0 L916.5,577.5 L918.4,579.0 L920.3,580.4 L922.2,581.8 L924.1,583.1 L926.0,584.4
		L927.9,585.7 L929.8,586.9 L931.7,588.2 L933.6,589.4 L935.5,590.6 L937.4,591.7 L939.4,592.9 L941.3,594.1
		L943.2,595.3 L945.1,596.4 L947.0,597.6 L948.9,598.7 L950.8,599.9 L952.7,601.1 L954.6,602.3 L956.5,603.4
		L958.4,604.6 L960.3,605.8 L962.2,607.0 L964.1,608.1 L966.0,609.3 L967.9,610.4 L969.8,611.6 L971.7,612.7
		L973.6,613.7 L975.5,614.8 L977.4,615.8 L979.3,616.8 L981.2,617.8 L983.1,618.8 L985.0,619.7 L986.9,620.5
		L988.9,621.4 L990.8,622.2 L992.7,622.9 L994.6,623.7 L996.5,624.4 L998.4,625.1 L1000.3,625.7 L1002.2,626.4
		L1004.1,627.0 L1006.0,627.5 L1007.9,628.1 L1009.8,628.6 L1011.7,629.2 L1013.6,629.7  '/></g>
	</g>
	<g id="gnuplot_plot_2" ><title>Confidence interval</title>
<g fill="none" color="white" stroke="rgb( 31, 120, 180)" stroke-width="1.00" stroke-linecap="butt" stroke-linejoin="miter">
</g>
<g fill="none" color="black" stroke="currentColor" stroke-width="1.00" stroke-linecap="butt" stroke-linejoin="miter">
	<g transform="translate(1089.0,85.0)" stroke="none" fill="black" font-family="Helvetica" font-size="12.00"  text-anchor="start">
		<text><tspan font-family="Helvetica" >Confidence interval</tspan></text>
	</g>
</g>
<g fill="none" color="black" stroke="currentColor" stroke-width="1.00" stroke-linecap="butt" stroke-linejoin="miter">
	<g stroke='none' shape-rendering='crispEdges'>
		<polygon fill = 'rgb( 31, 120, 180)' fill-opacity = '0.250000' points = '1038.5,85.6 1080.7,85.6 1080.7,76.6 1038.5,76.6 '/>
		<polygon fill = 'rgb( 31, 120, 180)' fill-opacity = '0.250000' points = '151.2,562.3 153.1,560.4 155.0,558.5 156.9,556.5 158.8,554.5 160.7,552.5 162.6,550.5 164.5,548.4 166.4,546.2 168.3,544.0 170.2,541.8 172.1,539.4 174.0,537.1 175.9,534.6 177.8,532.1 179.7,529.5
181.6,526.8 183.5,524.1 185.4,521.3 187.3,518.5 189.3,515.5 191.2,512.6 193.1,509.5 195.0,506.5 196.9,503.4 198.8,500.3 200.7,497.1 202.6,494.0 204.5,490.8 206.4,487.7 208.3,484.5 210.2,481.3
212.1,478.2 214.0,475.1 215.9,471.9 217.8,468.8 219.7,465.7 221.6,462.6 223.5,459.4 225.4,456.3 227.3,453.2 229.2,450.1 231.1,446.9 233.0,443.8 234.9,440.6 236.8,437.4 238.8,434.2 240.7,431.0
242.6,427.7 244.5,424.4 246.4,421.2 248.3,417.9 250.2,414.6 252.1,411.3 254.0,407.9 255.9,404.6 257.8,401.3 259.7,398.0 261.6,394.6 263.5,391.3 265.4,388.0 267.3,384.7 269.2,381.4 271.1,378.1
273.0,374.8 274.9,371.6 276.8,368.4 278.7,365.1 280.6,361.9 282.5,358.7 284.4,355.5 286.3,352.3 288.2,349.1 290.2,345.9 292.1,342.8 294.0,339.6 295.9,336.4 297.8,333.2 299.7,330.0 301.6,326.7
303.5,323.5 305.4,320.2 307.3,316.9 309.2,313.5 311.1,310.2 313.0,306.8 314.9,303.4 316.8,299.9 318.7,296.5 320.6,293.0 322.5,289.4 324.4,285.9 326.3,282.4 328.2,278.8 330.1,275.2 332.0,271.7
333.9,268.1 335.8,264.6 337.7,261.1 339.7,257.6 341.6,254.1 343.5,250.7 345.4,247.3 347.3,243.9 349.2,240.6 351.1,237.3 353.0,234.0 354.9,230.8 356.8,227.5 358.7,224.3 360.6,221.2 362.5,218.0
364.4,214.9 366.3,211.7 368.2,208.6 370.1,205.4 372.0,202.3 373.9,199.2 375.8,196.0 377.7,192.9 379.6,189.8 381.5,186.6 383.4,183.5 385.3,180.3 387.2,177.2 389.2,174.1 391.1,171.0 393.0,167.8
394.9,164.8 396.8,161.7 398.7,158.6 400.6,155.6 402.5,152.6 404.4,149.6 406.3,146.7 408.2,143.8 410.1,140.9 412.0,138.1 413.9,135.4 415.8,132.7 417.7,130.1 419.6,127.6 421.5,125.1 423.4,122.7
425.3,120.4 427.2,118.1 429.1,116.0 431.0,113.9 432.9,112.0 434.8,110.1 436.7,108.2 438.7,106.5 440.6,104.8 442.5,103.2 444.4,101.7 446.3,100.2 448.2,98.8 450.1,97.4 452.0,96.1 453.9,94.9
455.8,93.6 457.7,92.5 459.6,91.3 461.5,90.2 463.4,89.1 465.3,88.1 467.2,87.1 469.1,86.2 471.0,85.2 472.9,84.4 474.8,83.5 476.7,82.7 478.6,82.0 480.5,81.3 482.4,80.7 484.3,80.1
486.2,79.6 488.1,79.1 490.1,78.7 492.0,78.3 493.9,78.0 495.8,77.8 497.7,77.6 499.6,77.4 501.5,77.4 503.4,77.4 505.3,77.4 507.2,77.5 509.1,77.7 511.0,77.9 512.9,78.2 514.8,78.5
516.7,78.9 518.6,79.4 520.5,79.9 522.4,80.5 524.3,81.2 526.2,81.9 528.1,82.7 530.0,83.5 531.9,84.5 533.8,85.5 535.7,86.6 537.6,87.7 539.6,89.0 541.5,90.3 543.4,91.7 545.3,93.1
547.2,94.6 549.1,96.2 551.0,97.8 552.9,99.4 554.8,101.2 556.7,102.9 558.6,104.7 560.5,106.5 562.4,108.4 564.3,110.3 566.2,112.1 568.1,114.0 570.0,115.9 571.9,117.8 573.8,119.7 575.7,121.6
577.6,123.5 579.5,125.4 581.4,127.3 583.3,129.2 585.2,131.0 587.1,132.9 589.1,134.7 591.0,136.6 592.9,138.4 594.8,140.3 596.7,142.2 598.6,144.1 600.5,146.0 602.4,147.9 604.3,149.9 606.2,151.9
608.1,153.9 610.0,156.0 611.9,158.1 613.8,160.3 615.7,162.5 617.6,164.8 619.5,167.1 621.4,169.5 623.3,171.9 625.2,174.3 627.1,176.8 629.0,179.4 630.9,182.0 632.8,184.6 634.7,187.3 636.6,190.0
638.5,192.7 640.5,195.5 642.4,198.3 644.3,201.1 646.2,204.0 648.1,206.9 650.0,209.8 651.9,212.7 653.8,215.7 655.7,218.7 657.6,221.8 659.5,224.8 661.4,227.9 663.3,231.1 665.2,234.2 667.1,237.4
669.0,240.6 670.9,243.8 672.8,247.0 674.7,250.3 676.6,253.5 678.5,256.8 680.4,260.1 682.3,263.4 684.2,266.7 686.1,270.0 688.0,273.3 690.0,276.6 691.9,279.8 693.8,283.1 695.7,286.4 697.6,289.7
699.5,293.0 701.4,296.3 703.3,299.5 705.2,302.8 707.1,306.1 709.0,309.3 710.9,312.5 712.8,315.7 714.7,318.9 716.6,322.1 718.5,325.2 720.4,328.4 722.3,331.5 724.2,334.6 726.1,337.7 728.0,340.8
729.9,343.8 731.8,346.9 733.7,349.9 735.6,352.9 737.5,356.0 739.5,359.0 741.4,362.0 743.3,365.1 745.2,368.1 747.1,371.2 749.0,374.2 750.9,377.3 752.8,380.4 754.7,383.5 756.6,386.6 758.5,389.8
760.4,392.9 762.3,396.1 764.2,399.2 766.1,402.4 768.0,405.6 769.9,408.7 771.8,411.9 773.7,415.1 775.6,418.2 777.5,421.4 779.4,424.5 781.3,427.6 783.2,430.7 785.1,433.7 787.0,436.7 789.0,439.7
790.9,442.7 792.8,445.6 794.7,448.5 796.6,451.4 798.5,454.2 800.4,457.0 802.3,459.8 804.2,462.5 806.1,465.2 808.0,467.8 809.9,470.4 811.8,473.0 813.7,475.5 815.6,478.0 817.5,480.5 819.4,482.9
821.3,485.3 823.2,487.6 825.1,489.9 827.0,492.2 828.9,494.5 830.8,496.7 832.7,498.9 834.6,501.0 836.5,503.1 838.4,505.2 840.4,507.3 842.3,509.3 844.2,511.3 846.1,513.2 848.0,515.1 849.9,517.0
851.8,518.8 853.7,520.7 855.6,522.5 857.5,524.2 859.4,526.0 861.3,527.8 863.2,529.5 865.1,531.2 867.0,532.9 868.9,534.7 870.8,536.4 872.7,538.1 874.6,539.8 876.5,541.6 878.4,543.3 880.3,545.1
882.2,546.9 884.1,548.6 886.0,550.4 887.9,552.2 889.9,554.0 891.8,555.8 893.7,557.6 895.6,559.4 897.5,561.2 899.4,562.9 901.3,564.7 903.2,566.4 905.1,568.1 907.0,569.7 908.9,571.4 910.8,573.0
912.7,574.5 914.6,576.0 916.5,577.5 918.4,579.0 920.3,580.4 922.2,581.8 924.1,583.1 924.1,662.4 922.2,662.4 920.3,662.4 918.4,662.4 916.5,662.4 914.6,662.4 912.7,662.4 910.8,662.4 908.9,662.4
907.0,662.4 905.1,662.4 903.2,662.4 901.3,662.4 899.4,662.4 897.5,662.4 895.6,662.4 893.7,662.4 891.8,662.4 889.9,662.4 887.9,662.4 886.0,662.4 884.1,662.4 882.2,662.4 880.3,662.4 878.4,662.4
876.5,662.4 874.6,662.4 872.7,662.4 870.8,662.4 868.9,662.4 867.0,662.4 865.1,662.4 863.2,662.4 861.3,662.4 859.4,662.4 857.5,662.4 855.6,662.4 853.7,662.4 851.8,662.4 849.9,662.4 848.0,662.4
846.1,662.4 844.2,662.4 842.3,662.4 840.4,662.4 838.4,662.4 836.5,662.4 834.6,662.4 832.7,662.4 830.8,662.4 828.9,662.4 827.0,662.4 825.1,662.4 823.2,662.4 821.3,662.4 819.4,662.4 817.5,662.4
815.6,662.4 813.7,662.4 811.8,662.4 809.9,662.4 808.0,662.4 806.1,662.4 804.2,662.4 802.3,662.4 800.4,662.4 798.5,662.4 796.6,662.4 794.7,662.4 792.8,662.4 790.9,662.4 789.0,662.4 787.0,662.4
785.1,662.4 783.2,662.4 781.3,662.4 779.4,662.4 777.5,662.4 775.6,662.4 773.7,662.4 771.8,662.4 769.9,662.4 768.0,662.4 766.1,662.4 764.2,662.4 762.3,662.4 760.4,662.4 758.5,662.4 756.6,662.4
754.7,662.4 752.8,662.4 750.9,662.4 749.0,662.4 747.1,662.4 745.2,662.4 743.3,662.4 741.4,662.4 739.5,662.4 737.5,662.4 735.6,662.4 733.7,662.4 731.8,662.4 729.9,662.4 728.0,662.4 726.1,662.4
724.2,662.4 722.3,662.4 720.4,662.4 718.5,662.4 716.6,662.4 714.7,662.4 712.8,662.4 710.9,662.4 709.0,662.4 707.1,662.4 705.2,662.4 703.3,662.4 701.4,662.4 699.5,662.4 697.6,662.4 695.7,662.4
693.8,662.4 691.9,662.4 690.0,662.4 688.0,662.4 686.1,662.4 684.2,662.4 682.3,662.4 680.4,662.4 678.5,662.4 676.6,662.4 674.7,662.4 672.8,662.4 670.9,662.4 669.0,662.4 667.1,662.4 665.2,662.4
663.3,662.4 661.4,662.4 659.5,662.4 657.6,662.4 655.7,662.4 653.8,662.4 651.9,662.4 650.0,662.4 648.1,662.4 646.2,662.4 644.3,662.4 642.4,662.4 640.5,662.4 638.5,662.4 636.6,662.4 634.7,662.4
632.8,662.4 630.9,662.4 629.0,662.4 627.1,662.4 625.2,662.4 623.3,662.4 621.4,662.4 619.5,662.4 617.6,662.4 615.7,662.4 613.8,662.4 611.9,662.4 610.0,662.4 608.1,662.4 606.2,662.4 604.3,662.4
602.4,662.4 600.5,662.4 598.6,662.4 596.7,662.4 594.8,662.4 592.9,662.4 591.0,662.4 589.1,662.4 587.1,662.4 585.2,662.4 583.3,662.4 581.4,662.4 579.5,662.4 577.6,662.4 575.7,662.4 573.8,662.4
571.9,662.4 570.0,662.4 568.1,662.4 566.2,662.4 564.3,662.4 562.4,662.4 560.5,662.4 558.6,662.4 556.7,662.4 554.8,662.4 552.9,662.4 551.0,662.4 549.1,662.4 547.2,662.4 545.3,662.4 543.4,662.4
541.5,662.4 539.6,662.4 537.6,662.4 535.7,662.4 533.8,662.4 531.9,662.4 530.0,662.4 528.1,662.4 526.2,662.4 524.3,662.4 522.4,662.4 520.5,662.4 518.6,662.4 516.7,662.4 514.8,662.4 512.9,662.4
511.0,662.4 509.1,662.4 507.2,662.4 505.3,662.4 503.4,662.4 501.5,662.4 499.6,662.4 497.7,662.4 495.8,662.4 493.9,662.4 492.0,662.4 490.1,662.4 488.1,662.4 486.2,662.4 484.3,662.4 482.4,662.4
480.5,662.4 478.6,662.4 476.7,662.4 474.8,662.4 472.9,662.4 471.0,662.4 469.1,662.4 467.2,662.4 465.3,662.4 463.4,662.4 461.5,662.4 459.6,662.4 457.7,662.4 455.8,662.4 453.9,662.4 452.0,662.4
450.1,662.4 448.2,662.4 446.3,662.4 444.4,662.4 442.5,662.4 440.6,662.4 438.7,662.4 436.7,662.4 434.8,662.4 432.9,662.4 431.0,662.4 429.1,662.4 427.2,662.4 425.3,662.4 423.4,662.4 421.5,662.4
419.6,662.4 417.7,662.4 415.8,662.4 413.9,662.4 412.0,662.4 410.1,662.4 408.2,662.4 406.3,662.4 404.4,662.4 402.5,662.4 400.6,662.4 398.7,662.4 396.8,662.4 394.9,662.4 393.0,662.4 391.1,662.4
389.2,662.4 387.2,662.4 385.3,662.4 383.4,662.4 381.5,662.4 379.6,662.4 377.7,662.4 375.8,662.4 373.9,662.4 372.0,662.4 370.1,662.4 368.2,662.4 366.3,662.4 364.4,662.4 362.5,662.4 360.6,662.4
358.7,662.4 356.8,662.4 354.9,662.4 353.0,662.4 351.1,662.4 349.2,662.4 347.3,662.4 345.4,662.4 343.5,662.4 341.6,662.4 339.7,662.4 337.7,662.4 335.8,662.4 333.9,662.4 332.0,662.4 330.1,662.4
328.2,662.4 326.3,662.4 324.4,662.4 322.5,662.4 320.6,662.4 318.7,662.4 316.8,662.4 314.9,662.4 313.0,662.4 311.1,662.4 309.2,662.4 307.3,662.4 305.4,662.4 303.5,662.4 301.6,662.4 299.7,662.4
297.8,662.4 295.9,662.4 294.0,662.4 292.1,662.4 290.2,662.4 288.2,662.4 286.3,662.4 284.4,662.4 282.5,662.4 280.6,662.4 278.7,662.4 276.8,662.4 274.9,662.4 273.0,662.4 271.1,662.4 269.2,662.4
267.3,662.4 265.4,662.4 263.5,662.4 261.6,662.4 259.7,662.4 257.8,662.4 255.9,662.4 254.0,662.4 252.1,662.4 250.2,662.4 248.3,662.4 246.4,662.4 244.5,662.4 242.6,662.4 240.7,662.4 238.8,662.4
236.8,662.4 234.9,662.4 233.0,662.4 231.1,662.4 229.2,662.4 227.3,662.4 225.4,662.4 223.5,662.4 221.6,662.4 219.7,662.4 217.8,662.4 215.9,662.4 214.0,662.4 212.1,662.4 210.2,662.4 208.3,662.4
206.4,662.4 204.5,662.4 202.6,662.4 200.7,662.4 198.8,662.4 196.9,662.4 195.0,662.4 193.1,662.4 191.2,662.4 189.3,662.4 187.3,662.4 185.4,662.4 183.5,662.4 181.6,662.4 179.7,662.4 177.8,662.4
175.9,662.4 174.0,662.4 172.1,662.4 170.2,662.4 168.3,662.4 166.4,662.4 164.5,662.4 162.6,662.4 160.7,662.4 158.8,662.4 156.9,662.4 155.0,662.4 153.1,662.4 151.2,662.4 '/>
	</g>
</g>
	</g>
	<g id="gnuplot_plot_3" ><title>Point estimate</title>
<g fill="none" color="white" stroke="rgb( 31, 120, 180)" stroke-width="2.00" stroke-linecap="butt" stroke-linejoin="miter">
</g>
<g fill="none" color="black" stroke="currentColor" stroke-width="2.00" stroke-linecap="butt" stroke-linejoin="miter">
	<g transform="translate(1089.0,103.0)" stroke="none" fill="black" font-family="Helvetica" font-size="12.00"  text-anchor="start">
		<text><tspan font-family="Helvetica" >Point estimate</tspan></text>
	</g>
</g>
<g fill="none" color="black" stroke="currentColor" stroke-width="2.00" stroke-linecap="butt" stroke-linejoin="miter">
	<path stroke='rgb( 31, 120, 180)'  d='M1038.5,99.1 L1080.7,99.1 M520.5,662.4 L520.5,79.9  '/></g>
	</g>
<g fill="none" color="black" stroke="currentColor" stroke-width="2.00" stroke-linecap="butt" stroke-linejoin="miter">
</g>
<g fill="none" color="black" stroke="black" stroke-width="1.00" stroke-linecap="butt" stroke-linejoin="miter">
</g>
<g fill="none" color="black" stroke="currentColor" stroke-width="1.00" stroke-linecap="butt" stroke-linejoin="miter">
	<path stroke='black'  d='M63.6,54.1 L63.6,662.4 L1013.6,662.4 L1013.6,54.1 L63.6,54.1 Z  '/></g>
<g fill="none" color="black" stroke="currentColor" stroke-width="1.00" stroke-linecap="butt" stroke-linejoin="miter">
</g>
</g>
</svg>

