<?xml version="1.0" encoding="utf-8"  standalone="no"?>
<svg 
 viewBox="0 0 1280 720"
 xmlns="http://www.w3.org/2000/svg"
 xmlns:xlink="http://www.w3.org/1999/xlink"
>

<title>Gnuplot</title>
<desc>Produced by GNUPLOT 5.2 patchlevel 8 </desc>

<g id="gnuplot_canvas">

<rect x="0" y="0" width="1280" height="720" fill="none"/>
<defs>

	<circle id='gpDot' r='0.5' stroke-width='0.5' stroke='currentColor'/>
	<path id='gpPt0' stroke-width='0.222' stroke='currentColor' d='M-1,0 h2 M0,-1 v2'/>
	<path id='gpPt1' stroke-width='0.222' stroke='currentColor' d='M-1,-1 L1,1 M1,-1 L-1,1'/>
	<path id='gpPt2' stroke-width='0.222' stroke='currentColor' d='M-1,0 L1,0 M0,-1 L0,1 M-1,-1 L1,1 M-1,1 L1,-1'/>
	<rect id='gpPt3' stroke-width='0.222' stroke='currentColor' x='-1' y='-1' width='2' height='2'/>
	<rect id='gpPt4' stroke-width='0.222' stroke='currentColor' fill='currentColor' x='-1' y='-1' width='2' height='2'/>
	<circle id='gpPt5' stroke-width='0.222' stroke='currentColor' cx='0' cy='0' r='1'/>
	<use xlink:href='#gpPt5' id='gpPt6' fill='currentColor' stroke='none'/>
	<path id='gpPt7' stroke-width='0.222' stroke='currentColor' d='M0,-1.33 L-1.33,0.67 L1.33,0.67 z'/>
	<use xlink:href='#gpPt7' id='gpPt8' fill='currentColor' stroke='none'/>
	<use xlink:href='#gpPt7' id='gpPt9' stroke='currentColor' transform='rotate(180)'/>
	<use xlink:href='#gpPt9' id='gpPt10' fill='currentColor' stroke='none'/>
	<use xlink:href='#gpPt3' id='gpPt11' stroke='currentColor' transform='rotate(45)'/>
	<use xlink:href='#gpPt11' id='gpPt12' fill='currentColor' stroke='none'/>
	<path id='gpPt13' stroke-width='0.222' stroke='currentColor' d='M0,1.330 L1.265,0.411 L0.782,-1.067 L-0.782,-1.076 L-1.265,0.411 z'/>
	<use xlink:href='#gpPt13' id='gpPt14' fill='currentColor' stroke='none'/>
	<filter id='textbox' filterUnits='objectBoundingBox' x='0' y='0' height='1' width='1'>
	  <feFlood flood-color='white' flood-opacity='1' result='bgnd'/>
	  <feComposite in='SourceGraphic' in2='bgnd' operator='atop'/>
	</filter>
	<filter id='greybox' filterUnits='objectBoundingBox' x='0' y='0' height='1' width='1'>
	  <feFlood flood-color='lightgrey' flood-opacity='1' result='grey'/>
	  <feComposite in='SourceGraphic' in2='grey' operator='atop'/>
	</filter>
</defs>
<g fill="none" color="white" stroke="currentColor" stroke-width="1.00" stroke-linecap="butt" stroke-linejoin="miter">
</g>
<g fill="none" color="black" stroke="currentColor" stroke-width="1.00" stroke-linecap="butt" stroke-linejoin="miter">
	<path stroke='black'  d='M63.6,662.4 L72.6,662.4  '/>	<g transform="translate(55.3,666.3)" stroke="none" fill="black" font-family="Helvetica" font-size="12.00"  text-anchor="end">
		<text><tspan font-family="Helvetica" > 0</tspan></text>
	</g>
</g>
<g fill="none" color="black" stroke="currentColor" stroke-width="1.00" stroke-linecap="butt" stroke-linejoin="miter">
	<path stroke='black'  d='M63.6,582.9 L72.6,582.9  '/>	<g transform="translate(55.3,586.8)" stroke="none" fill="black" font-family="Helvetica" font-size="12.00"  text-anchor="end">
		<text><tspan font-family="Helvetica" > 2</tspan></text>
	</g>
</g>
<g fill="none" color="black" stroke="currentColor" stroke-width="1.00" stroke-linecap="butt" stroke-linejoin="miter">
	<path stroke='black'  d='M63.6,503.4 L72.6,503.4  '/>	<g transform="translate(55.3,507.3)" stroke="none" fill="black" font-family="Helvetica" font-size="12.00"  text-anchor="end">
		<text><tspan font-family="Helvetica" > 4</tspan></text>
	</g>
</g>
<g fill="none" color="black" stroke="currentColor" stroke-width="1.00" stroke-linecap="butt" stroke-linejoin="miter">
	<path stroke='black'  d='M63.6,423.9 L72.6,423.9  '/>	<g transform="translate(55.3,427.8)" stroke="none" fill="black" font-family="Helvetica" font-size="12.00"  text-anchor="end">
		<text><tspan font-family="Helvetica" > 6</tspan></text>
	</g>
</g>
<g fill="none" color="black" stroke="currentColor" stroke-width="1.00" stroke-linecap="butt" stroke-linejoin="miter">
	<path stroke='black'  d='M63.6,344.3 L72.6,344.3  '/>	<g transform="translate(55.3,348.2)" stroke="none" fill="black" font-family="Helvetica" font-size="12.00"  text-anchor="end">
		<text><tspan font-family="Helvetica" > 8</tspan></text>
	</g>
</g>
<g fill="none" color="black" stroke="currentColor" stroke-width="1.00" stroke-linecap="butt" stroke-linejoin="miter">
	<path stroke='black'  d='M63.6,264.8 L72.6,264.8  '/>	<g transform="translate(55.3,268.7)" stroke="none" fill="black" font-family="Helvetica" font-size="12.00"  text-anchor="end">
		<text><tspan font-family="Helvetica" > 10</tspan></text>
	</g>
</g>
<g fill="none" color="black" stroke="currentColor" stroke-width="1.00" stroke-linecap="butt" stroke-linejoin="miter">
	<path stroke='black'  d='M63.6,185.3 L72.6,185.3  '/>	<g transform="translate(55.3,189.2)" stroke="none" fill="black" font-family="Helvetica" font-size="12.00"  text-anchor="end">
		<text><tspan font-family="Helvetica" > 12</tspan></text>
	</g>
</g>
<g fill="none" color="black" stroke="currentColor" stroke-width="1.00" stroke-linecap="butt" stroke-linejoin="miter">
	<path stroke='black'  d='M63.6,105.8 L72.6,105.8  '/>	<g transform="translate(55.3,109.7)" stroke="none" fill="black" font-family="Helvetica" font-size="12.00"  text-anchor="end">
		<text><tspan font-family="Helvetica" > 14</tspan></text>
	</g>
</g>
<g fill="none" color="black" stroke="currentColor" stroke-width="1.00" stroke-linecap="butt" stroke-linejoin="miter">
	<path stroke='black'  d='M155.0,662.4 L155.0,653.4  '/>	<g transform="translate(155.0,684.3)" stroke="none" fill="black" font-family="Helvetica" font-size="12.00"  text-anchor="middle">
		<text><tspan font-family="Helvetica" > 6.485</tspan></text>
	</g>
</g>
<g fill="none" color="black" stroke="currentColor" stroke-width="1.00" stroke-linecap="butt" stroke-linejoin="miter">
	<path stroke='black'  d='M260.2,662.4 L260.2,653.4  '/>	<g transform="translate(260.2,684.3)" stroke="none" fill="black" font-family="Helvetica" font-size="12.00"  text-anchor="middle">
		<text><tspan font-family="Helvetica" > 6.49</tspan></text>
	</g>
</g>
<g fill="none" color="black" stroke="currentColor" stroke-width="1.00" stroke-linecap="butt" stroke-linejoin="miter">
	<path stroke='black'  d='M365.4,662.4 L365.4,653.4  '/>	<g transform="translate(365.4,684.3)" stroke="none" fill="black" font-family="Helvetica" font-size="12.00"  text-anchor="middle">
		<text><tspan font-family="Helvetica" > 6.495</tspan></text>
	</g>
</g>
<g fill="none" color="black" stroke="currentColor" stroke-width="1.00" stroke-linecap="butt" stroke-linejoin="miter">
	<path stroke='black'  d='M470.6,662.4 L470.6,653.4  '/>	<g transform="translate(470.6,684.3)" stroke="none" fill="black" font-family="Helvetica" font-size="12.00"  text-anchor="middle">
		<text><tspan font-family="Helvetica" > 6.5</tspan></text>
	</g>
</g>
<g fill="none" color="black" stroke="currentColor" stroke-width="1.00" stroke-linecap="butt" stroke-linejoin="miter">
	<path stroke='black'  d='M575.8,662.4 L575.8,653.4  '/>	<g transform="translate(575.8,684.3)" stroke="none" fill="black" font-family="Helvetica" font-size="12.00"  text-anchor="middle">
		<text><tspan font-family="Helvetica" > 6.505</tspan></text>
	</g>
</g>
<g fill="none" color="black" stroke="currentColor" stroke-width="1.00" stroke-linecap="butt" stroke-linejoin="miter">
	<path stroke='black'  d='M680.9,662.4 L680.9,653.4  '/>	<g transform="translate(680.9,684.3)" stroke="none" fill="black" font-family="Helvetica" font-size="12.00"  text-anchor="middle">
		<text><tspan font-family="Helvetica" > 6.51</tspan></text>
	</g>
</g>
<g fill="none" color="black" stroke="currentColor" stroke-width="1.00" stroke-linecap="butt" stroke-linejoin="miter">
	<path stroke='black'  d='M786.1,662.4 L786.1,653.4  '/>	<g transform="translate(786.1,684.3)" stroke="none" fill="black" font-family="Helvetica" font-size="12.00"  text-anchor="middle">
		<text><tspan font-family="Helvetica" > 6.515</tspan></text>
	</g>
</g>
<g fill="none" color="black" stroke="currentColor" stroke-width="1.00" stroke-linecap="butt" stroke-linejoin="miter">
	<path stroke='black'  d='M891.3,662.4 L891.3,653.4  '/>	<g transform="translate(891.3,684.3)" stroke="none" fill="black" font-family="Helvetica" font-size="12.00"  text-anchor="middle">
		<text><tspan font-family="Helvetica" > 6.52</tspan></text>
	</g>
</g>
<g fill="none" color="black" stroke="currentColor" stroke-width="1.00" stroke-linecap="butt" stroke-linejoin="miter">
	<path stroke='black'  d='M996.5,662.4 L996.5,653.4  '/>	<g transform="translate(996.5,684.3)" stroke="none" fill="black" font-family="Helvetica" font-size="12.00"  text-anchor="middle">
		<text><tspan font-family="Helvetica" > 6.525</tspan></text>
	</g>
</g>
<g fill="none" color="black" stroke="currentColor" stroke-width="1.00" stroke-linecap="butt" stroke-linejoin="miter">
	<path stroke='black'  d='M1003.9,662.4 L994.9,662.4  '/>	<g transform="translate(1012.2,666.3)" stroke="none" fill="black" font-family="Helvetica" font-size="12.00"  text-anchor="start">
		<text><tspan font-family="Helvetica" > 0</tspan></text>
	</g>
</g>
<g fill="none" color="black" stroke="currentColor" stroke-width="1.00" stroke-linecap="butt" stroke-linejoin="miter">
	<path stroke='black'  d='M1003.9,575.5 L994.9,575.5  '/>	<g transform="translate(1012.2,579.4)" stroke="none" fill="black" font-family="Helvetica" font-size="12.00"  text-anchor="start">
		<text><tspan font-family="Helvetica" > 20</tspan></text>
	</g>
</g>
<g fill="none" color="black" stroke="currentColor" stroke-width="1.00" stroke-linecap="butt" stroke-linejoin="miter">
	<path stroke='black'  d='M1003.9,488.6 L994.9,488.6  '/>	<g transform="translate(1012.2,492.5)" stroke="none" fill="black" font-family="Helvetica" font-size="12.00"  text-anchor="start">
		<text><tspan font-family="Helvetica" > 40</tspan></text>
	</g>
</g>
<g fill="none" color="black" stroke="currentColor" stroke-width="1.00" stroke-linecap="butt" stroke-linejoin="miter">
	<path stroke='black'  d='M1003.9,401.7 L994.9,401.7  '/>	<g transform="translate(1012.2,405.6)" stroke="none" fill="black" font-family="Helvetica" font-size="12.00"  text-anchor="start">
		<text><tspan font-family="Helvetica" > 60</tspan></text>
	</g>
</g>
<g fill="none" color="black" stroke="currentColor" stroke-width="1.00" stroke-linecap="butt" stroke-linejoin="miter">
	<path stroke='black'  d='M1003.9,314.8 L994.9,314.8  '/>	<g transform="translate(1012.2,318.7)" stroke="none" fill="black" font-family="Helvetica" font-size="12.00"  text-anchor="start">
		<text><tspan font-family="Helvetica" > 80</tspan></text>
	</g>
</g>
<g fill="none" color="black" stroke="currentColor" stroke-width="1.00" stroke-linecap="butt" stroke-linejoin="miter">
	<path stroke='black'  d='M1003.9,227.9 L994.9,227.9  '/>	<g transform="translate(1012.2,231.8)" stroke="none" fill="black" font-family="Helvetica" font-size="12.00"  text-anchor="start">
		<text><tspan font-family="Helvetica" > 100</tspan></text>
	</g>
</g>
<g fill="none" color="black" stroke="currentColor" stroke-width="1.00" stroke-linecap="butt" stroke-linejoin="miter">
	<path stroke='black'  d='M1003.9,141.0 L994.9,141.0  '/>	<g transform="translate(1012.2,144.9)" stroke="none" fill="black" font-family="Helvetica" font-size="12.00"  text-anchor="start">
		<text><tspan font-family="Helvetica" > 120</tspan></text>
	</g>
</g>
<g fill="none" color="black" stroke="currentColor" stroke-width="1.00" stroke-linecap="butt" stroke-linejoin="miter">
	<path stroke='black'  d='M1003.9,54.1 L994.9,54.1  '/>	<g transform="translate(1012.2,58.0)" stroke="none" fill="black" font-family="Helvetica" font-size="12.00"  text-anchor="start">
		<text><tspan font-family="Helvetica" > 140</tspan></text>
	</g>
</g>
<g fill="none" color="black" stroke="currentColor" stroke-width="1.00" stroke-linecap="butt" stroke-linejoin="miter">
</g>
<g fill="none" color="black" stroke="currentColor" stroke-width="1.00" stroke-linecap="butt" stroke-linejoin="miter">
	<path stroke='black'  d='M63.6,54.1 L63.6,662.4 L1003.9,662.4 L1003.9,54.1 L63.6,54.1 Z  '/></g>
<g fill="none" color="black" stroke="currentColor" stroke-width="1.00" stroke-linecap="butt" stroke-linejoin="miter">
	<g transform="translate(19.0,358.3) rotate(270)" stroke="none" fill="black" font-family="Helvetica" font-size="12.00"  text-anchor="middle">
		<text><tspan font-family="Helvetica" >Iterations (x 10</tspan><tspan font-family="Helvetica"  font-size="9.6" dy="-6.00px">3</tspan><tspan font-family="Helvetica"  font-size="12.0" dy="6.00px">)</tspan></text>
	</g>
</g>
<g fill="none" color="black" stroke="currentColor" stroke-width="1.00" stroke-linecap="butt" stroke-linejoin="miter">
	<g transform="translate(1066.6,358.3) rotate(270)" stroke="none" fill="black" font-family="Helvetica" font-size="12.00"  text-anchor="middle">
		<text><tspan font-family="Helvetica" >Density (a.u.)</tspan></text>
	</g>
</g>
<g fill="none" color="black" stroke="currentColor" stroke-width="1.00" stroke-linecap="butt" stroke-linejoin="miter">
	<g transform="translate(533.7,711.3)" stroke="none" fill="black" font-family="Helvetica" font-size="12.00"  text-anchor="middle">
		<text><tspan font-family="Helvetica" >Average time (us)</tspan></text>
	</g>
</g>
<g fill="none" color="black" stroke="currentColor" stroke-width="1.00" stroke-linecap="butt" stroke-linejoin="miter">
	<g transform="translate(533.7,31.0)" stroke="none" fill="black" font-family="Helvetica" font-size="12.00"  text-anchor="middle">
		<text><tspan font-family="Helvetica" >bench_group/blake3/3072</tspan></text>
	</g>
</g>
<g fill="none" color="black" stroke="currentColor" stroke-width="1.00" stroke-linecap="butt" stroke-linejoin="miter">
</g>
	<g id="gnuplot_plot_1" ><title>PDF</title>
<g fill="none" color="black" stroke="currentColor" stroke-width="1.00" stroke-linecap="butt" stroke-linejoin="miter">
	<g transform="translate(1147.1,67.0)" stroke="none" fill="black" font-family="Helvetica" font-size="12.00"  text-anchor="start">
		<text><tspan font-family="Helvetica" >PDF</tspan></text>
	</g>
</g>
<g fill="none" color="black" stroke="currentColor" stroke-width="1.00" stroke-linecap="butt" stroke-linejoin="miter">
	<g stroke='none' shape-rendering='crispEdges'>
		<polygon fill = 'rgb( 31, 120, 180)' fill-opacity = '0.250000' points = '1096.6,67.6 1138.8,67.6 1138.8,58.6 1096.6,58.6 '/>
		<polygon fill = 'rgb( 31, 120, 180)' fill-opacity = '0.250000' points = '63.6,662.3 65.5,662.3 67.4,662.3 69.3,662.2 71.1,662.2 73.0,662.2 74.9,662.1 76.8,662.1 78.7,662.1 80.6,662.0 82.4,662.0 84.3,661.9 86.2,661.9 88.1,661.8 90.0,661.7 91.9,661.6
93.7,661.5 95.6,661.4 97.5,661.3 99.4,661.2 101.3,661.0 103.2,660.9 105.1,660.7 106.9,660.6 108.8,660.4 110.7,660.2 112.6,660.0 114.5,659.8 116.4,659.5 118.2,659.2 120.1,659.0 122.0,658.7
123.9,658.4 125.8,658.0 127.7,657.7 129.6,657.3 131.4,656.9 133.3,656.5 135.2,656.1 137.1,655.6 139.0,655.1 140.9,654.6 142.7,654.1 144.6,653.5 146.5,652.9 148.4,652.3 150.3,651.7 152.2,651.0
154.0,650.3 155.9,649.5 157.8,648.7 159.7,647.9 161.6,647.0 163.5,646.1 165.4,645.1 167.2,644.0 169.1,642.9 171.0,641.7 172.9,640.4 174.8,639.1 176.7,637.7 178.5,636.1 180.4,634.5 182.3,632.7
184.2,630.9 186.1,628.9 188.0,626.7 189.9,624.4 191.7,622.0 193.6,619.4 195.5,616.6 197.4,613.7 199.3,610.5 201.2,607.2 203.0,603.6 204.9,599.8 206.8,595.8 208.7,591.5 210.6,587.0 212.5,582.2
214.3,577.2 216.2,571.9 218.1,566.3 220.0,560.4 221.9,554.2 223.8,547.7 225.7,540.9 227.5,533.9 229.4,526.5 231.3,518.8 233.2,510.8 235.1,502.5 237.0,493.9 238.8,485.0 240.7,475.8 242.6,466.3
244.5,456.6 246.4,446.6 248.3,436.3 250.2,425.7 252.0,415.0 253.9,404.0 255.8,392.8 257.7,381.5 259.6,370.0 261.5,358.3 263.3,346.5 265.2,334.7 267.1,322.7 269.0,310.8 270.9,298.8 272.8,286.8
274.6,274.9 276.5,263.0 278.4,251.3 280.3,239.6 282.2,228.2 284.1,217.0 286.0,206.0 287.8,195.3 289.7,184.8 291.6,174.7 293.5,165.0 295.4,155.7 297.3,146.8 299.1,138.4 301.0,130.5 302.9,123.1
304.8,116.2 306.7,109.9 308.6,104.2 310.5,99.0 312.3,94.5 314.2,90.7 316.1,87.5 318.0,84.9 319.9,83.0 321.8,81.8 323.6,81.3 325.5,81.4 327.4,82.2 329.3,83.6 331.2,85.7 333.1,88.4
334.9,91.8 336.8,95.7 338.7,100.3 340.6,105.4 342.5,111.0 344.4,117.2 346.3,123.9 348.1,131.0 350.0,138.6 351.9,146.6 353.8,155.0 355.7,163.8 357.6,172.8 359.4,182.2 361.3,191.8 363.2,201.6
365.1,211.7 367.0,221.9 368.9,232.2 370.8,242.7 372.6,253.3 374.5,263.9 376.4,274.5 378.3,285.2 380.2,295.8 382.1,306.4 383.9,316.9 385.8,327.4 387.7,337.7 389.6,348.0 391.5,358.0 393.4,368.0
395.2,377.7 397.1,387.3 399.0,396.7 400.9,405.9 402.8,414.8 404.7,423.5 406.6,432.0 408.4,440.3 410.3,448.3 412.2,456.0 414.1,463.5 416.0,470.8 417.9,477.7 419.7,484.5 421.6,490.9 423.5,497.1
425.4,503.1 427.3,508.8 429.2,514.3 431.1,519.5 432.9,524.5 434.8,529.3 436.7,533.9 438.6,538.2 440.5,542.4 442.4,546.4 444.2,550.1 446.1,553.8 448.0,557.2 449.9,560.5 451.8,563.6 453.7,566.7
455.5,569.5 457.4,572.3 459.3,575.0 461.2,577.5 463.1,580.0 465.0,582.4 466.9,584.7 468.7,587.0 470.6,589.2 472.5,591.3 474.4,593.4 476.3,595.4 478.2,597.4 480.0,599.3 481.9,601.2 483.8,603.1
485.7,605.0 487.6,606.8 489.5,608.5 491.4,610.3 493.2,612.0 495.1,613.7 497.0,615.4 498.9,617.0 500.8,618.6 502.7,620.2 504.5,621.7 506.4,623.2 508.3,624.7 510.2,626.2 512.1,627.6 514.0,628.9
515.8,630.3 517.7,631.6 519.6,632.8 521.5,634.1 523.4,635.2 525.3,636.4 527.2,637.5 529.0,638.5 530.9,639.5 532.8,640.5 534.7,641.4 536.6,642.3 538.5,643.1 540.3,643.9 542.2,644.7 544.1,645.4
546.0,646.0 547.9,646.6 549.8,647.2 551.7,647.7 553.5,648.2 555.4,648.7 557.3,649.1 559.2,649.5 561.1,649.8 563.0,650.1 564.8,650.4 566.7,650.6 568.6,650.8 570.5,651.0 572.4,651.1 574.3,651.2
576.1,651.3 578.0,651.4 579.9,651.4 581.8,651.5 583.7,651.5 585.6,651.5 587.5,651.4 589.3,651.4 591.2,651.4 593.1,651.3 595.0,651.3 596.9,651.3 598.8,651.2 600.6,651.2 602.5,651.1 604.4,651.1
606.3,651.0 608.2,651.0 610.1,651.0 612.0,650.9 613.8,650.9 615.7,650.9 617.6,650.9 619.5,650.9 621.4,650.9 623.3,650.9 625.1,650.9 627.0,650.9 628.9,650.9 630.8,650.9 632.7,651.0 634.6,651.0
636.4,651.0 638.3,651.0 640.2,651.1 642.1,651.1 644.0,651.1 645.9,651.1 647.8,651.1 649.6,651.1 651.5,651.1 653.4,651.1 655.3,651.1 657.2,651.1 659.1,651.1 660.9,651.1 662.8,651.1 664.7,651.1
666.6,651.1 668.5,651.1 670.4,651.1 672.3,651.1 674.1,651.2 676.0,651.2 677.9,651.2 679.8,651.3 681.7,651.3 683.6,651.4 685.4,651.5 687.3,651.6 689.2,651.7 691.1,651.8 693.0,651.9 694.9,652.1
696.7,652.2 698.6,652.4 700.5,652.6 702.4,652.8 704.3,653.0 706.2,653.3 708.1,653.5 709.9,653.8 711.8,654.0 713.7,654.3 715.6,654.6 717.5,654.9 719.4,655.2 721.2,655.5 723.1,655.8 725.0,656.1
726.9,656.4 728.8,656.7 730.7,657.0 732.6,657.3 734.4,657.6 736.3,657.8 738.2,658.1 740.1,658.4 742.0,658.6 743.9,658.9 745.7,659.1 747.6,659.4 749.5,659.6 751.4,659.8 753.3,660.0 755.2,660.2
757.0,660.4 758.9,660.5 760.8,660.7 762.7,660.8 764.6,661.0 766.5,661.1 768.4,661.2 770.2,661.3 772.1,661.4 774.0,661.5 775.9,661.6 777.8,661.6 779.7,661.7 781.5,661.7 783.4,661.7 785.3,661.8
787.2,661.8 789.1,661.8 791.0,661.8 792.9,661.8 794.7,661.8 796.6,661.7 798.5,661.7 800.4,661.7 802.3,661.6 804.2,661.5 806.0,661.5 807.9,661.4 809.8,661.3 811.7,661.2 813.6,661.1 815.5,660.9
817.3,660.8 819.2,660.7 821.1,660.5 823.0,660.3 824.9,660.1 826.8,660.0 828.7,659.8 830.5,659.5 832.4,659.3 834.3,659.1 836.2,658.8 838.1,658.6 840.0,658.3 841.8,658.1 843.7,657.8 845.6,657.5
847.5,657.2 849.4,656.9 851.3,656.7 853.2,656.4 855.0,656.1 856.9,655.8 858.8,655.5 860.7,655.2 862.6,655.0 864.5,654.7 866.3,654.5 868.2,654.2 870.1,654.0 872.0,653.8 873.9,653.6 875.8,653.4
877.6,653.3 879.5,653.2 881.4,653.0 883.3,653.0 885.2,652.9 887.1,652.8 889.0,652.8 890.8,652.8 892.7,652.8 894.6,652.9 896.5,653.0 898.4,653.1 900.3,653.2 902.1,653.3 904.0,653.5 905.9,653.6
907.8,653.8 909.7,654.0 911.6,654.3 913.5,654.5 915.3,654.7 917.2,655.0 919.1,655.3 921.0,655.6 922.9,655.8 924.8,656.1 926.6,656.4 928.5,656.7 930.4,657.0 932.3,657.3 934.2,657.5 936.1,657.8
937.9,658.1 939.8,658.4 941.7,658.6 943.6,658.9 945.5,659.1 947.4,659.4 949.3,659.6 951.1,659.8 953.0,660.0 954.9,660.2 956.8,660.4 958.7,660.5 960.6,660.7 962.4,660.9 964.3,661.0 966.2,661.1
968.1,661.2 970.0,661.4 971.9,661.5 973.8,661.6 975.6,661.6 977.5,661.7 979.4,661.8 981.3,661.9 983.2,661.9 985.1,662.0 986.9,662.0 988.8,662.1 990.7,662.1 992.6,662.2 994.5,662.2 996.4,662.2
998.2,662.2 1000.1,662.3 1002.0,662.3 1003.9,662.3 1003.9,662.4 1002.0,662.4 1000.1,662.4 998.2,662.4 996.4,662.4 994.5,662.4 992.6,662.4 990.7,662.4 988.8,662.4 986.9,662.4 985.1,662.4 983.2,662.4
981.3,662.4 979.4,662.4 977.5,662.4 975.6,662.4 973.8,662.4 971.9,662.4 970.0,662.4 968.1,662.4 966.2,662.4 964.3,662.4 962.4,662.4 960.6,662.4 958.7,662.4 956.8,662.4 954.9,662.4 953.0,662.4
951.1,662.4 949.3,662.4 947.4,662.4 945.5,662.4 943.6,662.4 941.7,662.4 939.8,662.4 937.9,662.4 936.1,662.4 934.2,662.4 932.3,662.4 930.4,662.4 928.5,662.4 926.6,662.4 924.8,662.4 922.9,662.4
921.0,662.4 919.1,662.4 917.2,662.4 915.3,662.4 913.5,662.4 911.6,662.4 909.7,662.4 907.8,662.4 905.9,662.4 904.0,662.4 902.1,662.4 900.3,662.4 898.4,662.4 896.5,662.4 894.6,662.4 892.7,662.4
890.8,662.4 889.0,662.4 887.1,662.4 885.2,662.4 883.3,662.4 881.4,662.4 879.5,662.4 877.6,662.4 875.8,662.4 873.9,662.4 872.0,662.4 870.1,662.4 868.2,662.4 866.3,662.4 864.5,662.4 862.6,662.4
860.7,662.4 858.8,662.4 856.9,662.4 855.0,662.4 853.2,662.4 851.3,662.4 849.4,662.4 847.5,662.4 845.6,662.4 843.7,662.4 841.8,662.4 840.0,662.4 838.1,662.4 836.2,662.4 834.3,662.4 832.4,662.4
830.5,662.4 828.7,662.4 826.8,662.4 824.9,662.4 823.0,662.4 821.1,662.4 819.2,662.4 817.3,662.4 815.5,662.4 813.6,662.4 811.7,662.4 809.8,662.4 807.9,662.4 806.0,662.4 804.2,662.4 802.3,662.4
800.4,662.4 798.5,662.4 796.6,662.4 794.7,662.4 792.9,662.4 791.0,662.4 789.1,662.4 787.2,662.4 785.3,662.4 783.4,662.4 781.5,662.4 779.7,662.4 777.8,662.4 775.9,662.4 774.0,662.4 772.1,662.4
770.2,662.4 768.4,662.4 766.5,662.4 764.6,662.4 762.7,662.4 760.8,662.4 758.9,662.4 757.0,662.4 755.2,662.4 753.3,662.4 751.4,662.4 749.5,662.4 747.6,662.4 745.7,662.4 743.9,662.4 742.0,662.4
740.1,662.4 738.2,662.4 736.3,662.4 734.4,662.4 732.6,662.4 730.7,662.4 728.8,662.4 726.9,662.4 725.0,662.4 723.1,662.4 721.2,662.4 719.4,662.4 717.5,662.4 715.6,662.4 713.7,662.4 711.8,662.4
709.9,662.4 708.1,662.4 706.2,662.4 704.3,662.4 702.4,662.4 700.5,662.4 698.6,662.4 696.7,662.4 694.9,662.4 693.0,662.4 691.1,662.4 689.2,662.4 687.3,662.4 685.4,662.4 683.6,662.4 681.7,662.4
679.8,662.4 677.9,662.4 676.0,662.4 674.1,662.4 672.3,662.4 670.4,662.4 668.5,662.4 666.6,662.4 664.7,662.4 662.8,662.4 660.9,662.4 659.1,662.4 657.2,662.4 655.3,662.4 653.4,662.4 651.5,662.4
649.6,662.4 647.8,662.4 645.9,662.4 644.0,662.4 642.1,662.4 640.2,662.4 638.3,662.4 636.4,662.4 634.6,662.4 632.7,662.4 630.8,662.4 628.9,662.4 627.0,662.4 625.1,662.4 623.3,662.4 621.4,662.4
619.5,662.4 617.6,662.4 615.7,662.4 613.8,662.4 612.0,662.4 610.1,662.4 608.2,662.4 606.3,662.4 604.4,662.4 602.5,662.4 600.6,662.4 598.8,662.4 596.9,662.4 595.0,662.4 593.1,662.4 591.2,662.4
589.3,662.4 587.5,662.4 585.6,662.4 583.7,662.4 581.8,662.4 579.9,662.4 578.0,662.4 576.1,662.4 574.3,662.4 572.4,662.4 570.5,662.4 568.6,662.4 566.7,662.4 564.8,662.4 563.0,662.4 561.1,662.4
559.2,662.4 557.3,662.4 555.4,662.4 553.5,662.4 551.7,662.4 549.8,662.4 547.9,662.4 546.0,662.4 544.1,662.4 542.2,662.4 540.3,662.4 538.5,662.4 536.6,662.4 534.7,662.4 532.8,662.4 530.9,662.4
529.0,662.4 527.2,662.4 525.3,662.4 523.4,662.4 521.5,662.4 519.6,662.4 517.7,662.4 515.8,662.4 514.0,662.4 512.1,662.4 510.2,662.4 508.3,662.4 506.4,662.4 504.5,662.4 502.7,662.4 500.8,662.4
498.9,662.4 497.0,662.4 495.1,662.4 493.2,662.4 491.4,662.4 489.5,662.4 487.6,662.4 485.7,662.4 483.8,662.4 481.9,662.4 480.0,662.4 478.2,662.4 476.3,662.4 474.4,662.4 472.5,662.4 470.6,662.4
468.7,662.4 466.9,662.4 465.0,662.4 463.1,662.4 461.2,662.4 459.3,662.4 457.4,662.4 455.5,662.4 453.7,662.4 451.8,662.4 449.9,662.4 448.0,662.4 446.1,662.4 444.2,662.4 442.4,662.4 440.5,662.4
438.6,662.4 436.7,662.4 434.8,662.4 432.9,662.4 431.1,662.4 429.2,662.4 427.3,662.4 425.4,662.4 423.5,662.4 421.6,662.4 419.7,662.4 417.9,662.4 416.0,662.4 414.1,662.4 412.2,662.4 410.3,662.4
408.4,662.4 406.6,662.4 404.7,662.4 402.8,662.4 400.9,662.4 399.0,662.4 397.1,662.4 395.2,662.4 393.4,662.4 391.5,662.4 389.6,662.4 387.7,662.4 385.8,662.4 383.9,662.4 382.1,662.4 380.2,662.4
378.3,662.4 376.4,662.4 374.5,662.4 372.6,662.4 370.8,662.4 368.9,662.4 367.0,662.4 365.1,662.4 363.2,662.4 361.3,662.4 359.4,662.4 357.6,662.4 355.7,662.4 353.8,662.4 351.9,662.4 350.0,662.4
348.1,662.4 346.3,662.4 344.4,662.4 342.5,662.4 340.6,662.4 338.7,662.4 336.8,662.4 334.9,662.4 333.1,662.4 331.2,662.4 329.3,662.4 327.4,662.4 325.5,662.4 323.6,662.4 321.8,662.4 319.9,662.4
318.0,662.4 316.1,662.4 314.2,662.4 312.3,662.4 310.5,662.4 308.6,662.4 306.7,662.4 304.8,662.4 302.9,662.4 301.0,662.4 299.1,662.4 297.3,662.4 295.4,662.4 293.5,662.4 291.6,662.4 289.7,662.4
287.8,662.4 286.0,662.4 284.1,662.4 282.2,662.4 280.3,662.4 278.4,662.4 276.5,662.4 274.6,662.4 272.8,662.4 270.9,662.4 269.0,662.4 267.1,662.4 265.2,662.4 263.3,662.4 261.5,662.4 259.6,662.4
257.7,662.4 255.8,662.4 253.9,662.4 252.0,662.4 250.2,662.4 248.3,662.4 246.4,662.4 244.5,662.4 242.6,662.4 240.7,662.4 238.8,662.4 237.0,662.4 235.1,662.4 233.2,662.4 231.3,662.4 229.4,662.4
227.5,662.4 225.7,662.4 223.8,662.4 221.9,662.4 220.0,662.4 218.1,662.4 216.2,662.4 214.3,662.4 212.5,662.4 210.6,662.4 208.7,662.4 206.8,662.4 204.9,662.4 203.0,662.4 201.2,662.4 199.3,662.4
197.4,662.4 195.5,662.4 193.6,662.4 191.7,662.4 189.9,662.4 188.0,662.4 186.1,662.4 184.2,662.4 182.3,662.4 180.4,662.4 178.5,662.4 176.7,662.4 174.8,662.4 172.9,662.4 171.0,662.4 169.1,662.4
167.2,662.4 165.4,662.4 163.5,662.4 161.6,662.4 159.7,662.4 157.8,662.4 155.9,662.4 154.0,662.4 152.2,662.4 150.3,662.4 148.4,662.4 146.5,662.4 144.6,662.4 142.7,662.4 140.9,662.4 139.0,662.4
137.1,662.4 135.2,662.4 133.3,662.4 131.4,662.4 129.6,662.4 127.7,662.4 125.8,662.4 123.9,662.4 122.0,662.4 120.1,662.4 118.2,662.4 116.4,662.4 114.5,662.4 112.6,662.4 110.7,662.4 108.8,662.4
106.9,662.4 105.1,662.4 103.2,662.4 101.3,662.4 99.4,662.4 97.5,662.4 95.6,662.4 93.7,662.4 91.9,662.4 90.0,662.4 88.1,662.4 86.2,662.4 84.3,662.4 82.4,662.4 80.6,662.4 78.7,662.4
76.8,662.4 74.9,662.4 73.0,662.4 71.1,662.4 69.3,662.4 67.4,662.4 65.5,662.4 63.6,662.4 '/>
	</g>
</g>
	</g>
	<g id="gnuplot_plot_2" ><title>Mean</title>
<g fill="none" color="white" stroke="rgb( 31, 120, 180)" stroke-width="2.00" stroke-linecap="butt" stroke-linejoin="miter">
</g>
<g fill="none" color="black" stroke="currentColor" stroke-width="2.00" stroke-linecap="butt" stroke-linejoin="miter">
	<g transform="translate(1147.1,85.0)" stroke="none" fill="black" font-family="Helvetica" font-size="12.00"  text-anchor="start">
		<text><tspan font-family="Helvetica" >Mean</tspan></text>
	</g>
</g>
<g fill="none" color="black" stroke="currentColor" stroke-width="2.00" stroke-linecap="butt" stroke-linejoin="miter">
	<path stroke='rgb( 31, 120, 180)'  d='M1096.6,81.1 L1138.8,81.1 M346.3,662.4 L346.3,54.1  '/></g>
	</g>
	<g id="gnuplot_plot_3" ><title>"Clean" sample</title>
<g fill="none" color="white" stroke="rgb( 31, 120, 180)" stroke-width="1.00" stroke-linecap="butt" stroke-linejoin="miter">
</g>
<g fill="none" color="black" stroke="currentColor" stroke-width="1.00" stroke-linecap="butt" stroke-linejoin="miter">
	<g transform="translate(1147.1,103.0)" stroke="none" fill="black" font-family="Helvetica" font-size="12.00"  text-anchor="start">
		<text><tspan font-family="Helvetica" >"Clean" sample</tspan></text>
	</g>
</g>
<g fill="none" color="black" stroke="currentColor" stroke-width="1.00" stroke-linecap="butt" stroke-linejoin="miter">
	<use xlink:href='#gpPt6' transform='translate(449.9,644.2) scale(3.38)' color='rgb( 31, 120, 180)'/>
	<use xlink:href='#gpPt6' transform='translate(353.3,638.1) scale(3.38)' color='rgb( 31, 120, 180)'/>
	<use xlink:href='#gpPt6' transform='translate(241.1,632.0) scale(3.38)' color='rgb( 31, 120, 180)'/>
	<use xlink:href='#gpPt6' transform='translate(273.5,625.9) scale(3.38)' color='rgb( 31, 120, 180)'/>
	<use xlink:href='#gpPt6' transform='translate(224.0,619.8) scale(3.38)' color='rgb( 31, 120, 180)'/>
	<use xlink:href='#gpPt6' transform='translate(384.3,613.7) scale(3.38)' color='rgb( 31, 120, 180)'/>
	<use xlink:href='#gpPt6' transform='translate(392.0,601.6) scale(3.38)' color='rgb( 31, 120, 180)'/>
	<use xlink:href='#gpPt6' transform='translate(276.4,595.5) scale(3.38)' color='rgb( 31, 120, 180)'/>
	<use xlink:href='#gpPt6' transform='translate(381.3,583.3) scale(3.38)' color='rgb( 31, 120, 180)'/>
	<use xlink:href='#gpPt6' transform='translate(417.5,577.2) scale(3.38)' color='rgb( 31, 120, 180)'/>
	<use xlink:href='#gpPt6' transform='translate(455.9,571.2) scale(3.38)' color='rgb( 31, 120, 180)'/>
	<use xlink:href='#gpPt6' transform='translate(269.8,559.0) scale(3.38)' color='rgb( 31, 120, 180)'/>
	<use xlink:href='#gpPt6' transform='translate(374.0,552.9) scale(3.38)' color='rgb( 31, 120, 180)'/>
	<use xlink:href='#gpPt6' transform='translate(376.9,546.8) scale(3.38)' color='rgb( 31, 120, 180)'/>
	<use xlink:href='#gpPt6' transform='translate(309.0,540.7) scale(3.38)' color='rgb( 31, 120, 180)'/>
	<use xlink:href='#gpPt6' transform='translate(369.6,534.7) scale(3.38)' color='rgb( 31, 120, 180)'/>
	<use xlink:href='#gpPt6' transform='translate(259.5,528.6) scale(3.38)' color='rgb( 31, 120, 180)'/>
	<use xlink:href='#gpPt6' transform='translate(366.1,522.5) scale(3.38)' color='rgb( 31, 120, 180)'/>
	<use xlink:href='#gpPt6' transform='translate(278.3,516.4) scale(3.38)' color='rgb( 31, 120, 180)'/>
	<use xlink:href='#gpPt6' transform='translate(250.2,498.2) scale(3.38)' color='rgb( 31, 120, 180)'/>
	<use xlink:href='#gpPt6' transform='translate(322.9,492.1) scale(3.38)' color='rgb( 31, 120, 180)'/>
	<use xlink:href='#gpPt6' transform='translate(393.3,486.0) scale(3.38)' color='rgb( 31, 120, 180)'/>
	<use xlink:href='#gpPt6' transform='translate(278.4,479.9) scale(3.38)' color='rgb( 31, 120, 180)'/>
	<use xlink:href='#gpPt6' transform='translate(328.8,473.8) scale(3.38)' color='rgb( 31, 120, 180)'/>
	<use xlink:href='#gpPt6' transform='translate(310.6,467.7) scale(3.38)' color='rgb( 31, 120, 180)'/>
	<use xlink:href='#gpPt6' transform='translate(313.1,461.7) scale(3.38)' color='rgb( 31, 120, 180)'/>
	<use xlink:href='#gpPt6' transform='translate(406.1,455.6) scale(3.38)' color='rgb( 31, 120, 180)'/>
	<use xlink:href='#gpPt6' transform='translate(276.8,449.5) scale(3.38)' color='rgb( 31, 120, 180)'/>
	<use xlink:href='#gpPt6' transform='translate(333.6,443.4) scale(3.38)' color='rgb( 31, 120, 180)'/>
	<use xlink:href='#gpPt6' transform='translate(302.4,437.3) scale(3.38)' color='rgb( 31, 120, 180)'/>
	<use xlink:href='#gpPt6' transform='translate(274.1,431.2) scale(3.38)' color='rgb( 31, 120, 180)'/>
	<use xlink:href='#gpPt6' transform='translate(349.7,425.2) scale(3.38)' color='rgb( 31, 120, 180)'/>
	<use xlink:href='#gpPt6' transform='translate(412.9,419.1) scale(3.38)' color='rgb( 31, 120, 180)'/>
	<use xlink:href='#gpPt6' transform='translate(344.3,413.0) scale(3.38)' color='rgb( 31, 120, 180)'/>
	<use xlink:href='#gpPt6' transform='translate(344.4,406.9) scale(3.38)' color='rgb( 31, 120, 180)'/>
	<use xlink:href='#gpPt6' transform='translate(328.6,400.8) scale(3.38)' color='rgb( 31, 120, 180)'/>
	<use xlink:href='#gpPt6' transform='translate(336.4,394.7) scale(3.38)' color='rgb( 31, 120, 180)'/>
	<use xlink:href='#gpPt6' transform='translate(325.2,388.7) scale(3.38)' color='rgb( 31, 120, 180)'/>
	<use xlink:href='#gpPt6' transform='translate(333.6,382.6) scale(3.38)' color='rgb( 31, 120, 180)'/>
	<use xlink:href='#gpPt6' transform='translate(348.0,376.5) scale(3.38)' color='rgb( 31, 120, 180)'/>
	<use xlink:href='#gpPt6' transform='translate(285.4,370.4) scale(3.38)' color='rgb( 31, 120, 180)'/>
	<use xlink:href='#gpPt6' transform='translate(258.3,364.3) scale(3.38)' color='rgb( 31, 120, 180)'/>
	<use xlink:href='#gpPt6' transform='translate(363.3,358.2) scale(3.38)' color='rgb( 31, 120, 180)'/>
	<use xlink:href='#gpPt6' transform='translate(300.8,352.2) scale(3.38)' color='rgb( 31, 120, 180)'/>
	<use xlink:href='#gpPt6' transform='translate(334.8,346.1) scale(3.38)' color='rgb( 31, 120, 180)'/>
	<use xlink:href='#gpPt6' transform='translate(319.7,340.0) scale(3.38)' color='rgb( 31, 120, 180)'/>
	<use xlink:href='#gpPt6' transform='translate(342.9,333.9) scale(3.38)' color='rgb( 31, 120, 180)'/>
	<use xlink:href='#gpPt6' transform='translate(352.5,327.8) scale(3.38)' color='rgb( 31, 120, 180)'/>
	<use xlink:href='#gpPt6' transform='translate(325.9,321.8) scale(3.38)' color='rgb( 31, 120, 180)'/>
	<use xlink:href='#gpPt6' transform='translate(312.1,315.7) scale(3.38)' color='rgb( 31, 120, 180)'/>
	<use xlink:href='#gpPt6' transform='translate(340.4,309.6) scale(3.38)' color='rgb( 31, 120, 180)'/>
	<use xlink:href='#gpPt6' transform='translate(283.3,303.5) scale(3.38)' color='rgb( 31, 120, 180)'/>
	<use xlink:href='#gpPt6' transform='translate(314.3,297.4) scale(3.38)' color='rgb( 31, 120, 180)'/>
	<use xlink:href='#gpPt6' transform='translate(429.5,291.3) scale(3.38)' color='rgb( 31, 120, 180)'/>
	<use xlink:href='#gpPt6' transform='translate(382.6,285.3) scale(3.38)' color='rgb( 31, 120, 180)'/>
	<use xlink:href='#gpPt6' transform='translate(293.4,279.2) scale(3.38)' color='rgb( 31, 120, 180)'/>
	<use xlink:href='#gpPt6' transform='translate(306.3,273.1) scale(3.38)' color='rgb( 31, 120, 180)'/>
	<use xlink:href='#gpPt6' transform='translate(352.4,267.0) scale(3.38)' color='rgb( 31, 120, 180)'/>
	<use xlink:href='#gpPt6' transform='translate(323.2,260.9) scale(3.38)' color='rgb( 31, 120, 180)'/>
	<use xlink:href='#gpPt6' transform='translate(368.0,254.8) scale(3.38)' color='rgb( 31, 120, 180)'/>
	<use xlink:href='#gpPt6' transform='translate(340.1,248.8) scale(3.38)' color='rgb( 31, 120, 180)'/>
	<use xlink:href='#gpPt6' transform='translate(465.4,242.7) scale(3.38)' color='rgb( 31, 120, 180)'/>
	<use xlink:href='#gpPt6' transform='translate(322.7,236.6) scale(3.38)' color='rgb( 31, 120, 180)'/>
	<use xlink:href='#gpPt6' transform='translate(321.1,230.5) scale(3.38)' color='rgb( 31, 120, 180)'/>
	<use xlink:href='#gpPt6' transform='translate(318.8,224.4) scale(3.38)' color='rgb( 31, 120, 180)'/>
	<use xlink:href='#gpPt6' transform='translate(257.4,218.3) scale(3.38)' color='rgb( 31, 120, 180)'/>
	<use xlink:href='#gpPt6' transform='translate(317.6,212.3) scale(3.38)' color='rgb( 31, 120, 180)'/>
	<use xlink:href='#gpPt6' transform='translate(310.0,206.2) scale(3.38)' color='rgb( 31, 120, 180)'/>
	<use xlink:href='#gpPt6' transform='translate(348.4,200.1) scale(3.38)' color='rgb( 31, 120, 180)'/>
	<use xlink:href='#gpPt6' transform='translate(391.4,194.0) scale(3.38)' color='rgb( 31, 120, 180)'/>
	<use xlink:href='#gpPt6' transform='translate(304.8,187.9) scale(3.38)' color='rgb( 31, 120, 180)'/>
	<use xlink:href='#gpPt6' transform='translate(309.0,181.8) scale(3.38)' color='rgb( 31, 120, 180)'/>
	<use xlink:href='#gpPt6' transform='translate(327.2,175.8) scale(3.38)' color='rgb( 31, 120, 180)'/>
	<use xlink:href='#gpPt6' transform='translate(336.8,169.7) scale(3.38)' color='rgb( 31, 120, 180)'/>
	<use xlink:href='#gpPt6' transform='translate(334.7,163.6) scale(3.38)' color='rgb( 31, 120, 180)'/>
	<use xlink:href='#gpPt6' transform='translate(369.1,157.5) scale(3.38)' color='rgb( 31, 120, 180)'/>
	<use xlink:href='#gpPt6' transform='translate(375.7,151.4) scale(3.38)' color='rgb( 31, 120, 180)'/>
	<use xlink:href='#gpPt6' transform='translate(343.1,145.3) scale(3.38)' color='rgb( 31, 120, 180)'/>
	<use xlink:href='#gpPt6' transform='translate(316.2,139.3) scale(3.38)' color='rgb( 31, 120, 180)'/>
	<use xlink:href='#gpPt6' transform='translate(309.6,133.2) scale(3.38)' color='rgb( 31, 120, 180)'/>
	<use xlink:href='#gpPt6' transform='translate(339.0,127.1) scale(3.38)' color='rgb( 31, 120, 180)'/>
	<use xlink:href='#gpPt6' transform='translate(387.2,121.0) scale(3.38)' color='rgb( 31, 120, 180)'/>
	<use xlink:href='#gpPt6' transform='translate(300.9,114.9) scale(3.38)' color='rgb( 31, 120, 180)'/>
	<use xlink:href='#gpPt6' transform='translate(291.6,108.8) scale(3.38)' color='rgb( 31, 120, 180)'/>
	<use xlink:href='#gpPt6' transform='translate(291.5,102.8) scale(3.38)' color='rgb( 31, 120, 180)'/>
	<use xlink:href='#gpPt6' transform='translate(298.7,96.7) scale(3.38)' color='rgb( 31, 120, 180)'/>
	<use xlink:href='#gpPt6' transform='translate(324.6,90.6) scale(3.38)' color='rgb( 31, 120, 180)'/>
	<use xlink:href='#gpPt6' transform='translate(294.7,84.5) scale(3.38)' color='rgb( 31, 120, 180)'/>
	<use xlink:href='#gpPt6' transform='translate(332.6,78.4) scale(3.38)' color='rgb( 31, 120, 180)'/>
	<use xlink:href='#gpPt6' transform='translate(298.1,72.3) scale(3.38)' color='rgb( 31, 120, 180)'/>
	<use xlink:href='#gpPt6' transform='translate(271.0,66.3) scale(3.38)' color='rgb( 31, 120, 180)'/>
	<use xlink:href='#gpPt6' transform='translate(371.1,60.2) scale(3.38)' color='rgb( 31, 120, 180)'/>
	<use xlink:href='#gpPt6' transform='translate(304.8,54.1) scale(3.38)' color='rgb( 31, 120, 180)'/>
	<use xlink:href='#gpPt6' transform='translate(1117.7,99.1) scale(3.38)' color='rgb( 31, 120, 180)'/>
</g>
	</g>
	<g id="gnuplot_plot_4" ><title>Mild outliers</title>
<g fill="none" color="black" stroke="currentColor" stroke-width="1.00" stroke-linecap="butt" stroke-linejoin="miter">
	<g transform="translate(1147.1,121.0)" stroke="none" fill="black" font-family="Helvetica" font-size="12.00"  text-anchor="start">
		<text><tspan font-family="Helvetica" >Mild outliers</tspan></text>
	</g>
</g>
<g fill="none" color="black" stroke="currentColor" stroke-width="1.00" stroke-linecap="butt" stroke-linejoin="miter">
	<use xlink:href='#gpPt6' transform='translate(177.7,650.2) scale(3.38)' color='rgb(255, 127,   0)'/>
	<use xlink:href='#gpPt6' transform='translate(480.9,589.4) scale(3.38)' color='rgb(255, 127,   0)'/>
	<use xlink:href='#gpPt6' transform='translate(523.8,565.1) scale(3.38)' color='rgb(255, 127,   0)'/>
	<use xlink:href='#gpPt6' transform='translate(475.0,510.3) scale(3.38)' color='rgb(255, 127,   0)'/>
	<use xlink:href='#gpPt6' transform='translate(1117.7,117.1) scale(3.38)' color='rgb(255, 127,   0)'/>
</g>
	</g>
	<g id="gnuplot_plot_5" ><title>Severe outliers</title>
<g fill="none" color="black" stroke="currentColor" stroke-width="1.00" stroke-linecap="butt" stroke-linejoin="miter">
	<g transform="translate(1147.1,139.0)" stroke="none" fill="black" font-family="Helvetica" font-size="12.00"  text-anchor="start">
		<text><tspan font-family="Helvetica" >Severe outliers</tspan></text>
	</g>
</g>
<g fill="none" color="black" stroke="currentColor" stroke-width="1.00" stroke-linecap="butt" stroke-linejoin="miter">
	<use xlink:href='#gpPt6' transform='translate(889.8,656.3) scale(3.38)' color='rgb(227,  26,  28)'/>
	<use xlink:href='#gpPt6' transform='translate(689.6,607.7) scale(3.38)' color='rgb(227,  26,  28)'/>
	<use xlink:href='#gpPt6' transform='translate(610.9,504.2) scale(3.38)' color='rgb(227,  26,  28)'/>
	<use xlink:href='#gpPt6' transform='translate(1117.7,135.1) scale(3.38)' color='rgb(227,  26,  28)'/>
</g>
	</g>
	<g id="gnuplot_plot_6" ><title>gnuplot_plot_6</title>
<g fill="none" color="white" stroke="rgb(227,  26,  28)" stroke-width="2.00" stroke-linecap="butt" stroke-linejoin="miter">
</g>
<g fill="none" color="black" stroke="currentColor" stroke-width="2.00" stroke-linecap="butt" stroke-linejoin="miter">
	<path stroke='rgb(255, 127,   0)'  d='M201.2,662.4 L201.2,54.1  '/></g>
	</g>
	<g id="gnuplot_plot_7" ><title>gnuplot_plot_7</title>
<g fill="none" color="black" stroke="currentColor" stroke-width="2.00" stroke-linecap="butt" stroke-linejoin="miter">
	<path stroke='rgb(255, 127,   0)'  d='M470.0,662.4 L470.0,54.1  '/></g>
	</g>
	<g id="gnuplot_plot_8" ><title>gnuplot_plot_8</title>
<g fill="none" color="black" stroke="currentColor" stroke-width="2.00" stroke-linecap="butt" stroke-linejoin="miter">
	<path stroke='rgb(227,  26,  28)'  d='M100.4,662.4 L100.4,54.1  '/></g>
	</g>
	<g id="gnuplot_plot_9" ><title>gnuplot_plot_9</title>
<g fill="none" color="black" stroke="currentColor" stroke-width="2.00" stroke-linecap="butt" stroke-linejoin="miter">
	<path stroke='rgb(227,  26,  28)'  d='M570.8,662.4 L570.8,54.1  '/></g>
	</g>
<g fill="none" color="black" stroke="currentColor" stroke-width="2.00" stroke-linecap="butt" stroke-linejoin="miter">
</g>
<g fill="none" color="black" stroke="black" stroke-width="1.00" stroke-linecap="butt" stroke-linejoin="miter">
</g>
<g fill="none" color="black" stroke="currentColor" stroke-width="1.00" stroke-linecap="butt" stroke-linejoin="miter">
	<path stroke='black'  d='M63.6,54.1 L63.6,662.4 L1003.9,662.4 L1003.9,54.1 L63.6,54.1 Z  '/></g>
<g fill="none" color="black" stroke="currentColor" stroke-width="1.00" stroke-linecap="butt" stroke-linejoin="miter">
</g>
</g>
</svg>

