<?xml version="1.0" encoding="utf-8"  standalone="no"?>
<svg 
 viewBox="0 0 1280 720"
 xmlns="http://www.w3.org/2000/svg"
 xmlns:xlink="http://www.w3.org/1999/xlink"
>

<title>Gnuplot</title>
<desc>Produced by GNUPLOT 5.2 patchlevel 8 </desc>

<g id="gnuplot_canvas">

<rect x="0" y="0" width="1280" height="720" fill="none"/>
<defs>

	<circle id='gpDot' r='0.5' stroke-width='0.5' stroke='currentColor'/>
	<path id='gpPt0' stroke-width='0.222' stroke='currentColor' d='M-1,0 h2 M0,-1 v2'/>
	<path id='gpPt1' stroke-width='0.222' stroke='currentColor' d='M-1,-1 L1,1 M1,-1 L-1,1'/>
	<path id='gpPt2' stroke-width='0.222' stroke='currentColor' d='M-1,0 L1,0 M0,-1 L0,1 M-1,-1 L1,1 M-1,1 L1,-1'/>
	<rect id='gpPt3' stroke-width='0.222' stroke='currentColor' x='-1' y='-1' width='2' height='2'/>
	<rect id='gpPt4' stroke-width='0.222' stroke='currentColor' fill='currentColor' x='-1' y='-1' width='2' height='2'/>
	<circle id='gpPt5' stroke-width='0.222' stroke='currentColor' cx='0' cy='0' r='1'/>
	<use xlink:href='#gpPt5' id='gpPt6' fill='currentColor' stroke='none'/>
	<path id='gpPt7' stroke-width='0.222' stroke='currentColor' d='M0,-1.33 L-1.33,0.67 L1.33,0.67 z'/>
	<use xlink:href='#gpPt7' id='gpPt8' fill='currentColor' stroke='none'/>
	<use xlink:href='#gpPt7' id='gpPt9' stroke='currentColor' transform='rotate(180)'/>
	<use xlink:href='#gpPt9' id='gpPt10' fill='currentColor' stroke='none'/>
	<use xlink:href='#gpPt3' id='gpPt11' stroke='currentColor' transform='rotate(45)'/>
	<use xlink:href='#gpPt11' id='gpPt12' fill='currentColor' stroke='none'/>
	<path id='gpPt13' stroke-width='0.222' stroke='currentColor' d='M0,1.330 L1.265,0.411 L0.782,-1.067 L-0.782,-1.076 L-1.265,0.411 z'/>
	<use xlink:href='#gpPt13' id='gpPt14' fill='currentColor' stroke='none'/>
	<filter id='textbox' filterUnits='objectBoundingBox' x='0' y='0' height='1' width='1'>
	  <feFlood flood-color='white' flood-opacity='1' result='bgnd'/>
	  <feComposite in='SourceGraphic' in2='bgnd' operator='atop'/>
	</filter>
	<filter id='greybox' filterUnits='objectBoundingBox' x='0' y='0' height='1' width='1'>
	  <feFlood flood-color='lightgrey' flood-opacity='1' result='grey'/>
	  <feComposite in='SourceGraphic' in2='grey' operator='atop'/>
	</filter>
</defs>
<g fill="none" color="white" stroke="currentColor" stroke-width="1.00" stroke-linecap="butt" stroke-linejoin="miter">
</g>
<g fill="none" color="black" stroke="currentColor" stroke-width="1.00" stroke-linecap="butt" stroke-linejoin="miter">
	<path stroke='black'  d='M80.2,662.4 L89.2,662.4  '/>	<g transform="translate(71.9,666.3)" stroke="none" fill="black" font-family="Helvetica" font-size="12.00"  text-anchor="end">
		<text><tspan font-family="Helvetica" > 0</tspan></text>
	</g>
</g>
<g fill="none" color="black" stroke="currentColor" stroke-width="1.00" stroke-linecap="butt" stroke-linejoin="miter">
	<path stroke='black'  d='M80.2,575.5 L89.2,575.5  '/>	<g transform="translate(71.9,579.4)" stroke="none" fill="black" font-family="Helvetica" font-size="12.00"  text-anchor="end">
		<text><tspan font-family="Helvetica" > 200</tspan></text>
	</g>
</g>
<g fill="none" color="black" stroke="currentColor" stroke-width="1.00" stroke-linecap="butt" stroke-linejoin="miter">
	<path stroke='black'  d='M80.2,488.6 L89.2,488.6  '/>	<g transform="translate(71.9,492.5)" stroke="none" fill="black" font-family="Helvetica" font-size="12.00"  text-anchor="end">
		<text><tspan font-family="Helvetica" > 400</tspan></text>
	</g>
</g>
<g fill="none" color="black" stroke="currentColor" stroke-width="1.00" stroke-linecap="butt" stroke-linejoin="miter">
	<path stroke='black'  d='M80.2,401.7 L89.2,401.7  '/>	<g transform="translate(71.9,405.6)" stroke="none" fill="black" font-family="Helvetica" font-size="12.00"  text-anchor="end">
		<text><tspan font-family="Helvetica" > 600</tspan></text>
	</g>
</g>
<g fill="none" color="black" stroke="currentColor" stroke-width="1.00" stroke-linecap="butt" stroke-linejoin="miter">
	<path stroke='black'  d='M80.2,314.8 L89.2,314.8  '/>	<g transform="translate(71.9,318.7)" stroke="none" fill="black" font-family="Helvetica" font-size="12.00"  text-anchor="end">
		<text><tspan font-family="Helvetica" > 800</tspan></text>
	</g>
</g>
<g fill="none" color="black" stroke="currentColor" stroke-width="1.00" stroke-linecap="butt" stroke-linejoin="miter">
	<path stroke='black'  d='M80.2,227.9 L89.2,227.9  '/>	<g transform="translate(71.9,231.8)" stroke="none" fill="black" font-family="Helvetica" font-size="12.00"  text-anchor="end">
		<text><tspan font-family="Helvetica" > 1000</tspan></text>
	</g>
</g>
<g fill="none" color="black" stroke="currentColor" stroke-width="1.00" stroke-linecap="butt" stroke-linejoin="miter">
	<path stroke='black'  d='M80.2,141.0 L89.2,141.0  '/>	<g transform="translate(71.9,144.9)" stroke="none" fill="black" font-family="Helvetica" font-size="12.00"  text-anchor="end">
		<text><tspan font-family="Helvetica" > 1200</tspan></text>
	</g>
</g>
<g fill="none" color="black" stroke="currentColor" stroke-width="1.00" stroke-linecap="butt" stroke-linejoin="miter">
	<path stroke='black'  d='M80.2,54.1 L89.2,54.1  '/>	<g transform="translate(71.9,58.0)" stroke="none" fill="black" font-family="Helvetica" font-size="12.00"  text-anchor="end">
		<text><tspan font-family="Helvetica" > 1400</tspan></text>
	</g>
</g>
<g fill="none" color="black" stroke="currentColor" stroke-width="1.00" stroke-linecap="butt" stroke-linejoin="miter">
	<path stroke='black'  d='M207.8,662.4 L207.8,653.4  '/>	<g transform="translate(207.8,684.3)" stroke="none" fill="black" font-family="Helvetica" font-size="12.00"  text-anchor="middle">
		<text><tspan font-family="Helvetica" >-0.3</tspan></text>
	</g>
</g>
<g fill="none" color="black" stroke="currentColor" stroke-width="1.00" stroke-linecap="butt" stroke-linejoin="miter">
	<path stroke='black'  d='M335.5,662.4 L335.5,653.4  '/>	<g transform="translate(335.5,684.3)" stroke="none" fill="black" font-family="Helvetica" font-size="12.00"  text-anchor="middle">
		<text><tspan font-family="Helvetica" >-0.28</tspan></text>
	</g>
</g>
<g fill="none" color="black" stroke="currentColor" stroke-width="1.00" stroke-linecap="butt" stroke-linejoin="miter">
	<path stroke='black'  d='M463.3,662.4 L463.3,653.4  '/>	<g transform="translate(463.3,684.3)" stroke="none" fill="black" font-family="Helvetica" font-size="12.00"  text-anchor="middle">
		<text><tspan font-family="Helvetica" >-0.26</tspan></text>
	</g>
</g>
<g fill="none" color="black" stroke="currentColor" stroke-width="1.00" stroke-linecap="butt" stroke-linejoin="miter">
	<path stroke='black'  d='M591.0,662.4 L591.0,653.4  '/>	<g transform="translate(591.0,684.3)" stroke="none" fill="black" font-family="Helvetica" font-size="12.00"  text-anchor="middle">
		<text><tspan font-family="Helvetica" >-0.24</tspan></text>
	</g>
</g>
<g fill="none" color="black" stroke="currentColor" stroke-width="1.00" stroke-linecap="butt" stroke-linejoin="miter">
	<path stroke='black'  d='M718.7,662.4 L718.7,653.4  '/>	<g transform="translate(718.7,684.3)" stroke="none" fill="black" font-family="Helvetica" font-size="12.00"  text-anchor="middle">
		<text><tspan font-family="Helvetica" >-0.22</tspan></text>
	</g>
</g>
<g fill="none" color="black" stroke="currentColor" stroke-width="1.00" stroke-linecap="butt" stroke-linejoin="miter">
	<path stroke='black'  d='M846.4,662.4 L846.4,653.4  '/>	<g transform="translate(846.4,684.3)" stroke="none" fill="black" font-family="Helvetica" font-size="12.00"  text-anchor="middle">
		<text><tspan font-family="Helvetica" >-0.2</tspan></text>
	</g>
</g>
<g fill="none" color="black" stroke="currentColor" stroke-width="1.00" stroke-linecap="butt" stroke-linejoin="miter">
	<path stroke='black'  d='M974.2,662.4 L974.2,653.4  '/>	<g transform="translate(974.2,684.3)" stroke="none" fill="black" font-family="Helvetica" font-size="12.00"  text-anchor="middle">
		<text><tspan font-family="Helvetica" >-0.18</tspan></text>
	</g>
</g>
<g fill="none" color="black" stroke="currentColor" stroke-width="1.00" stroke-linecap="butt" stroke-linejoin="miter">
</g>
<g fill="none" color="black" stroke="currentColor" stroke-width="1.00" stroke-linecap="butt" stroke-linejoin="miter">
	<path stroke='black'  d='M80.2,54.1 L80.2,662.4 L1013.6,662.4 L1013.6,54.1 L80.2,54.1 Z  '/></g>
<g fill="none" color="black" stroke="currentColor" stroke-width="1.00" stroke-linecap="butt" stroke-linejoin="miter">
	<g transform="translate(19.0,358.3) rotate(270)" stroke="none" fill="black" font-family="Helvetica" font-size="12.00"  text-anchor="middle">
		<text><tspan font-family="Helvetica" >Density (a.u.)</tspan></text>
	</g>
</g>
<g fill="none" color="black" stroke="currentColor" stroke-width="1.00" stroke-linecap="butt" stroke-linejoin="miter">
	<g transform="translate(546.9,711.3)" stroke="none" fill="black" font-family="Helvetica" font-size="12.00"  text-anchor="middle">
		<text><tspan font-family="Helvetica" >Relative change (%)</tspan></text>
	</g>
</g>
<g fill="none" color="black" stroke="currentColor" stroke-width="1.00" stroke-linecap="butt" stroke-linejoin="miter">
	<g transform="translate(546.9,31.0)" stroke="none" fill="black" font-family="Helvetica" font-size="12.00"  text-anchor="middle">
		<text><tspan font-family="Helvetica" >bench_group/blake3/448: mean</tspan></text>
	</g>
</g>
<g fill="none" color="black" stroke="currentColor" stroke-width="1.00" stroke-linecap="butt" stroke-linejoin="miter">
</g>
	<g id="gnuplot_plot_1" ><title>Bootstrap distribution</title>
<g fill="none" color="white" stroke="currentColor" stroke-width="2.00" stroke-linecap="butt" stroke-linejoin="miter">
</g>
<g fill="none" color="black" stroke="currentColor" stroke-width="2.00" stroke-linecap="butt" stroke-linejoin="miter">
	<g transform="translate(1089.0,67.0)" stroke="none" fill="black" font-family="Helvetica" font-size="12.00"  text-anchor="start">
		<text><tspan font-family="Helvetica" >Bootstrap distribution</tspan></text>
	</g>
</g>
<g fill="none" color="black" stroke="currentColor" stroke-width="2.00" stroke-linecap="butt" stroke-linejoin="miter">
	<path stroke='rgb( 31, 120, 180)'  d='M1038.5,63.1 L1080.7,63.1 M80.2,628.7 L82.1,628.2 L83.9,627.6 L85.8,627.0 L87.7,626.4 L89.6,625.8
		L91.4,625.1 L93.3,624.5 L95.2,623.8 L97.0,623.1 L98.9,622.4 L100.8,621.6 L102.6,620.9 L104.5,620.1
		L106.4,619.2 L108.3,618.4 L110.1,617.5 L112.0,616.6 L113.9,615.7 L115.7,614.7 L117.6,613.8 L119.5,612.8
		L121.4,611.8 L123.2,610.7 L125.1,609.7 L127.0,608.6 L128.8,607.5 L130.7,606.4 L132.6,605.3 L134.4,604.2
		L136.3,603.0 L138.2,601.8 L140.1,600.6 L141.9,599.4 L143.8,598.2 L145.7,596.9 L147.5,595.7 L149.4,594.4
		L151.3,593.1 L153.2,591.8 L155.0,590.5 L156.9,589.2 L158.8,587.8 L160.6,586.5 L162.5,585.1 L164.4,583.8
		L166.2,582.4 L168.1,581.1 L170.0,579.7 L171.9,578.3 L173.7,576.9 L175.6,575.5 L177.5,574.1 L179.3,572.7
		L181.2,571.3 L183.1,569.8 L185.0,568.4 L186.8,566.9 L188.7,565.4 L190.6,563.9 L192.4,562.4 L194.3,560.8
		L196.2,559.2 L198.0,557.6 L199.9,556.0 L201.8,554.3 L203.7,552.6 L205.5,550.9 L207.4,549.1 L209.3,547.4
		L211.1,545.6 L213.0,543.8 L214.9,541.9 L216.7,540.1 L218.6,538.2 L220.5,536.3 L222.4,534.3 L224.2,532.4
		L226.1,530.4 L228.0,528.4 L229.8,526.4 L231.7,524.3 L233.6,522.2 L235.5,520.1 L237.3,518.0 L239.2,515.8
		L241.1,513.6 L242.9,511.4 L244.8,509.1 L246.7,506.9 L248.5,504.6 L250.4,502.3 L252.3,500.0 L254.2,497.7
		L256.0,495.3 L257.9,493.0 L259.8,490.7 L261.6,488.3 L263.5,486.0 L265.4,483.7 L267.3,481.3 L269.1,479.0
		L271.0,476.6 L272.9,474.3 L274.7,471.9 L276.6,469.5 L278.5,467.1 L280.3,464.7 L282.2,462.3 L284.1,459.8
		L286.0,457.3 L287.8,454.8 L289.7,452.3 L291.6,449.7 L293.4,447.1 L295.3,444.5 L297.2,441.8 L299.1,439.1
		L300.9,436.3 L302.8,433.6 L304.7,430.8 L306.5,428.0 L308.4,425.1 L310.3,422.2 L312.1,419.3 L314.0,416.4
		L315.9,413.5 L317.8,410.5 L319.6,407.5 L321.5,404.5 L323.4,401.4 L325.2,398.3 L327.1,395.2 L329.0,392.0
		L330.9,388.8 L332.7,385.6 L334.6,382.3 L336.5,379.0 L338.3,375.7 L340.2,372.3 L342.1,369.0 L343.9,365.5
		L345.8,362.1 L347.7,358.6 L349.6,355.1 L351.4,351.6 L353.3,348.1 L355.2,344.6 L357.0,341.0 L358.9,337.4
		L360.8,333.9 L362.7,330.3 L364.5,326.7 L366.4,323.1 L368.3,319.5 L370.1,315.9 L372.0,312.3 L373.9,308.7
		L375.7,305.1 L377.6,301.6 L379.5,298.0 L381.4,294.5 L383.2,291.0 L385.1,287.5 L387.0,284.1 L388.8,280.7
		L390.7,277.3 L392.6,274.0 L394.5,270.7 L396.3,267.5 L398.2,264.3 L400.1,261.2 L401.9,258.0 L403.8,255.0
		L405.7,252.0 L407.5,249.0 L409.4,246.0 L411.3,243.1 L413.2,240.2 L415.0,237.4 L416.9,234.6 L418.8,231.8
		L420.6,229.1 L422.5,226.3 L424.4,223.6 L426.3,220.9 L428.1,218.3 L430.0,215.6 L431.9,213.0 L433.7,210.4
		L435.6,207.8 L437.5,205.1 L439.3,202.5 L441.2,199.9 L443.1,197.3 L445.0,194.7 L446.8,192.1 L448.7,189.5
		L450.6,186.9 L452.4,184.3 L454.3,181.7 L456.2,179.1 L458.0,176.5 L459.9,174.0 L461.8,171.4 L463.7,168.9
		L465.5,166.4 L467.4,164.0 L469.3,161.6 L471.1,159.3 L473.0,157.0 L474.9,154.8 L476.8,152.7 L478.6,150.6
		L480.5,148.6 L482.4,146.7 L484.2,144.8 L486.1,143.0 L488.0,141.3 L489.8,139.7 L491.7,138.1 L493.6,136.6
		L495.5,135.1 L497.3,133.7 L499.2,132.3 L501.1,130.9 L502.9,129.5 L504.8,128.2 L506.7,126.8 L508.6,125.4
		L510.4,124.0 L512.3,122.6 L514.2,121.1 L516.0,119.6 L517.9,118.1 L519.8,116.6 L521.6,115.1 L523.5,113.6
		L525.4,112.1 L527.3,110.7 L529.1,109.2 L531.0,107.8 L532.9,106.5 L534.7,105.2 L536.6,104.0 L538.5,102.8
		L540.4,101.8 L542.2,100.9 L544.1,100.0 L546.0,99.3 L547.8,98.7 L549.7,98.1 L551.6,97.7 L553.4,97.3
		L555.3,97.0 L557.2,96.8 L559.1,96.6 L560.9,96.5 L562.8,96.4 L564.7,96.3 L566.5,96.2 L568.4,96.2
		L570.3,96.1 L572.2,96.0 L574.0,95.9 L575.9,95.8 L577.8,95.7 L579.6,95.6 L581.5,95.4 L583.4,95.3
		L585.2,95.2 L587.1,95.1 L589.0,95.0 L590.9,94.9 L592.7,94.9 L594.6,94.9 L596.5,95.0 L598.3,95.2
		L600.2,95.4 L602.1,95.8 L604.0,96.2 L605.8,96.7 L607.7,97.4 L609.6,98.2 L611.4,99.1 L613.3,100.1
		L615.2,101.2 L617.0,102.5 L618.9,103.9 L620.8,105.4 L622.7,107.0 L624.5,108.7 L626.4,110.5 L628.3,112.5
		L630.1,114.5 L632.0,116.5 L633.9,118.6 L635.8,120.8 L637.6,123.0 L639.5,125.2 L641.4,127.5 L643.2,129.7
		L645.1,132.0 L647.0,134.3 L648.8,136.6 L650.7,138.9 L652.6,141.1 L654.5,143.4 L656.3,145.7 L658.2,148.0
		L660.1,150.4 L661.9,152.8 L663.8,155.2 L665.7,157.6 L667.5,160.1 L669.4,162.7 L671.3,165.3 L673.2,167.9
		L675.0,170.7 L676.9,173.5 L678.8,176.4 L680.6,179.3 L682.5,182.3 L684.4,185.4 L686.3,188.6 L688.1,191.8
		L690.0,195.1 L691.9,198.4 L693.7,201.8 L695.6,205.2 L697.5,208.7 L699.3,212.2 L701.2,215.7 L703.1,219.3
		L705.0,222.9 L706.8,226.4 L708.7,230.0 L710.6,233.6 L712.4,237.2 L714.3,240.8 L716.2,244.3 L718.1,247.9
		L719.9,251.5 L721.8,255.0 L723.7,258.5 L725.5,262.0 L727.4,265.5 L729.3,268.9 L731.1,272.3 L733.0,275.7
		L734.9,279.1 L736.8,282.5 L738.6,285.8 L740.5,289.1 L742.4,292.4 L744.2,295.7 L746.1,299.0 L748.0,302.2
		L749.9,305.4 L751.7,308.7 L753.6,311.9 L755.5,315.1 L757.3,318.3 L759.2,321.5 L761.1,324.7 L762.9,328.0
		L764.8,331.2 L766.7,334.4 L768.6,337.7 L770.4,341.0 L772.3,344.3 L774.2,347.6 L776.0,350.9 L777.9,354.3
		L779.8,357.6 L781.7,361.0 L783.5,364.4 L785.4,367.9 L787.3,371.3 L789.1,374.7 L791.0,378.1 L792.9,381.6
		L794.7,385.0 L796.6,388.4 L798.5,391.7 L800.4,395.1 L802.2,398.4 L804.1,401.7 L806.0,404.9 L807.8,408.1
		L809.7,411.3 L811.6,414.4 L813.5,417.5 L815.3,420.6 L817.2,423.6 L819.1,426.6 L820.9,429.6 L822.8,432.6
		L824.7,435.5 L826.5,438.4 L828.4,441.3 L830.3,444.2 L832.2,447.1 L834.0,449.9 L835.9,452.7 L837.8,455.5
		L839.6,458.3 L841.5,461.1 L843.4,463.8 L845.3,466.6 L847.1,469.3 L849.0,472.0 L850.9,474.6 L852.7,477.3
		L854.6,479.9 L856.5,482.5 L858.3,485.1 L860.2,487.7 L862.1,490.2 L864.0,492.8 L865.8,495.3 L867.7,497.8
		L869.6,500.3 L871.4,502.8 L873.3,505.4 L875.2,507.9 L877.1,510.4 L878.9,512.9 L880.8,515.4 L882.7,517.9
		L884.5,520.5 L886.4,523.0 L888.3,525.5 L890.1,528.0 L892.0,530.5 L893.9,533.0 L895.8,535.5 L897.6,537.9
		L899.5,540.4 L901.4,542.8 L903.2,545.1 L905.1,547.5 L907.0,549.8 L908.8,552.1 L910.7,554.4 L912.6,556.6
		L914.5,558.7 L916.3,560.9 L918.2,562.9 L920.1,565.0 L921.9,567.0 L923.8,568.9 L925.7,570.8 L927.6,572.7
		L929.4,574.5 L931.3,576.3 L933.2,578.0 L935.0,579.7 L936.9,581.4 L938.8,583.0 L940.6,584.5 L942.5,586.1
		L944.4,587.6 L946.3,589.1 L948.1,590.5 L950.0,591.9 L951.9,593.3 L953.7,594.7 L955.6,596.0 L957.5,597.3
		L959.4,598.6 L961.2,599.8 L963.1,601.1 L965.0,602.3 L966.8,603.4 L968.7,604.6 L970.6,605.7 L972.4,606.8
		L974.3,607.9 L976.2,609.0 L978.1,610.1 L979.9,611.1 L981.8,612.2 L983.7,613.2 L985.5,614.2 L987.4,615.2
		L989.3,616.2 L991.2,617.2 L993.0,618.2 L994.9,619.1 L996.8,620.1 L998.6,621.0 L1000.5,621.9 L1002.4,622.8
		L1004.2,623.7 L1006.1,624.6 L1008.0,625.4 L1009.9,626.2 L1011.7,627.0 L1013.6,627.8  '/></g>
	</g>
	<g id="gnuplot_plot_2" ><title>Confidence interval</title>
<g fill="none" color="white" stroke="rgb( 31, 120, 180)" stroke-width="1.00" stroke-linecap="butt" stroke-linejoin="miter">
</g>
<g fill="none" color="black" stroke="currentColor" stroke-width="1.00" stroke-linecap="butt" stroke-linejoin="miter">
	<g transform="translate(1089.0,85.0)" stroke="none" fill="black" font-family="Helvetica" font-size="12.00"  text-anchor="start">
		<text><tspan font-family="Helvetica" >Confidence interval</tspan></text>
	</g>
</g>
<g fill="none" color="black" stroke="currentColor" stroke-width="1.00" stroke-linecap="butt" stroke-linejoin="miter">
	<g stroke='none' shape-rendering='crispEdges'>
		<polygon fill = 'rgb( 31, 120, 180)' fill-opacity = '0.250000' points = '1038.5,85.6 1080.7,85.6 1080.7,76.6 1038.5,76.6 '/>
		<polygon fill = 'rgb( 31, 120, 180)' fill-opacity = '0.250000' points = '166.2,582.4 168.1,581.1 170.0,579.7 171.9,578.3 173.7,576.9 175.6,575.5 177.5,574.1 179.3,572.7 181.2,571.3 183.1,569.8 185.0,568.4 186.8,566.9 188.7,565.4 190.6,563.9 192.4,562.4 194.3,560.8
196.2,559.2 198.0,557.6 199.9,556.0 201.8,554.3 203.7,552.6 205.5,550.9 207.4,549.1 209.3,547.4 211.1,545.6 213.0,543.8 214.9,541.9 216.7,540.1 218.6,538.2 220.5,536.3 222.4,534.3 224.2,532.4
226.1,530.4 228.0,528.4 229.8,526.4 231.7,524.3 233.6,522.2 235.5,520.1 237.3,518.0 239.2,515.8 241.1,513.6 242.9,511.4 244.8,509.1 246.7,506.9 248.5,504.6 250.4,502.3 252.3,500.0 254.2,497.7
256.0,495.3 257.9,493.0 259.8,490.7 261.6,488.3 263.5,486.0 265.4,483.7 267.3,481.3 269.1,479.0 271.0,476.6 272.9,474.3 274.7,471.9 276.6,469.5 278.5,467.1 280.3,464.7 282.2,462.3 284.1,459.8
286.0,457.3 287.8,454.8 289.7,452.3 291.6,449.7 293.4,447.1 295.3,444.5 297.2,441.8 299.1,439.1 300.9,436.3 302.8,433.6 304.7,430.8 306.5,428.0 308.4,425.1 310.3,422.2 312.1,419.3 314.0,416.4
315.9,413.5 317.8,410.5 319.6,407.5 321.5,404.5 323.4,401.4 325.2,398.3 327.1,395.2 329.0,392.0 330.9,388.8 332.7,385.6 334.6,382.3 336.5,379.0 338.3,375.7 340.2,372.3 342.1,369.0 343.9,365.5
345.8,362.1 347.7,358.6 349.6,355.1 351.4,351.6 353.3,348.1 355.2,344.6 357.0,341.0 358.9,337.4 360.8,333.9 362.7,330.3 364.5,326.7 366.4,323.1 368.3,319.5 370.1,315.9 372.0,312.3 373.9,308.7
375.7,305.1 377.6,301.6 379.5,298.0 381.4,294.5 383.2,291.0 385.1,287.5 387.0,284.1 388.8,280.7 390.7,277.3 392.6,274.0 394.5,270.7 396.3,267.5 398.2,264.3 400.1,261.2 401.9,258.0 403.8,255.0
405.7,252.0 407.5,249.0 409.4,246.0 411.3,243.1 413.2,240.2 415.0,237.4 416.9,234.6 418.8,231.8 420.6,229.1 422.5,226.3 424.4,223.6 426.3,220.9 428.1,218.3 430.0,215.6 431.9,213.0 433.7,210.4
435.6,207.8 437.5,205.1 439.3,202.5 441.2,199.9 443.1,197.3 445.0,194.7 446.8,192.1 448.7,189.5 450.6,186.9 452.4,184.3 454.3,181.7 456.2,179.1 458.0,176.5 459.9,174.0 461.8,171.4 463.7,168.9
465.5,166.4 467.4,164.0 469.3,161.6 471.1,159.3 473.0,157.0 474.9,154.8 476.8,152.7 478.6,150.6 480.5,148.6 482.4,146.7 484.2,144.8 486.1,143.0 488.0,141.3 489.8,139.7 491.7,138.1 493.6,136.6
495.5,135.1 497.3,133.7 499.2,132.3 501.1,130.9 502.9,129.5 504.8,128.2 506.7,126.8 508.6,125.4 510.4,124.0 512.3,122.6 514.2,121.1 516.0,119.6 517.9,118.1 519.8,116.6 521.6,115.1 523.5,113.6
525.4,112.1 527.3,110.7 529.1,109.2 531.0,107.8 532.9,106.5 534.7,105.2 536.6,104.0 538.5,102.8 540.4,101.8 542.2,100.9 544.1,100.0 546.0,99.3 547.8,98.7 549.7,98.1 551.6,97.7 553.4,97.3
555.3,97.0 557.2,96.8 559.1,96.6 560.9,96.5 562.8,96.4 564.7,96.3 566.5,96.2 568.4,96.2 570.3,96.1 572.2,96.0 574.0,95.9 575.9,95.8 577.8,95.7 579.6,95.6 581.5,95.4 583.4,95.3
585.2,95.2 587.1,95.1 589.0,95.0 590.9,94.9 592.7,94.9 594.6,94.9 596.5,95.0 598.3,95.2 600.2,95.4 602.1,95.8 604.0,96.2 605.8,96.7 607.7,97.4 609.6,98.2 611.4,99.1 613.3,100.1
615.2,101.2 617.0,102.5 618.9,103.9 620.8,105.4 622.7,107.0 624.5,108.7 626.4,110.5 628.3,112.5 630.1,114.5 632.0,116.5 633.9,118.6 635.8,120.8 637.6,123.0 639.5,125.2 641.4,127.5 643.2,129.7
645.1,132.0 647.0,134.3 648.8,136.6 650.7,138.9 652.6,141.1 654.5,143.4 656.3,145.7 658.2,148.0 660.1,150.4 661.9,152.8 663.8,155.2 665.7,157.6 667.5,160.1 669.4,162.7 671.3,165.3 673.2,167.9
675.0,170.7 676.9,173.5 678.8,176.4 680.6,179.3 682.5,182.3 684.4,185.4 686.3,188.6 688.1,191.8 690.0,195.1 691.9,198.4 693.7,201.8 695.6,205.2 697.5,208.7 699.3,212.2 701.2,215.7 703.1,219.3
705.0,222.9 706.8,226.4 708.7,230.0 710.6,233.6 712.4,237.2 714.3,240.8 716.2,244.3 718.1,247.9 719.9,251.5 721.8,255.0 723.7,258.5 725.5,262.0 727.4,265.5 729.3,268.9 731.1,272.3 733.0,275.7
734.9,279.1 736.8,282.5 738.6,285.8 740.5,289.1 742.4,292.4 744.2,295.7 746.1,299.0 748.0,302.2 749.9,305.4 751.7,308.7 753.6,311.9 755.5,315.1 757.3,318.3 759.2,321.5 761.1,324.7 762.9,328.0
764.8,331.2 766.7,334.4 768.6,337.7 770.4,341.0 772.3,344.3 774.2,347.6 776.0,350.9 777.9,354.3 779.8,357.6 781.7,361.0 783.5,364.4 785.4,367.9 787.3,371.3 789.1,374.7 791.0,378.1 792.9,381.6
794.7,385.0 796.6,388.4 798.5,391.7 800.4,395.1 802.2,398.4 804.1,401.7 806.0,404.9 807.8,408.1 809.7,411.3 811.6,414.4 813.5,417.5 815.3,420.6 817.2,423.6 819.1,426.6 820.9,429.6 822.8,432.6
824.7,435.5 826.5,438.4 828.4,441.3 830.3,444.2 832.2,447.1 834.0,449.9 835.9,452.7 837.8,455.5 839.6,458.3 841.5,461.1 843.4,463.8 845.3,466.6 847.1,469.3 849.0,472.0 850.9,474.6 852.7,477.3
854.6,479.9 856.5,482.5 858.3,485.1 860.2,487.7 862.1,490.2 864.0,492.8 865.8,495.3 867.7,497.8 869.6,500.3 871.4,502.8 873.3,505.4 875.2,507.9 877.1,510.4 878.9,512.9 880.8,515.4 882.7,517.9
884.5,520.5 886.4,523.0 888.3,525.5 890.1,528.0 892.0,530.5 893.9,533.0 895.8,535.5 897.6,537.9 899.5,540.4 901.4,542.8 903.2,545.1 905.1,547.5 907.0,549.8 908.8,552.1 910.7,554.4 912.6,556.6
914.5,558.7 916.3,560.9 918.2,562.9 920.1,565.0 921.9,567.0 923.8,568.9 925.7,570.8 925.7,662.4 923.8,662.4 921.9,662.4 920.1,662.4 918.2,662.4 916.3,662.4 914.5,662.4 912.6,662.4 910.7,662.4
908.8,662.4 907.0,662.4 905.1,662.4 903.2,662.4 901.4,662.4 899.5,662.4 897.6,662.4 895.8,662.4 893.9,662.4 892.0,662.4 890.1,662.4 888.3,662.4 886.4,662.4 884.5,662.4 882.7,662.4 880.8,662.4
878.9,662.4 877.1,662.4 875.2,662.4 873.3,662.4 871.4,662.4 869.6,662.4 867.7,662.4 865.8,662.4 864.0,662.4 862.1,662.4 860.2,662.4 858.3,662.4 856.5,662.4 854.6,662.4 852.7,662.4 850.9,662.4
849.0,662.4 847.1,662.4 845.3,662.4 843.4,662.4 841.5,662.4 839.6,662.4 837.8,662.4 835.9,662.4 834.0,662.4 832.2,662.4 830.3,662.4 828.4,662.4 826.5,662.4 824.7,662.4 822.8,662.4 820.9,662.4
819.1,662.4 817.2,662.4 815.3,662.4 813.5,662.4 811.6,662.4 809.7,662.4 807.8,662.4 806.0,662.4 804.1,662.4 802.2,662.4 800.4,662.4 798.5,662.4 796.6,662.4 794.7,662.4 792.9,662.4 791.0,662.4
789.1,662.4 787.3,662.4 785.4,662.4 783.5,662.4 781.7,662.4 779.8,662.4 777.9,662.4 776.0,662.4 774.2,662.4 772.3,662.4 770.4,662.4 768.6,662.4 766.7,662.4 764.8,662.4 762.9,662.4 761.1,662.4
759.2,662.4 757.3,662.4 755.5,662.4 753.6,662.4 751.7,662.4 749.9,662.4 748.0,662.4 746.1,662.4 744.2,662.4 742.4,662.4 740.5,662.4 738.6,662.4 736.8,662.4 734.9,662.4 733.0,662.4 731.1,662.4
729.3,662.4 727.4,662.4 725.5,662.4 723.7,662.4 721.8,662.4 719.9,662.4 718.1,662.4 716.2,662.4 714.3,662.4 712.4,662.4 710.6,662.4 708.7,662.4 706.8,662.4 705.0,662.4 703.1,662.4 701.2,662.4
699.3,662.4 697.5,662.4 695.6,662.4 693.7,662.4 691.9,662.4 690.0,662.4 688.1,662.4 686.3,662.4 684.4,662.4 682.5,662.4 680.6,662.4 678.8,662.4 676.9,662.4 675.0,662.4 673.2,662.4 671.3,662.4
669.4,662.4 667.5,662.4 665.7,662.4 663.8,662.4 661.9,662.4 660.1,662.4 658.2,662.4 656.3,662.4 654.5,662.4 652.6,662.4 650.7,662.4 648.8,662.4 647.0,662.4 645.1,662.4 643.2,662.4 641.4,662.4
639.5,662.4 637.6,662.4 635.8,662.4 633.9,662.4 632.0,662.4 630.1,662.4 628.3,662.4 626.4,662.4 624.5,662.4 622.7,662.4 620.8,662.4 618.9,662.4 617.0,662.4 615.2,662.4 613.3,662.4 611.4,662.4
609.6,662.4 607.7,662.4 605.8,662.4 604.0,662.4 602.1,662.4 600.2,662.4 598.3,662.4 596.5,662.4 594.6,662.4 592.7,662.4 590.9,662.4 589.0,662.4 587.1,662.4 585.2,662.4 583.4,662.4 581.5,662.4
579.6,662.4 577.8,662.4 575.9,662.4 574.0,662.4 572.2,662.4 570.3,662.4 568.4,662.4 566.5,662.4 564.7,662.4 562.8,662.4 560.9,662.4 559.1,662.4 557.2,662.4 555.3,662.4 553.4,662.4 551.6,662.4
549.7,662.4 547.8,662.4 546.0,662.4 544.1,662.4 542.2,662.4 540.4,662.4 538.5,662.4 536.6,662.4 534.7,662.4 532.9,662.4 531.0,662.4 529.1,662.4 527.3,662.4 525.4,662.4 523.5,662.4 521.6,662.4
519.8,662.4 517.9,662.4 516.0,662.4 514.2,662.4 512.3,662.4 510.4,662.4 508.6,662.4 506.7,662.4 504.8,662.4 502.9,662.4 501.1,662.4 499.2,662.4 497.3,662.4 495.5,662.4 493.6,662.4 491.7,662.4
489.8,662.4 488.0,662.4 486.1,662.4 484.2,662.4 482.4,662.4 480.5,662.4 478.6,662.4 476.8,662.4 474.9,662.4 473.0,662.4 471.1,662.4 469.3,662.4 467.4,662.4 465.5,662.4 463.7,662.4 461.8,662.4
459.9,662.4 458.0,662.4 456.2,662.4 454.3,662.4 452.4,662.4 450.6,662.4 448.7,662.4 446.8,662.4 445.0,662.4 443.1,662.4 441.2,662.4 439.3,662.4 437.5,662.4 435.6,662.4 433.7,662.4 431.9,662.4
430.0,662.4 428.1,662.4 426.3,662.4 424.4,662.4 422.5,662.4 420.6,662.4 418.8,662.4 416.9,662.4 415.0,662.4 413.2,662.4 411.3,662.4 409.4,662.4 407.5,662.4 405.7,662.4 403.8,662.4 401.9,662.4
400.1,662.4 398.2,662.4 396.3,662.4 394.5,662.4 392.6,662.4 390.7,662.4 388.8,662.4 387.0,662.4 385.1,662.4 383.2,662.4 381.4,662.4 379.5,662.4 377.6,662.4 375.7,662.4 373.9,662.4 372.0,662.4
370.1,662.4 368.3,662.4 366.4,662.4 364.5,662.4 362.7,662.4 360.8,662.4 358.9,662.4 357.0,662.4 355.2,662.4 353.3,662.4 351.4,662.4 349.6,662.4 347.7,662.4 345.8,662.4 343.9,662.4 342.1,662.4
340.2,662.4 338.3,662.4 336.5,662.4 334.6,662.4 332.7,662.4 330.9,662.4 329.0,662.4 327.1,662.4 325.2,662.4 323.4,662.4 321.5,662.4 319.6,662.4 317.8,662.4 315.9,662.4 314.0,662.4 312.1,662.4
310.3,662.4 308.4,662.4 306.5,662.4 304.7,662.4 302.8,662.4 300.9,662.4 299.1,662.4 297.2,662.4 295.3,662.4 293.4,662.4 291.6,662.4 289.7,662.4 287.8,662.4 286.0,662.4 284.1,662.4 282.2,662.4
280.3,662.4 278.5,662.4 276.6,662.4 274.7,662.4 272.9,662.4 271.0,662.4 269.1,662.4 267.3,662.4 265.4,662.4 263.5,662.4 261.6,662.4 259.8,662.4 257.9,662.4 256.0,662.4 254.2,662.4 252.3,662.4
250.4,662.4 248.5,662.4 246.7,662.4 244.8,662.4 242.9,662.4 241.1,662.4 239.2,662.4 237.3,662.4 235.5,662.4 233.6,662.4 231.7,662.4 229.8,662.4 228.0,662.4 226.1,662.4 224.2,662.4 222.4,662.4
220.5,662.4 218.6,662.4 216.7,662.4 214.9,662.4 213.0,662.4 211.1,662.4 209.3,662.4 207.4,662.4 205.5,662.4 203.7,662.4 201.8,662.4 199.9,662.4 198.0,662.4 196.2,662.4 194.3,662.4 192.4,662.4
190.6,662.4 188.7,662.4 186.8,662.4 185.0,662.4 183.1,662.4 181.2,662.4 179.3,662.4 177.5,662.4 175.6,662.4 173.7,662.4 171.9,662.4 170.0,662.4 168.1,662.4 166.2,662.4 '/>
	</g>
</g>
	</g>
	<g id="gnuplot_plot_3" ><title>Point estimate</title>
<g fill="none" color="white" stroke="rgb( 31, 120, 180)" stroke-width="2.00" stroke-linecap="butt" stroke-linejoin="miter">
</g>
<g fill="none" color="black" stroke="currentColor" stroke-width="2.00" stroke-linecap="butt" stroke-linejoin="miter">
	<g transform="translate(1089.0,103.0)" stroke="none" fill="black" font-family="Helvetica" font-size="12.00"  text-anchor="start">
		<text><tspan font-family="Helvetica" >Point estimate</tspan></text>
	</g>
</g>
<g fill="none" color="black" stroke="currentColor" stroke-width="2.00" stroke-linecap="butt" stroke-linejoin="miter">
	<path stroke='rgb( 31, 120, 180)'  d='M1038.5,99.1 L1080.7,99.1 M559.5,662.4 L559.5,96.6  '/></g>
	</g>
	<g id="gnuplot_plot_4" ><title>Noise threshold</title>
<g fill="none" color="white" stroke="rgb( 31, 120, 180)" stroke-width="1.00" stroke-linecap="butt" stroke-linejoin="miter">
</g>
<g fill="none" color="black" stroke="currentColor" stroke-width="1.00" stroke-linecap="butt" stroke-linejoin="miter">
	<g transform="translate(1089.0,121.0)" stroke="none" fill="black" font-family="Helvetica" font-size="12.00"  text-anchor="start">
		<text><tspan font-family="Helvetica" >Noise threshold</tspan></text>
	</g>
</g>
<g fill="none" color="black" stroke="currentColor" stroke-width="1.00" stroke-linecap="butt" stroke-linejoin="miter">
	<g stroke='none' shape-rendering='crispEdges'>
		<polygon fill = 'rgb(227,  26,  28)' fill-opacity = '0.100000' points = '1038.5,121.6 1080.7,121.6 1080.7,112.6 1038.5,112.6 '/>
		<polygon fill = 'rgb(227,  26,  28)' fill-opacity = '0.100000' points = '80.2,54.1 1013.6,54.1 1013.6,662.4 80.2,662.4 '/>
	</g>
</g>
	</g>
<g fill="none" color="white" stroke="rgb(227,  26,  28)" stroke-width="2.00" stroke-linecap="butt" stroke-linejoin="miter">
</g>
<g fill="none" color="black" stroke="currentColor" stroke-width="2.00" stroke-linecap="butt" stroke-linejoin="miter">
</g>
<g fill="none" color="black" stroke="black" stroke-width="1.00" stroke-linecap="butt" stroke-linejoin="miter">
</g>
<g fill="none" color="black" stroke="currentColor" stroke-width="1.00" stroke-linecap="butt" stroke-linejoin="miter">
	<path stroke='black'  d='M80.2,54.1 L80.2,662.4 L1013.6,662.4 L1013.6,54.1 L80.2,54.1 Z  '/></g>
<g fill="none" color="black" stroke="currentColor" stroke-width="1.00" stroke-linecap="butt" stroke-linejoin="miter">
</g>
</g>
</svg>

