<?xml version="1.0" encoding="utf-8"  standalone="no"?>
<svg 
 viewBox="0 0 1280 720"
 xmlns="http://www.w3.org/2000/svg"
 xmlns:xlink="http://www.w3.org/1999/xlink"
>

<title>Gnuplot</title>
<desc>Produced by GNUPLOT 5.2 patchlevel 8 </desc>

<g id="gnuplot_canvas">

<rect x="0" y="0" width="1280" height="720" fill="none"/>
<defs>

	<circle id='gpDot' r='0.5' stroke-width='0.5' stroke='currentColor'/>
	<path id='gpPt0' stroke-width='0.222' stroke='currentColor' d='M-1,0 h2 M0,-1 v2'/>
	<path id='gpPt1' stroke-width='0.222' stroke='currentColor' d='M-1,-1 L1,1 M1,-1 L-1,1'/>
	<path id='gpPt2' stroke-width='0.222' stroke='currentColor' d='M-1,0 L1,0 M0,-1 L0,1 M-1,-1 L1,1 M-1,1 L1,-1'/>
	<rect id='gpPt3' stroke-width='0.222' stroke='currentColor' x='-1' y='-1' width='2' height='2'/>
	<rect id='gpPt4' stroke-width='0.222' stroke='currentColor' fill='currentColor' x='-1' y='-1' width='2' height='2'/>
	<circle id='gpPt5' stroke-width='0.222' stroke='currentColor' cx='0' cy='0' r='1'/>
	<use xlink:href='#gpPt5' id='gpPt6' fill='currentColor' stroke='none'/>
	<path id='gpPt7' stroke-width='0.222' stroke='currentColor' d='M0,-1.33 L-1.33,0.67 L1.33,0.67 z'/>
	<use xlink:href='#gpPt7' id='gpPt8' fill='currentColor' stroke='none'/>
	<use xlink:href='#gpPt7' id='gpPt9' stroke='currentColor' transform='rotate(180)'/>
	<use xlink:href='#gpPt9' id='gpPt10' fill='currentColor' stroke='none'/>
	<use xlink:href='#gpPt3' id='gpPt11' stroke='currentColor' transform='rotate(45)'/>
	<use xlink:href='#gpPt11' id='gpPt12' fill='currentColor' stroke='none'/>
	<path id='gpPt13' stroke-width='0.222' stroke='currentColor' d='M0,1.330 L1.265,0.411 L0.782,-1.067 L-0.782,-1.076 L-1.265,0.411 z'/>
	<use xlink:href='#gpPt13' id='gpPt14' fill='currentColor' stroke='none'/>
	<filter id='textbox' filterUnits='objectBoundingBox' x='0' y='0' height='1' width='1'>
	  <feFlood flood-color='white' flood-opacity='1' result='bgnd'/>
	  <feComposite in='SourceGraphic' in2='bgnd' operator='atop'/>
	</filter>
	<filter id='greybox' filterUnits='objectBoundingBox' x='0' y='0' height='1' width='1'>
	  <feFlood flood-color='lightgrey' flood-opacity='1' result='grey'/>
	  <feComposite in='SourceGraphic' in2='grey' operator='atop'/>
	</filter>
</defs>
<g fill="none" color="white" stroke="currentColor" stroke-width="1.00" stroke-linecap="butt" stroke-linejoin="miter">
</g>
<g fill="none" color="black" stroke="currentColor" stroke-width="1.00" stroke-linecap="butt" stroke-linejoin="miter">
	<path stroke='black'  d='M71.9,662.4 L80.9,662.4  '/>	<g transform="translate(63.6,666.3)" stroke="none" fill="black" font-family="Helvetica" font-size="12.00"  text-anchor="end">
		<text><tspan font-family="Helvetica" > 0</tspan></text>
	</g>
</g>
<g fill="none" color="black" stroke="currentColor" stroke-width="1.00" stroke-linecap="butt" stroke-linejoin="miter">
	<path stroke='black'  d='M71.9,561.0 L80.9,561.0  '/>	<g transform="translate(63.6,564.9)" stroke="none" fill="black" font-family="Helvetica" font-size="12.00"  text-anchor="end">
		<text><tspan font-family="Helvetica" > 100</tspan></text>
	</g>
</g>
<g fill="none" color="black" stroke="currentColor" stroke-width="1.00" stroke-linecap="butt" stroke-linejoin="miter">
	<path stroke='black'  d='M71.9,459.6 L80.9,459.6  '/>	<g transform="translate(63.6,463.5)" stroke="none" fill="black" font-family="Helvetica" font-size="12.00"  text-anchor="end">
		<text><tspan font-family="Helvetica" > 200</tspan></text>
	</g>
</g>
<g fill="none" color="black" stroke="currentColor" stroke-width="1.00" stroke-linecap="butt" stroke-linejoin="miter">
	<path stroke='black'  d='M71.9,358.2 L80.9,358.2  '/>	<g transform="translate(63.6,362.1)" stroke="none" fill="black" font-family="Helvetica" font-size="12.00"  text-anchor="end">
		<text><tspan font-family="Helvetica" > 300</tspan></text>
	</g>
</g>
<g fill="none" color="black" stroke="currentColor" stroke-width="1.00" stroke-linecap="butt" stroke-linejoin="miter">
	<path stroke='black'  d='M71.9,256.9 L80.9,256.9  '/>	<g transform="translate(63.6,260.8)" stroke="none" fill="black" font-family="Helvetica" font-size="12.00"  text-anchor="end">
		<text><tspan font-family="Helvetica" > 400</tspan></text>
	</g>
</g>
<g fill="none" color="black" stroke="currentColor" stroke-width="1.00" stroke-linecap="butt" stroke-linejoin="miter">
	<path stroke='black'  d='M71.9,155.5 L80.9,155.5  '/>	<g transform="translate(63.6,159.4)" stroke="none" fill="black" font-family="Helvetica" font-size="12.00"  text-anchor="end">
		<text><tspan font-family="Helvetica" > 500</tspan></text>
	</g>
</g>
<g fill="none" color="black" stroke="currentColor" stroke-width="1.00" stroke-linecap="butt" stroke-linejoin="miter">
	<path stroke='black'  d='M71.9,54.1 L80.9,54.1  '/>	<g transform="translate(63.6,58.0)" stroke="none" fill="black" font-family="Helvetica" font-size="12.00"  text-anchor="end">
		<text><tspan font-family="Helvetica" > 600</tspan></text>
	</g>
</g>
<g fill="none" color="black" stroke="currentColor" stroke-width="1.00" stroke-linecap="butt" stroke-linejoin="miter">
	<path stroke='black'  d='M172.4,662.4 L172.4,653.4  '/>	<g transform="translate(172.4,684.3)" stroke="none" fill="black" font-family="Helvetica" font-size="12.00"  text-anchor="middle">
		<text><tspan font-family="Helvetica" > 29.181</tspan></text>
	</g>
</g>
<g fill="none" color="black" stroke="currentColor" stroke-width="1.00" stroke-linecap="butt" stroke-linejoin="miter">
	<path stroke='black'  d='M273.7,662.4 L273.7,653.4  '/>	<g transform="translate(273.7,684.3)" stroke="none" fill="black" font-family="Helvetica" font-size="12.00"  text-anchor="middle">
		<text><tspan font-family="Helvetica" > 29.1815</tspan></text>
	</g>
</g>
<g fill="none" color="black" stroke="currentColor" stroke-width="1.00" stroke-linecap="butt" stroke-linejoin="miter">
	<path stroke='black'  d='M375.1,662.4 L375.1,653.4  '/>	<g transform="translate(375.1,684.3)" stroke="none" fill="black" font-family="Helvetica" font-size="12.00"  text-anchor="middle">
		<text><tspan font-family="Helvetica" > 29.182</tspan></text>
	</g>
</g>
<g fill="none" color="black" stroke="currentColor" stroke-width="1.00" stroke-linecap="butt" stroke-linejoin="miter">
	<path stroke='black'  d='M476.5,662.4 L476.5,653.4  '/>	<g transform="translate(476.5,684.3)" stroke="none" fill="black" font-family="Helvetica" font-size="12.00"  text-anchor="middle">
		<text><tspan font-family="Helvetica" > 29.1825</tspan></text>
	</g>
</g>
<g fill="none" color="black" stroke="currentColor" stroke-width="1.00" stroke-linecap="butt" stroke-linejoin="miter">
	<path stroke='black'  d='M577.8,662.4 L577.8,653.4  '/>	<g transform="translate(577.8,684.3)" stroke="none" fill="black" font-family="Helvetica" font-size="12.00"  text-anchor="middle">
		<text><tspan font-family="Helvetica" > 29.183</tspan></text>
	</g>
</g>
<g fill="none" color="black" stroke="currentColor" stroke-width="1.00" stroke-linecap="butt" stroke-linejoin="miter">
	<path stroke='black'  d='M679.2,662.4 L679.2,653.4  '/>	<g transform="translate(679.2,684.3)" stroke="none" fill="black" font-family="Helvetica" font-size="12.00"  text-anchor="middle">
		<text><tspan font-family="Helvetica" > 29.1835</tspan></text>
	</g>
</g>
<g fill="none" color="black" stroke="currentColor" stroke-width="1.00" stroke-linecap="butt" stroke-linejoin="miter">
	<path stroke='black'  d='M780.6,662.4 L780.6,653.4  '/>	<g transform="translate(780.6,684.3)" stroke="none" fill="black" font-family="Helvetica" font-size="12.00"  text-anchor="middle">
		<text><tspan font-family="Helvetica" > 29.184</tspan></text>
	</g>
</g>
<g fill="none" color="black" stroke="currentColor" stroke-width="1.00" stroke-linecap="butt" stroke-linejoin="miter">
	<path stroke='black'  d='M882.0,662.4 L882.0,653.4  '/>	<g transform="translate(882.0,684.3)" stroke="none" fill="black" font-family="Helvetica" font-size="12.00"  text-anchor="middle">
		<text><tspan font-family="Helvetica" > 29.1845</tspan></text>
	</g>
</g>
<g fill="none" color="black" stroke="currentColor" stroke-width="1.00" stroke-linecap="butt" stroke-linejoin="miter">
	<path stroke='black'  d='M983.3,662.4 L983.3,653.4  '/>	<g transform="translate(983.3,684.3)" stroke="none" fill="black" font-family="Helvetica" font-size="12.00"  text-anchor="middle">
		<text><tspan font-family="Helvetica" > 29.185</tspan></text>
	</g>
</g>
<g fill="none" color="black" stroke="currentColor" stroke-width="1.00" stroke-linecap="butt" stroke-linejoin="miter">
</g>
<g fill="none" color="black" stroke="currentColor" stroke-width="1.00" stroke-linecap="butt" stroke-linejoin="miter">
	<path stroke='black'  d='M71.9,54.1 L71.9,662.4 L1013.6,662.4 L1013.6,54.1 L71.9,54.1 Z  '/></g>
<g fill="none" color="black" stroke="currentColor" stroke-width="1.00" stroke-linecap="butt" stroke-linejoin="miter">
	<g transform="translate(19.0,358.3) rotate(270)" stroke="none" fill="black" font-family="Helvetica" font-size="12.00"  text-anchor="middle">
		<text><tspan font-family="Helvetica" >Density (a.u.)</tspan></text>
	</g>
</g>
<g fill="none" color="black" stroke="currentColor" stroke-width="1.00" stroke-linecap="butt" stroke-linejoin="miter">
	<g transform="translate(542.7,711.3)" stroke="none" fill="black" font-family="Helvetica" font-size="12.00"  text-anchor="middle">
		<text><tspan font-family="Helvetica" >Average time (us)</tspan></text>
	</g>
</g>
<g fill="none" color="black" stroke="currentColor" stroke-width="1.00" stroke-linecap="butt" stroke-linejoin="miter">
	<g transform="translate(542.7,31.0)" stroke="none" fill="black" font-family="Helvetica" font-size="12.00"  text-anchor="middle">
		<text><tspan font-family="Helvetica" >bench_group/blake3/32768: median</tspan></text>
	</g>
</g>
<g fill="none" color="black" stroke="currentColor" stroke-width="1.00" stroke-linecap="butt" stroke-linejoin="miter">
</g>
	<g id="gnuplot_plot_1" ><title>Bootstrap distribution</title>
<g fill="none" color="white" stroke="currentColor" stroke-width="2.00" stroke-linecap="butt" stroke-linejoin="miter">
</g>
<g fill="none" color="black" stroke="currentColor" stroke-width="2.00" stroke-linecap="butt" stroke-linejoin="miter">
	<g transform="translate(1089.0,67.0)" stroke="none" fill="black" font-family="Helvetica" font-size="12.00"  text-anchor="start">
		<text><tspan font-family="Helvetica" >Bootstrap distribution</tspan></text>
	</g>
</g>
<g fill="none" color="black" stroke="currentColor" stroke-width="2.00" stroke-linecap="butt" stroke-linejoin="miter">
	<path stroke='rgb( 31, 120, 180)'  d='M1038.5,63.1 L1080.7,63.1 M71.9,630.9 L73.8,629.7 L75.7,628.6 L77.6,627.6 L79.4,626.7 L81.3,625.9
		L83.2,625.2 L85.1,624.5 L87.0,623.9 L88.9,623.3 L90.8,622.8 L92.7,622.2 L94.5,621.7 L96.4,621.2
		L98.3,620.6 L100.2,620.0 L102.1,619.3 L104.0,618.6 L105.9,617.8 L107.8,616.9 L109.6,615.9 L111.5,614.9
		L113.4,613.7 L115.3,612.5 L117.2,611.1 L119.1,609.7 L121.0,608.2 L122.9,606.6 L124.7,604.9 L126.6,603.2
		L128.5,601.4 L130.4,599.5 L132.3,597.5 L134.2,595.5 L136.1,593.4 L138.0,591.3 L139.8,589.1 L141.7,586.9
		L143.6,584.6 L145.5,582.3 L147.4,579.9 L149.3,577.5 L151.2,575.0 L153.0,572.5 L154.9,569.9 L156.8,567.4
		L158.7,564.7 L160.6,562.1 L162.5,559.3 L164.4,556.6 L166.3,553.8 L168.1,550.9 L170.0,547.9 L171.9,544.9
		L173.8,541.8 L175.7,538.6 L177.6,535.3 L179.5,531.9 L181.4,528.3 L183.2,524.6 L185.1,520.8 L187.0,516.7
		L188.9,512.5 L190.8,508.1 L192.7,503.6 L194.6,498.9 L196.5,494.1 L198.3,489.1 L200.2,484.2 L202.1,479.2
		L204.0,474.2 L205.9,469.4 L207.8,464.7 L209.7,460.1 L211.6,455.9 L213.4,451.9 L215.3,448.3 L217.2,445.0
		L219.1,442.2 L221.0,439.7 L222.9,437.6 L224.8,435.9 L226.6,434.5 L228.5,433.3 L230.4,432.4 L232.3,431.6
		L234.2,430.9 L236.1,430.2 L238.0,429.3 L239.9,428.3 L241.7,427.0 L243.6,425.3 L245.5,423.2 L247.4,420.5
		L249.3,417.3 L251.2,413.4 L253.1,408.7 L255.0,403.2 L256.8,396.8 L258.7,389.6 L260.6,381.4 L262.5,372.2
		L264.4,362.1 L266.3,351.0 L268.2,338.9 L270.1,326.0 L271.9,312.3 L273.8,297.9 L275.7,283.0 L277.6,267.6
		L279.5,251.9 L281.4,236.2 L283.3,220.7 L285.2,205.5 L287.0,190.9 L288.9,177.1 L290.8,164.3 L292.7,152.7
		L294.6,142.4 L296.5,133.7 L298.4,126.5 L300.2,121.0 L302.1,117.2 L304.0,115.1 L305.9,114.6 L307.8,115.7
		L309.7,118.2 L311.6,122.1 L313.5,127.1 L315.3,133.2 L317.2,140.0 L319.1,147.5 L321.0,155.5 L322.9,163.8
		L324.8,172.2 L326.7,180.7 L328.6,189.0 L330.4,197.1 L332.3,204.8 L334.2,212.2 L336.1,219.1 L338.0,225.6
		L339.9,231.5 L341.8,236.9 L343.7,241.7 L345.5,246.0 L347.4,249.8 L349.3,253.1 L351.2,255.9 L353.1,258.2
		L355.0,260.1 L356.9,261.5 L358.8,262.6 L360.6,263.3 L362.5,263.7 L364.4,263.9 L366.3,263.7 L368.2,263.3
		L370.1,262.8 L372.0,262.0 L373.8,261.0 L375.7,259.8 L377.6,258.5 L379.5,257.0 L381.4,255.2 L383.3,253.2
		L385.2,251.0 L387.1,248.5 L388.9,245.7 L390.8,242.5 L392.7,238.9 L394.6,235.0 L396.5,230.7 L398.4,226.1
		L400.3,221.1 L402.2,215.9 L404.0,210.5 L405.9,205.0 L407.8,199.5 L409.7,194.3 L411.6,189.4 L413.5,185.2
		L415.4,181.6 L417.3,179.1 L419.1,177.8 L421.0,177.8 L422.9,179.4 L424.8,182.8 L426.7,187.9 L428.6,194.9
		L430.5,203.9 L432.4,214.7 L434.2,227.4 L436.1,241.7 L438.0,257.5 L439.9,274.6 L441.8,292.6 L443.7,311.4
		L445.6,330.5 L447.4,349.6 L449.3,368.4 L451.2,386.5 L453.1,403.7 L455.0,419.6 L456.9,434.0 L458.8,446.7
		L460.7,457.4 L462.5,466.2 L464.4,472.9 L466.3,477.4 L468.2,479.9 L470.1,480.5 L472.0,479.3 L473.9,476.4
		L475.8,472.1 L477.6,466.6 L479.5,460.2 L481.4,453.3 L483.3,446.1 L485.2,438.9 L487.1,432.0 L489.0,425.6
		L490.9,420.1 L492.7,415.7 L494.6,412.5 L496.5,410.6 L498.4,410.1 L500.3,411.1 L502.2,413.4 L504.1,417.1
		L506.0,422.0 L507.8,427.9 L509.7,434.6 L511.6,441.8 L513.5,449.3 L515.4,456.9 L517.3,464.1 L519.2,470.8
		L521.0,476.6 L522.9,481.4 L524.8,484.9 L526.7,486.9 L528.6,487.3 L530.5,486.0 L532.4,482.9 L534.3,478.0
		L536.1,471.3 L538.0,463.0 L539.9,453.1 L541.8,441.9 L543.7,429.5 L545.6,416.2 L547.5,402.3 L549.4,388.0
		L551.2,373.6 L553.1,359.4 L555.0,345.7 L556.9,332.7 L558.8,320.8 L560.7,310.0 L562.6,300.7 L564.5,292.8
		L566.3,286.5 L568.2,281.8 L570.1,278.6 L572.0,277.0 L573.9,276.7 L575.8,277.6 L577.7,279.6 L579.5,282.5
		L581.4,286.0 L583.3,290.1 L585.2,294.4 L587.1,298.8 L589.0,303.2 L590.9,307.4 L592.8,311.3 L594.6,314.8
		L596.5,317.8 L598.4,320.3 L600.3,322.2 L602.2,323.5 L604.1,324.3 L606.0,324.4 L607.9,323.9 L609.7,322.8
		L611.6,321.1 L613.5,318.8 L615.4,315.9 L617.3,312.4 L619.2,308.4 L621.1,303.9 L623.0,299.0 L624.8,293.7
		L626.7,288.2 L628.6,282.5 L630.5,276.7 L632.4,271.0 L634.3,265.5 L636.2,260.2 L638.1,255.4 L639.9,251.0
		L641.8,247.1 L643.7,243.9 L645.6,241.3 L647.5,239.4 L649.4,238.2 L651.3,237.6 L653.1,237.6 L655.0,238.2
		L656.9,239.4 L658.8,241.0 L660.7,243.0 L662.6,245.4 L664.5,248.1 L666.4,251.1 L668.2,254.4 L670.1,258.0
		L672.0,261.9 L673.9,266.1 L675.8,270.7 L677.7,275.7 L679.6,281.0 L681.5,286.8 L683.3,293.1 L685.2,299.8
		L687.1,307.1 L689.0,314.8 L690.9,323.0 L692.8,331.7 L694.7,340.7 L696.6,350.0 L698.4,359.7 L700.3,369.4
		L702.2,379.4 L704.1,389.3 L706.0,399.2 L707.9,408.9 L709.8,418.5 L711.7,427.8 L713.5,436.9 L715.4,445.6
		L717.3,454.0 L719.2,462.1 L721.1,469.8 L723.0,477.2 L724.9,484.2 L726.7,490.9 L728.6,497.4 L730.5,503.6
		L732.4,509.6 L734.3,515.4 L736.2,521.0 L738.1,526.5 L740.0,531.9 L741.8,537.2 L743.7,542.4 L745.6,547.6
		L747.5,552.7 L749.4,557.8 L751.3,562.9 L753.2,567.9 L755.1,572.9 L756.9,577.9 L758.8,582.8 L760.7,587.7
		L762.6,592.4 L764.5,597.1 L766.4,601.6 L768.3,606.0 L770.2,610.2 L772.0,614.2 L773.9,618.0 L775.8,621.5
		L777.7,624.8 L779.6,627.8 L781.5,630.5 L783.4,632.8 L785.3,634.8 L787.1,636.5 L789.0,637.9 L790.9,639.0
		L792.8,639.7 L794.7,640.1 L796.6,640.2 L798.5,640.0 L800.3,639.5 L802.2,638.8 L804.1,637.9 L806.0,636.7
		L807.9,635.4 L809.8,633.8 L811.7,632.2 L813.6,630.5 L815.4,628.7 L817.3,626.8 L819.2,624.9 L821.1,623.1
		L823.0,621.2 L824.9,619.5 L826.8,617.9 L828.7,616.5 L830.5,615.3 L832.4,614.3 L834.3,613.5 L836.2,613.0
		L838.1,612.8 L840.0,612.9 L841.9,613.3 L843.8,614.0 L845.6,615.0 L847.5,616.3 L849.4,617.9 L851.3,619.7
		L853.2,621.7 L855.1,624.0 L857.0,626.3 L858.9,628.7 L860.7,631.2 L862.6,633.7 L864.5,636.2 L866.4,638.6
		L868.3,640.8 L870.2,643.0 L872.1,644.9 L873.9,646.7 L875.8,648.2 L877.7,649.4 L879.6,650.4 L881.5,651.0
		L883.4,651.3 L885.3,651.3 L887.2,650.9 L889.0,650.2 L890.9,649.0 L892.8,647.5 L894.7,645.5 L896.6,643.2
		L898.5,640.4 L900.4,637.2 L902.3,633.6 L904.1,629.7 L906.0,625.4 L907.9,620.9 L909.8,616.1 L911.7,611.2
		L913.6,606.2 L915.5,601.2 L917.4,596.3 L919.2,591.6 L921.1,587.1 L923.0,583.1 L924.9,579.6 L926.8,576.6
		L928.7,574.3 L930.6,572.7 L932.5,571.8 L934.3,571.7 L936.2,572.3 L938.1,573.7 L940.0,575.8 L941.9,578.6
		L943.8,582.0 L945.7,585.9 L947.5,590.2 L949.4,594.9 L951.3,599.7 L953.2,604.8 L955.1,609.8 L957.0,614.9
		L958.9,619.8 L960.8,624.5 L962.6,628.9 L964.5,633.1 L966.4,637.0 L968.3,640.5 L970.2,643.7 L972.1,646.5
		L974.0,649.0 L975.9,651.1 L977.7,652.9 L979.6,654.5 L981.5,655.7 L983.4,656.7 L985.3,657.5 L987.2,658.1
		L989.1,658.5 L991.0,658.7 L992.8,658.8 L994.7,658.8 L996.6,658.8 L998.5,658.6 L1000.4,658.4 L1002.3,658.1
		L1004.2,657.8 L1006.1,657.4 L1007.9,657.1 L1009.8,656.7 L1011.7,656.4 L1013.6,656.1  '/></g>
	</g>
	<g id="gnuplot_plot_2" ><title>Confidence interval</title>
<g fill="none" color="white" stroke="rgb( 31, 120, 180)" stroke-width="1.00" stroke-linecap="butt" stroke-linejoin="miter">
</g>
<g fill="none" color="black" stroke="currentColor" stroke-width="1.00" stroke-linecap="butt" stroke-linejoin="miter">
	<g transform="translate(1089.0,85.0)" stroke="none" fill="black" font-family="Helvetica" font-size="12.00"  text-anchor="start">
		<text><tspan font-family="Helvetica" >Confidence interval</tspan></text>
	</g>
</g>
<g fill="none" color="black" stroke="currentColor" stroke-width="1.00" stroke-linecap="butt" stroke-linejoin="miter">
	<g stroke='none' shape-rendering='crispEdges'>
		<polygon fill = 'rgb( 31, 120, 180)' fill-opacity = '0.250000' points = '1038.5,85.6 1080.7,85.6 1080.7,76.6 1038.5,76.6 '/>
		<polygon fill = 'rgb( 31, 120, 180)' fill-opacity = '0.250000' points = '158.7,564.7 160.6,562.1 162.5,559.3 164.4,556.6 166.3,553.8 168.1,550.9 170.0,547.9 171.9,544.9 173.8,541.8 175.7,538.6 177.6,535.3 179.5,531.9 181.4,528.3 183.2,524.6 185.1,520.8 187.0,516.7
188.9,512.5 190.8,508.1 192.7,503.6 194.6,498.9 196.5,494.1 198.3,489.1 200.2,484.2 202.1,479.2 204.0,474.2 205.9,469.4 207.8,464.7 209.7,460.1 211.6,455.9 213.4,451.9 215.3,448.3 217.2,445.0
219.1,442.2 221.0,439.7 222.9,437.6 224.8,435.9 226.6,434.5 228.5,433.3 230.4,432.4 232.3,431.6 234.2,430.9 236.1,430.2 238.0,429.3 239.9,428.3 241.7,427.0 243.6,425.3 245.5,423.2 247.4,420.5
249.3,417.3 251.2,413.4 253.1,408.7 255.0,403.2 256.8,396.8 258.7,389.6 260.6,381.4 262.5,372.2 264.4,362.1 266.3,351.0 268.2,338.9 270.1,326.0 271.9,312.3 273.8,297.9 275.7,283.0 277.6,267.6
279.5,251.9 281.4,236.2 283.3,220.7 285.2,205.5 287.0,190.9 288.9,177.1 290.8,164.3 292.7,152.7 294.6,142.4 296.5,133.7 298.4,126.5 300.2,121.0 302.1,117.2 304.0,115.1 305.9,114.6 307.8,115.7
309.7,118.2 311.6,122.1 313.5,127.1 315.3,133.2 317.2,140.0 319.1,147.5 321.0,155.5 322.9,163.8 324.8,172.2 326.7,180.7 328.6,189.0 330.4,197.1 332.3,204.8 334.2,212.2 336.1,219.1 338.0,225.6
339.9,231.5 341.8,236.9 343.7,241.7 345.5,246.0 347.4,249.8 349.3,253.1 351.2,255.9 353.1,258.2 355.0,260.1 356.9,261.5 358.8,262.6 360.6,263.3 362.5,263.7 364.4,263.9 366.3,263.7 368.2,263.3
370.1,262.8 372.0,262.0 373.8,261.0 375.7,259.8 377.6,258.5 379.5,257.0 381.4,255.2 383.3,253.2 385.2,251.0 387.1,248.5 388.9,245.7 390.8,242.5 392.7,238.9 394.6,235.0 396.5,230.7 398.4,226.1
400.3,221.1 402.2,215.9 404.0,210.5 405.9,205.0 407.8,199.5 409.7,194.3 411.6,189.4 413.5,185.2 415.4,181.6 417.3,179.1 419.1,177.8 421.0,177.8 422.9,179.4 424.8,182.8 426.7,187.9 428.6,194.9
430.5,203.9 432.4,214.7 434.2,227.4 436.1,241.7 438.0,257.5 439.9,274.6 441.8,292.6 443.7,311.4 445.6,330.5 447.4,349.6 449.3,368.4 451.2,386.5 453.1,403.7 455.0,419.6 456.9,434.0 458.8,446.7
460.7,457.4 462.5,466.2 464.4,472.9 466.3,477.4 468.2,479.9 470.1,480.5 472.0,479.3 473.9,476.4 475.8,472.1 477.6,466.6 479.5,460.2 481.4,453.3 483.3,446.1 485.2,438.9 487.1,432.0 489.0,425.6
490.9,420.1 492.7,415.7 494.6,412.5 496.5,410.6 498.4,410.1 500.3,411.1 502.2,413.4 504.1,417.1 506.0,422.0 507.8,427.9 509.7,434.6 511.6,441.8 513.5,449.3 515.4,456.9 517.3,464.1 519.2,470.8
521.0,476.6 522.9,481.4 524.8,484.9 526.7,486.9 528.6,487.3 530.5,486.0 532.4,482.9 534.3,478.0 536.1,471.3 538.0,463.0 539.9,453.1 541.8,441.9 543.7,429.5 545.6,416.2 547.5,402.3 549.4,388.0
551.2,373.6 553.1,359.4 555.0,345.7 556.9,332.7 558.8,320.8 560.7,310.0 562.6,300.7 564.5,292.8 566.3,286.5 568.2,281.8 570.1,278.6 572.0,277.0 573.9,276.7 575.8,277.6 577.7,279.6 579.5,282.5
581.4,286.0 583.3,290.1 585.2,294.4 587.1,298.8 589.0,303.2 590.9,307.4 592.8,311.3 594.6,314.8 596.5,317.8 598.4,320.3 600.3,322.2 602.2,323.5 604.1,324.3 606.0,324.4 607.9,323.9 609.7,322.8
611.6,321.1 613.5,318.8 615.4,315.9 617.3,312.4 619.2,308.4 621.1,303.9 623.0,299.0 624.8,293.7 626.7,288.2 628.6,282.5 630.5,276.7 632.4,271.0 634.3,265.5 636.2,260.2 638.1,255.4 639.9,251.0
641.8,247.1 643.7,243.9 645.6,241.3 647.5,239.4 649.4,238.2 651.3,237.6 653.1,237.6 655.0,238.2 656.9,239.4 658.8,241.0 660.7,243.0 662.6,245.4 664.5,248.1 666.4,251.1 668.2,254.4 670.1,258.0
672.0,261.9 673.9,266.1 675.8,270.7 677.7,275.7 679.6,281.0 681.5,286.8 683.3,293.1 685.2,299.8 687.1,307.1 689.0,314.8 690.9,323.0 692.8,331.7 694.7,340.7 696.6,350.0 698.4,359.7 700.3,369.4
702.2,379.4 704.1,389.3 706.0,399.2 707.9,408.9 709.8,418.5 711.7,427.8 713.5,436.9 715.4,445.6 717.3,454.0 719.2,462.1 721.1,469.8 723.0,477.2 724.9,484.2 726.7,490.9 728.6,497.4 730.5,503.6
732.4,509.6 734.3,515.4 736.2,521.0 738.1,526.5 740.0,531.9 741.8,537.2 743.7,542.4 745.6,547.6 747.5,552.7 749.4,557.8 751.3,562.9 753.2,567.9 755.1,572.9 756.9,577.9 758.8,582.8 760.7,587.7
762.6,592.4 764.5,597.1 766.4,601.6 768.3,606.0 770.2,610.2 772.0,614.2 773.9,618.0 775.8,621.5 777.7,624.8 779.6,627.8 781.5,630.5 783.4,632.8 785.3,634.8 787.1,636.5 789.0,637.9 790.9,639.0
792.8,639.7 794.7,640.1 796.6,640.2 798.5,640.0 800.3,639.5 802.2,638.8 804.1,637.9 806.0,636.7 807.9,635.4 809.8,633.8 811.7,632.2 813.6,630.5 815.4,628.7 817.3,626.8 819.2,624.9 821.1,623.1
823.0,621.2 824.9,619.5 826.8,617.9 828.7,616.5 830.5,615.3 832.4,614.3 834.3,613.5 836.2,613.0 838.1,612.8 840.0,612.9 841.9,613.3 843.8,614.0 845.6,615.0 847.5,616.3 849.4,617.9 851.3,619.7
853.2,621.7 855.1,624.0 857.0,626.3 858.9,628.7 860.7,631.2 862.6,633.7 864.5,636.2 866.4,638.6 868.3,640.8 870.2,643.0 872.1,644.9 873.9,646.7 875.8,648.2 877.7,649.4 879.6,650.4 881.5,651.0
883.4,651.3 885.3,651.3 887.2,650.9 889.0,650.2 890.9,649.0 892.8,647.5 894.7,645.5 896.6,643.2 898.5,640.4 900.4,637.2 902.3,633.6 904.1,629.7 906.0,625.4 907.9,620.9 909.8,616.1 911.7,611.2
913.6,606.2 915.5,601.2 917.4,596.3 919.2,591.6 921.1,587.1 923.0,583.1 924.9,579.6 924.9,662.4 923.0,662.4 921.1,662.4 919.2,662.4 917.4,662.4 915.5,662.4 913.6,662.4 911.7,662.4 909.8,662.4
907.9,662.4 906.0,662.4 904.1,662.4 902.3,662.4 900.4,662.4 898.5,662.4 896.6,662.4 894.7,662.4 892.8,662.4 890.9,662.4 889.0,662.4 887.2,662.4 885.3,662.4 883.4,662.4 881.5,662.4 879.6,662.4
877.7,662.4 875.8,662.4 873.9,662.4 872.1,662.4 870.2,662.4 868.3,662.4 866.4,662.4 864.5,662.4 862.6,662.4 860.7,662.4 858.9,662.4 857.0,662.4 855.1,662.4 853.2,662.4 851.3,662.4 849.4,662.4
847.5,662.4 845.6,662.4 843.8,662.4 841.9,662.4 840.0,662.4 838.1,662.4 836.2,662.4 834.3,662.4 832.4,662.4 830.5,662.4 828.7,662.4 826.8,662.4 824.9,662.4 823.0,662.4 821.1,662.4 819.2,662.4
817.3,662.4 815.4,662.4 813.6,662.4 811.7,662.4 809.8,662.4 807.9,662.4 806.0,662.4 804.1,662.4 802.2,662.4 800.3,662.4 798.5,662.4 796.6,662.4 794.7,662.4 792.8,662.4 790.9,662.4 789.0,662.4
787.1,662.4 785.3,662.4 783.4,662.4 781.5,662.4 779.6,662.4 777.7,662.4 775.8,662.4 773.9,662.4 772.0,662.4 770.2,662.4 768.3,662.4 766.4,662.4 764.5,662.4 762.6,662.4 760.7,662.4 758.8,662.4
756.9,662.4 755.1,662.4 753.2,662.4 751.3,662.4 749.4,662.4 747.5,662.4 745.6,662.4 743.7,662.4 741.8,662.4 740.0,662.4 738.1,662.4 736.2,662.4 734.3,662.4 732.4,662.4 730.5,662.4 728.6,662.4
726.7,662.4 724.9,662.4 723.0,662.4 721.1,662.4 719.2,662.4 717.3,662.4 715.4,662.4 713.5,662.4 711.7,662.4 709.8,662.4 707.9,662.4 706.0,662.4 704.1,662.4 702.2,662.4 700.3,662.4 698.4,662.4
696.6,662.4 694.7,662.4 692.8,662.4 690.9,662.4 689.0,662.4 687.1,662.4 685.2,662.4 683.3,662.4 681.5,662.4 679.6,662.4 677.7,662.4 675.8,662.4 673.9,662.4 672.0,662.4 670.1,662.4 668.2,662.4
666.4,662.4 664.5,662.4 662.6,662.4 660.7,662.4 658.8,662.4 656.9,662.4 655.0,662.4 653.1,662.4 651.3,662.4 649.4,662.4 647.5,662.4 645.6,662.4 643.7,662.4 641.8,662.4 639.9,662.4 638.1,662.4
636.2,662.4 634.3,662.4 632.4,662.4 630.5,662.4 628.6,662.4 626.7,662.4 624.8,662.4 623.0,662.4 621.1,662.4 619.2,662.4 617.3,662.4 615.4,662.4 613.5,662.4 611.6,662.4 609.7,662.4 607.9,662.4
606.0,662.4 604.1,662.4 602.2,662.4 600.3,662.4 598.4,662.4 596.5,662.4 594.6,662.4 592.8,662.4 590.9,662.4 589.0,662.4 587.1,662.4 585.2,662.4 583.3,662.4 581.4,662.4 579.5,662.4 577.7,662.4
575.8,662.4 573.9,662.4 572.0,662.4 570.1,662.4 568.2,662.4 566.3,662.4 564.5,662.4 562.6,662.4 560.7,662.4 558.8,662.4 556.9,662.4 555.0,662.4 553.1,662.4 551.2,662.4 549.4,662.4 547.5,662.4
545.6,662.4 543.7,662.4 541.8,662.4 539.9,662.4 538.0,662.4 536.1,662.4 534.3,662.4 532.4,662.4 530.5,662.4 528.6,662.4 526.7,662.4 524.8,662.4 522.9,662.4 521.0,662.4 519.2,662.4 517.3,662.4
515.4,662.4 513.5,662.4 511.6,662.4 509.7,662.4 507.8,662.4 506.0,662.4 504.1,662.4 502.2,662.4 500.3,662.4 498.4,662.4 496.5,662.4 494.6,662.4 492.7,662.4 490.9,662.4 489.0,662.4 487.1,662.4
485.2,662.4 483.3,662.4 481.4,662.4 479.5,662.4 477.6,662.4 475.8,662.4 473.9,662.4 472.0,662.4 470.1,662.4 468.2,662.4 466.3,662.4 464.4,662.4 462.5,662.4 460.7,662.4 458.8,662.4 456.9,662.4
455.0,662.4 453.1,662.4 451.2,662.4 449.3,662.4 447.4,662.4 445.6,662.4 443.7,662.4 441.8,662.4 439.9,662.4 438.0,662.4 436.1,662.4 434.2,662.4 432.4,662.4 430.5,662.4 428.6,662.4 426.7,662.4
424.8,662.4 422.9,662.4 421.0,662.4 419.1,662.4 417.3,662.4 415.4,662.4 413.5,662.4 411.6,662.4 409.7,662.4 407.8,662.4 405.9,662.4 404.0,662.4 402.2,662.4 400.3,662.4 398.4,662.4 396.5,662.4
394.6,662.4 392.7,662.4 390.8,662.4 388.9,662.4 387.1,662.4 385.2,662.4 383.3,662.4 381.4,662.4 379.5,662.4 377.6,662.4 375.7,662.4 373.8,662.4 372.0,662.4 370.1,662.4 368.2,662.4 366.3,662.4
364.4,662.4 362.5,662.4 360.6,662.4 358.8,662.4 356.9,662.4 355.0,662.4 353.1,662.4 351.2,662.4 349.3,662.4 347.4,662.4 345.5,662.4 343.7,662.4 341.8,662.4 339.9,662.4 338.0,662.4 336.1,662.4
334.2,662.4 332.3,662.4 330.4,662.4 328.6,662.4 326.7,662.4 324.8,662.4 322.9,662.4 321.0,662.4 319.1,662.4 317.2,662.4 315.3,662.4 313.5,662.4 311.6,662.4 309.7,662.4 307.8,662.4 305.9,662.4
304.0,662.4 302.1,662.4 300.2,662.4 298.4,662.4 296.5,662.4 294.6,662.4 292.7,662.4 290.8,662.4 288.9,662.4 287.0,662.4 285.2,662.4 283.3,662.4 281.4,662.4 279.5,662.4 277.6,662.4 275.7,662.4
273.8,662.4 271.9,662.4 270.1,662.4 268.2,662.4 266.3,662.4 264.4,662.4 262.5,662.4 260.6,662.4 258.7,662.4 256.8,662.4 255.0,662.4 253.1,662.4 251.2,662.4 249.3,662.4 247.4,662.4 245.5,662.4
243.6,662.4 241.7,662.4 239.9,662.4 238.0,662.4 236.1,662.4 234.2,662.4 232.3,662.4 230.4,662.4 228.5,662.4 226.6,662.4 224.8,662.4 222.9,662.4 221.0,662.4 219.1,662.4 217.2,662.4 215.3,662.4
213.4,662.4 211.6,662.4 209.7,662.4 207.8,662.4 205.9,662.4 204.0,662.4 202.1,662.4 200.2,662.4 198.3,662.4 196.5,662.4 194.6,662.4 192.7,662.4 190.8,662.4 188.9,662.4 187.0,662.4 185.1,662.4
183.2,662.4 181.4,662.4 179.5,662.4 177.6,662.4 175.7,662.4 173.8,662.4 171.9,662.4 170.0,662.4 168.1,662.4 166.3,662.4 164.4,662.4 162.5,662.4 160.6,662.4 158.7,662.4 '/>
	</g>
</g>
	</g>
	<g id="gnuplot_plot_3" ><title>Point estimate</title>
<g fill="none" color="white" stroke="rgb( 31, 120, 180)" stroke-width="2.00" stroke-linecap="butt" stroke-linejoin="miter">
</g>
<g fill="none" color="black" stroke="currentColor" stroke-width="2.00" stroke-linecap="butt" stroke-linejoin="miter">
	<g transform="translate(1089.0,103.0)" stroke="none" fill="black" font-family="Helvetica" font-size="12.00"  text-anchor="start">
		<text><tspan font-family="Helvetica" >Point estimate</tspan></text>
	</g>
</g>
<g fill="none" color="black" stroke="currentColor" stroke-width="2.00" stroke-linecap="butt" stroke-linejoin="miter">
	<path stroke='rgb( 31, 120, 180)'  d='M1038.5,99.1 L1080.7,99.1 M430.7,662.4 L430.7,205.1  '/></g>
	</g>
<g fill="none" color="black" stroke="currentColor" stroke-width="2.00" stroke-linecap="butt" stroke-linejoin="miter">
</g>
<g fill="none" color="black" stroke="black" stroke-width="1.00" stroke-linecap="butt" stroke-linejoin="miter">
</g>
<g fill="none" color="black" stroke="currentColor" stroke-width="1.00" stroke-linecap="butt" stroke-linejoin="miter">
	<path stroke='black'  d='M71.9,54.1 L71.9,662.4 L1013.6,662.4 L1013.6,54.1 L71.9,54.1 Z  '/></g>
<g fill="none" color="black" stroke="currentColor" stroke-width="1.00" stroke-linecap="butt" stroke-linejoin="miter">
</g>
</g>
</svg>

