<?xml version="1.0" encoding="utf-8"  standalone="no"?>
<svg 
 viewBox="0 0 1280 720"
 xmlns="http://www.w3.org/2000/svg"
 xmlns:xlink="http://www.w3.org/1999/xlink"
>

<title>Gnuplot</title>
<desc>Produced by GNUPLOT 5.2 patchlevel 8 </desc>

<g id="gnuplot_canvas">

<rect x="0" y="0" width="1280" height="720" fill="none"/>
<defs>

	<circle id='gpDot' r='0.5' stroke-width='0.5' stroke='currentColor'/>
	<path id='gpPt0' stroke-width='0.222' stroke='currentColor' d='M-1,0 h2 M0,-1 v2'/>
	<path id='gpPt1' stroke-width='0.222' stroke='currentColor' d='M-1,-1 L1,1 M1,-1 L-1,1'/>
	<path id='gpPt2' stroke-width='0.222' stroke='currentColor' d='M-1,0 L1,0 M0,-1 L0,1 M-1,-1 L1,1 M-1,1 L1,-1'/>
	<rect id='gpPt3' stroke-width='0.222' stroke='currentColor' x='-1' y='-1' width='2' height='2'/>
	<rect id='gpPt4' stroke-width='0.222' stroke='currentColor' fill='currentColor' x='-1' y='-1' width='2' height='2'/>
	<circle id='gpPt5' stroke-width='0.222' stroke='currentColor' cx='0' cy='0' r='1'/>
	<use xlink:href='#gpPt5' id='gpPt6' fill='currentColor' stroke='none'/>
	<path id='gpPt7' stroke-width='0.222' stroke='currentColor' d='M0,-1.33 L-1.33,0.67 L1.33,0.67 z'/>
	<use xlink:href='#gpPt7' id='gpPt8' fill='currentColor' stroke='none'/>
	<use xlink:href='#gpPt7' id='gpPt9' stroke='currentColor' transform='rotate(180)'/>
	<use xlink:href='#gpPt9' id='gpPt10' fill='currentColor' stroke='none'/>
	<use xlink:href='#gpPt3' id='gpPt11' stroke='currentColor' transform='rotate(45)'/>
	<use xlink:href='#gpPt11' id='gpPt12' fill='currentColor' stroke='none'/>
	<path id='gpPt13' stroke-width='0.222' stroke='currentColor' d='M0,1.330 L1.265,0.411 L0.782,-1.067 L-0.782,-1.076 L-1.265,0.411 z'/>
	<use xlink:href='#gpPt13' id='gpPt14' fill='currentColor' stroke='none'/>
	<filter id='textbox' filterUnits='objectBoundingBox' x='0' y='0' height='1' width='1'>
	  <feFlood flood-color='white' flood-opacity='1' result='bgnd'/>
	  <feComposite in='SourceGraphic' in2='bgnd' operator='atop'/>
	</filter>
	<filter id='greybox' filterUnits='objectBoundingBox' x='0' y='0' height='1' width='1'>
	  <feFlood flood-color='lightgrey' flood-opacity='1' result='grey'/>
	  <feComposite in='SourceGraphic' in2='grey' operator='atop'/>
	</filter>
</defs>
<g fill="none" color="white" stroke="currentColor" stroke-width="1.00" stroke-linecap="butt" stroke-linejoin="miter">
</g>
<g fill="none" color="black" stroke="currentColor" stroke-width="1.00" stroke-linecap="butt" stroke-linejoin="miter">
	<path stroke='black'  d='M71.9,662.4 L80.9,662.4  '/>	<g transform="translate(63.6,666.3)" stroke="none" fill="black" font-family="Helvetica" font-size="12.00"  text-anchor="end">
		<text><tspan font-family="Helvetica" > 0</tspan></text>
	</g>
</g>
<g fill="none" color="black" stroke="currentColor" stroke-width="1.00" stroke-linecap="butt" stroke-linejoin="miter">
	<path stroke='black'  d='M71.9,594.8 L80.9,594.8  '/>	<g transform="translate(63.6,598.7)" stroke="none" fill="black" font-family="Helvetica" font-size="12.00"  text-anchor="end">
		<text><tspan font-family="Helvetica" > 50</tspan></text>
	</g>
</g>
<g fill="none" color="black" stroke="currentColor" stroke-width="1.00" stroke-linecap="butt" stroke-linejoin="miter">
	<path stroke='black'  d='M71.9,527.2 L80.9,527.2  '/>	<g transform="translate(63.6,531.1)" stroke="none" fill="black" font-family="Helvetica" font-size="12.00"  text-anchor="end">
		<text><tspan font-family="Helvetica" > 100</tspan></text>
	</g>
</g>
<g fill="none" color="black" stroke="currentColor" stroke-width="1.00" stroke-linecap="butt" stroke-linejoin="miter">
	<path stroke='black'  d='M71.9,459.6 L80.9,459.6  '/>	<g transform="translate(63.6,463.5)" stroke="none" fill="black" font-family="Helvetica" font-size="12.00"  text-anchor="end">
		<text><tspan font-family="Helvetica" > 150</tspan></text>
	</g>
</g>
<g fill="none" color="black" stroke="currentColor" stroke-width="1.00" stroke-linecap="butt" stroke-linejoin="miter">
	<path stroke='black'  d='M71.9,392.0 L80.9,392.0  '/>	<g transform="translate(63.6,395.9)" stroke="none" fill="black" font-family="Helvetica" font-size="12.00"  text-anchor="end">
		<text><tspan font-family="Helvetica" > 200</tspan></text>
	</g>
</g>
<g fill="none" color="black" stroke="currentColor" stroke-width="1.00" stroke-linecap="butt" stroke-linejoin="miter">
	<path stroke='black'  d='M71.9,324.5 L80.9,324.5  '/>	<g transform="translate(63.6,328.4)" stroke="none" fill="black" font-family="Helvetica" font-size="12.00"  text-anchor="end">
		<text><tspan font-family="Helvetica" > 250</tspan></text>
	</g>
</g>
<g fill="none" color="black" stroke="currentColor" stroke-width="1.00" stroke-linecap="butt" stroke-linejoin="miter">
	<path stroke='black'  d='M71.9,256.9 L80.9,256.9  '/>	<g transform="translate(63.6,260.8)" stroke="none" fill="black" font-family="Helvetica" font-size="12.00"  text-anchor="end">
		<text><tspan font-family="Helvetica" > 300</tspan></text>
	</g>
</g>
<g fill="none" color="black" stroke="currentColor" stroke-width="1.00" stroke-linecap="butt" stroke-linejoin="miter">
	<path stroke='black'  d='M71.9,189.3 L80.9,189.3  '/>	<g transform="translate(63.6,193.2)" stroke="none" fill="black" font-family="Helvetica" font-size="12.00"  text-anchor="end">
		<text><tspan font-family="Helvetica" > 350</tspan></text>
	</g>
</g>
<g fill="none" color="black" stroke="currentColor" stroke-width="1.00" stroke-linecap="butt" stroke-linejoin="miter">
	<path stroke='black'  d='M71.9,121.7 L80.9,121.7  '/>	<g transform="translate(63.6,125.6)" stroke="none" fill="black" font-family="Helvetica" font-size="12.00"  text-anchor="end">
		<text><tspan font-family="Helvetica" > 400</tspan></text>
	</g>
</g>
<g fill="none" color="black" stroke="currentColor" stroke-width="1.00" stroke-linecap="butt" stroke-linejoin="miter">
	<path stroke='black'  d='M71.9,54.1 L80.9,54.1  '/>	<g transform="translate(63.6,58.0)" stroke="none" fill="black" font-family="Helvetica" font-size="12.00"  text-anchor="end">
		<text><tspan font-family="Helvetica" > 450</tspan></text>
	</g>
</g>
<g fill="none" color="black" stroke="currentColor" stroke-width="1.00" stroke-linecap="butt" stroke-linejoin="miter">
	<path stroke='black'  d='M109.4,662.4 L109.4,653.4  '/>	<g transform="translate(109.4,684.3)" stroke="none" fill="black" font-family="Helvetica" font-size="12.00"  text-anchor="middle">
		<text><tspan font-family="Helvetica" > 14.692</tspan></text>
	</g>
</g>
<g fill="none" color="black" stroke="currentColor" stroke-width="1.00" stroke-linecap="butt" stroke-linejoin="miter">
	<path stroke='black'  d='M217.5,662.4 L217.5,653.4  '/>	<g transform="translate(217.5,684.3)" stroke="none" fill="black" font-family="Helvetica" font-size="12.00"  text-anchor="middle">
		<text><tspan font-family="Helvetica" > 14.6925</tspan></text>
	</g>
</g>
<g fill="none" color="black" stroke="currentColor" stroke-width="1.00" stroke-linecap="butt" stroke-linejoin="miter">
	<path stroke='black'  d='M325.5,662.4 L325.5,653.4  '/>	<g transform="translate(325.5,684.3)" stroke="none" fill="black" font-family="Helvetica" font-size="12.00"  text-anchor="middle">
		<text><tspan font-family="Helvetica" > 14.693</tspan></text>
	</g>
</g>
<g fill="none" color="black" stroke="currentColor" stroke-width="1.00" stroke-linecap="butt" stroke-linejoin="miter">
	<path stroke='black'  d='M433.6,662.4 L433.6,653.4  '/>	<g transform="translate(433.6,684.3)" stroke="none" fill="black" font-family="Helvetica" font-size="12.00"  text-anchor="middle">
		<text><tspan font-family="Helvetica" > 14.6935</tspan></text>
	</g>
</g>
<g fill="none" color="black" stroke="currentColor" stroke-width="1.00" stroke-linecap="butt" stroke-linejoin="miter">
	<path stroke='black'  d='M541.7,662.4 L541.7,653.4  '/>	<g transform="translate(541.7,684.3)" stroke="none" fill="black" font-family="Helvetica" font-size="12.00"  text-anchor="middle">
		<text><tspan font-family="Helvetica" > 14.694</tspan></text>
	</g>
</g>
<g fill="none" color="black" stroke="currentColor" stroke-width="1.00" stroke-linecap="butt" stroke-linejoin="miter">
	<path stroke='black'  d='M649.8,662.4 L649.8,653.4  '/>	<g transform="translate(649.8,684.3)" stroke="none" fill="black" font-family="Helvetica" font-size="12.00"  text-anchor="middle">
		<text><tspan font-family="Helvetica" > 14.6945</tspan></text>
	</g>
</g>
<g fill="none" color="black" stroke="currentColor" stroke-width="1.00" stroke-linecap="butt" stroke-linejoin="miter">
	<path stroke='black'  d='M757.8,662.4 L757.8,653.4  '/>	<g transform="translate(757.8,684.3)" stroke="none" fill="black" font-family="Helvetica" font-size="12.00"  text-anchor="middle">
		<text><tspan font-family="Helvetica" > 14.695</tspan></text>
	</g>
</g>
<g fill="none" color="black" stroke="currentColor" stroke-width="1.00" stroke-linecap="butt" stroke-linejoin="miter">
	<path stroke='black'  d='M865.9,662.4 L865.9,653.4  '/>	<g transform="translate(865.9,684.3)" stroke="none" fill="black" font-family="Helvetica" font-size="12.00"  text-anchor="middle">
		<text><tspan font-family="Helvetica" > 14.6955</tspan></text>
	</g>
</g>
<g fill="none" color="black" stroke="currentColor" stroke-width="1.00" stroke-linecap="butt" stroke-linejoin="miter">
	<path stroke='black'  d='M974.0,662.4 L974.0,653.4  '/>	<g transform="translate(974.0,684.3)" stroke="none" fill="black" font-family="Helvetica" font-size="12.00"  text-anchor="middle">
		<text><tspan font-family="Helvetica" > 14.696</tspan></text>
	</g>
</g>
<g fill="none" color="black" stroke="currentColor" stroke-width="1.00" stroke-linecap="butt" stroke-linejoin="miter">
</g>
<g fill="none" color="black" stroke="currentColor" stroke-width="1.00" stroke-linecap="butt" stroke-linejoin="miter">
	<path stroke='black'  d='M71.9,54.1 L71.9,662.4 L1013.6,662.4 L1013.6,54.1 L71.9,54.1 Z  '/></g>
<g fill="none" color="black" stroke="currentColor" stroke-width="1.00" stroke-linecap="butt" stroke-linejoin="miter">
	<g transform="translate(19.0,358.3) rotate(270)" stroke="none" fill="black" font-family="Helvetica" font-size="12.00"  text-anchor="middle">
		<text><tspan font-family="Helvetica" >Density (a.u.)</tspan></text>
	</g>
</g>
<g fill="none" color="black" stroke="currentColor" stroke-width="1.00" stroke-linecap="butt" stroke-linejoin="miter">
	<g transform="translate(542.7,711.3)" stroke="none" fill="black" font-family="Helvetica" font-size="12.00"  text-anchor="middle">
		<text><tspan font-family="Helvetica" >Average time (us)</tspan></text>
	</g>
</g>
<g fill="none" color="black" stroke="currentColor" stroke-width="1.00" stroke-linecap="butt" stroke-linejoin="miter">
	<g transform="translate(542.7,31.0)" stroke="none" fill="black" font-family="Helvetica" font-size="12.00"  text-anchor="middle">
		<text><tspan font-family="Helvetica" >bench_group/blake3/16384: slope</tspan></text>
	</g>
</g>
<g fill="none" color="black" stroke="currentColor" stroke-width="1.00" stroke-linecap="butt" stroke-linejoin="miter">
</g>
	<g id="gnuplot_plot_1" ><title>Bootstrap distribution</title>
<g fill="none" color="white" stroke="currentColor" stroke-width="2.00" stroke-linecap="butt" stroke-linejoin="miter">
</g>
<g fill="none" color="black" stroke="currentColor" stroke-width="2.00" stroke-linecap="butt" stroke-linejoin="miter">
	<g transform="translate(1089.0,67.0)" stroke="none" fill="black" font-family="Helvetica" font-size="12.00"  text-anchor="start">
		<text><tspan font-family="Helvetica" >Bootstrap distribution</tspan></text>
	</g>
</g>
<g fill="none" color="black" stroke="currentColor" stroke-width="2.00" stroke-linecap="butt" stroke-linejoin="miter">
	<path stroke='rgb( 31, 120, 180)'  d='M1038.5,63.1 L1080.7,63.1 M71.9,627.8 L73.8,627.2 L75.7,626.6 L77.6,626.0 L79.4,625.3 L81.3,624.7
		L83.2,624.0 L85.1,623.3 L87.0,622.6 L88.9,621.9 L90.8,621.2 L92.7,620.5 L94.5,619.8 L96.4,619.1
		L98.3,618.3 L100.2,617.6 L102.1,616.9 L104.0,616.1 L105.9,615.4 L107.8,614.6 L109.6,613.9 L111.5,613.1
		L113.4,612.4 L115.3,611.6 L117.2,610.9 L119.1,610.1 L121.0,609.3 L122.9,608.5 L124.7,607.7 L126.6,606.9
		L128.5,606.0 L130.4,605.2 L132.3,604.3 L134.2,603.4 L136.1,602.5 L138.0,601.6 L139.8,600.6 L141.7,599.6
		L143.6,598.6 L145.5,597.6 L147.4,596.5 L149.3,595.4 L151.2,594.3 L153.0,593.2 L154.9,592.0 L156.8,590.8
		L158.7,589.5 L160.6,588.3 L162.5,587.0 L164.4,585.6 L166.3,584.3 L168.1,582.9 L170.0,581.5 L171.9,580.1
		L173.8,578.7 L175.7,577.3 L177.6,575.8 L179.5,574.4 L181.4,572.9 L183.2,571.5 L185.1,570.0 L187.0,568.5
		L188.9,567.0 L190.8,565.5 L192.7,564.0 L194.6,562.4 L196.5,560.9 L198.3,559.3 L200.2,557.7 L202.1,556.1
		L204.0,554.4 L205.9,552.7 L207.8,551.0 L209.7,549.3 L211.6,547.5 L213.4,545.7 L215.3,543.9 L217.2,542.0
		L219.1,540.0 L221.0,538.1 L222.9,536.1 L224.8,534.0 L226.6,532.0 L228.5,529.9 L230.4,527.7 L232.3,525.5
		L234.2,523.3 L236.1,521.1 L238.0,518.9 L239.9,516.6 L241.7,514.3 L243.6,512.0 L245.5,509.7 L247.4,507.4
		L249.3,505.1 L251.2,502.8 L253.1,500.5 L255.0,498.3 L256.8,496.0 L258.7,493.8 L260.6,491.6 L262.5,489.4
		L264.4,487.3 L266.3,485.2 L268.2,483.2 L270.1,481.1 L271.9,479.2 L273.8,477.2 L275.7,475.3 L277.6,473.3
		L279.5,471.4 L281.4,469.5 L283.3,467.6 L285.2,465.7 L287.0,463.7 L288.9,461.8 L290.8,459.8 L292.7,457.7
		L294.6,455.6 L296.5,453.5 L298.4,451.3 L300.2,449.1 L302.1,446.8 L304.0,444.5 L305.9,442.1 L307.8,439.7
		L309.7,437.2 L311.6,434.6 L313.5,432.0 L315.3,429.4 L317.2,426.7 L319.1,423.9 L321.0,421.2 L322.9,418.4
		L324.8,415.6 L326.7,412.7 L328.6,409.8 L330.4,406.9 L332.3,404.0 L334.2,401.1 L336.1,398.1 L338.0,395.1
		L339.9,392.2 L341.8,389.2 L343.7,386.2 L345.5,383.1 L347.4,380.1 L349.3,377.1 L351.2,374.0 L353.1,371.0
		L355.0,368.0 L356.9,364.9 L358.8,361.9 L360.6,358.8 L362.5,355.7 L364.4,352.7 L366.3,349.6 L368.2,346.6
		L370.1,343.5 L372.0,340.5 L373.8,337.4 L375.7,334.4 L377.6,331.3 L379.5,328.3 L381.4,325.3 L383.3,322.2
		L385.2,319.2 L387.1,316.2 L388.9,313.1 L390.8,310.1 L392.7,307.1 L394.6,304.0 L396.5,301.0 L398.4,297.9
		L400.3,294.8 L402.2,291.7 L404.0,288.6 L405.9,285.5 L407.8,282.3 L409.7,279.2 L411.6,276.0 L413.5,272.9
		L415.4,269.7 L417.3,266.5 L419.1,263.4 L421.0,260.2 L422.9,257.1 L424.8,254.1 L426.7,251.0 L428.6,248.0
		L430.5,245.1 L432.4,242.2 L434.2,239.4 L436.1,236.6 L438.0,233.8 L439.9,231.2 L441.8,228.5 L443.7,225.9
		L445.6,223.4 L447.4,220.9 L449.3,218.4 L451.2,215.9 L453.1,213.4 L455.0,211.0 L456.9,208.5 L458.8,206.0
		L460.7,203.5 L462.5,201.0 L464.4,198.5 L466.3,196.0 L468.2,193.4 L470.1,190.9 L472.0,188.3 L473.9,185.7
		L475.8,183.0 L477.6,180.4 L479.5,177.8 L481.4,175.2 L483.3,172.5 L485.2,169.9 L487.1,167.3 L489.0,164.6
		L490.9,162.0 L492.7,159.4 L494.6,156.7 L496.5,154.1 L498.4,151.5 L500.3,148.9 L502.2,146.2 L504.1,143.6
		L506.0,141.0 L507.8,138.3 L509.7,135.7 L511.6,133.0 L513.5,130.4 L515.4,127.8 L517.3,125.2 L519.2,122.6
		L521.0,120.1 L522.9,117.6 L524.8,115.2 L526.7,112.9 L528.6,110.6 L530.5,108.4 L532.4,106.3 L534.3,104.4
		L536.1,102.5 L538.0,100.7 L539.9,99.1 L541.8,97.5 L543.7,96.1 L545.6,94.8 L547.5,93.6 L549.4,92.4
		L551.2,91.4 L553.1,90.5 L555.0,89.6 L556.9,88.8 L558.8,88.0 L560.7,87.3 L562.6,86.6 L564.5,86.0
		L566.3,85.4 L568.2,84.8 L570.1,84.2 L572.0,83.7 L573.9,83.2 L575.8,82.7 L577.7,82.2 L579.5,81.8
		L581.4,81.4 L583.3,81.0 L585.2,80.7 L587.1,80.4 L589.0,80.1 L590.9,79.9 L592.8,79.7 L594.6,79.6
		L596.5,79.5 L598.4,79.4 L600.3,79.4 L602.2,79.4 L604.1,79.5 L606.0,79.6 L607.9,79.7 L609.7,79.8
		L611.6,80.0 L613.5,80.2 L615.4,80.4 L617.3,80.7 L619.2,81.0 L621.1,81.4 L623.0,81.7 L624.8,82.2
		L626.7,82.6 L628.6,83.2 L630.5,83.7 L632.4,84.3 L634.3,85.0 L636.2,85.7 L638.1,86.4 L639.9,87.2
		L641.8,88.1 L643.7,89.0 L645.6,89.9 L647.5,90.9 L649.4,91.9 L651.3,92.9 L653.1,94.0 L655.0,95.1
		L656.9,96.2 L658.8,97.4 L660.7,98.5 L662.6,99.7 L664.5,101.0 L666.4,102.2 L668.2,103.5 L670.1,104.9
		L672.0,106.3 L673.9,107.8 L675.8,109.3 L677.7,110.9 L679.6,112.7 L681.5,114.5 L683.3,116.4 L685.2,118.4
		L687.1,120.5 L689.0,122.7 L690.9,125.1 L692.8,127.5 L694.7,130.1 L696.6,132.8 L698.4,135.6 L700.3,138.5
		L702.2,141.4 L704.1,144.5 L706.0,147.6 L707.9,150.8 L709.8,154.0 L711.7,157.2 L713.5,160.5 L715.4,163.8
		L717.3,167.0 L719.2,170.3 L721.1,173.6 L723.0,176.8 L724.9,180.0 L726.7,183.2 L728.6,186.3 L730.5,189.4
		L732.4,192.5 L734.3,195.6 L736.2,198.6 L738.1,201.6 L740.0,204.7 L741.8,207.7 L743.7,210.8 L745.6,213.9
		L747.5,217.0 L749.4,220.1 L751.3,223.3 L753.2,226.5 L755.1,229.8 L756.9,233.2 L758.8,236.6 L760.7,240.1
		L762.6,243.6 L764.5,247.2 L766.4,250.9 L768.3,254.6 L770.2,258.3 L772.0,262.2 L773.9,266.0 L775.8,269.9
		L777.7,273.9 L779.6,277.8 L781.5,281.8 L783.4,285.8 L785.3,289.9 L787.1,293.9 L789.0,297.9 L790.9,301.9
		L792.8,305.9 L794.7,310.0 L796.6,314.0 L798.5,317.9 L800.3,321.9 L802.2,325.9 L804.1,329.8 L806.0,333.8
		L807.9,337.7 L809.8,341.6 L811.7,345.5 L813.6,349.4 L815.4,353.2 L817.3,357.1 L819.2,360.9 L821.1,364.8
		L823.0,368.6 L824.9,372.4 L826.8,376.2 L828.7,380.0 L830.5,383.8 L832.4,387.5 L834.3,391.3 L836.2,395.1
		L838.1,398.8 L840.0,402.5 L841.9,406.2 L843.8,409.9 L845.6,413.6 L847.5,417.3 L849.4,421.0 L851.3,424.6
		L853.2,428.2 L855.1,431.8 L857.0,435.4 L858.9,438.9 L860.7,442.4 L862.6,445.9 L864.5,449.3 L866.4,452.8
		L868.3,456.1 L870.2,459.5 L872.1,462.8 L873.9,466.0 L875.8,469.3 L877.7,472.5 L879.6,475.6 L881.5,478.8
		L883.4,481.9 L885.3,484.9 L887.2,488.0 L889.0,491.0 L890.9,494.0 L892.8,497.0 L894.7,500.0 L896.6,503.0
		L898.5,506.0 L900.4,508.9 L902.3,511.9 L904.1,514.8 L906.0,517.7 L907.9,520.6 L909.8,523.5 L911.7,526.3
		L913.6,529.2 L915.5,532.0 L917.4,534.8 L919.2,537.5 L921.1,540.2 L923.0,542.9 L924.9,545.6 L926.8,548.2
		L928.7,550.7 L930.6,553.3 L932.5,555.7 L934.3,558.2 L936.2,560.6 L938.1,563.0 L940.0,565.3 L941.9,567.6
		L943.8,569.8 L945.7,572.0 L947.5,574.2 L949.4,576.3 L951.3,578.4 L953.2,580.5 L955.1,582.5 L957.0,584.5
		L958.9,586.4 L960.8,588.3 L962.6,590.2 L964.5,592.0 L966.4,593.8 L968.3,595.6 L970.2,597.3 L972.1,599.0
		L974.0,600.6 L975.9,602.2 L977.7,603.8 L979.6,605.4 L981.5,606.9 L983.4,608.4 L985.3,609.9 L987.2,611.4
		L989.1,612.8 L991.0,614.3 L992.8,615.7 L994.7,617.1 L996.6,618.4 L998.5,619.8 L1000.4,621.1 L1002.3,622.4
		L1004.2,623.7 L1006.1,624.9 L1007.9,626.1 L1009.8,627.3 L1011.7,628.5 L1013.6,629.6  '/></g>
	</g>
	<g id="gnuplot_plot_2" ><title>Confidence interval</title>
<g fill="none" color="white" stroke="rgb( 31, 120, 180)" stroke-width="1.00" stroke-linecap="butt" stroke-linejoin="miter">
</g>
<g fill="none" color="black" stroke="currentColor" stroke-width="1.00" stroke-linecap="butt" stroke-linejoin="miter">
	<g transform="translate(1089.0,85.0)" stroke="none" fill="black" font-family="Helvetica" font-size="12.00"  text-anchor="start">
		<text><tspan font-family="Helvetica" >Confidence interval</tspan></text>
	</g>
</g>
<g fill="none" color="black" stroke="currentColor" stroke-width="1.00" stroke-linecap="butt" stroke-linejoin="miter">
	<g stroke='none' shape-rendering='crispEdges'>
		<polygon fill = 'rgb( 31, 120, 180)' fill-opacity = '0.250000' points = '1038.5,85.6 1080.7,85.6 1080.7,76.6 1038.5,76.6 '/>
		<polygon fill = 'rgb( 31, 120, 180)' fill-opacity = '0.250000' points = '158.7,589.5 160.6,588.3 162.5,587.0 164.4,585.6 166.3,584.3 168.1,582.9 170.0,581.5 171.9,580.1 173.8,578.7 175.7,577.3 177.6,575.8 179.5,574.4 181.4,572.9 183.2,571.5 185.1,570.0 187.0,568.5
188.9,567.0 190.8,565.5 192.7,564.0 194.6,562.4 196.5,560.9 198.3,559.3 200.2,557.7 202.1,556.1 204.0,554.4 205.9,552.7 207.8,551.0 209.7,549.3 211.6,547.5 213.4,545.7 215.3,543.9 217.2,542.0
219.1,540.0 221.0,538.1 222.9,536.1 224.8,534.0 226.6,532.0 228.5,529.9 230.4,527.7 232.3,525.5 234.2,523.3 236.1,521.1 238.0,518.9 239.9,516.6 241.7,514.3 243.6,512.0 245.5,509.7 247.4,507.4
249.3,505.1 251.2,502.8 253.1,500.5 255.0,498.3 256.8,496.0 258.7,493.8 260.6,491.6 262.5,489.4 264.4,487.3 266.3,485.2 268.2,483.2 270.1,481.1 271.9,479.2 273.8,477.2 275.7,475.3 277.6,473.3
279.5,471.4 281.4,469.5 283.3,467.6 285.2,465.7 287.0,463.7 288.9,461.8 290.8,459.8 292.7,457.7 294.6,455.6 296.5,453.5 298.4,451.3 300.2,449.1 302.1,446.8 304.0,444.5 305.9,442.1 307.8,439.7
309.7,437.2 311.6,434.6 313.5,432.0 315.3,429.4 317.2,426.7 319.1,423.9 321.0,421.2 322.9,418.4 324.8,415.6 326.7,412.7 328.6,409.8 330.4,406.9 332.3,404.0 334.2,401.1 336.1,398.1 338.0,395.1
339.9,392.2 341.8,389.2 343.7,386.2 345.5,383.1 347.4,380.1 349.3,377.1 351.2,374.0 353.1,371.0 355.0,368.0 356.9,364.9 358.8,361.9 360.6,358.8 362.5,355.7 364.4,352.7 366.3,349.6 368.2,346.6
370.1,343.5 372.0,340.5 373.8,337.4 375.7,334.4 377.6,331.3 379.5,328.3 381.4,325.3 383.3,322.2 385.2,319.2 387.1,316.2 388.9,313.1 390.8,310.1 392.7,307.1 394.6,304.0 396.5,301.0 398.4,297.9
400.3,294.8 402.2,291.7 404.0,288.6 405.9,285.5 407.8,282.3 409.7,279.2 411.6,276.0 413.5,272.9 415.4,269.7 417.3,266.5 419.1,263.4 421.0,260.2 422.9,257.1 424.8,254.1 426.7,251.0 428.6,248.0
430.5,245.1 432.4,242.2 434.2,239.4 436.1,236.6 438.0,233.8 439.9,231.2 441.8,228.5 443.7,225.9 445.6,223.4 447.4,220.9 449.3,218.4 451.2,215.9 453.1,213.4 455.0,211.0 456.9,208.5 458.8,206.0
460.7,203.5 462.5,201.0 464.4,198.5 466.3,196.0 468.2,193.4 470.1,190.9 472.0,188.3 473.9,185.7 475.8,183.0 477.6,180.4 479.5,177.8 481.4,175.2 483.3,172.5 485.2,169.9 487.1,167.3 489.0,164.6
490.9,162.0 492.7,159.4 494.6,156.7 496.5,154.1 498.4,151.5 500.3,148.9 502.2,146.2 504.1,143.6 506.0,141.0 507.8,138.3 509.7,135.7 511.6,133.0 513.5,130.4 515.4,127.8 517.3,125.2 519.2,122.6
521.0,120.1 522.9,117.6 524.8,115.2 526.7,112.9 528.6,110.6 530.5,108.4 532.4,106.3 534.3,104.4 536.1,102.5 538.0,100.7 539.9,99.1 541.8,97.5 543.7,96.1 545.6,94.8 547.5,93.6 549.4,92.4
551.2,91.4 553.1,90.5 555.0,89.6 556.9,88.8 558.8,88.0 560.7,87.3 562.6,86.6 564.5,86.0 566.3,85.4 568.2,84.8 570.1,84.2 572.0,83.7 573.9,83.2 575.8,82.7 577.7,82.2 579.5,81.8
581.4,81.4 583.3,81.0 585.2,80.7 587.1,80.4 589.0,80.1 590.9,79.9 592.8,79.7 594.6,79.6 596.5,79.5 598.4,79.4 600.3,79.4 602.2,79.4 604.1,79.5 606.0,79.6 607.9,79.7 609.7,79.8
611.6,80.0 613.5,80.2 615.4,80.4 617.3,80.7 619.2,81.0 621.1,81.4 623.0,81.7 624.8,82.2 626.7,82.6 628.6,83.2 630.5,83.7 632.4,84.3 634.3,85.0 636.2,85.7 638.1,86.4 639.9,87.2
641.8,88.1 643.7,89.0 645.6,89.9 647.5,90.9 649.4,91.9 651.3,92.9 653.1,94.0 655.0,95.1 656.9,96.2 658.8,97.4 660.7,98.5 662.6,99.7 664.5,101.0 666.4,102.2 668.2,103.5 670.1,104.9
672.0,106.3 673.9,107.8 675.8,109.3 677.7,110.9 679.6,112.7 681.5,114.5 683.3,116.4 685.2,118.4 687.1,120.5 689.0,122.7 690.9,125.1 692.8,127.5 694.7,130.1 696.6,132.8 698.4,135.6 700.3,138.5
702.2,141.4 704.1,144.5 706.0,147.6 707.9,150.8 709.8,154.0 711.7,157.2 713.5,160.5 715.4,163.8 717.3,167.0 719.2,170.3 721.1,173.6 723.0,176.8 724.9,180.0 726.7,183.2 728.6,186.3 730.5,189.4
732.4,192.5 734.3,195.6 736.2,198.6 738.1,201.6 740.0,204.7 741.8,207.7 743.7,210.8 745.6,213.9 747.5,217.0 749.4,220.1 751.3,223.3 753.2,226.5 755.1,229.8 756.9,233.2 758.8,236.6 760.7,240.1
762.6,243.6 764.5,247.2 766.4,250.9 768.3,254.6 770.2,258.3 772.0,262.2 773.9,266.0 775.8,269.9 777.7,273.9 779.6,277.8 781.5,281.8 783.4,285.8 785.3,289.9 787.1,293.9 789.0,297.9 790.9,301.9
792.8,305.9 794.7,310.0 796.6,314.0 798.5,317.9 800.3,321.9 802.2,325.9 804.1,329.8 806.0,333.8 807.9,337.7 809.8,341.6 811.7,345.5 813.6,349.4 815.4,353.2 817.3,357.1 819.2,360.9 821.1,364.8
823.0,368.6 824.9,372.4 826.8,376.2 828.7,380.0 830.5,383.8 832.4,387.5 834.3,391.3 836.2,395.1 838.1,398.8 840.0,402.5 841.9,406.2 843.8,409.9 845.6,413.6 847.5,417.3 849.4,421.0 851.3,424.6
853.2,428.2 855.1,431.8 857.0,435.4 858.9,438.9 860.7,442.4 862.6,445.9 864.5,449.3 866.4,452.8 868.3,456.1 870.2,459.5 872.1,462.8 873.9,466.0 875.8,469.3 877.7,472.5 879.6,475.6 881.5,478.8
883.4,481.9 885.3,484.9 887.2,488.0 889.0,491.0 890.9,494.0 892.8,497.0 894.7,500.0 896.6,503.0 898.5,506.0 900.4,508.9 902.3,511.9 904.1,514.8 906.0,517.7 907.9,520.6 909.8,523.5 911.7,526.3
913.6,529.2 915.5,532.0 917.4,534.8 919.2,537.5 921.1,540.2 923.0,542.9 924.9,545.6 924.9,662.4 923.0,662.4 921.1,662.4 919.2,662.4 917.4,662.4 915.5,662.4 913.6,662.4 911.7,662.4 909.8,662.4
907.9,662.4 906.0,662.4 904.1,662.4 902.3,662.4 900.4,662.4 898.5,662.4 896.6,662.4 894.7,662.4 892.8,662.4 890.9,662.4 889.0,662.4 887.2,662.4 885.3,662.4 883.4,662.4 881.5,662.4 879.6,662.4
877.7,662.4 875.8,662.4 873.9,662.4 872.1,662.4 870.2,662.4 868.3,662.4 866.4,662.4 864.5,662.4 862.6,662.4 860.7,662.4 858.9,662.4 857.0,662.4 855.1,662.4 853.2,662.4 851.3,662.4 849.4,662.4
847.5,662.4 845.6,662.4 843.8,662.4 841.9,662.4 840.0,662.4 838.1,662.4 836.2,662.4 834.3,662.4 832.4,662.4 830.5,662.4 828.7,662.4 826.8,662.4 824.9,662.4 823.0,662.4 821.1,662.4 819.2,662.4
817.3,662.4 815.4,662.4 813.6,662.4 811.7,662.4 809.8,662.4 807.9,662.4 806.0,662.4 804.1,662.4 802.2,662.4 800.3,662.4 798.5,662.4 796.6,662.4 794.7,662.4 792.8,662.4 790.9,662.4 789.0,662.4
787.1,662.4 785.3,662.4 783.4,662.4 781.5,662.4 779.6,662.4 777.7,662.4 775.8,662.4 773.9,662.4 772.0,662.4 770.2,662.4 768.3,662.4 766.4,662.4 764.5,662.4 762.6,662.4 760.7,662.4 758.8,662.4
756.9,662.4 755.1,662.4 753.2,662.4 751.3,662.4 749.4,662.4 747.5,662.4 745.6,662.4 743.7,662.4 741.8,662.4 740.0,662.4 738.1,662.4 736.2,662.4 734.3,662.4 732.4,662.4 730.5,662.4 728.6,662.4
726.7,662.4 724.9,662.4 723.0,662.4 721.1,662.4 719.2,662.4 717.3,662.4 715.4,662.4 713.5,662.4 711.7,662.4 709.8,662.4 707.9,662.4 706.0,662.4 704.1,662.4 702.2,662.4 700.3,662.4 698.4,662.4
696.6,662.4 694.7,662.4 692.8,662.4 690.9,662.4 689.0,662.4 687.1,662.4 685.2,662.4 683.3,662.4 681.5,662.4 679.6,662.4 677.7,662.4 675.8,662.4 673.9,662.4 672.0,662.4 670.1,662.4 668.2,662.4
666.4,662.4 664.5,662.4 662.6,662.4 660.7,662.4 658.8,662.4 656.9,662.4 655.0,662.4 653.1,662.4 651.3,662.4 649.4,662.4 647.5,662.4 645.6,662.4 643.7,662.4 641.8,662.4 639.9,662.4 638.1,662.4
636.2,662.4 634.3,662.4 632.4,662.4 630.5,662.4 628.6,662.4 626.7,662.4 624.8,662.4 623.0,662.4 621.1,662.4 619.2,662.4 617.3,662.4 615.4,662.4 613.5,662.4 611.6,662.4 609.7,662.4 607.9,662.4
606.0,662.4 604.1,662.4 602.2,662.4 600.3,662.4 598.4,662.4 596.5,662.4 594.6,662.4 592.8,662.4 590.9,662.4 589.0,662.4 587.1,662.4 585.2,662.4 583.3,662.4 581.4,662.4 579.5,662.4 577.7,662.4
575.8,662.4 573.9,662.4 572.0,662.4 570.1,662.4 568.2,662.4 566.3,662.4 564.5,662.4 562.6,662.4 560.7,662.4 558.8,662.4 556.9,662.4 555.0,662.4 553.1,662.4 551.2,662.4 549.4,662.4 547.5,662.4
545.6,662.4 543.7,662.4 541.8,662.4 539.9,662.4 538.0,662.4 536.1,662.4 534.3,662.4 532.4,662.4 530.5,662.4 528.6,662.4 526.7,662.4 524.8,662.4 522.9,662.4 521.0,662.4 519.2,662.4 517.3,662.4
515.4,662.4 513.5,662.4 511.6,662.4 509.7,662.4 507.8,662.4 506.0,662.4 504.1,662.4 502.2,662.4 500.3,662.4 498.4,662.4 496.5,662.4 494.6,662.4 492.7,662.4 490.9,662.4 489.0,662.4 487.1,662.4
485.2,662.4 483.3,662.4 481.4,662.4 479.5,662.4 477.6,662.4 475.8,662.4 473.9,662.4 472.0,662.4 470.1,662.4 468.2,662.4 466.3,662.4 464.4,662.4 462.5,662.4 460.7,662.4 458.8,662.4 456.9,662.4
455.0,662.4 453.1,662.4 451.2,662.4 449.3,662.4 447.4,662.4 445.6,662.4 443.7,662.4 441.8,662.4 439.9,662.4 438.0,662.4 436.1,662.4 434.2,662.4 432.4,662.4 430.5,662.4 428.6,662.4 426.7,662.4
424.8,662.4 422.9,662.4 421.0,662.4 419.1,662.4 417.3,662.4 415.4,662.4 413.5,662.4 411.6,662.4 409.7,662.4 407.8,662.4 405.9,662.4 404.0,662.4 402.2,662.4 400.3,662.4 398.4,662.4 396.5,662.4
394.6,662.4 392.7,662.4 390.8,662.4 388.9,662.4 387.1,662.4 385.2,662.4 383.3,662.4 381.4,662.4 379.5,662.4 377.6,662.4 375.7,662.4 373.8,662.4 372.0,662.4 370.1,662.4 368.2,662.4 366.3,662.4
364.4,662.4 362.5,662.4 360.6,662.4 358.8,662.4 356.9,662.4 355.0,662.4 353.1,662.4 351.2,662.4 349.3,662.4 347.4,662.4 345.5,662.4 343.7,662.4 341.8,662.4 339.9,662.4 338.0,662.4 336.1,662.4
334.2,662.4 332.3,662.4 330.4,662.4 328.6,662.4 326.7,662.4 324.8,662.4 322.9,662.4 321.0,662.4 319.1,662.4 317.2,662.4 315.3,662.4 313.5,662.4 311.6,662.4 309.7,662.4 307.8,662.4 305.9,662.4
304.0,662.4 302.1,662.4 300.2,662.4 298.4,662.4 296.5,662.4 294.6,662.4 292.7,662.4 290.8,662.4 288.9,662.4 287.0,662.4 285.2,662.4 283.3,662.4 281.4,662.4 279.5,662.4 277.6,662.4 275.7,662.4
273.8,662.4 271.9,662.4 270.1,662.4 268.2,662.4 266.3,662.4 264.4,662.4 262.5,662.4 260.6,662.4 258.7,662.4 256.8,662.4 255.0,662.4 253.1,662.4 251.2,662.4 249.3,662.4 247.4,662.4 245.5,662.4
243.6,662.4 241.7,662.4 239.9,662.4 238.0,662.4 236.1,662.4 234.2,662.4 232.3,662.4 230.4,662.4 228.5,662.4 226.6,662.4 224.8,662.4 222.9,662.4 221.0,662.4 219.1,662.4 217.2,662.4 215.3,662.4
213.4,662.4 211.6,662.4 209.7,662.4 207.8,662.4 205.9,662.4 204.0,662.4 202.1,662.4 200.2,662.4 198.3,662.4 196.5,662.4 194.6,662.4 192.7,662.4 190.8,662.4 188.9,662.4 187.0,662.4 185.1,662.4
183.2,662.4 181.4,662.4 179.5,662.4 177.6,662.4 175.7,662.4 173.8,662.4 171.9,662.4 170.0,662.4 168.1,662.4 166.3,662.4 164.4,662.4 162.5,662.4 160.6,662.4 158.7,662.4 '/>
	</g>
</g>
	</g>
	<g id="gnuplot_plot_3" ><title>Point estimate</title>
<g fill="none" color="white" stroke="rgb( 31, 120, 180)" stroke-width="2.00" stroke-linecap="butt" stroke-linejoin="miter">
</g>
<g fill="none" color="black" stroke="currentColor" stroke-width="2.00" stroke-linecap="butt" stroke-linejoin="miter">
	<g transform="translate(1089.0,103.0)" stroke="none" fill="black" font-family="Helvetica" font-size="12.00"  text-anchor="start">
		<text><tspan font-family="Helvetica" >Point estimate</tspan></text>
	</g>
</g>
<g fill="none" color="black" stroke="currentColor" stroke-width="2.00" stroke-linecap="butt" stroke-linejoin="miter">
	<path stroke='rgb( 31, 120, 180)'  d='M1038.5,99.1 L1080.7,99.1 M568.6,662.4 L568.6,84.7  '/></g>
	</g>
<g fill="none" color="black" stroke="currentColor" stroke-width="2.00" stroke-linecap="butt" stroke-linejoin="miter">
</g>
<g fill="none" color="black" stroke="black" stroke-width="1.00" stroke-linecap="butt" stroke-linejoin="miter">
</g>
<g fill="none" color="black" stroke="currentColor" stroke-width="1.00" stroke-linecap="butt" stroke-linejoin="miter">
	<path stroke='black'  d='M71.9,54.1 L71.9,662.4 L1013.6,662.4 L1013.6,54.1 L71.9,54.1 Z  '/></g>
<g fill="none" color="black" stroke="currentColor" stroke-width="1.00" stroke-linecap="butt" stroke-linejoin="miter">
</g>
</g>
</svg>

