<?xml version="1.0" encoding="utf-8"  standalone="no"?>
<svg 
 viewBox="0 0 450 300"
 xmlns="http://www.w3.org/2000/svg"
 xmlns:xlink="http://www.w3.org/1999/xlink"
>

<title>Gnuplot</title>
<desc>Produced by GNUPLOT 5.2 patchlevel 8 </desc>

<g id="gnuplot_canvas">

<rect x="0" y="0" width="450" height="300" fill="none"/>
<defs>

	<circle id='gpDot' r='0.5' stroke-width='0.5' stroke='currentColor'/>
	<path id='gpPt0' stroke-width='0.222' stroke='currentColor' d='M-1,0 h2 M0,-1 v2'/>
	<path id='gpPt1' stroke-width='0.222' stroke='currentColor' d='M-1,-1 L1,1 M1,-1 L-1,1'/>
	<path id='gpPt2' stroke-width='0.222' stroke='currentColor' d='M-1,0 L1,0 M0,-1 L0,1 M-1,-1 L1,1 M-1,1 L1,-1'/>
	<rect id='gpPt3' stroke-width='0.222' stroke='currentColor' x='-1' y='-1' width='2' height='2'/>
	<rect id='gpPt4' stroke-width='0.222' stroke='currentColor' fill='currentColor' x='-1' y='-1' width='2' height='2'/>
	<circle id='gpPt5' stroke-width='0.222' stroke='currentColor' cx='0' cy='0' r='1'/>
	<use xlink:href='#gpPt5' id='gpPt6' fill='currentColor' stroke='none'/>
	<path id='gpPt7' stroke-width='0.222' stroke='currentColor' d='M0,-1.33 L-1.33,0.67 L1.33,0.67 z'/>
	<use xlink:href='#gpPt7' id='gpPt8' fill='currentColor' stroke='none'/>
	<use xlink:href='#gpPt7' id='gpPt9' stroke='currentColor' transform='rotate(180)'/>
	<use xlink:href='#gpPt9' id='gpPt10' fill='currentColor' stroke='none'/>
	<use xlink:href='#gpPt3' id='gpPt11' stroke='currentColor' transform='rotate(45)'/>
	<use xlink:href='#gpPt11' id='gpPt12' fill='currentColor' stroke='none'/>
	<path id='gpPt13' stroke-width='0.222' stroke='currentColor' d='M0,1.330 L1.265,0.411 L0.782,-1.067 L-0.782,-1.076 L-1.265,0.411 z'/>
	<use xlink:href='#gpPt13' id='gpPt14' fill='currentColor' stroke='none'/>
	<filter id='textbox' filterUnits='objectBoundingBox' x='0' y='0' height='1' width='1'>
	  <feFlood flood-color='white' flood-opacity='1' result='bgnd'/>
	  <feComposite in='SourceGraphic' in2='bgnd' operator='atop'/>
	</filter>
	<filter id='greybox' filterUnits='objectBoundingBox' x='0' y='0' height='1' width='1'>
	  <feFlood flood-color='lightgrey' flood-opacity='1' result='grey'/>
	  <feComposite in='SourceGraphic' in2='grey' operator='atop'/>
	</filter>
</defs>
<g fill="none" color="white" stroke="currentColor" stroke-width="1.00" stroke-linecap="butt" stroke-linejoin="miter">
</g>
<g fill="none" color="black" stroke="currentColor" stroke-width="1.00" stroke-linecap="butt" stroke-linejoin="miter">
	<path stroke='black'  d='M63.6,242.4 L72.6,242.4  '/>	<g transform="translate(55.3,246.3)" stroke="none" fill="black" font-family="Helvetica" font-size="12.00"  text-anchor="end">
		<text><tspan font-family="Helvetica" > 0</tspan></text>
	</g>
</g>
<g fill="none" color="black" stroke="currentColor" stroke-width="1.00" stroke-linecap="butt" stroke-linejoin="miter">
	<path stroke='black'  d='M63.6,210.4 L72.6,210.4  '/>	<g transform="translate(55.3,214.3)" stroke="none" fill="black" font-family="Helvetica" font-size="12.00"  text-anchor="end">
		<text><tspan font-family="Helvetica" > 10</tspan></text>
	</g>
</g>
<g fill="none" color="black" stroke="currentColor" stroke-width="1.00" stroke-linecap="butt" stroke-linejoin="miter">
	<path stroke='black'  d='M63.6,178.3 L72.6,178.3  '/>	<g transform="translate(55.3,182.2)" stroke="none" fill="black" font-family="Helvetica" font-size="12.00"  text-anchor="end">
		<text><tspan font-family="Helvetica" > 20</tspan></text>
	</g>
</g>
<g fill="none" color="black" stroke="currentColor" stroke-width="1.00" stroke-linecap="butt" stroke-linejoin="miter">
	<path stroke='black'  d='M63.6,146.3 L72.6,146.3  '/>	<g transform="translate(55.3,150.2)" stroke="none" fill="black" font-family="Helvetica" font-size="12.00"  text-anchor="end">
		<text><tspan font-family="Helvetica" > 30</tspan></text>
	</g>
</g>
<g fill="none" color="black" stroke="currentColor" stroke-width="1.00" stroke-linecap="butt" stroke-linejoin="miter">
	<path stroke='black'  d='M63.6,114.2 L72.6,114.2  '/>	<g transform="translate(55.3,118.1)" stroke="none" fill="black" font-family="Helvetica" font-size="12.00"  text-anchor="end">
		<text><tspan font-family="Helvetica" > 40</tspan></text>
	</g>
</g>
<g fill="none" color="black" stroke="currentColor" stroke-width="1.00" stroke-linecap="butt" stroke-linejoin="miter">
	<path stroke='black'  d='M63.6,82.2 L72.6,82.2  '/>	<g transform="translate(55.3,86.1)" stroke="none" fill="black" font-family="Helvetica" font-size="12.00"  text-anchor="end">
		<text><tspan font-family="Helvetica" > 50</tspan></text>
	</g>
</g>
<g fill="none" color="black" stroke="currentColor" stroke-width="1.00" stroke-linecap="butt" stroke-linejoin="miter">
	<path stroke='black'  d='M63.6,50.1 L72.6,50.1  '/>	<g transform="translate(55.3,54.0)" stroke="none" fill="black" font-family="Helvetica" font-size="12.00"  text-anchor="end">
		<text><tspan font-family="Helvetica" > 60</tspan></text>
	</g>
</g>
<g fill="none" color="black" stroke="currentColor" stroke-width="1.00" stroke-linecap="butt" stroke-linejoin="miter">
	<path stroke='black'  d='M63.6,18.1 L72.6,18.1  '/>	<g transform="translate(55.3,22.0)" stroke="none" fill="black" font-family="Helvetica" font-size="12.00"  text-anchor="end">
		<text><tspan font-family="Helvetica" > 70</tspan></text>
	</g>
</g>
<g fill="none" color="black" stroke="currentColor" stroke-width="1.00" stroke-linecap="butt" stroke-linejoin="miter">
	<path stroke='black'  d='M63.6,242.4 L63.6,233.4  '/>	<g transform="translate(63.6,264.3)" stroke="none" fill="black" font-family="Helvetica" font-size="12.00"  text-anchor="middle">
		<text><tspan font-family="Helvetica" > 10</tspan></text>
	</g>
</g>
<g fill="none" color="black" stroke="currentColor" stroke-width="1.00" stroke-linecap="butt" stroke-linejoin="miter">
	<path stroke='black'  d='M123.8,242.4 L123.8,233.4  '/>	<g transform="translate(123.8,264.3)" stroke="none" fill="black" font-family="Helvetica" font-size="12.00"  text-anchor="middle">
		<text><tspan font-family="Helvetica" > 12</tspan></text>
	</g>
</g>
<g fill="none" color="black" stroke="currentColor" stroke-width="1.00" stroke-linecap="butt" stroke-linejoin="miter">
	<path stroke='black'  d='M184.1,242.4 L184.1,233.4  '/>	<g transform="translate(184.1,264.3)" stroke="none" fill="black" font-family="Helvetica" font-size="12.00"  text-anchor="middle">
		<text><tspan font-family="Helvetica" > 14</tspan></text>
	</g>
</g>
<g fill="none" color="black" stroke="currentColor" stroke-width="1.00" stroke-linecap="butt" stroke-linejoin="miter">
	<path stroke='black'  d='M244.3,242.4 L244.3,233.4  '/>	<g transform="translate(244.3,264.3)" stroke="none" fill="black" font-family="Helvetica" font-size="12.00"  text-anchor="middle">
		<text><tspan font-family="Helvetica" > 16</tspan></text>
	</g>
</g>
<g fill="none" color="black" stroke="currentColor" stroke-width="1.00" stroke-linecap="butt" stroke-linejoin="miter">
	<path stroke='black'  d='M304.5,242.4 L304.5,233.4  '/>	<g transform="translate(304.5,264.3)" stroke="none" fill="black" font-family="Helvetica" font-size="12.00"  text-anchor="middle">
		<text><tspan font-family="Helvetica" > 18</tspan></text>
	</g>
</g>
<g fill="none" color="black" stroke="currentColor" stroke-width="1.00" stroke-linecap="butt" stroke-linejoin="miter">
	<path stroke='black'  d='M364.8,242.4 L364.8,233.4  '/>	<g transform="translate(364.8,264.3)" stroke="none" fill="black" font-family="Helvetica" font-size="12.00"  text-anchor="middle">
		<text><tspan font-family="Helvetica" > 20</tspan></text>
	</g>
</g>
<g fill="none" color="black" stroke="currentColor" stroke-width="1.00" stroke-linecap="butt" stroke-linejoin="miter">
	<path stroke='black'  d='M425.0,242.4 L425.0,233.4  '/>	<g transform="translate(425.0,264.3)" stroke="none" fill="black" font-family="Helvetica" font-size="12.00"  text-anchor="middle">
		<text><tspan font-family="Helvetica" > 22</tspan></text>
	</g>
</g>
<g fill="none" color="black" stroke="currentColor" stroke-width="1.00" stroke-linecap="butt" stroke-linejoin="miter">
</g>
<g fill="none" color="black" stroke="currentColor" stroke-width="1.00" stroke-linecap="butt" stroke-linejoin="miter">
	<path stroke='black'  d='M63.6,18.1 L63.6,242.4 L425.0,242.4 L425.0,18.1 L63.6,18.1 Z  '/></g>
<g fill="none" color="black" stroke="currentColor" stroke-width="1.00" stroke-linecap="butt" stroke-linejoin="miter">
	<g transform="translate(19.0,130.3) rotate(270)" stroke="none" fill="black" font-family="Helvetica" font-size="12.00"  text-anchor="middle">
		<text><tspan font-family="Helvetica" >Density (a.u.)</tspan></text>
	</g>
</g>
<g fill="none" color="black" stroke="currentColor" stroke-width="1.00" stroke-linecap="butt" stroke-linejoin="miter">
	<g transform="translate(244.3,291.3)" stroke="none" fill="black" font-family="Helvetica" font-size="12.00"  text-anchor="middle">
		<text><tspan font-family="Helvetica" >Average time (us)</tspan></text>
	</g>
</g>
<g fill="none" color="black" stroke="currentColor" stroke-width="1.00" stroke-linecap="butt" stroke-linejoin="miter">
</g>
	<g id="gnuplot_plot_1" ><title>Base PDF</title>
<g fill="none" color="black" stroke="currentColor" stroke-width="1.00" stroke-linecap="butt" stroke-linejoin="miter">
	<g stroke='none' shape-rendering='crispEdges'>
		<polygon fill = 'rgb(227,  26,  28)' fill-opacity = '0.500000' points = '403.2,242.4 403.2,242.4 403.2,242.4 403.2,242.3 403.2,242.3 403.2,242.3 403.2,242.3 403.2,242.3 403.3,242.3 403.3,242.3 403.3,242.3 403.3,242.3 403.3,242.2 403.3,242.2 403.3,242.2 403.3,242.2
403.3,242.2 403.3,242.1 403.3,242.1 403.3,242.1 403.3,242.1 403.3,242.0 403.3,242.0 403.3,241.9 403.3,241.9 403.4,241.9 403.4,241.8 403.4,241.8 403.4,241.7 403.4,241.7 403.4,241.6 403.4,241.5
403.4,241.5 403.4,241.4 403.4,241.3 403.4,241.3 403.4,241.2 403.4,241.1 403.4,241.0 403.4,241.0 403.4,240.9 403.4,240.8 403.5,240.7 403.5,240.6 403.5,240.5 403.5,240.5 403.5,240.4 403.5,240.3
403.5,240.2 403.5,240.1 403.5,240.0 403.5,240.0 403.5,239.9 403.5,239.8 403.5,239.7 403.5,239.7 403.5,239.6 403.5,239.6 403.5,239.5 403.6,239.5 403.6,239.4 403.6,239.4 403.6,239.3 403.6,239.3
403.6,239.3 403.6,239.2 403.6,239.2 403.6,239.2 403.6,239.1 403.6,239.1 403.6,239.1 403.6,239.1 403.6,239.1 403.6,239.0 403.6,239.0 403.6,239.0 403.6,238.9 403.7,238.9 403.7,238.8 403.7,238.7
403.7,238.6 403.7,238.5 403.7,238.4 403.7,238.2 403.7,238.0 403.7,237.8 403.7,237.6 403.7,237.3 403.7,237.0 403.7,236.6 403.7,236.2 403.7,235.8 403.7,235.3 403.7,234.7 403.8,234.1 403.8,233.4
403.8,232.7 403.8,231.8 403.8,230.9 403.8,229.9 403.8,228.8 403.8,227.6 403.8,226.4 403.8,225.0 403.8,223.5 403.8,221.9 403.8,220.2 403.8,218.4 403.8,216.5 403.8,214.4 403.8,212.2 403.9,209.9
403.9,207.5 403.9,204.9 403.9,202.2 403.9,199.3 403.9,196.4 403.9,193.3 403.9,190.0 403.9,186.7 403.9,183.2 403.9,179.6 403.9,175.9 403.9,172.1 403.9,168.2 403.9,164.1 403.9,160.0 403.9,155.8
404.0,151.6 404.0,147.3 404.0,142.9 404.0,138.5 404.0,134.0 404.0,129.6 404.0,125.1 404.0,120.6 404.0,116.2 404.0,111.8 404.0,107.5 404.0,103.2 404.0,99.0 404.0,94.9 404.0,90.9 404.0,87.0
404.0,83.2 404.1,79.6 404.1,76.2 404.1,72.9 404.1,69.8 404.1,66.9 404.1,64.1 404.1,61.6 404.1,59.4 404.1,57.3 404.1,55.5 404.1,53.9 404.1,52.5 404.1,51.4 404.1,50.5 404.1,49.9
404.1,49.6 404.1,49.4 404.2,49.6 404.2,49.9 404.2,50.5 404.2,51.3 404.2,52.4 404.2,53.7 404.2,55.1 404.2,56.8 404.2,58.7 404.2,60.8 404.2,63.0 404.2,65.4 404.2,68.0 404.2,70.7
404.2,73.5 404.2,76.4 404.2,79.5 404.3,82.6 404.3,85.9 404.3,89.2 404.3,92.5 404.3,95.9 404.3,99.4 404.3,102.8 404.3,106.3 404.3,109.8 404.3,113.3 404.3,116.7 404.3,120.2 404.3,123.6
404.3,126.9 404.3,130.2 404.3,133.5 404.3,136.7 404.4,139.8 404.4,142.9 404.4,145.8 404.4,148.7 404.4,151.6 404.4,154.3 404.4,156.9 404.4,159.5 404.4,161.9 404.4,164.3 404.4,166.6 404.4,168.8
404.4,170.9 404.4,172.9 404.4,174.8 404.4,176.6 404.4,178.4 404.5,180.0 404.5,181.6 404.5,183.1 404.5,184.6 404.5,186.0 404.5,187.3 404.5,188.5 404.5,189.7 404.5,190.8 404.5,191.9 404.5,192.9
404.5,193.8 404.5,194.8 404.5,195.7 404.5,196.5 404.5,197.3 404.5,198.1 404.5,198.9 404.6,199.6 404.6,200.3 404.6,201.0 404.6,201.7 404.6,202.3 404.6,203.0 404.6,203.6 404.6,204.2 404.6,204.8
404.6,205.5 404.6,206.1 404.6,206.7 404.6,207.3 404.6,207.9 404.6,208.4 404.6,209.0 404.6,209.6 404.7,210.2 404.7,210.8 404.7,211.4 404.7,212.0 404.7,212.6 404.7,213.2 404.7,213.8 404.7,214.5
404.7,215.1 404.7,215.7 404.7,216.3 404.7,216.9 404.7,217.5 404.7,218.1 404.7,218.7 404.7,219.3 404.7,219.9 404.8,220.5 404.8,221.0 404.8,221.6 404.8,222.2 404.8,222.7 404.8,223.3 404.8,223.8
404.8,224.3 404.8,224.9 404.8,225.4 404.8,225.8 404.8,226.3 404.8,226.8 404.8,227.2 404.8,227.7 404.8,228.1 404.8,228.5 404.9,228.9 404.9,229.2 404.9,229.6 404.9,229.9 404.9,230.3 404.9,230.6
404.9,230.9 404.9,231.2 404.9,231.5 404.9,231.8 404.9,232.0 404.9,232.3 404.9,232.5 404.9,232.8 404.9,233.0 404.9,233.2 404.9,233.4 405.0,233.6 405.0,233.8 405.0,234.0 405.0,234.2 405.0,234.4
405.0,234.6 405.0,234.8 405.0,235.0 405.0,235.2 405.0,235.4 405.0,235.6 405.0,235.8 405.0,236.0 405.0,236.2 405.0,236.4 405.0,236.6 405.0,236.8 405.1,237.0 405.1,237.2 405.1,237.4 405.1,237.6
405.1,237.8 405.1,238.0 405.1,238.2 405.1,238.4 405.1,238.6 405.1,238.8 405.1,238.9 405.1,239.1 405.1,239.3 405.1,239.5 405.1,239.6 405.1,239.8 405.1,239.9 405.2,240.1 405.2,240.2 405.2,240.4
405.2,240.5 405.2,240.6 405.2,240.8 405.2,240.9 405.2,241.0 405.2,241.1 405.2,241.2 405.2,241.3 405.2,241.4 405.2,241.5 405.2,241.5 405.2,241.6 405.2,241.7 405.2,241.8 405.3,241.8 405.3,241.9
405.3,241.9 405.3,242.0 405.3,242.0 405.3,242.0 405.3,242.1 405.3,242.1 405.3,242.1 405.3,242.1 405.3,242.2 405.3,242.2 405.3,242.2 405.3,242.2 405.3,242.2 405.3,242.2 405.3,242.2 405.4,242.2
405.4,242.2 405.4,242.2 405.4,242.2 405.4,242.2 405.4,242.2 405.4,242.2 405.4,242.1 405.4,242.1 405.4,242.1 405.4,242.0 405.4,242.0 405.4,242.0 405.4,241.9 405.4,241.9 405.4,241.8 405.4,241.8
405.5,241.7 405.5,241.6 405.5,241.6 405.5,241.5 405.5,241.4 405.5,241.3 405.5,241.2 405.5,241.1 405.5,241.0 405.5,240.9 405.5,240.8 405.5,240.7 405.5,240.6 405.5,240.4 405.5,240.3 405.5,240.2
405.5,240.0 405.5,239.9 405.6,239.7 405.6,239.6 405.6,239.4 405.6,239.3 405.6,239.1 405.6,238.9 405.6,238.8 405.6,238.6 405.6,238.4 405.6,238.3 405.6,238.1 405.6,238.0 405.6,237.8 405.6,237.7
405.6,237.5 405.6,237.4 405.6,237.3 405.7,237.1 405.7,237.0 405.7,236.9 405.7,236.8 405.7,236.7 405.7,236.7 405.7,236.6 405.7,236.5 405.7,236.5 405.7,236.5 405.7,236.4 405.7,236.4 405.7,236.4
405.7,236.5 405.7,236.5 405.7,236.5 405.7,236.6 405.8,236.7 405.8,236.7 405.8,236.8 405.8,236.9 405.8,237.0 405.8,237.1 405.8,237.3 405.8,237.4 405.8,237.5 405.8,237.7 405.8,237.8 405.8,238.0
405.8,238.1 405.8,238.3 405.8,238.4 405.8,238.6 405.8,238.8 405.9,238.9 405.9,239.1 405.9,239.3 405.9,239.4 405.9,239.6 405.9,239.7 405.9,239.9 405.9,240.0 405.9,240.2 405.9,240.3 405.9,240.4
405.9,240.6 405.9,240.7 405.9,240.8 405.9,240.9 405.9,241.0 405.9,241.1 406.0,241.2 406.0,241.3 406.0,241.4 406.0,241.5 406.0,241.6 406.0,241.6 406.0,241.7 406.0,241.8 406.0,241.8 406.0,241.9
406.0,241.9 406.0,242.0 406.0,242.0 406.0,242.1 406.0,242.1 406.0,242.1 406.0,242.2 406.1,242.2 406.1,242.2 406.1,242.2 406.1,242.3 406.1,242.3 406.1,242.3 406.1,242.3 406.1,242.3 406.1,242.3
406.1,242.3 406.1,242.3 406.1,242.3 406.1,242.4 406.1,242.4 406.1,242.4 406.1,242.4 406.1,242.4 406.1,242.4 406.1,242.4 406.1,242.4 406.1,242.4 406.1,242.4 406.1,242.4 406.1,242.4 406.1,242.4
406.1,242.4 406.0,242.4 406.0,242.4 406.0,242.4 406.0,242.4 406.0,242.4 406.0,242.4 406.0,242.4 406.0,242.4 406.0,242.4 406.0,242.4 406.0,242.4 406.0,242.4 406.0,242.4 406.0,242.4 406.0,242.4
406.0,242.4 406.0,242.4 405.9,242.4 405.9,242.4 405.9,242.4 405.9,242.4 405.9,242.4 405.9,242.4 405.9,242.4 405.9,242.4 405.9,242.4 405.9,242.4 405.9,242.4 405.9,242.4 405.9,242.4 405.9,242.4
405.9,242.4 405.9,242.4 405.9,242.4 405.8,242.4 405.8,242.4 405.8,242.4 405.8,242.4 405.8,242.4 405.8,242.4 405.8,242.4 405.8,242.4 405.8,242.4 405.8,242.4 405.8,242.4 405.8,242.4 405.8,242.4
405.8,242.4 405.8,242.4 405.8,242.4 405.8,242.4 405.7,242.4 405.7,242.4 405.7,242.4 405.7,242.4 405.7,242.4 405.7,242.4 405.7,242.4 405.7,242.4 405.7,242.4 405.7,242.4 405.7,242.4 405.7,242.4
405.7,242.4 405.7,242.4 405.7,242.4 405.7,242.4 405.7,242.4 405.6,242.4 405.6,242.4 405.6,242.4 405.6,242.4 405.6,242.4 405.6,242.4 405.6,242.4 405.6,242.4 405.6,242.4 405.6,242.4 405.6,242.4
405.6,242.4 405.6,242.4 405.6,242.4 405.6,242.4 405.6,242.4 405.6,242.4 405.5,242.4 405.5,242.4 405.5,242.4 405.5,242.4 405.5,242.4 405.5,242.4 405.5,242.4 405.5,242.4 405.5,242.4 405.5,242.4
405.5,242.4 405.5,242.4 405.5,242.4 405.5,242.4 405.5,242.4 405.5,242.4 405.5,242.4 405.5,242.4 405.4,242.4 405.4,242.4 405.4,242.4 405.4,242.4 405.4,242.4 405.4,242.4 405.4,242.4 405.4,242.4
405.4,242.4 405.4,242.4 405.4,242.4 405.4,242.4 405.4,242.4 405.4,242.4 405.4,242.4 405.4,242.4 405.4,242.4 405.3,242.4 405.3,242.4 405.3,242.4 405.3,242.4 405.3,242.4 405.3,242.4 405.3,242.4
405.3,242.4 405.3,242.4 405.3,242.4 405.3,242.4 405.3,242.4 405.3,242.4 405.3,242.4 405.3,242.4 405.3,242.4 405.3,242.4 405.2,242.4 405.2,242.4 405.2,242.4 405.2,242.4 405.2,242.4 405.2,242.4
405.2,242.4 405.2,242.4 405.2,242.4 405.2,242.4 405.2,242.4 405.2,242.4 405.2,242.4 405.2,242.4 405.2,242.4 405.2,242.4 405.2,242.4 405.1,242.4 405.1,242.4 405.1,242.4 405.1,242.4 405.1,242.4
405.1,242.4 405.1,242.4 405.1,242.4 405.1,242.4 405.1,242.4 405.1,242.4 405.1,242.4 405.1,242.4 405.1,242.4 405.1,242.4 405.1,242.4 405.1,242.4 405.0,242.4 405.0,242.4 405.0,242.4 405.0,242.4
405.0,242.4 405.0,242.4 405.0,242.4 405.0,242.4 405.0,242.4 405.0,242.4 405.0,242.4 405.0,242.4 405.0,242.4 405.0,242.4 405.0,242.4 405.0,242.4 405.0,242.4 404.9,242.4 404.9,242.4 404.9,242.4
404.9,242.4 404.9,242.4 404.9,242.4 404.9,242.4 404.9,242.4 404.9,242.4 404.9,242.4 404.9,242.4 404.9,242.4 404.9,242.4 404.9,242.4 404.9,242.4 404.9,242.4 404.9,242.4 404.8,242.4 404.8,242.4
404.8,242.4 404.8,242.4 404.8,242.4 404.8,242.4 404.8,242.4 404.8,242.4 404.8,242.4 404.8,242.4 404.8,242.4 404.8,242.4 404.8,242.4 404.8,242.4 404.8,242.4 404.8,242.4 404.8,242.4 404.7,242.4
404.7,242.4 404.7,242.4 404.7,242.4 404.7,242.4 404.7,242.4 404.7,242.4 404.7,242.4 404.7,242.4 404.7,242.4 404.7,242.4 404.7,242.4 404.7,242.4 404.7,242.4 404.7,242.4 404.7,242.4 404.7,242.4
404.6,242.4 404.6,242.4 404.6,242.4 404.6,242.4 404.6,242.4 404.6,242.4 404.6,242.4 404.6,242.4 404.6,242.4 404.6,242.4 404.6,242.4 404.6,242.4 404.6,242.4 404.6,242.4 404.6,242.4 404.6,242.4
404.6,242.4 404.5,242.4 404.5,242.4 404.5,242.4 404.5,242.4 404.5,242.4 404.5,242.4 404.5,242.4 404.5,242.4 404.5,242.4 404.5,242.4 404.5,242.4 404.5,242.4 404.5,242.4 404.5,242.4 404.5,242.4
404.5,242.4 404.5,242.4 404.5,242.4 404.4,242.4 404.4,242.4 404.4,242.4 404.4,242.4 404.4,242.4 404.4,242.4 404.4,242.4 404.4,242.4 404.4,242.4 404.4,242.4 404.4,242.4 404.4,242.4 404.4,242.4
404.4,242.4 404.4,242.4 404.4,242.4 404.4,242.4 404.3,242.4 404.3,242.4 404.3,242.4 404.3,242.4 404.3,242.4 404.3,242.4 404.3,242.4 404.3,242.4 404.3,242.4 404.3,242.4 404.3,242.4 404.3,242.4
404.3,242.4 404.3,242.4 404.3,242.4 404.3,242.4 404.3,242.4 404.2,242.4 404.2,242.4 404.2,242.4 404.2,242.4 404.2,242.4 404.2,242.4 404.2,242.4 404.2,242.4 404.2,242.4 404.2,242.4 404.2,242.4
404.2,242.4 404.2,242.4 404.2,242.4 404.2,242.4 404.2,242.4 404.2,242.4 404.1,242.4 404.1,242.4 404.1,242.4 404.1,242.4 404.1,242.4 404.1,242.4 404.1,242.4 404.1,242.4 404.1,242.4 404.1,242.4
404.1,242.4 404.1,242.4 404.1,242.4 404.1,242.4 404.1,242.4 404.1,242.4 404.1,242.4 404.0,242.4 404.0,242.4 404.0,242.4 404.0,242.4 404.0,242.4 404.0,242.4 404.0,242.4 404.0,242.4 404.0,242.4
404.0,242.4 404.0,242.4 404.0,242.4 404.0,242.4 404.0,242.4 404.0,242.4 404.0,242.4 404.0,242.4 403.9,242.4 403.9,242.4 403.9,242.4 403.9,242.4 403.9,242.4 403.9,242.4 403.9,242.4 403.9,242.4
403.9,242.4 403.9,242.4 403.9,242.4 403.9,242.4 403.9,242.4 403.9,242.4 403.9,242.4 403.9,242.4 403.9,242.4 403.8,242.4 403.8,242.4 403.8,242.4 403.8,242.4 403.8,242.4 403.8,242.4 403.8,242.4
403.8,242.4 403.8,242.4 403.8,242.4 403.8,242.4 403.8,242.4 403.8,242.4 403.8,242.4 403.8,242.4 403.8,242.4 403.8,242.4 403.7,242.4 403.7,242.4 403.7,242.4 403.7,242.4 403.7,242.4 403.7,242.4
403.7,242.4 403.7,242.4 403.7,242.4 403.7,242.4 403.7,242.4 403.7,242.4 403.7,242.4 403.7,242.4 403.7,242.4 403.7,242.4 403.7,242.4 403.6,242.4 403.6,242.4 403.6,242.4 403.6,242.4 403.6,242.4
403.6,242.4 403.6,242.4 403.6,242.4 403.6,242.4 403.6,242.4 403.6,242.4 403.6,242.4 403.6,242.4 403.6,242.4 403.6,242.4 403.6,242.4 403.6,242.4 403.6,242.4 403.5,242.4 403.5,242.4 403.5,242.4
403.5,242.4 403.5,242.4 403.5,242.4 403.5,242.4 403.5,242.4 403.5,242.4 403.5,242.4 403.5,242.4 403.5,242.4 403.5,242.4 403.5,242.4 403.5,242.4 403.5,242.4 403.5,242.4 403.4,242.4 403.4,242.4
403.4,242.4 403.4,242.4 403.4,242.4 403.4,242.4 403.4,242.4 403.4,242.4 403.4,242.4 403.4,242.4 403.4,242.4 403.4,242.4 403.4,242.4 403.4,242.4 403.4,242.4 403.4,242.4 403.4,242.4 403.3,242.4
403.3,242.4 403.3,242.4 403.3,242.4 403.3,242.4 403.3,242.4 403.3,242.4 403.3,242.4 403.3,242.4 403.3,242.4 403.3,242.4 403.3,242.4 403.3,242.4 403.3,242.4 403.3,242.4 403.3,242.4 403.3,242.4
403.2,242.4 403.2,242.4 403.2,242.4 403.2,242.4 403.2,242.4 403.2,242.4 403.2,242.4 403.2,242.4 '/>
	</g>
</g>
	</g>
	<g id="gnuplot_plot_2" ><title>Base Mean</title>
<g fill="none" color="white" stroke="rgb(227,  26,  28)" stroke-width="2.00" stroke-linecap="butt" stroke-linejoin="miter">
</g>
<g fill="none" color="black" stroke="currentColor" stroke-width="2.00" stroke-linecap="butt" stroke-linejoin="miter">
	<path stroke='rgb(227,  26,  28)'  d='M404.3,242.4 L404.3,87.4  '/></g>
	</g>
	<g id="gnuplot_plot_3" ><title>New PDF</title>
<g fill="none" color="white" stroke="rgb(227,  26,  28)" stroke-width="1.00" stroke-linecap="butt" stroke-linejoin="miter">
</g>
<g fill="none" color="black" stroke="currentColor" stroke-width="1.00" stroke-linecap="butt" stroke-linejoin="miter">
	<g stroke='none' shape-rendering='crispEdges'>
		<polygon fill = 'rgb( 31, 120, 180)' fill-opacity = '0.500000' points = '73.0,242.4 73.0,242.4 73.0,242.4 73.0,242.4 73.0,242.4 73.0,242.4 73.1,242.3 73.1,242.3 73.1,242.3 73.1,242.3 73.1,242.3 73.1,242.3 73.1,242.3 73.1,242.3 73.2,242.3 73.2,242.2
73.2,242.2 73.2,242.2 73.2,242.2 73.2,242.1 73.2,242.1 73.2,242.1 73.2,242.0 73.3,242.0 73.3,242.0 73.3,241.9 73.3,241.9 73.3,241.8 73.3,241.7 73.3,241.7 73.3,241.6 73.4,241.6
73.4,241.5 73.4,241.4 73.4,241.3 73.4,241.2 73.4,241.1 73.4,241.1 73.4,241.0 73.5,240.9 73.5,240.7 73.5,240.6 73.5,240.5 73.5,240.4 73.5,240.3 73.5,240.2 73.5,240.1 73.6,239.9
73.6,239.8 73.6,239.7 73.6,239.6 73.6,239.4 73.6,239.3 73.6,239.2 73.6,239.0 73.7,238.9 73.7,238.8 73.7,238.7 73.7,238.5 73.7,238.4 73.7,238.3 73.7,238.2 73.7,238.1 73.8,238.0
73.8,237.9 73.8,237.8 73.8,237.7 73.8,237.6 73.8,237.5 73.8,237.5 73.8,237.4 73.8,237.3 73.9,237.3 73.9,237.3 73.9,237.2 73.9,237.2 73.9,237.2 73.9,237.2 73.9,237.2 73.9,237.2
74.0,237.2 74.0,237.2 74.0,237.2 74.0,237.3 74.0,237.3 74.0,237.4 74.0,237.4 74.0,237.5 74.1,237.6 74.1,237.7 74.1,237.8 74.1,237.9 74.1,238.0 74.1,238.1 74.1,238.2 74.1,238.3
74.2,238.4 74.2,238.6 74.2,238.7 74.2,238.8 74.2,239.0 74.2,239.1 74.2,239.3 74.2,239.4 74.3,239.5 74.3,239.7 74.3,239.8 74.3,239.9 74.3,240.1 74.3,240.2 74.3,240.3 74.3,240.5
74.3,240.6 74.4,240.7 74.4,240.8 74.4,240.9 74.4,241.0 74.4,241.1 74.4,241.2 74.4,241.2 74.4,241.3 74.5,241.4 74.5,241.4 74.5,241.5 74.5,241.5 74.5,241.6 74.5,241.6 74.5,241.6
74.5,241.6 74.6,241.6 74.6,241.6 74.6,241.6 74.6,241.5 74.6,241.5 74.6,241.4 74.6,241.4 74.6,241.3 74.7,241.2 74.7,241.1 74.7,241.0 74.7,240.9 74.7,240.7 74.7,240.6 74.7,240.4
74.7,240.2 74.8,240.0 74.8,239.8 74.8,239.5 74.8,239.2 74.8,238.9 74.8,238.6 74.8,238.3 74.8,237.9 74.9,237.5 74.9,237.1 74.9,236.7 74.9,236.2 74.9,235.7 74.9,235.1 74.9,234.5
74.9,233.9 74.9,233.2 75.0,232.5 75.0,231.8 75.0,231.0 75.0,230.2 75.0,229.3 75.0,228.3 75.0,227.3 75.0,226.3 75.1,225.2 75.1,224.0 75.1,222.8 75.1,221.5 75.1,220.1 75.1,218.7
75.1,217.2 75.1,215.6 75.2,214.0 75.2,212.3 75.2,210.5 75.2,208.7 75.2,206.7 75.2,204.8 75.2,202.7 75.2,200.5 75.3,198.3 75.3,196.1 75.3,193.7 75.3,191.4 75.3,188.9 75.3,186.4
75.3,183.9 75.3,181.3 75.4,178.7 75.4,176.1 75.4,173.5 75.4,170.9 75.4,168.2 75.4,165.6 75.4,163.0 75.4,160.5 75.5,158.0 75.5,155.5 75.5,153.1 75.5,150.8 75.5,148.6 75.5,146.5
75.5,144.5 75.5,142.6 75.5,140.9 75.6,139.3 75.6,137.8 75.6,136.5 75.6,135.4 75.6,134.4 75.6,133.6 75.6,133.0 75.6,132.6 75.7,132.4 75.7,132.3 75.7,132.4 75.7,132.7 75.7,133.2
75.7,133.9 75.7,134.7 75.7,135.7 75.8,136.9 75.8,138.2 75.8,139.7 75.8,141.3 75.8,143.1 75.8,144.9 75.8,146.9 75.8,148.9 75.9,151.0 75.9,153.2 75.9,155.5 75.9,157.8 75.9,160.2
75.9,162.6 75.9,165.0 75.9,167.4 76.0,169.8 76.0,172.3 76.0,174.7 76.0,177.0 76.0,179.4 76.0,181.7 76.0,184.0 76.0,186.2 76.1,188.4 76.1,190.5 76.1,192.6 76.1,194.6 76.1,196.6
76.1,198.5 76.1,200.3 76.1,202.1 76.1,203.8 76.2,205.5 76.2,207.1 76.2,208.6 76.2,210.1 76.2,211.5 76.2,212.9 76.2,214.2 76.2,215.5 76.3,216.7 76.3,217.9 76.3,219.0 76.3,220.1
76.3,221.2 76.3,222.2 76.3,223.2 76.3,224.1 76.4,225.0 76.4,225.9 76.4,226.7 76.4,227.5 76.4,228.3 76.4,229.0 76.4,229.7 76.4,230.4 76.5,231.1 76.5,231.7 76.5,232.3 76.5,232.9
76.5,233.4 76.5,234.0 76.5,234.5 76.5,234.9 76.6,235.4 76.6,235.8 76.6,236.2 76.6,236.6 76.6,237.0 76.6,237.3 76.6,237.7 76.6,238.0 76.6,238.3 76.7,238.5 76.7,238.8 76.7,239.0
76.7,239.2 76.7,239.4 76.7,239.6 76.7,239.7 76.7,239.9 76.8,240.0 76.8,240.1 76.8,240.3 76.8,240.3 76.8,240.4 76.8,240.5 76.8,240.6 76.8,240.6 76.9,240.6 76.9,240.7 76.9,240.7
76.9,240.7 76.9,240.7 76.9,240.7 76.9,240.7 76.9,240.7 77.0,240.7 77.0,240.7 77.0,240.6 77.0,240.6 77.0,240.6 77.0,240.6 77.0,240.5 77.0,240.5 77.1,240.5 77.1,240.4 77.1,240.4
77.1,240.4 77.1,240.4 77.1,240.3 77.1,240.3 77.1,240.3 77.2,240.3 77.2,240.2 77.2,240.2 77.2,240.2 77.2,240.2 77.2,240.2 77.2,240.1 77.2,240.1 77.2,240.1 77.3,240.1 77.3,240.1
77.3,240.1 77.3,240.1 77.3,240.1 77.3,240.1 77.3,240.1 77.3,240.1 77.4,240.1 77.4,240.1 77.4,240.1 77.4,240.1 77.4,240.2 77.4,240.2 77.4,240.2 77.4,240.2 77.5,240.2 77.5,240.2
77.5,240.3 77.5,240.3 77.5,240.3 77.5,240.4 77.5,240.4 77.5,240.4 77.6,240.5 77.6,240.5 77.6,240.6 77.6,240.6 77.6,240.7 77.6,240.7 77.6,240.8 77.6,240.8 77.7,240.9 77.7,240.9
77.7,241.0 77.7,241.0 77.7,241.1 77.7,241.1 77.7,241.2 77.7,241.3 77.8,241.3 77.8,241.4 77.8,241.4 77.8,241.4 77.8,241.5 77.8,241.5 77.8,241.6 77.8,241.6 77.8,241.6 77.9,241.7
77.9,241.7 77.9,241.7 77.9,241.7 77.9,241.7 77.9,241.8 77.9,241.8 77.9,241.8 78.0,241.8 78.0,241.8 78.0,241.7 78.0,241.7 78.0,241.7 78.0,241.7 78.0,241.7 78.0,241.6 78.1,241.6
78.1,241.6 78.1,241.5 78.1,241.5 78.1,241.5 78.1,241.4 78.1,241.4 78.1,241.3 78.2,241.3 78.2,241.3 78.2,241.2 78.2,241.2 78.2,241.1 78.2,241.1 78.2,241.0 78.2,241.0 78.3,241.0
78.3,240.9 78.3,240.9 78.3,240.9 78.3,240.8 78.3,240.8 78.3,240.8 78.3,240.8 78.3,240.8 78.4,240.8 78.4,240.8 78.4,240.8 78.4,240.8 78.4,240.8 78.4,240.8 78.4,240.8 78.4,240.9
78.5,240.9 78.5,240.9 78.5,240.9 78.5,241.0 78.5,241.0 78.5,241.1 78.5,241.1 78.5,241.2 78.6,241.2 78.6,241.3 78.6,241.3 78.6,241.4 78.6,241.4 78.6,241.5 78.6,241.5 78.6,241.6
78.7,241.6 78.7,241.7 78.7,241.7 78.7,241.7 78.7,241.8 78.7,241.8 78.7,241.9 78.7,241.9 78.8,242.0 78.8,242.0 78.8,242.0 78.8,242.1 78.8,242.1 78.8,242.1 78.8,242.1 78.8,242.2
78.9,242.2 78.9,242.2 78.9,242.2 78.9,242.2 78.9,242.3 78.9,242.3 78.9,242.3 78.9,242.3 78.9,242.3 79.0,242.3 79.0,242.3 79.0,242.3 79.0,242.4 79.0,242.4 79.0,242.4 79.0,242.4
79.0,242.4 79.1,242.4 79.1,242.4 79.1,242.4 79.1,242.4 79.1,242.4 79.1,242.4 79.0,242.4 79.0,242.4 79.0,242.4 79.0,242.4 79.0,242.4 79.0,242.4 79.0,242.4 79.0,242.4 78.9,242.4
78.9,242.4 78.9,242.4 78.9,242.4 78.9,242.4 78.9,242.4 78.9,242.4 78.9,242.4 78.9,242.4 78.8,242.4 78.8,242.4 78.8,242.4 78.8,242.4 78.8,242.4 78.8,242.4 78.8,242.4 78.8,242.4
78.7,242.4 78.7,242.4 78.7,242.4 78.7,242.4 78.7,242.4 78.7,242.4 78.7,242.4 78.7,242.4 78.6,242.4 78.6,242.4 78.6,242.4 78.6,242.4 78.6,242.4 78.6,242.4 78.6,242.4 78.6,242.4
78.5,242.4 78.5,242.4 78.5,242.4 78.5,242.4 78.5,242.4 78.5,242.4 78.5,242.4 78.5,242.4 78.4,242.4 78.4,242.4 78.4,242.4 78.4,242.4 78.4,242.4 78.4,242.4 78.4,242.4 78.4,242.4
78.3,242.4 78.3,242.4 78.3,242.4 78.3,242.4 78.3,242.4 78.3,242.4 78.3,242.4 78.3,242.4 78.3,242.4 78.2,242.4 78.2,242.4 78.2,242.4 78.2,242.4 78.2,242.4 78.2,242.4 78.2,242.4
78.2,242.4 78.1,242.4 78.1,242.4 78.1,242.4 78.1,242.4 78.1,242.4 78.1,242.4 78.1,242.4 78.1,242.4 78.0,242.4 78.0,242.4 78.0,242.4 78.0,242.4 78.0,242.4 78.0,242.4 78.0,242.4
78.0,242.4 77.9,242.4 77.9,242.4 77.9,242.4 77.9,242.4 77.9,242.4 77.9,242.4 77.9,242.4 77.9,242.4 77.8,242.4 77.8,242.4 77.8,242.4 77.8,242.4 77.8,242.4 77.8,242.4 77.8,242.4
77.8,242.4 77.8,242.4 77.7,242.4 77.7,242.4 77.7,242.4 77.7,242.4 77.7,242.4 77.7,242.4 77.7,242.4 77.7,242.4 77.6,242.4 77.6,242.4 77.6,242.4 77.6,242.4 77.6,242.4 77.6,242.4
77.6,242.4 77.6,242.4 77.5,242.4 77.5,242.4 77.5,242.4 77.5,242.4 77.5,242.4 77.5,242.4 77.5,242.4 77.5,242.4 77.4,242.4 77.4,242.4 77.4,242.4 77.4,242.4 77.4,242.4 77.4,242.4
77.4,242.4 77.4,242.4 77.3,242.4 77.3,242.4 77.3,242.4 77.3,242.4 77.3,242.4 77.3,242.4 77.3,242.4 77.3,242.4 77.2,242.4 77.2,242.4 77.2,242.4 77.2,242.4 77.2,242.4 77.2,242.4
77.2,242.4 77.2,242.4 77.2,242.4 77.1,242.4 77.1,242.4 77.1,242.4 77.1,242.4 77.1,242.4 77.1,242.4 77.1,242.4 77.1,242.4 77.0,242.4 77.0,242.4 77.0,242.4 77.0,242.4 77.0,242.4
77.0,242.4 77.0,242.4 77.0,242.4 76.9,242.4 76.9,242.4 76.9,242.4 76.9,242.4 76.9,242.4 76.9,242.4 76.9,242.4 76.9,242.4 76.8,242.4 76.8,242.4 76.8,242.4 76.8,242.4 76.8,242.4
76.8,242.4 76.8,242.4 76.8,242.4 76.7,242.4 76.7,242.4 76.7,242.4 76.7,242.4 76.7,242.4 76.7,242.4 76.7,242.4 76.7,242.4 76.6,242.4 76.6,242.4 76.6,242.4 76.6,242.4 76.6,242.4
76.6,242.4 76.6,242.4 76.6,242.4 76.6,242.4 76.5,242.4 76.5,242.4 76.5,242.4 76.5,242.4 76.5,242.4 76.5,242.4 76.5,242.4 76.5,242.4 76.4,242.4 76.4,242.4 76.4,242.4 76.4,242.4
76.4,242.4 76.4,242.4 76.4,242.4 76.4,242.4 76.3,242.4 76.3,242.4 76.3,242.4 76.3,242.4 76.3,242.4 76.3,242.4 76.3,242.4 76.3,242.4 76.2,242.4 76.2,242.4 76.2,242.4 76.2,242.4
76.2,242.4 76.2,242.4 76.2,242.4 76.2,242.4 76.1,242.4 76.1,242.4 76.1,242.4 76.1,242.4 76.1,242.4 76.1,242.4 76.1,242.4 76.1,242.4 76.1,242.4 76.0,242.4 76.0,242.4 76.0,242.4
76.0,242.4 76.0,242.4 76.0,242.4 76.0,242.4 76.0,242.4 75.9,242.4 75.9,242.4 75.9,242.4 75.9,242.4 75.9,242.4 75.9,242.4 75.9,242.4 75.9,242.4 75.8,242.4 75.8,242.4 75.8,242.4
75.8,242.4 75.8,242.4 75.8,242.4 75.8,242.4 75.8,242.4 75.7,242.4 75.7,242.4 75.7,242.4 75.7,242.4 75.7,242.4 75.7,242.4 75.7,242.4 75.7,242.4 75.6,242.4 75.6,242.4 75.6,242.4
75.6,242.4 75.6,242.4 75.6,242.4 75.6,242.4 75.6,242.4 75.5,242.4 75.5,242.4 75.5,242.4 75.5,242.4 75.5,242.4 75.5,242.4 75.5,242.4 75.5,242.4 75.5,242.4 75.4,242.4 75.4,242.4
75.4,242.4 75.4,242.4 75.4,242.4 75.4,242.4 75.4,242.4 75.4,242.4 75.3,242.4 75.3,242.4 75.3,242.4 75.3,242.4 75.3,242.4 75.3,242.4 75.3,242.4 75.3,242.4 75.2,242.4 75.2,242.4
75.2,242.4 75.2,242.4 75.2,242.4 75.2,242.4 75.2,242.4 75.2,242.4 75.1,242.4 75.1,242.4 75.1,242.4 75.1,242.4 75.1,242.4 75.1,242.4 75.1,242.4 75.1,242.4 75.0,242.4 75.0,242.4
75.0,242.4 75.0,242.4 75.0,242.4 75.0,242.4 75.0,242.4 75.0,242.4 74.9,242.4 74.9,242.4 74.9,242.4 74.9,242.4 74.9,242.4 74.9,242.4 74.9,242.4 74.9,242.4 74.9,242.4 74.8,242.4
74.8,242.4 74.8,242.4 74.8,242.4 74.8,242.4 74.8,242.4 74.8,242.4 74.8,242.4 74.7,242.4 74.7,242.4 74.7,242.4 74.7,242.4 74.7,242.4 74.7,242.4 74.7,242.4 74.7,242.4 74.6,242.4
74.6,242.4 74.6,242.4 74.6,242.4 74.6,242.4 74.6,242.4 74.6,242.4 74.6,242.4 74.5,242.4 74.5,242.4 74.5,242.4 74.5,242.4 74.5,242.4 74.5,242.4 74.5,242.4 74.5,242.4 74.4,242.4
74.4,242.4 74.4,242.4 74.4,242.4 74.4,242.4 74.4,242.4 74.4,242.4 74.4,242.4 74.3,242.4 74.3,242.4 74.3,242.4 74.3,242.4 74.3,242.4 74.3,242.4 74.3,242.4 74.3,242.4 74.3,242.4
74.2,242.4 74.2,242.4 74.2,242.4 74.2,242.4 74.2,242.4 74.2,242.4 74.2,242.4 74.2,242.4 74.1,242.4 74.1,242.4 74.1,242.4 74.1,242.4 74.1,242.4 74.1,242.4 74.1,242.4 74.1,242.4
74.0,242.4 74.0,242.4 74.0,242.4 74.0,242.4 74.0,242.4 74.0,242.4 74.0,242.4 74.0,242.4 73.9,242.4 73.9,242.4 73.9,242.4 73.9,242.4 73.9,242.4 73.9,242.4 73.9,242.4 73.9,242.4
73.8,242.4 73.8,242.4 73.8,242.4 73.8,242.4 73.8,242.4 73.8,242.4 73.8,242.4 73.8,242.4 73.8,242.4 73.7,242.4 73.7,242.4 73.7,242.4 73.7,242.4 73.7,242.4 73.7,242.4 73.7,242.4
73.7,242.4 73.6,242.4 73.6,242.4 73.6,242.4 73.6,242.4 73.6,242.4 73.6,242.4 73.6,242.4 73.6,242.4 73.5,242.4 73.5,242.4 73.5,242.4 73.5,242.4 73.5,242.4 73.5,242.4 73.5,242.4
73.5,242.4 73.4,242.4 73.4,242.4 73.4,242.4 73.4,242.4 73.4,242.4 73.4,242.4 73.4,242.4 73.4,242.4 73.3,242.4 73.3,242.4 73.3,242.4 73.3,242.4 73.3,242.4 73.3,242.4 73.3,242.4
73.3,242.4 73.2,242.4 73.2,242.4 73.2,242.4 73.2,242.4 73.2,242.4 73.2,242.4 73.2,242.4 73.2,242.4 73.2,242.4 73.1,242.4 73.1,242.4 73.1,242.4 73.1,242.4 73.1,242.4 73.1,242.4
73.1,242.4 73.1,242.4 73.0,242.4 73.0,242.4 73.0,242.4 73.0,242.4 73.0,242.4 73.0,242.4 '/>
	</g>
</g>
	</g>
	<g id="gnuplot_plot_4" ><title>New Mean</title>
<g fill="none" color="white" stroke="rgb( 31, 120, 180)" stroke-width="2.00" stroke-linecap="butt" stroke-linejoin="miter">
</g>
<g fill="none" color="black" stroke="currentColor" stroke-width="2.00" stroke-linecap="butt" stroke-linejoin="miter">
	<path stroke='rgb( 31, 120, 180)'  d='M75.7,242.4 L75.7,132.5  '/></g>
	</g>
<g fill="none" color="black" stroke="currentColor" stroke-width="2.00" stroke-linecap="butt" stroke-linejoin="miter">
</g>
<g fill="none" color="black" stroke="black" stroke-width="1.00" stroke-linecap="butt" stroke-linejoin="miter">
</g>
<g fill="none" color="black" stroke="currentColor" stroke-width="1.00" stroke-linecap="butt" stroke-linejoin="miter">
	<path stroke='black'  d='M63.6,18.1 L63.6,242.4 L425.0,242.4 L425.0,18.1 L63.6,18.1 Z  '/></g>
<g fill="none" color="black" stroke="currentColor" stroke-width="1.00" stroke-linecap="butt" stroke-linejoin="miter">
</g>
</g>
</svg>

