<?xml version="1.0" encoding="utf-8"  standalone="no"?>
<svg 
 viewBox="0 0 1280 720"
 xmlns="http://www.w3.org/2000/svg"
 xmlns:xlink="http://www.w3.org/1999/xlink"
>

<title>Gnuplot</title>
<desc>Produced by GNUPLOT 5.2 patchlevel 8 </desc>

<g id="gnuplot_canvas">

<rect x="0" y="0" width="1280" height="720" fill="none"/>
<defs>

	<circle id='gpDot' r='0.5' stroke-width='0.5' stroke='currentColor'/>
	<path id='gpPt0' stroke-width='0.222' stroke='currentColor' d='M-1,0 h2 M0,-1 v2'/>
	<path id='gpPt1' stroke-width='0.222' stroke='currentColor' d='M-1,-1 L1,1 M1,-1 L-1,1'/>
	<path id='gpPt2' stroke-width='0.222' stroke='currentColor' d='M-1,0 L1,0 M0,-1 L0,1 M-1,-1 L1,1 M-1,1 L1,-1'/>
	<rect id='gpPt3' stroke-width='0.222' stroke='currentColor' x='-1' y='-1' width='2' height='2'/>
	<rect id='gpPt4' stroke-width='0.222' stroke='currentColor' fill='currentColor' x='-1' y='-1' width='2' height='2'/>
	<circle id='gpPt5' stroke-width='0.222' stroke='currentColor' cx='0' cy='0' r='1'/>
	<use xlink:href='#gpPt5' id='gpPt6' fill='currentColor' stroke='none'/>
	<path id='gpPt7' stroke-width='0.222' stroke='currentColor' d='M0,-1.33 L-1.33,0.67 L1.33,0.67 z'/>
	<use xlink:href='#gpPt7' id='gpPt8' fill='currentColor' stroke='none'/>
	<use xlink:href='#gpPt7' id='gpPt9' stroke='currentColor' transform='rotate(180)'/>
	<use xlink:href='#gpPt9' id='gpPt10' fill='currentColor' stroke='none'/>
	<use xlink:href='#gpPt3' id='gpPt11' stroke='currentColor' transform='rotate(45)'/>
	<use xlink:href='#gpPt11' id='gpPt12' fill='currentColor' stroke='none'/>
	<path id='gpPt13' stroke-width='0.222' stroke='currentColor' d='M0,1.330 L1.265,0.411 L0.782,-1.067 L-0.782,-1.076 L-1.265,0.411 z'/>
	<use xlink:href='#gpPt13' id='gpPt14' fill='currentColor' stroke='none'/>
	<filter id='textbox' filterUnits='objectBoundingBox' x='0' y='0' height='1' width='1'>
	  <feFlood flood-color='white' flood-opacity='1' result='bgnd'/>
	  <feComposite in='SourceGraphic' in2='bgnd' operator='atop'/>
	</filter>
	<filter id='greybox' filterUnits='objectBoundingBox' x='0' y='0' height='1' width='1'>
	  <feFlood flood-color='lightgrey' flood-opacity='1' result='grey'/>
	  <feComposite in='SourceGraphic' in2='grey' operator='atop'/>
	</filter>
</defs>
<g fill="none" color="white" stroke="currentColor" stroke-width="1.00" stroke-linecap="butt" stroke-linejoin="miter">
</g>
<g fill="none" color="black" stroke="currentColor" stroke-width="1.00" stroke-linecap="butt" stroke-linejoin="miter">
	<path stroke='black'  d='M80.2,662.4 L89.2,662.4  '/>	<g transform="translate(71.9,666.3)" stroke="none" fill="black" font-family="Helvetica" font-size="12.00"  text-anchor="end">
		<text><tspan font-family="Helvetica" > 0</tspan></text>
	</g>
</g>
<g fill="none" color="black" stroke="currentColor" stroke-width="1.00" stroke-linecap="butt" stroke-linejoin="miter">
	<path stroke='black'  d='M80.2,561.0 L89.2,561.0  '/>	<g transform="translate(71.9,564.9)" stroke="none" fill="black" font-family="Helvetica" font-size="12.00"  text-anchor="end">
		<text><tspan font-family="Helvetica" > 1000</tspan></text>
	</g>
</g>
<g fill="none" color="black" stroke="currentColor" stroke-width="1.00" stroke-linecap="butt" stroke-linejoin="miter">
	<path stroke='black'  d='M80.2,459.6 L89.2,459.6  '/>	<g transform="translate(71.9,463.5)" stroke="none" fill="black" font-family="Helvetica" font-size="12.00"  text-anchor="end">
		<text><tspan font-family="Helvetica" > 2000</tspan></text>
	</g>
</g>
<g fill="none" color="black" stroke="currentColor" stroke-width="1.00" stroke-linecap="butt" stroke-linejoin="miter">
	<path stroke='black'  d='M80.2,358.2 L89.2,358.2  '/>	<g transform="translate(71.9,362.1)" stroke="none" fill="black" font-family="Helvetica" font-size="12.00"  text-anchor="end">
		<text><tspan font-family="Helvetica" > 3000</tspan></text>
	</g>
</g>
<g fill="none" color="black" stroke="currentColor" stroke-width="1.00" stroke-linecap="butt" stroke-linejoin="miter">
	<path stroke='black'  d='M80.2,256.9 L89.2,256.9  '/>	<g transform="translate(71.9,260.8)" stroke="none" fill="black" font-family="Helvetica" font-size="12.00"  text-anchor="end">
		<text><tspan font-family="Helvetica" > 4000</tspan></text>
	</g>
</g>
<g fill="none" color="black" stroke="currentColor" stroke-width="1.00" stroke-linecap="butt" stroke-linejoin="miter">
	<path stroke='black'  d='M80.2,155.5 L89.2,155.5  '/>	<g transform="translate(71.9,159.4)" stroke="none" fill="black" font-family="Helvetica" font-size="12.00"  text-anchor="end">
		<text><tspan font-family="Helvetica" > 5000</tspan></text>
	</g>
</g>
<g fill="none" color="black" stroke="currentColor" stroke-width="1.00" stroke-linecap="butt" stroke-linejoin="miter">
	<path stroke='black'  d='M80.2,54.1 L89.2,54.1  '/>	<g transform="translate(71.9,58.0)" stroke="none" fill="black" font-family="Helvetica" font-size="12.00"  text-anchor="end">
		<text><tspan font-family="Helvetica" > 6000</tspan></text>
	</g>
</g>
<g fill="none" color="black" stroke="currentColor" stroke-width="1.00" stroke-linecap="butt" stroke-linejoin="miter">
	<path stroke='black'  d='M163.3,662.4 L163.3,653.4  '/>	<g transform="translate(163.3,684.3)" stroke="none" fill="black" font-family="Helvetica" font-size="12.00"  text-anchor="middle">
		<text><tspan font-family="Helvetica" >-69.915</tspan></text>
	</g>
</g>
<g fill="none" color="black" stroke="currentColor" stroke-width="1.00" stroke-linecap="butt" stroke-linejoin="miter">
	<path stroke='black'  d='M292.6,662.4 L292.6,653.4  '/>	<g transform="translate(292.6,684.3)" stroke="none" fill="black" font-family="Helvetica" font-size="12.00"  text-anchor="middle">
		<text><tspan font-family="Helvetica" >-69.91</tspan></text>
	</g>
</g>
<g fill="none" color="black" stroke="currentColor" stroke-width="1.00" stroke-linecap="butt" stroke-linejoin="miter">
	<path stroke='black'  d='M421.8,662.4 L421.8,653.4  '/>	<g transform="translate(421.8,684.3)" stroke="none" fill="black" font-family="Helvetica" font-size="12.00"  text-anchor="middle">
		<text><tspan font-family="Helvetica" >-69.905</tspan></text>
	</g>
</g>
<g fill="none" color="black" stroke="currentColor" stroke-width="1.00" stroke-linecap="butt" stroke-linejoin="miter">
	<path stroke='black'  d='M551.1,662.4 L551.1,653.4  '/>	<g transform="translate(551.1,684.3)" stroke="none" fill="black" font-family="Helvetica" font-size="12.00"  text-anchor="middle">
		<text><tspan font-family="Helvetica" >-69.9</tspan></text>
	</g>
</g>
<g fill="none" color="black" stroke="currentColor" stroke-width="1.00" stroke-linecap="butt" stroke-linejoin="miter">
	<path stroke='black'  d='M680.4,662.4 L680.4,653.4  '/>	<g transform="translate(680.4,684.3)" stroke="none" fill="black" font-family="Helvetica" font-size="12.00"  text-anchor="middle">
		<text><tspan font-family="Helvetica" >-69.895</tspan></text>
	</g>
</g>
<g fill="none" color="black" stroke="currentColor" stroke-width="1.00" stroke-linecap="butt" stroke-linejoin="miter">
	<path stroke='black'  d='M809.6,662.4 L809.6,653.4  '/>	<g transform="translate(809.6,684.3)" stroke="none" fill="black" font-family="Helvetica" font-size="12.00"  text-anchor="middle">
		<text><tspan font-family="Helvetica" >-69.89</tspan></text>
	</g>
</g>
<g fill="none" color="black" stroke="currentColor" stroke-width="1.00" stroke-linecap="butt" stroke-linejoin="miter">
	<path stroke='black'  d='M938.9,662.4 L938.9,653.4  '/>	<g transform="translate(938.9,684.3)" stroke="none" fill="black" font-family="Helvetica" font-size="12.00"  text-anchor="middle">
		<text><tspan font-family="Helvetica" >-69.885</tspan></text>
	</g>
</g>
<g fill="none" color="black" stroke="currentColor" stroke-width="1.00" stroke-linecap="butt" stroke-linejoin="miter">
</g>
<g fill="none" color="black" stroke="currentColor" stroke-width="1.00" stroke-linecap="butt" stroke-linejoin="miter">
	<path stroke='black'  d='M80.2,54.1 L80.2,662.4 L1013.6,662.4 L1013.6,54.1 L80.2,54.1 Z  '/></g>
<g fill="none" color="black" stroke="currentColor" stroke-width="1.00" stroke-linecap="butt" stroke-linejoin="miter">
	<g transform="translate(19.0,358.3) rotate(270)" stroke="none" fill="black" font-family="Helvetica" font-size="12.00"  text-anchor="middle">
		<text><tspan font-family="Helvetica" >Density (a.u.)</tspan></text>
	</g>
</g>
<g fill="none" color="black" stroke="currentColor" stroke-width="1.00" stroke-linecap="butt" stroke-linejoin="miter">
	<g transform="translate(546.9,711.3)" stroke="none" fill="black" font-family="Helvetica" font-size="12.00"  text-anchor="middle">
		<text><tspan font-family="Helvetica" >Relative change (%)</tspan></text>
	</g>
</g>
<g fill="none" color="black" stroke="currentColor" stroke-width="1.00" stroke-linecap="butt" stroke-linejoin="miter">
	<g transform="translate(546.9,31.0)" stroke="none" fill="black" font-family="Helvetica" font-size="12.00"  text-anchor="middle">
		<text><tspan font-family="Helvetica" >bench_group/blake3/114688: mean</tspan></text>
	</g>
</g>
<g fill="none" color="black" stroke="currentColor" stroke-width="1.00" stroke-linecap="butt" stroke-linejoin="miter">
</g>
	<g id="gnuplot_plot_1" ><title>Bootstrap distribution</title>
<g fill="none" color="white" stroke="currentColor" stroke-width="2.00" stroke-linecap="butt" stroke-linejoin="miter">
</g>
<g fill="none" color="black" stroke="currentColor" stroke-width="2.00" stroke-linecap="butt" stroke-linejoin="miter">
	<g transform="translate(1089.0,67.0)" stroke="none" fill="black" font-family="Helvetica" font-size="12.00"  text-anchor="start">
		<text><tspan font-family="Helvetica" >Bootstrap distribution</tspan></text>
	</g>
</g>
<g fill="none" color="black" stroke="currentColor" stroke-width="2.00" stroke-linecap="butt" stroke-linejoin="miter">
	<path stroke='rgb( 31, 120, 180)'  d='M1038.5,63.1 L1080.7,63.1 M80.2,621.4 L82.1,621.3 L83.9,621.1 L85.8,620.9 L87.7,620.8 L89.6,620.7
		L91.4,620.6 L93.3,620.5 L95.2,620.4 L97.0,620.3 L98.9,620.2 L100.8,620.2 L102.6,620.2 L104.5,620.2
		L106.4,620.2 L108.3,620.2 L110.1,620.2 L112.0,620.2 L113.9,620.2 L115.7,620.3 L117.6,620.3 L119.5,620.4
		L121.4,620.4 L123.2,620.5 L125.1,620.5 L127.0,620.5 L128.8,620.6 L130.7,620.6 L132.6,620.7 L134.4,620.7
		L136.3,620.7 L138.2,620.7 L140.1,620.7 L141.9,620.7 L143.8,620.8 L145.7,620.7 L147.5,620.7 L149.4,620.7
		L151.3,620.7 L153.2,620.6 L155.0,620.6 L156.9,620.5 L158.8,620.5 L160.6,620.4 L162.5,620.3 L164.4,620.2
		L166.2,620.1 L168.1,619.9 L170.0,619.8 L171.9,619.6 L173.7,619.5 L175.6,619.3 L177.5,619.1 L179.3,618.9
		L181.2,618.7 L183.1,618.5 L185.0,618.2 L186.8,618.0 L188.7,617.7 L190.6,617.5 L192.4,617.2 L194.3,616.9
		L196.2,616.5 L198.0,616.2 L199.9,615.8 L201.8,615.4 L203.7,615.0 L205.5,614.6 L207.4,614.1 L209.3,613.6
		L211.1,613.0 L213.0,612.5 L214.9,611.8 L216.7,611.2 L218.6,610.5 L220.5,609.7 L222.4,608.9 L224.2,608.1
		L226.1,607.2 L228.0,606.2 L229.8,605.3 L231.7,604.2 L233.6,603.1 L235.5,602.0 L237.3,600.8 L239.2,599.5
		L241.1,598.2 L242.9,596.9 L244.8,595.5 L246.7,594.1 L248.5,592.6 L250.4,591.1 L252.3,589.6 L254.2,588.0
		L256.0,586.4 L257.9,584.8 L259.8,583.2 L261.6,581.5 L263.5,579.8 L265.4,578.1 L267.3,576.3 L269.1,574.5
		L271.0,572.7 L272.9,570.9 L274.7,569.0 L276.6,567.1 L278.5,565.1 L280.3,563.1 L282.2,561.1 L284.1,558.9
		L286.0,556.7 L287.8,554.4 L289.7,552.1 L291.6,549.6 L293.4,547.1 L295.3,544.4 L297.2,541.7 L299.1,538.8
		L300.9,535.8 L302.8,532.8 L304.7,529.5 L306.5,526.2 L308.4,522.8 L310.3,519.2 L312.1,515.5 L314.0,511.8
		L315.9,507.9 L317.8,503.9 L319.6,499.9 L321.5,495.8 L323.4,491.6 L325.2,487.4 L327.1,483.1 L329.0,478.8
		L330.9,474.4 L332.7,470.0 L334.6,465.6 L336.5,461.2 L338.3,456.8 L340.2,452.4 L342.1,448.0 L343.9,443.5
		L345.8,439.1 L347.7,434.7 L349.6,430.2 L351.4,425.8 L353.3,421.3 L355.2,416.9 L357.0,412.4 L358.9,408.0
		L360.8,403.5 L362.7,399.1 L364.5,394.6 L366.4,390.2 L368.3,385.8 L370.1,381.4 L372.0,377.0 L373.9,372.7
		L375.7,368.4 L377.6,364.2 L379.5,360.1 L381.4,356.0 L383.2,352.1 L385.1,348.2 L387.0,344.4 L388.8,340.7
		L390.7,337.1 L392.6,333.6 L394.5,330.3 L396.3,327.0 L398.2,323.9 L400.1,320.8 L401.9,317.8 L403.8,315.0
		L405.7,312.2 L407.5,309.5 L409.4,306.9 L411.3,304.3 L413.2,301.8 L415.0,299.3 L416.9,296.8 L418.8,294.4
		L420.6,292.0 L422.5,289.6 L424.4,287.2 L426.3,284.8 L428.1,282.4 L430.0,279.9 L431.9,277.5 L433.7,275.0
		L435.6,272.5 L437.5,270.0 L439.3,267.4 L441.2,264.9 L443.1,262.3 L445.0,259.6 L446.8,257.0 L448.7,254.3
		L450.6,251.6 L452.4,248.9 L454.3,246.2 L456.2,243.4 L458.0,240.7 L459.9,237.9 L461.8,235.2 L463.7,232.4
		L465.5,229.6 L467.4,226.8 L469.3,224.1 L471.1,221.3 L473.0,218.5 L474.9,215.8 L476.8,213.0 L478.6,210.3
		L480.5,207.5 L482.4,204.8 L484.2,202.0 L486.1,199.3 L488.0,196.6 L489.8,193.8 L491.7,191.1 L493.6,188.4
		L495.5,185.8 L497.3,183.1 L499.2,180.4 L501.1,177.8 L502.9,175.2 L504.8,172.7 L506.7,170.2 L508.6,167.7
		L510.4,165.3 L512.3,163.0 L514.2,160.7 L516.0,158.5 L517.9,156.5 L519.8,154.4 L521.6,152.5 L523.5,150.7
		L525.4,149.0 L527.3,147.4 L529.1,146.0 L531.0,144.6 L532.9,143.3 L534.7,142.1 L536.6,141.1 L538.5,140.1
		L540.4,139.2 L542.2,138.4 L544.1,137.7 L546.0,137.1 L547.8,136.5 L549.7,136.0 L551.6,135.6 L553.4,135.2
		L555.3,134.8 L557.2,134.5 L559.1,134.2 L560.9,133.9 L562.8,133.7 L564.7,133.5 L566.5,133.2 L568.4,133.0
		L570.3,132.8 L572.2,132.5 L574.0,132.3 L575.9,132.1 L577.8,131.8 L579.6,131.5 L581.5,131.3 L583.4,131.0
		L585.2,130.7 L587.1,130.4 L589.0,130.2 L590.9,129.9 L592.7,129.7 L594.6,129.5 L596.5,129.4 L598.3,129.2
		L600.2,129.2 L602.1,129.2 L604.0,129.2 L605.8,129.3 L607.7,129.5 L609.6,129.7 L611.4,130.0 L613.3,130.3
		L615.2,130.7 L617.0,131.2 L618.9,131.6 L620.8,132.2 L622.7,132.7 L624.5,133.3 L626.4,133.9 L628.3,134.5
		L630.1,135.2 L632.0,135.8 L633.9,136.5 L635.8,137.2 L637.6,137.9 L639.5,138.7 L641.4,139.4 L643.2,140.3
		L645.1,141.1 L647.0,142.1 L648.8,143.0 L650.7,144.1 L652.6,145.2 L654.5,146.4 L656.3,147.6 L658.2,148.9
		L660.1,150.3 L661.9,151.8 L663.8,153.3 L665.7,154.9 L667.5,156.6 L669.4,158.4 L671.3,160.2 L673.2,162.1
		L675.0,164.0 L676.9,166.0 L678.8,168.1 L680.6,170.2 L682.5,172.4 L684.4,174.6 L686.3,176.8 L688.1,179.1
		L690.0,181.4 L691.9,183.8 L693.7,186.1 L695.6,188.5 L697.5,190.9 L699.3,193.4 L701.2,195.8 L703.1,198.2
		L705.0,200.6 L706.8,203.0 L708.7,205.4 L710.6,207.8 L712.4,210.2 L714.3,212.5 L716.2,214.8 L718.1,217.1
		L719.9,219.4 L721.8,221.7 L723.7,223.9 L725.5,226.2 L727.4,228.4 L729.3,230.6 L731.1,232.8 L733.0,235.0
		L734.9,237.2 L736.8,239.4 L738.6,241.6 L740.5,243.9 L742.4,246.1 L744.2,248.3 L746.1,250.6 L748.0,252.8
		L749.9,255.1 L751.7,257.4 L753.6,259.7 L755.5,262.0 L757.3,264.4 L759.2,266.7 L761.1,269.1 L762.9,271.4
		L764.8,273.8 L766.7,276.1 L768.6,278.4 L770.4,280.8 L772.3,283.1 L774.2,285.4 L776.0,287.7 L777.9,290.0
		L779.8,292.2 L781.7,294.4 L783.5,296.6 L785.4,298.8 L787.3,301.0 L789.1,303.1 L791.0,305.2 L792.9,307.3
		L794.7,309.4 L796.6,311.5 L798.5,313.5 L800.4,315.6 L802.2,317.7 L804.1,319.8 L806.0,321.9 L807.8,324.1
		L809.7,326.2 L811.6,328.4 L813.5,330.6 L815.3,332.9 L817.2,335.2 L819.1,337.6 L820.9,339.9 L822.8,342.4
		L824.7,344.8 L826.5,347.3 L828.4,349.9 L830.3,352.5 L832.2,355.1 L834.0,357.8 L835.9,360.5 L837.8,363.3
		L839.6,366.1 L841.5,368.9 L843.4,371.8 L845.3,374.8 L847.1,377.8 L849.0,380.8 L850.9,384.0 L852.7,387.1
		L854.6,390.4 L856.5,393.7 L858.3,397.1 L860.2,400.5 L862.1,404.1 L864.0,407.7 L865.8,411.4 L867.7,415.2
		L869.6,419.0 L871.4,423.0 L873.3,427.1 L875.2,431.2 L877.1,435.4 L878.9,439.7 L880.8,444.1 L882.7,448.6
		L884.5,453.2 L886.4,457.8 L888.3,462.5 L890.1,467.3 L892.0,472.1 L893.9,476.9 L895.8,481.8 L897.6,486.6
		L899.5,491.5 L901.4,496.3 L903.2,501.2 L905.1,505.9 L907.0,510.7 L908.8,515.3 L910.7,519.9 L912.6,524.4
		L914.5,528.7 L916.3,533.0 L918.2,537.1 L920.1,541.2 L921.9,545.0 L923.8,548.8 L925.7,552.4 L927.6,555.8
		L929.4,559.1 L931.3,562.3 L933.2,565.3 L935.0,568.2 L936.9,571.0 L938.8,573.6 L940.6,576.1 L942.5,578.4
		L944.4,580.7 L946.3,582.8 L948.1,584.8 L950.0,586.7 L951.9,588.5 L953.7,590.3 L955.6,591.9 L957.5,593.4
		L959.4,594.9 L961.2,596.3 L963.1,597.6 L965.0,598.8 L966.8,600.0 L968.7,601.1 L970.6,602.2 L972.4,603.2
		L974.3,604.2 L976.2,605.2 L978.1,606.1 L979.9,607.0 L981.8,607.9 L983.7,608.7 L985.5,609.6 L987.4,610.4
		L989.3,611.3 L991.2,612.1 L993.0,613.0 L994.9,613.8 L996.8,614.7 L998.6,615.6 L1000.5,616.5 L1002.4,617.4
		L1004.2,618.4 L1006.1,619.4 L1008.0,620.4 L1009.9,621.4 L1011.7,622.4 L1013.6,623.5  '/></g>
	</g>
	<g id="gnuplot_plot_2" ><title>Confidence interval</title>
<g fill="none" color="white" stroke="rgb( 31, 120, 180)" stroke-width="1.00" stroke-linecap="butt" stroke-linejoin="miter">
</g>
<g fill="none" color="black" stroke="currentColor" stroke-width="1.00" stroke-linecap="butt" stroke-linejoin="miter">
	<g transform="translate(1089.0,85.0)" stroke="none" fill="black" font-family="Helvetica" font-size="12.00"  text-anchor="start">
		<text><tspan font-family="Helvetica" >Confidence interval</tspan></text>
	</g>
</g>
<g fill="none" color="black" stroke="currentColor" stroke-width="1.00" stroke-linecap="butt" stroke-linejoin="miter">
	<g stroke='none' shape-rendering='crispEdges'>
		<polygon fill = 'rgb( 31, 120, 180)' fill-opacity = '0.250000' points = '1038.5,85.6 1080.7,85.6 1080.7,76.6 1038.5,76.6 '/>
		<polygon fill = 'rgb( 31, 120, 180)' fill-opacity = '0.250000' points = '166.2,620.1 168.1,619.9 170.0,619.8 171.9,619.6 173.7,619.5 175.6,619.3 177.5,619.1 179.3,618.9 181.2,618.7 183.1,618.5 185.0,618.2 186.8,618.0 188.7,617.7 190.6,617.5 192.4,617.2 194.3,616.9
196.2,616.5 198.0,616.2 199.9,615.8 201.8,615.4 203.7,615.0 205.5,614.6 207.4,614.1 209.3,613.6 211.1,613.0 213.0,612.5 214.9,611.8 216.7,611.2 218.6,610.5 220.5,609.7 222.4,608.9 224.2,608.1
226.1,607.2 228.0,606.2 229.8,605.3 231.7,604.2 233.6,603.1 235.5,602.0 237.3,600.8 239.2,599.5 241.1,598.2 242.9,596.9 244.8,595.5 246.7,594.1 248.5,592.6 250.4,591.1 252.3,589.6 254.2,588.0
256.0,586.4 257.9,584.8 259.8,583.2 261.6,581.5 263.5,579.8 265.4,578.1 267.3,576.3 269.1,574.5 271.0,572.7 272.9,570.9 274.7,569.0 276.6,567.1 278.5,565.1 280.3,563.1 282.2,561.1 284.1,558.9
286.0,556.7 287.8,554.4 289.7,552.1 291.6,549.6 293.4,547.1 295.3,544.4 297.2,541.7 299.1,538.8 300.9,535.8 302.8,532.8 304.7,529.5 306.5,526.2 308.4,522.8 310.3,519.2 312.1,515.5 314.0,511.8
315.9,507.9 317.8,503.9 319.6,499.9 321.5,495.8 323.4,491.6 325.2,487.4 327.1,483.1 329.0,478.8 330.9,474.4 332.7,470.0 334.6,465.6 336.5,461.2 338.3,456.8 340.2,452.4 342.1,448.0 343.9,443.5
345.8,439.1 347.7,434.7 349.6,430.2 351.4,425.8 353.3,421.3 355.2,416.9 357.0,412.4 358.9,408.0 360.8,403.5 362.7,399.1 364.5,394.6 366.4,390.2 368.3,385.8 370.1,381.4 372.0,377.0 373.9,372.7
375.7,368.4 377.6,364.2 379.5,360.1 381.4,356.0 383.2,352.1 385.1,348.2 387.0,344.4 388.8,340.7 390.7,337.1 392.6,333.6 394.5,330.3 396.3,327.0 398.2,323.9 400.1,320.8 401.9,317.8 403.8,315.0
405.7,312.2 407.5,309.5 409.4,306.9 411.3,304.3 413.2,301.8 415.0,299.3 416.9,296.8 418.8,294.4 420.6,292.0 422.5,289.6 424.4,287.2 426.3,284.8 428.1,282.4 430.0,279.9 431.9,277.5 433.7,275.0
435.6,272.5 437.5,270.0 439.3,267.4 441.2,264.9 443.1,262.3 445.0,259.6 446.8,257.0 448.7,254.3 450.6,251.6 452.4,248.9 454.3,246.2 456.2,243.4 458.0,240.7 459.9,237.9 461.8,235.2 463.7,232.4
465.5,229.6 467.4,226.8 469.3,224.1 471.1,221.3 473.0,218.5 474.9,215.8 476.8,213.0 478.6,210.3 480.5,207.5 482.4,204.8 484.2,202.0 486.1,199.3 488.0,196.6 489.8,193.8 491.7,191.1 493.6,188.4
495.5,185.8 497.3,183.1 499.2,180.4 501.1,177.8 502.9,175.2 504.8,172.7 506.7,170.2 508.6,167.7 510.4,165.3 512.3,163.0 514.2,160.7 516.0,158.5 517.9,156.5 519.8,154.4 521.6,152.5 523.5,150.7
525.4,149.0 527.3,147.4 529.1,146.0 531.0,144.6 532.9,143.3 534.7,142.1 536.6,141.1 538.5,140.1 540.4,139.2 542.2,138.4 544.1,137.7 546.0,137.1 547.8,136.5 549.7,136.0 551.6,135.6 553.4,135.2
555.3,134.8 557.2,134.5 559.1,134.2 560.9,133.9 562.8,133.7 564.7,133.5 566.5,133.2 568.4,133.0 570.3,132.8 572.2,132.5 574.0,132.3 575.9,132.1 577.8,131.8 579.6,131.5 581.5,131.3 583.4,131.0
585.2,130.7 587.1,130.4 589.0,130.2 590.9,129.9 592.7,129.7 594.6,129.5 596.5,129.4 598.3,129.2 600.2,129.2 602.1,129.2 604.0,129.2 605.8,129.3 607.7,129.5 609.6,129.7 611.4,130.0 613.3,130.3
615.2,130.7 617.0,131.2 618.9,131.6 620.8,132.2 622.7,132.7 624.5,133.3 626.4,133.9 628.3,134.5 630.1,135.2 632.0,135.8 633.9,136.5 635.8,137.2 637.6,137.9 639.5,138.7 641.4,139.4 643.2,140.3
645.1,141.1 647.0,142.1 648.8,143.0 650.7,144.1 652.6,145.2 654.5,146.4 656.3,147.6 658.2,148.9 660.1,150.3 661.9,151.8 663.8,153.3 665.7,154.9 667.5,156.6 669.4,158.4 671.3,160.2 673.2,162.1
675.0,164.0 676.9,166.0 678.8,168.1 680.6,170.2 682.5,172.4 684.4,174.6 686.3,176.8 688.1,179.1 690.0,181.4 691.9,183.8 693.7,186.1 695.6,188.5 697.5,190.9 699.3,193.4 701.2,195.8 703.1,198.2
705.0,200.6 706.8,203.0 708.7,205.4 710.6,207.8 712.4,210.2 714.3,212.5 716.2,214.8 718.1,217.1 719.9,219.4 721.8,221.7 723.7,223.9 725.5,226.2 727.4,228.4 729.3,230.6 731.1,232.8 733.0,235.0
734.9,237.2 736.8,239.4 738.6,241.6 740.5,243.9 742.4,246.1 744.2,248.3 746.1,250.6 748.0,252.8 749.9,255.1 751.7,257.4 753.6,259.7 755.5,262.0 757.3,264.4 759.2,266.7 761.1,269.1 762.9,271.4
764.8,273.8 766.7,276.1 768.6,278.4 770.4,280.8 772.3,283.1 774.2,285.4 776.0,287.7 777.9,290.0 779.8,292.2 781.7,294.4 783.5,296.6 785.4,298.8 787.3,301.0 789.1,303.1 791.0,305.2 792.9,307.3
794.7,309.4 796.6,311.5 798.5,313.5 800.4,315.6 802.2,317.7 804.1,319.8 806.0,321.9 807.8,324.1 809.7,326.2 811.6,328.4 813.5,330.6 815.3,332.9 817.2,335.2 819.1,337.6 820.9,339.9 822.8,342.4
824.7,344.8 826.5,347.3 828.4,349.9 830.3,352.5 832.2,355.1 834.0,357.8 835.9,360.5 837.8,363.3 839.6,366.1 841.5,368.9 843.4,371.8 845.3,374.8 847.1,377.8 849.0,380.8 850.9,384.0 852.7,387.1
854.6,390.4 856.5,393.7 858.3,397.1 860.2,400.5 862.1,404.1 864.0,407.7 865.8,411.4 867.7,415.2 869.6,419.0 871.4,423.0 873.3,427.1 875.2,431.2 877.1,435.4 878.9,439.7 880.8,444.1 882.7,448.6
884.5,453.2 886.4,457.8 888.3,462.5 890.1,467.3 892.0,472.1 893.9,476.9 895.8,481.8 897.6,486.6 899.5,491.5 901.4,496.3 903.2,501.2 905.1,505.9 907.0,510.7 908.8,515.3 910.7,519.9 912.6,524.4
914.5,528.7 916.3,533.0 918.2,537.1 920.1,541.2 921.9,545.0 923.8,548.8 925.7,552.4 925.7,662.4 923.8,662.4 921.9,662.4 920.1,662.4 918.2,662.4 916.3,662.4 914.5,662.4 912.6,662.4 910.7,662.4
908.8,662.4 907.0,662.4 905.1,662.4 903.2,662.4 901.4,662.4 899.5,662.4 897.6,662.4 895.8,662.4 893.9,662.4 892.0,662.4 890.1,662.4 888.3,662.4 886.4,662.4 884.5,662.4 882.7,662.4 880.8,662.4
878.9,662.4 877.1,662.4 875.2,662.4 873.3,662.4 871.4,662.4 869.6,662.4 867.7,662.4 865.8,662.4 864.0,662.4 862.1,662.4 860.2,662.4 858.3,662.4 856.5,662.4 854.6,662.4 852.7,662.4 850.9,662.4
849.0,662.4 847.1,662.4 845.3,662.4 843.4,662.4 841.5,662.4 839.6,662.4 837.8,662.4 835.9,662.4 834.0,662.4 832.2,662.4 830.3,662.4 828.4,662.4 826.5,662.4 824.7,662.4 822.8,662.4 820.9,662.4
819.1,662.4 817.2,662.4 815.3,662.4 813.5,662.4 811.6,662.4 809.7,662.4 807.8,662.4 806.0,662.4 804.1,662.4 802.2,662.4 800.4,662.4 798.5,662.4 796.6,662.4 794.7,662.4 792.9,662.4 791.0,662.4
789.1,662.4 787.3,662.4 785.4,662.4 783.5,662.4 781.7,662.4 779.8,662.4 777.9,662.4 776.0,662.4 774.2,662.4 772.3,662.4 770.4,662.4 768.6,662.4 766.7,662.4 764.8,662.4 762.9,662.4 761.1,662.4
759.2,662.4 757.3,662.4 755.5,662.4 753.6,662.4 751.7,662.4 749.9,662.4 748.0,662.4 746.1,662.4 744.2,662.4 742.4,662.4 740.5,662.4 738.6,662.4 736.8,662.4 734.9,662.4 733.0,662.4 731.1,662.4
729.3,662.4 727.4,662.4 725.5,662.4 723.7,662.4 721.8,662.4 719.9,662.4 718.1,662.4 716.2,662.4 714.3,662.4 712.4,662.4 710.6,662.4 708.7,662.4 706.8,662.4 705.0,662.4 703.1,662.4 701.2,662.4
699.3,662.4 697.5,662.4 695.6,662.4 693.7,662.4 691.9,662.4 690.0,662.4 688.1,662.4 686.3,662.4 684.4,662.4 682.5,662.4 680.6,662.4 678.8,662.4 676.9,662.4 675.0,662.4 673.2,662.4 671.3,662.4
669.4,662.4 667.5,662.4 665.7,662.4 663.8,662.4 661.9,662.4 660.1,662.4 658.2,662.4 656.3,662.4 654.5,662.4 652.6,662.4 650.7,662.4 648.8,662.4 647.0,662.4 645.1,662.4 643.2,662.4 641.4,662.4
639.5,662.4 637.6,662.4 635.8,662.4 633.9,662.4 632.0,662.4 630.1,662.4 628.3,662.4 626.4,662.4 624.5,662.4 622.7,662.4 620.8,662.4 618.9,662.4 617.0,662.4 615.2,662.4 613.3,662.4 611.4,662.4
609.6,662.4 607.7,662.4 605.8,662.4 604.0,662.4 602.1,662.4 600.2,662.4 598.3,662.4 596.5,662.4 594.6,662.4 592.7,662.4 590.9,662.4 589.0,662.4 587.1,662.4 585.2,662.4 583.4,662.4 581.5,662.4
579.6,662.4 577.8,662.4 575.9,662.4 574.0,662.4 572.2,662.4 570.3,662.4 568.4,662.4 566.5,662.4 564.7,662.4 562.8,662.4 560.9,662.4 559.1,662.4 557.2,662.4 555.3,662.4 553.4,662.4 551.6,662.4
549.7,662.4 547.8,662.4 546.0,662.4 544.1,662.4 542.2,662.4 540.4,662.4 538.5,662.4 536.6,662.4 534.7,662.4 532.9,662.4 531.0,662.4 529.1,662.4 527.3,662.4 525.4,662.4 523.5,662.4 521.6,662.4
519.8,662.4 517.9,662.4 516.0,662.4 514.2,662.4 512.3,662.4 510.4,662.4 508.6,662.4 506.7,662.4 504.8,662.4 502.9,662.4 501.1,662.4 499.2,662.4 497.3,662.4 495.5,662.4 493.6,662.4 491.7,662.4
489.8,662.4 488.0,662.4 486.1,662.4 484.2,662.4 482.4,662.4 480.5,662.4 478.6,662.4 476.8,662.4 474.9,662.4 473.0,662.4 471.1,662.4 469.3,662.4 467.4,662.4 465.5,662.4 463.7,662.4 461.8,662.4
459.9,662.4 458.0,662.4 456.2,662.4 454.3,662.4 452.4,662.4 450.6,662.4 448.7,662.4 446.8,662.4 445.0,662.4 443.1,662.4 441.2,662.4 439.3,662.4 437.5,662.4 435.6,662.4 433.7,662.4 431.9,662.4
430.0,662.4 428.1,662.4 426.3,662.4 424.4,662.4 422.5,662.4 420.6,662.4 418.8,662.4 416.9,662.4 415.0,662.4 413.2,662.4 411.3,662.4 409.4,662.4 407.5,662.4 405.7,662.4 403.8,662.4 401.9,662.4
400.1,662.4 398.2,662.4 396.3,662.4 394.5,662.4 392.6,662.4 390.7,662.4 388.8,662.4 387.0,662.4 385.1,662.4 383.2,662.4 381.4,662.4 379.5,662.4 377.6,662.4 375.7,662.4 373.9,662.4 372.0,662.4
370.1,662.4 368.3,662.4 366.4,662.4 364.5,662.4 362.7,662.4 360.8,662.4 358.9,662.4 357.0,662.4 355.2,662.4 353.3,662.4 351.4,662.4 349.6,662.4 347.7,662.4 345.8,662.4 343.9,662.4 342.1,662.4
340.2,662.4 338.3,662.4 336.5,662.4 334.6,662.4 332.7,662.4 330.9,662.4 329.0,662.4 327.1,662.4 325.2,662.4 323.4,662.4 321.5,662.4 319.6,662.4 317.8,662.4 315.9,662.4 314.0,662.4 312.1,662.4
310.3,662.4 308.4,662.4 306.5,662.4 304.7,662.4 302.8,662.4 300.9,662.4 299.1,662.4 297.2,662.4 295.3,662.4 293.4,662.4 291.6,662.4 289.7,662.4 287.8,662.4 286.0,662.4 284.1,662.4 282.2,662.4
280.3,662.4 278.5,662.4 276.6,662.4 274.7,662.4 272.9,662.4 271.0,662.4 269.1,662.4 267.3,662.4 265.4,662.4 263.5,662.4 261.6,662.4 259.8,662.4 257.9,662.4 256.0,662.4 254.2,662.4 252.3,662.4
250.4,662.4 248.5,662.4 246.7,662.4 244.8,662.4 242.9,662.4 241.1,662.4 239.2,662.4 237.3,662.4 235.5,662.4 233.6,662.4 231.7,662.4 229.8,662.4 228.0,662.4 226.1,662.4 224.2,662.4 222.4,662.4
220.5,662.4 218.6,662.4 216.7,662.4 214.9,662.4 213.0,662.4 211.1,662.4 209.3,662.4 207.4,662.4 205.5,662.4 203.7,662.4 201.8,662.4 199.9,662.4 198.0,662.4 196.2,662.4 194.3,662.4 192.4,662.4
190.6,662.4 188.7,662.4 186.8,662.4 185.0,662.4 183.1,662.4 181.2,662.4 179.3,662.4 177.5,662.4 175.6,662.4 173.7,662.4 171.9,662.4 170.0,662.4 168.1,662.4 166.2,662.4 '/>
	</g>
</g>
	</g>
	<g id="gnuplot_plot_3" ><title>Point estimate</title>
<g fill="none" color="white" stroke="rgb( 31, 120, 180)" stroke-width="2.00" stroke-linecap="butt" stroke-linejoin="miter">
</g>
<g fill="none" color="black" stroke="currentColor" stroke-width="2.00" stroke-linecap="butt" stroke-linejoin="miter">
	<g transform="translate(1089.0,103.0)" stroke="none" fill="black" font-family="Helvetica" font-size="12.00"  text-anchor="start">
		<text><tspan font-family="Helvetica" >Point estimate</tspan></text>
	</g>
</g>
<g fill="none" color="black" stroke="currentColor" stroke-width="2.00" stroke-linecap="butt" stroke-linejoin="miter">
	<path stroke='rgb( 31, 120, 180)'  d='M1038.5,99.1 L1080.7,99.1 M600.8,662.4 L600.8,129.2  '/></g>
	</g>
	<g id="gnuplot_plot_4" ><title>Noise threshold</title>
<g fill="none" color="white" stroke="rgb( 31, 120, 180)" stroke-width="1.00" stroke-linecap="butt" stroke-linejoin="miter">
</g>
<g fill="none" color="black" stroke="currentColor" stroke-width="1.00" stroke-linecap="butt" stroke-linejoin="miter">
	<g transform="translate(1089.0,121.0)" stroke="none" fill="black" font-family="Helvetica" font-size="12.00"  text-anchor="start">
		<text><tspan font-family="Helvetica" >Noise threshold</tspan></text>
	</g>
</g>
<g fill="none" color="black" stroke="currentColor" stroke-width="1.00" stroke-linecap="butt" stroke-linejoin="miter">
	<g stroke='none' shape-rendering='crispEdges'>
		<polygon fill = 'rgb(227,  26,  28)' fill-opacity = '0.100000' points = '1038.5,121.6 1080.7,121.6 1080.7,112.6 1038.5,112.6 '/>
		<polygon fill = 'rgb(227,  26,  28)' fill-opacity = '0.100000' points = '546.9,54.1 546.9,54.1 546.9,662.4 546.9,662.4 '/>
	</g>
</g>
	</g>
<g fill="none" color="white" stroke="rgb(227,  26,  28)" stroke-width="2.00" stroke-linecap="butt" stroke-linejoin="miter">
</g>
<g fill="none" color="black" stroke="currentColor" stroke-width="2.00" stroke-linecap="butt" stroke-linejoin="miter">
</g>
<g fill="none" color="black" stroke="black" stroke-width="1.00" stroke-linecap="butt" stroke-linejoin="miter">
</g>
<g fill="none" color="black" stroke="currentColor" stroke-width="1.00" stroke-linecap="butt" stroke-linejoin="miter">
	<path stroke='black'  d='M80.2,54.1 L80.2,662.4 L1013.6,662.4 L1013.6,54.1 L80.2,54.1 Z  '/></g>
<g fill="none" color="black" stroke="currentColor" stroke-width="1.00" stroke-linecap="butt" stroke-linejoin="miter">
</g>
</g>
</svg>

