group,function,value,throughput_num,throughput_type,sample_measured_value,unit,iteration_count
bench_group,blake3,80,80,bytes,999238.0,ns,2479
bench_group,blake3,80,80,bytes,1990495.0,ns,4958
bench_group,blake3,80,80,bytes,2990419.0,ns,7437
bench_group,blake3,80,80,bytes,3985924.0,ns,9916
bench_group,blake3,80,80,bytes,4981116.0,ns,12395
bench_group,blake3,80,80,bytes,5976265.0,ns,14874
bench_group,blake3,80,80,bytes,6977475.0,ns,17353
bench_group,blake3,80,80,bytes,7974594.0,ns,19832
bench_group,blake3,80,80,bytes,8979124.0,ns,22311
bench_group,blake3,80,80,bytes,9974819.0,ns,24790
bench_group,blake3,80,80,bytes,10969033.0,ns,27269
bench_group,blake3,80,80,bytes,11949764.0,ns,29748
bench_group,blake3,80,80,bytes,12949051.0,ns,32227
bench_group,blake3,80,80,bytes,13946905.0,ns,34706
bench_group,blake3,80,80,bytes,14938701.0,ns,37185
bench_group,blake3,80,80,bytes,15935234.0,ns,39664
bench_group,blake3,80,80,bytes,16936208.0,ns,42143
bench_group,blake3,80,80,bytes,17930724.0,ns,44622
bench_group,blake3,80,80,bytes,18927106.0,ns,47101
bench_group,blake3,80,80,bytes,19936288.0,ns,49580
bench_group,blake3,80,80,bytes,20953962.0,ns,52059
bench_group,blake3,80,80,bytes,21938314.0,ns,54538
bench_group,blake3,80,80,bytes,22913007.0,ns,57017
bench_group,blake3,80,80,bytes,23921506.0,ns,59496
bench_group,blake3,80,80,bytes,24917473.0,ns,61975
bench_group,blake3,80,80,bytes,25901438.0,ns,64454
bench_group,blake3,80,80,bytes,26891698.0,ns,66933
bench_group,blake3,80,80,bytes,27895580.0,ns,69412
bench_group,blake3,80,80,bytes,28883764.0,ns,71891
bench_group,blake3,80,80,bytes,29890734.0,ns,74370
bench_group,blake3,80,80,bytes,30877761.0,ns,76849
bench_group,blake3,80,80,bytes,31913774.0,ns,79328
bench_group,blake3,80,80,bytes,32871122.0,ns,81807
bench_group,blake3,80,80,bytes,33877163.0,ns,84286
bench_group,blake3,80,80,bytes,34863609.0,ns,86765
bench_group,blake3,80,80,bytes,35856701.0,ns,89244
bench_group,blake3,80,80,bytes,36857976.0,ns,91723
bench_group,blake3,80,80,bytes,37853709.0,ns,94202
bench_group,blake3,80,80,bytes,38854052.0,ns,96681
bench_group,blake3,80,80,bytes,39838624.0,ns,99160
bench_group,blake3,80,80,bytes,40838310.0,ns,101639
bench_group,blake3,80,80,bytes,41874974.0,ns,104118
bench_group,blake3,80,80,bytes,42838230.0,ns,106597
bench_group,blake3,80,80,bytes,43825727.0,ns,109076
bench_group,blake3,80,80,bytes,44824872.0,ns,111555
bench_group,blake3,80,80,bytes,45818367.0,ns,114034
bench_group,blake3,80,80,bytes,46814353.0,ns,116513
bench_group,blake3,80,80,bytes,47809622.0,ns,118992
bench_group,blake3,80,80,bytes,48810334.0,ns,121471
bench_group,blake3,80,80,bytes,49801201.0,ns,123950
bench_group,blake3,80,80,bytes,50804356.0,ns,126429
bench_group,blake3,80,80,bytes,51792973.0,ns,128908
bench_group,blake3,80,80,bytes,52790324.0,ns,131387
bench_group,blake3,80,80,bytes,53802732.0,ns,133866
bench_group,blake3,80,80,bytes,54801234.0,ns,136345
bench_group,blake3,80,80,bytes,55775902.0,ns,138824
bench_group,blake3,80,80,bytes,56773527.0,ns,141303
bench_group,blake3,80,80,bytes,57776891.0,ns,143782
bench_group,blake3,80,80,bytes,58848856.0,ns,146261
bench_group,blake3,80,80,bytes,59770608.0,ns,148740
bench_group,blake3,80,80,bytes,60758748.0,ns,151219
bench_group,blake3,80,80,bytes,61751691.0,ns,153698
bench_group,blake3,80,80,bytes,62749271.0,ns,156177
bench_group,blake3,80,80,bytes,63767315.0,ns,158656
bench_group,blake3,80,80,bytes,64775723.0,ns,161135
bench_group,blake3,80,80,bytes,65799762.0,ns,163614
bench_group,blake3,80,80,bytes,66784356.0,ns,166093
bench_group,blake3,80,80,bytes,67741150.0,ns,168572
bench_group,blake3,80,80,bytes,68750928.0,ns,171051
bench_group,blake3,80,80,bytes,69722195.0,ns,173530
bench_group,blake3,80,80,bytes,70727152.0,ns,176009
bench_group,blake3,80,80,bytes,71727918.0,ns,178488
bench_group,blake3,80,80,bytes,72720435.0,ns,180967
bench_group,blake3,80,80,bytes,73727952.0,ns,183446
bench_group,blake3,80,80,bytes,74732890.0,ns,185925
bench_group,blake3,80,80,bytes,75700503.0,ns,188404
bench_group,blake3,80,80,bytes,76699181.0,ns,190883
bench_group,blake3,80,80,bytes,77698391.0,ns,193362
bench_group,blake3,80,80,bytes,78695865.0,ns,195841
bench_group,blake3,80,80,bytes,79694972.0,ns,198320
bench_group,blake3,80,80,bytes,80777228.0,ns,200799
bench_group,blake3,80,80,bytes,81675823.0,ns,203278
bench_group,blake3,80,80,bytes,82679711.0,ns,205757
bench_group,blake3,80,80,bytes,83687238.0,ns,208236
bench_group,blake3,80,80,bytes,84690321.0,ns,210715
bench_group,blake3,80,80,bytes,85656189.0,ns,213194
bench_group,blake3,80,80,bytes,86683182.0,ns,215673
bench_group,blake3,80,80,bytes,87701861.0,ns,218152
bench_group,blake3,80,80,bytes,88649462.0,ns,220631
bench_group,blake3,80,80,bytes,89643729.0,ns,223110
bench_group,blake3,80,80,bytes,90641577.0,ns,225589
bench_group,blake3,80,80,bytes,91646023.0,ns,228068
bench_group,blake3,80,80,bytes,92636727.0,ns,230547
bench_group,blake3,80,80,bytes,93638963.0,ns,233026
bench_group,blake3,80,80,bytes,94654260.0,ns,235505
bench_group,blake3,80,80,bytes,95641572.0,ns,237984
bench_group,blake3,80,80,bytes,96630699.0,ns,240463
bench_group,blake3,80,80,bytes,97716333.0,ns,242942
bench_group,blake3,80,80,bytes,98666026.0,ns,245421
bench_group,blake3,80,80,bytes,99602466.0,ns,247900
