group,function,value,throughput_num,throughput_type,sample_measured_value,unit,iteration_count
bench_group,blake3,64,64,bytes,993251.0,ns,4360
bench_group,blake3,64,64,bytes,1988114.0,ns,8720
bench_group,blake3,64,64,bytes,2978200.0,ns,13080
bench_group,blake3,64,64,bytes,3970814.0,ns,17440
bench_group,blake3,64,64,bytes,4969971.0,ns,21800
bench_group,blake3,64,64,bytes,5967182.0,ns,26160
bench_group,blake3,64,64,bytes,6955894.0,ns,30520
bench_group,blake3,64,64,bytes,7953585.0,ns,34880
bench_group,blake3,64,64,bytes,8952936.0,ns,39240
bench_group,blake3,64,64,bytes,9947065.0,ns,43600
bench_group,blake3,64,64,bytes,10927378.0,ns,47960
bench_group,blake3,64,64,bytes,11940154.0,ns,52320
bench_group,blake3,64,64,bytes,12909742.0,ns,56680
bench_group,blake3,64,64,bytes,13898456.0,ns,61040
bench_group,blake3,64,64,bytes,14894878.0,ns,65400
bench_group,blake3,64,64,bytes,15887523.0,ns,69760
bench_group,blake3,64,64,bytes,16878493.0,ns,74120
bench_group,blake3,64,64,bytes,17875683.0,ns,78480
bench_group,blake3,64,64,bytes,18864739.0,ns,82840
bench_group,blake3,64,64,bytes,19867074.0,ns,87200
bench_group,blake3,64,64,bytes,20863522.0,ns,91560
bench_group,blake3,64,64,bytes,21859295.0,ns,95920
bench_group,blake3,64,64,bytes,22839958.0,ns,100280
bench_group,blake3,64,64,bytes,23829681.0,ns,104640
bench_group,blake3,64,64,bytes,24812877.0,ns,109000
bench_group,blake3,64,64,bytes,25815759.0,ns,113360
bench_group,blake3,64,64,bytes,26809808.0,ns,117720
bench_group,blake3,64,64,bytes,27798938.0,ns,122080
bench_group,blake3,64,64,bytes,28792255.0,ns,126440
bench_group,blake3,64,64,bytes,29784403.0,ns,130800
bench_group,blake3,64,64,bytes,30776831.0,ns,135160
bench_group,blake3,64,64,bytes,31786838.0,ns,139520
bench_group,blake3,64,64,bytes,32771366.0,ns,143880
bench_group,blake3,64,64,bytes,33764527.0,ns,148240
bench_group,blake3,64,64,bytes,34773102.0,ns,152600
bench_group,blake3,64,64,bytes,35774246.0,ns,156960
bench_group,blake3,64,64,bytes,36742254.0,ns,161320
bench_group,blake3,64,64,bytes,37724723.0,ns,165680
bench_group,blake3,64,64,bytes,38752199.0,ns,170040
bench_group,blake3,64,64,bytes,39714405.0,ns,174400
bench_group,blake3,64,64,bytes,40761461.0,ns,178760
bench_group,blake3,64,64,bytes,41697410.0,ns,183120
bench_group,blake3,64,64,bytes,42687383.0,ns,187480
bench_group,blake3,64,64,bytes,43685991.0,ns,191840
bench_group,blake3,64,64,bytes,44688382.0,ns,196200
bench_group,blake3,64,64,bytes,45666790.0,ns,200560
bench_group,blake3,64,64,bytes,46656999.0,ns,204920
bench_group,blake3,64,64,bytes,47678446.0,ns,209280
bench_group,blake3,64,64,bytes,48650989.0,ns,213640
bench_group,blake3,64,64,bytes,49645206.0,ns,218000
bench_group,blake3,64,64,bytes,50635630.0,ns,222360
bench_group,blake3,64,64,bytes,51645593.0,ns,226720
bench_group,blake3,64,64,bytes,52629294.0,ns,231080
bench_group,blake3,64,64,bytes,53640144.0,ns,235440
bench_group,blake3,64,64,bytes,54604348.0,ns,239800
bench_group,blake3,64,64,bytes,55593370.0,ns,244160
bench_group,blake3,64,64,bytes,56586610.0,ns,248520
bench_group,blake3,64,64,bytes,57580221.0,ns,252880
bench_group,blake3,64,64,bytes,58588988.0,ns,257240
bench_group,blake3,64,64,bytes,59588699.0,ns,261600
bench_group,blake3,64,64,bytes,60558851.0,ns,265960
bench_group,blake3,64,64,bytes,61560360.0,ns,270320
bench_group,blake3,64,64,bytes,62544773.0,ns,274680
bench_group,blake3,64,64,bytes,63577833.0,ns,279040
bench_group,blake3,64,64,bytes,64530565.0,ns,283400
bench_group,blake3,64,64,bytes,65577033.0,ns,287760
bench_group,blake3,64,64,bytes,66523456.0,ns,292120
bench_group,blake3,64,64,bytes,67511868.0,ns,296480
bench_group,blake3,64,64,bytes,68525864.0,ns,300840
bench_group,blake3,64,64,bytes,69521681.0,ns,305200
bench_group,blake3,64,64,bytes,70489603.0,ns,309560
bench_group,blake3,64,64,bytes,71487489.0,ns,313920
bench_group,blake3,64,64,bytes,72543415.0,ns,318280
bench_group,blake3,64,64,bytes,73469125.0,ns,322640
bench_group,blake3,64,64,bytes,74460096.0,ns,327000
bench_group,blake3,64,64,bytes,75454936.0,ns,331360
bench_group,blake3,64,64,bytes,76441315.0,ns,335720
bench_group,blake3,64,64,bytes,77446891.0,ns,340080
bench_group,blake3,64,64,bytes,78428893.0,ns,344440
bench_group,blake3,64,64,bytes,79450272.0,ns,348800
bench_group,blake3,64,64,bytes,80461965.0,ns,353160
bench_group,blake3,64,64,bytes,81407088.0,ns,357520
bench_group,blake3,64,64,bytes,82409129.0,ns,361880
bench_group,blake3,64,64,bytes,83394898.0,ns,366240
bench_group,blake3,64,64,bytes,84379876.0,ns,370600
bench_group,blake3,64,64,bytes,85454844.0,ns,374960
bench_group,blake3,64,64,bytes,86379227.0,ns,379320
bench_group,blake3,64,64,bytes,87458573.0,ns,383680
bench_group,blake3,64,64,bytes,88358508.0,ns,388040
bench_group,blake3,64,64,bytes,89366917.0,ns,392400
bench_group,blake3,64,64,bytes,90345943.0,ns,396760
bench_group,blake3,64,64,bytes,91383482.0,ns,401120
bench_group,blake3,64,64,bytes,92350214.0,ns,405480
bench_group,blake3,64,64,bytes,93524631.0,ns,409840
bench_group,blake3,64,64,bytes,94361439.0,ns,414200
bench_group,blake3,64,64,bytes,95302347.0,ns,418560
bench_group,blake3,64,64,bytes,96305612.0,ns,422920
bench_group,blake3,64,64,bytes,97297583.0,ns,427280
bench_group,blake3,64,64,bytes,98284181.0,ns,431640
bench_group,blake3,64,64,bytes,99280076.0,ns,436000
