<?xml version="1.0" encoding="utf-8"  standalone="no"?>
<svg 
 viewBox="0 0 450 300"
 xmlns="http://www.w3.org/2000/svg"
 xmlns:xlink="http://www.w3.org/1999/xlink"
>

<title>Gnuplot</title>
<desc>Produced by GNUPLOT 5.2 patchlevel 8 </desc>

<g id="gnuplot_canvas">

<rect x="0" y="0" width="450" height="300" fill="none"/>
<defs>

	<circle id='gpDot' r='0.5' stroke-width='0.5' stroke='currentColor'/>
	<path id='gpPt0' stroke-width='0.222' stroke='currentColor' d='M-1,0 h2 M0,-1 v2'/>
	<path id='gpPt1' stroke-width='0.222' stroke='currentColor' d='M-1,-1 L1,1 M1,-1 L-1,1'/>
	<path id='gpPt2' stroke-width='0.222' stroke='currentColor' d='M-1,0 L1,0 M0,-1 L0,1 M-1,-1 L1,1 M-1,1 L1,-1'/>
	<rect id='gpPt3' stroke-width='0.222' stroke='currentColor' x='-1' y='-1' width='2' height='2'/>
	<rect id='gpPt4' stroke-width='0.222' stroke='currentColor' fill='currentColor' x='-1' y='-1' width='2' height='2'/>
	<circle id='gpPt5' stroke-width='0.222' stroke='currentColor' cx='0' cy='0' r='1'/>
	<use xlink:href='#gpPt5' id='gpPt6' fill='currentColor' stroke='none'/>
	<path id='gpPt7' stroke-width='0.222' stroke='currentColor' d='M0,-1.33 L-1.33,0.67 L1.33,0.67 z'/>
	<use xlink:href='#gpPt7' id='gpPt8' fill='currentColor' stroke='none'/>
	<use xlink:href='#gpPt7' id='gpPt9' stroke='currentColor' transform='rotate(180)'/>
	<use xlink:href='#gpPt9' id='gpPt10' fill='currentColor' stroke='none'/>
	<use xlink:href='#gpPt3' id='gpPt11' stroke='currentColor' transform='rotate(45)'/>
	<use xlink:href='#gpPt11' id='gpPt12' fill='currentColor' stroke='none'/>
	<path id='gpPt13' stroke-width='0.222' stroke='currentColor' d='M0,1.330 L1.265,0.411 L0.782,-1.067 L-0.782,-1.076 L-1.265,0.411 z'/>
	<use xlink:href='#gpPt13' id='gpPt14' fill='currentColor' stroke='none'/>
	<filter id='textbox' filterUnits='objectBoundingBox' x='0' y='0' height='1' width='1'>
	  <feFlood flood-color='white' flood-opacity='1' result='bgnd'/>
	  <feComposite in='SourceGraphic' in2='bgnd' operator='atop'/>
	</filter>
	<filter id='greybox' filterUnits='objectBoundingBox' x='0' y='0' height='1' width='1'>
	  <feFlood flood-color='lightgrey' flood-opacity='1' result='grey'/>
	  <feComposite in='SourceGraphic' in2='grey' operator='atop'/>
	</filter>
</defs>
<g fill="none" color="white" stroke="currentColor" stroke-width="1.00" stroke-linecap="butt" stroke-linejoin="miter">
</g>
<g fill="none" color="black" stroke="currentColor" stroke-width="1.00" stroke-linecap="butt" stroke-linejoin="miter">
	<path stroke='black'  d='M71.9,242.4 L80.9,242.4  '/>	<g transform="translate(63.6,246.3)" stroke="none" fill="black" font-family="Helvetica" font-size="12.00"  text-anchor="end">
		<text><tspan font-family="Helvetica" > 0</tspan></text>
	</g>
</g>
<g fill="none" color="black" stroke="currentColor" stroke-width="1.00" stroke-linecap="butt" stroke-linejoin="miter">
	<path stroke='black'  d='M71.9,201.5 L80.9,201.5  '/>	<g transform="translate(63.6,205.4)" stroke="none" fill="black" font-family="Helvetica" font-size="12.00"  text-anchor="end">
		<text><tspan font-family="Helvetica" > 0.5</tspan></text>
	</g>
</g>
<g fill="none" color="black" stroke="currentColor" stroke-width="1.00" stroke-linecap="butt" stroke-linejoin="miter">
	<path stroke='black'  d='M71.9,160.6 L80.9,160.6  '/>	<g transform="translate(63.6,164.5)" stroke="none" fill="black" font-family="Helvetica" font-size="12.00"  text-anchor="end">
		<text><tspan font-family="Helvetica" > 1</tspan></text>
	</g>
</g>
<g fill="none" color="black" stroke="currentColor" stroke-width="1.00" stroke-linecap="butt" stroke-linejoin="miter">
	<path stroke='black'  d='M71.9,119.7 L80.9,119.7  '/>	<g transform="translate(63.6,123.6)" stroke="none" fill="black" font-family="Helvetica" font-size="12.00"  text-anchor="end">
		<text><tspan font-family="Helvetica" > 1.5</tspan></text>
	</g>
</g>
<g fill="none" color="black" stroke="currentColor" stroke-width="1.00" stroke-linecap="butt" stroke-linejoin="miter">
	<path stroke='black'  d='M71.9,78.8 L80.9,78.8  '/>	<g transform="translate(63.6,82.7)" stroke="none" fill="black" font-family="Helvetica" font-size="12.00"  text-anchor="end">
		<text><tspan font-family="Helvetica" > 2</tspan></text>
	</g>
</g>
<g fill="none" color="black" stroke="currentColor" stroke-width="1.00" stroke-linecap="butt" stroke-linejoin="miter">
	<path stroke='black'  d='M71.9,37.9 L80.9,37.9  '/>	<g transform="translate(63.6,41.8)" stroke="none" fill="black" font-family="Helvetica" font-size="12.00"  text-anchor="end">
		<text><tspan font-family="Helvetica" > 2.5</tspan></text>
	</g>
</g>
<g fill="none" color="black" stroke="currentColor" stroke-width="1.00" stroke-linecap="butt" stroke-linejoin="miter">
	<path stroke='black'  d='M75.6,242.4 L75.6,233.4  '/>	<g transform="translate(75.6,264.3)" stroke="none" fill="black" font-family="Helvetica" font-size="12.00"  text-anchor="middle">
		<text><tspan font-family="Helvetica" > 87.5</tspan></text>
	</g>
</g>
<g fill="none" color="black" stroke="currentColor" stroke-width="1.00" stroke-linecap="butt" stroke-linejoin="miter">
	<path stroke='black'  d='M131.9,242.4 L131.9,233.4  '/>	<g transform="translate(131.9,264.3)" stroke="none" fill="black" font-family="Helvetica" font-size="12.00"  text-anchor="middle">
		<text><tspan font-family="Helvetica" > 88</tspan></text>
	</g>
</g>
<g fill="none" color="black" stroke="currentColor" stroke-width="1.00" stroke-linecap="butt" stroke-linejoin="miter">
	<path stroke='black'  d='M188.1,242.4 L188.1,233.4  '/>	<g transform="translate(188.1,264.3)" stroke="none" fill="black" font-family="Helvetica" font-size="12.00"  text-anchor="middle">
		<text><tspan font-family="Helvetica" > 88.5</tspan></text>
	</g>
</g>
<g fill="none" color="black" stroke="currentColor" stroke-width="1.00" stroke-linecap="butt" stroke-linejoin="miter">
	<path stroke='black'  d='M244.3,242.4 L244.3,233.4  '/>	<g transform="translate(244.3,264.3)" stroke="none" fill="black" font-family="Helvetica" font-size="12.00"  text-anchor="middle">
		<text><tspan font-family="Helvetica" > 89</tspan></text>
	</g>
</g>
<g fill="none" color="black" stroke="currentColor" stroke-width="1.00" stroke-linecap="butt" stroke-linejoin="miter">
	<path stroke='black'  d='M300.5,242.4 L300.5,233.4  '/>	<g transform="translate(300.5,264.3)" stroke="none" fill="black" font-family="Helvetica" font-size="12.00"  text-anchor="middle">
		<text><tspan font-family="Helvetica" > 89.5</tspan></text>
	</g>
</g>
<g fill="none" color="black" stroke="currentColor" stroke-width="1.00" stroke-linecap="butt" stroke-linejoin="miter">
	<path stroke='black'  d='M356.8,242.4 L356.8,233.4  '/>	<g transform="translate(356.8,264.3)" stroke="none" fill="black" font-family="Helvetica" font-size="12.00"  text-anchor="middle">
		<text><tspan font-family="Helvetica" > 90</tspan></text>
	</g>
</g>
<g fill="none" color="black" stroke="currentColor" stroke-width="1.00" stroke-linecap="butt" stroke-linejoin="miter">
	<path stroke='black'  d='M413.0,242.4 L413.0,233.4  '/>	<g transform="translate(413.0,264.3)" stroke="none" fill="black" font-family="Helvetica" font-size="12.00"  text-anchor="middle">
		<text><tspan font-family="Helvetica" > 90.5</tspan></text>
	</g>
</g>
<g fill="none" color="black" stroke="currentColor" stroke-width="1.00" stroke-linecap="butt" stroke-linejoin="miter">
</g>
<g fill="none" color="black" stroke="currentColor" stroke-width="1.00" stroke-linecap="butt" stroke-linejoin="miter">
	<path stroke='black'  d='M71.9,18.1 L71.9,242.4 L425.0,242.4 L425.0,18.1 L71.9,18.1 Z  '/></g>
<g fill="none" color="black" stroke="currentColor" stroke-width="1.00" stroke-linecap="butt" stroke-linejoin="miter">
	<g transform="translate(19.0,130.3) rotate(270)" stroke="none" fill="black" font-family="Helvetica" font-size="12.00"  text-anchor="middle">
		<text><tspan font-family="Helvetica" >Density (a.u.)</tspan></text>
	</g>
</g>
<g fill="none" color="black" stroke="currentColor" stroke-width="1.00" stroke-linecap="butt" stroke-linejoin="miter">
	<g transform="translate(248.4,291.3)" stroke="none" fill="black" font-family="Helvetica" font-size="12.00"  text-anchor="middle">
		<text><tspan font-family="Helvetica" >Average time (us)</tspan></text>
	</g>
</g>
<g fill="none" color="black" stroke="currentColor" stroke-width="1.00" stroke-linecap="butt" stroke-linejoin="miter">
</g>
	<g id="gnuplot_plot_1" ><title>PDF</title>
<g fill="none" color="black" stroke="currentColor" stroke-width="1.00" stroke-linecap="butt" stroke-linejoin="miter">
	<g stroke='none' shape-rendering='crispEdges'>
		<polygon fill = 'rgb( 31, 120, 180)' fill-opacity = '0.250000' points = '71.9,242.4 72.6,242.4 73.3,242.4 74.0,242.3 74.7,242.3 75.4,242.3 76.1,242.3 76.9,242.3 77.6,242.3 78.3,242.3 79.0,242.2 79.7,242.2 80.4,242.2 81.1,242.2 81.8,242.1 82.5,242.1
83.2,242.1 83.9,242.0 84.6,242.0 85.3,241.9 86.1,241.9 86.8,241.8 87.5,241.7 88.2,241.7 88.9,241.6 89.6,241.5 90.3,241.4 91.0,241.3 91.7,241.3 92.4,241.2 93.1,241.1 93.8,241.0
94.5,240.9 95.3,240.8 96.0,240.6 96.7,240.5 97.4,240.4 98.1,240.3 98.8,240.2 99.5,240.1 100.2,240.0 100.9,239.9 101.6,239.8 102.3,239.7 103.0,239.6 103.7,239.5 104.5,239.4 105.2,239.4
105.9,239.3 106.6,239.2 107.3,239.2 108.0,239.1 108.7,239.1 109.4,239.0 110.1,239.0 110.8,239.0 111.5,239.0 112.2,239.0 112.9,239.0 113.6,239.0 114.4,239.0 115.1,239.0 115.8,239.0 116.5,239.0
117.2,239.0 117.9,239.0 118.6,239.0 119.3,239.1 120.0,239.1 120.7,239.1 121.4,239.1 122.1,239.1 122.8,239.0 123.6,239.0 124.3,239.0 125.0,239.0 125.7,238.9 126.4,238.9 127.1,238.8 127.8,238.7
128.5,238.7 129.2,238.6 129.9,238.5 130.6,238.4 131.3,238.3 132.0,238.2 132.8,238.1 133.5,237.9 134.2,237.8 134.9,237.7 135.6,237.6 136.3,237.5 137.0,237.3 137.7,237.2 138.4,237.1 139.1,237.0
139.8,236.9 140.5,236.8 141.2,236.7 142.0,236.6 142.7,236.6 143.4,236.5 144.1,236.5 144.8,236.4 145.5,236.4 146.2,236.4 146.9,236.4 147.6,236.4 148.3,236.4 149.0,236.4 149.7,236.4 150.4,236.4
151.2,236.4 151.9,236.5 152.6,236.5 153.3,236.6 154.0,236.6 154.7,236.6 155.4,236.7 156.1,236.7 156.8,236.7 157.5,236.7 158.2,236.7 158.9,236.7 159.6,236.7 160.4,236.7 161.1,236.6 161.8,236.5
162.5,236.4 163.2,236.3 163.9,236.2 164.6,236.0 165.3,235.8 166.0,235.6 166.7,235.3 167.4,235.0 168.1,234.6 168.8,234.2 169.6,233.8 170.3,233.3 171.0,232.8 171.7,232.2 172.4,231.6 173.1,230.9
173.8,230.1 174.5,229.3 175.2,228.4 175.9,227.4 176.6,226.4 177.3,225.2 178.0,224.0 178.7,222.7 179.5,221.2 180.2,219.7 180.9,218.0 181.6,216.2 182.3,214.3 183.0,212.2 183.7,210.0 184.4,207.7
185.1,205.2 185.8,202.5 186.5,199.7 187.2,196.6 187.9,193.4 188.7,190.0 189.4,186.4 190.1,182.7 190.8,178.7 191.5,174.5 192.2,170.2 192.9,165.7 193.6,160.9 194.3,156.0 195.0,150.9 195.7,145.7
196.4,140.3 197.1,134.7 197.9,129.1 198.6,123.3 199.3,117.5 200.0,111.5 200.7,105.6 201.4,99.6 202.1,93.6 202.8,87.7 203.5,81.8 204.2,76.0 204.9,70.3 205.6,64.7 206.3,59.4 207.1,54.2
207.8,49.3 208.5,44.7 209.2,40.4 209.9,36.3 210.6,32.7 211.3,29.4 212.0,26.5 212.7,24.0 213.4,21.9 214.1,20.3 214.8,19.1 215.5,18.4 216.3,18.1 217.0,18.3 217.7,19.0 218.4,20.1
219.1,21.6 219.8,23.6 220.5,26.0 221.2,28.8 221.9,31.9 222.6,35.5 223.3,39.3 224.0,43.5 224.7,47.9 225.5,52.6 226.2,57.5 226.9,62.6 227.6,67.9 228.3,73.2 229.0,78.7 229.7,84.3
230.4,89.9 231.1,95.5 231.8,101.1 232.5,106.6 233.2,112.1 233.9,117.6 234.7,122.9 235.4,128.2 236.1,133.3 236.8,138.3 237.5,143.1 238.2,147.8 238.9,152.3 239.6,156.7 240.3,160.9 241.0,165.0
241.7,168.8 242.4,172.5 243.1,176.1 243.9,179.5 244.6,182.7 245.3,185.8 246.0,188.7 246.7,191.5 247.4,194.1 248.1,196.7 248.8,199.1 249.5,201.4 250.2,203.5 250.9,205.6 251.6,207.6 252.3,209.5
253.0,211.3 253.8,213.0 254.5,214.6 255.2,216.2 255.9,217.7 256.6,219.1 257.3,220.4 258.0,221.7 258.7,223.0 259.4,224.1 260.1,225.3 260.8,226.3 261.5,227.4 262.2,228.3 263.0,229.3 263.7,230.2
264.4,231.0 265.1,231.8 265.8,232.5 266.5,233.3 267.2,233.9 267.9,234.6 268.6,235.2 269.3,235.8 270.0,236.3 270.7,236.8 271.4,237.3 272.2,237.7 272.9,238.1 273.6,238.5 274.3,238.8 275.0,239.2
275.7,239.5 276.4,239.7 277.1,240.0 277.8,240.2 278.5,240.4 279.2,240.6 279.9,240.8 280.6,241.0 281.4,241.1 282.1,241.2 282.8,241.3 283.5,241.4 284.2,241.5 284.9,241.6 285.6,241.7 286.3,241.7
287.0,241.7 287.7,241.8 288.4,241.8 289.1,241.8 289.8,241.8 290.6,241.8 291.3,241.8 292.0,241.7 292.7,241.7 293.4,241.6 294.1,241.6 294.8,241.5 295.5,241.4 296.2,241.4 296.9,241.3 297.6,241.2
298.3,241.1 299.0,241.0 299.8,240.8 300.5,240.7 301.2,240.6 301.9,240.4 302.6,240.3 303.3,240.1 304.0,240.0 304.7,239.8 305.4,239.7 306.1,239.5 306.8,239.3 307.5,239.2 308.2,239.0 309.0,238.8
309.7,238.6 310.4,238.5 311.1,238.3 311.8,238.1 312.5,238.0 313.2,237.8 313.9,237.7 314.6,237.5 315.3,237.4 316.0,237.3 316.7,237.2 317.4,237.1 318.2,237.0 318.9,236.9 319.6,236.8 320.3,236.8
321.0,236.7 321.7,236.7 322.4,236.7 323.1,236.7 323.8,236.7 324.5,236.8 325.2,236.8 325.9,236.8 326.6,236.9 327.3,237.0 328.1,237.1 328.8,237.2 329.5,237.3 330.2,237.4 330.9,237.6 331.6,237.7
332.3,237.8 333.0,238.0 333.7,238.2 334.4,238.3 335.1,238.5 335.8,238.7 336.5,238.8 337.3,239.0 338.0,239.2 338.7,239.3 339.4,239.5 340.1,239.7 340.8,239.8 341.5,240.0 342.2,240.2 342.9,240.3
343.6,240.5 344.3,240.6 345.0,240.7 345.7,240.9 346.5,241.0 347.2,241.1 347.9,241.2 348.6,241.3 349.3,241.4 350.0,241.5 350.7,241.6 351.4,241.6 352.1,241.7 352.8,241.7 353.5,241.8 354.2,241.8
354.9,241.9 355.7,241.9 356.4,241.9 357.1,241.9 357.8,241.9 358.5,241.9 359.2,241.9 359.9,241.9 360.6,241.9 361.3,241.9 362.0,241.8 362.7,241.8 363.4,241.8 364.1,241.7 364.9,241.7 365.6,241.6
366.3,241.5 367.0,241.5 367.7,241.4 368.4,241.3 369.1,241.2 369.8,241.1 370.5,241.0 371.2,240.9 371.9,240.8 372.6,240.7 373.3,240.6 374.1,240.5 374.8,240.4 375.5,240.3 376.2,240.2 376.9,240.1
377.6,240.0 378.3,239.9 379.0,239.8 379.7,239.7 380.4,239.6 381.1,239.5 381.8,239.5 382.5,239.4 383.3,239.3 384.0,239.3 384.7,239.3 385.4,239.2 386.1,239.2 386.8,239.2 387.5,239.2 388.2,239.2
388.9,239.2 389.6,239.3 390.3,239.3 391.0,239.4 391.7,239.4 392.4,239.5 393.2,239.6 393.9,239.6 394.6,239.7 395.3,239.8 396.0,239.9 396.7,240.0 397.4,240.1 398.1,240.2 398.8,240.3 399.5,240.4
400.2,240.5 400.9,240.7 401.6,240.8 402.4,240.9 403.1,241.0 403.8,241.1 404.5,241.2 405.2,241.3 405.9,241.3 406.6,241.4 407.3,241.5 408.0,241.6 408.7,241.7 409.4,241.7 410.1,241.8 410.8,241.9
411.6,241.9 412.3,242.0 413.0,242.0 413.7,242.1 414.4,242.1 415.1,242.1 415.8,242.2 416.5,242.2 417.2,242.2 417.9,242.2 418.6,242.3 419.3,242.3 420.0,242.3 420.8,242.3 421.5,242.3 422.2,242.3
422.9,242.3 423.6,242.4 424.3,242.4 425.0,242.4 425.0,242.4 424.3,242.4 423.6,242.4 422.9,242.4 422.2,242.4 421.5,242.4 420.8,242.4 420.0,242.4 419.3,242.4 418.6,242.4 417.9,242.4 417.2,242.4
416.5,242.4 415.8,242.4 415.1,242.4 414.4,242.4 413.7,242.4 413.0,242.4 412.3,242.4 411.6,242.4 410.8,242.4 410.1,242.4 409.4,242.4 408.7,242.4 408.0,242.4 407.3,242.4 406.6,242.4 405.9,242.4
405.2,242.4 404.5,242.4 403.8,242.4 403.1,242.4 402.4,242.4 401.6,242.4 400.9,242.4 400.2,242.4 399.5,242.4 398.8,242.4 398.1,242.4 397.4,242.4 396.7,242.4 396.0,242.4 395.3,242.4 394.6,242.4
393.9,242.4 393.2,242.4 392.4,242.4 391.7,242.4 391.0,242.4 390.3,242.4 389.6,242.4 388.9,242.4 388.2,242.4 387.5,242.4 386.8,242.4 386.1,242.4 385.4,242.4 384.7,242.4 384.0,242.4 383.3,242.4
382.5,242.4 381.8,242.4 381.1,242.4 380.4,242.4 379.7,242.4 379.0,242.4 378.3,242.4 377.6,242.4 376.9,242.4 376.2,242.4 375.5,242.4 374.8,242.4 374.1,242.4 373.3,242.4 372.6,242.4 371.9,242.4
371.2,242.4 370.5,242.4 369.8,242.4 369.1,242.4 368.4,242.4 367.7,242.4 367.0,242.4 366.3,242.4 365.6,242.4 364.9,242.4 364.1,242.4 363.4,242.4 362.7,242.4 362.0,242.4 361.3,242.4 360.6,242.4
359.9,242.4 359.2,242.4 358.5,242.4 357.8,242.4 357.1,242.4 356.4,242.4 355.7,242.4 354.9,242.4 354.2,242.4 353.5,242.4 352.8,242.4 352.1,242.4 351.4,242.4 350.7,242.4 350.0,242.4 349.3,242.4
348.6,242.4 347.9,242.4 347.2,242.4 346.5,242.4 345.7,242.4 345.0,242.4 344.3,242.4 343.6,242.4 342.9,242.4 342.2,242.4 341.5,242.4 340.8,242.4 340.1,242.4 339.4,242.4 338.7,242.4 338.0,242.4
337.3,242.4 336.5,242.4 335.8,242.4 335.1,242.4 334.4,242.4 333.7,242.4 333.0,242.4 332.3,242.4 331.6,242.4 330.9,242.4 330.2,242.4 329.5,242.4 328.8,242.4 328.1,242.4 327.3,242.4 326.6,242.4
325.9,242.4 325.2,242.4 324.5,242.4 323.8,242.4 323.1,242.4 322.4,242.4 321.7,242.4 321.0,242.4 320.3,242.4 319.6,242.4 318.9,242.4 318.2,242.4 317.4,242.4 316.7,242.4 316.0,242.4 315.3,242.4
314.6,242.4 313.9,242.4 313.2,242.4 312.5,242.4 311.8,242.4 311.1,242.4 310.4,242.4 309.7,242.4 309.0,242.4 308.2,242.4 307.5,242.4 306.8,242.4 306.1,242.4 305.4,242.4 304.7,242.4 304.0,242.4
303.3,242.4 302.6,242.4 301.9,242.4 301.2,242.4 300.5,242.4 299.8,242.4 299.0,242.4 298.3,242.4 297.6,242.4 296.9,242.4 296.2,242.4 295.5,242.4 294.8,242.4 294.1,242.4 293.4,242.4 292.7,242.4
292.0,242.4 291.3,242.4 290.6,242.4 289.8,242.4 289.1,242.4 288.4,242.4 287.7,242.4 287.0,242.4 286.3,242.4 285.6,242.4 284.9,242.4 284.2,242.4 283.5,242.4 282.8,242.4 282.1,242.4 281.4,242.4
280.6,242.4 279.9,242.4 279.2,242.4 278.5,242.4 277.8,242.4 277.1,242.4 276.4,242.4 275.7,242.4 275.0,242.4 274.3,242.4 273.6,242.4 272.9,242.4 272.2,242.4 271.4,242.4 270.7,242.4 270.0,242.4
269.3,242.4 268.6,242.4 267.9,242.4 267.2,242.4 266.5,242.4 265.8,242.4 265.1,242.4 264.4,242.4 263.7,242.4 263.0,242.4 262.2,242.4 261.5,242.4 260.8,242.4 260.1,242.4 259.4,242.4 258.7,242.4
258.0,242.4 257.3,242.4 256.6,242.4 255.9,242.4 255.2,242.4 254.5,242.4 253.8,242.4 253.0,242.4 252.3,242.4 251.6,242.4 250.9,242.4 250.2,242.4 249.5,242.4 248.8,242.4 248.1,242.4 247.4,242.4
246.7,242.4 246.0,242.4 245.3,242.4 244.6,242.4 243.9,242.4 243.1,242.4 242.4,242.4 241.7,242.4 241.0,242.4 240.3,242.4 239.6,242.4 238.9,242.4 238.2,242.4 237.5,242.4 236.8,242.4 236.1,242.4
235.4,242.4 234.7,242.4 233.9,242.4 233.2,242.4 232.5,242.4 231.8,242.4 231.1,242.4 230.4,242.4 229.7,242.4 229.0,242.4 228.3,242.4 227.6,242.4 226.9,242.4 226.2,242.4 225.5,242.4 224.7,242.4
224.0,242.4 223.3,242.4 222.6,242.4 221.9,242.4 221.2,242.4 220.5,242.4 219.8,242.4 219.1,242.4 218.4,242.4 217.7,242.4 217.0,242.4 216.3,242.4 215.5,242.4 214.8,242.4 214.1,242.4 213.4,242.4
212.7,242.4 212.0,242.4 211.3,242.4 210.6,242.4 209.9,242.4 209.2,242.4 208.5,242.4 207.8,242.4 207.1,242.4 206.3,242.4 205.6,242.4 204.9,242.4 204.2,242.4 203.5,242.4 202.8,242.4 202.1,242.4
201.4,242.4 200.7,242.4 200.0,242.4 199.3,242.4 198.6,242.4 197.9,242.4 197.1,242.4 196.4,242.4 195.7,242.4 195.0,242.4 194.3,242.4 193.6,242.4 192.9,242.4 192.2,242.4 191.5,242.4 190.8,242.4
190.1,242.4 189.4,242.4 188.7,242.4 187.9,242.4 187.2,242.4 186.5,242.4 185.8,242.4 185.1,242.4 184.4,242.4 183.7,242.4 183.0,242.4 182.3,242.4 181.6,242.4 180.9,242.4 180.2,242.4 179.5,242.4
178.7,242.4 178.0,242.4 177.3,242.4 176.6,242.4 175.9,242.4 175.2,242.4 174.5,242.4 173.8,242.4 173.1,242.4 172.4,242.4 171.7,242.4 171.0,242.4 170.3,242.4 169.6,242.4 168.8,242.4 168.1,242.4
167.4,242.4 166.7,242.4 166.0,242.4 165.3,242.4 164.6,242.4 163.9,242.4 163.2,242.4 162.5,242.4 161.8,242.4 161.1,242.4 160.4,242.4 159.6,242.4 158.9,242.4 158.2,242.4 157.5,242.4 156.8,242.4
156.1,242.4 155.4,242.4 154.7,242.4 154.0,242.4 153.3,242.4 152.6,242.4 151.9,242.4 151.2,242.4 150.4,242.4 149.7,242.4 149.0,242.4 148.3,242.4 147.6,242.4 146.9,242.4 146.2,242.4 145.5,242.4
144.8,242.4 144.1,242.4 143.4,242.4 142.7,242.4 142.0,242.4 141.2,242.4 140.5,242.4 139.8,242.4 139.1,242.4 138.4,242.4 137.7,242.4 137.0,242.4 136.3,242.4 135.6,242.4 134.9,242.4 134.2,242.4
133.5,242.4 132.8,242.4 132.0,242.4 131.3,242.4 130.6,242.4 129.9,242.4 129.2,242.4 128.5,242.4 127.8,242.4 127.1,242.4 126.4,242.4 125.7,242.4 125.0,242.4 124.3,242.4 123.6,242.4 122.8,242.4
122.1,242.4 121.4,242.4 120.7,242.4 120.0,242.4 119.3,242.4 118.6,242.4 117.9,242.4 117.2,242.4 116.5,242.4 115.8,242.4 115.1,242.4 114.4,242.4 113.6,242.4 112.9,242.4 112.2,242.4 111.5,242.4
110.8,242.4 110.1,242.4 109.4,242.4 108.7,242.4 108.0,242.4 107.3,242.4 106.6,242.4 105.9,242.4 105.2,242.4 104.5,242.4 103.7,242.4 103.0,242.4 102.3,242.4 101.6,242.4 100.9,242.4 100.2,242.4
99.5,242.4 98.8,242.4 98.1,242.4 97.4,242.4 96.7,242.4 96.0,242.4 95.3,242.4 94.5,242.4 93.8,242.4 93.1,242.4 92.4,242.4 91.7,242.4 91.0,242.4 90.3,242.4 89.6,242.4 88.9,242.4
88.2,242.4 87.5,242.4 86.8,242.4 86.1,242.4 85.3,242.4 84.6,242.4 83.9,242.4 83.2,242.4 82.5,242.4 81.8,242.4 81.1,242.4 80.4,242.4 79.7,242.4 79.0,242.4 78.3,242.4 77.6,242.4
76.9,242.4 76.1,242.4 75.4,242.4 74.7,242.4 74.0,242.4 73.3,242.4 72.6,242.4 71.9,242.4 '/>
	</g>
</g>
	</g>
	<g id="gnuplot_plot_2" ><title>Mean</title>
<g fill="none" color="white" stroke="rgb( 31, 120, 180)" stroke-width="2.00" stroke-linecap="butt" stroke-linejoin="miter">
</g>
<g fill="none" color="black" stroke="currentColor" stroke-width="2.00" stroke-linecap="butt" stroke-linejoin="miter">
	<path stroke='rgb( 31, 120, 180)'  d='M218.8,242.4 L218.8,41.1  '/></g>
	</g>
<g fill="none" color="black" stroke="currentColor" stroke-width="2.00" stroke-linecap="butt" stroke-linejoin="miter">
</g>
<g fill="none" color="black" stroke="black" stroke-width="1.00" stroke-linecap="butt" stroke-linejoin="miter">
</g>
<g fill="none" color="black" stroke="currentColor" stroke-width="1.00" stroke-linecap="butt" stroke-linejoin="miter">
	<path stroke='black'  d='M71.9,18.1 L71.9,242.4 L425.0,242.4 L425.0,18.1 L71.9,18.1 Z  '/></g>
<g fill="none" color="black" stroke="currentColor" stroke-width="1.00" stroke-linecap="butt" stroke-linejoin="miter">
</g>
</g>
</svg>

