group,function,value,throughput_num,throughput_type,sample_measured_value,unit,iteration_count
bench_group,blake3,131072,131072,bytes,1058475.0,ns,9
bench_group,blake3,131072,131072,bytes,2154495.0,ns,18
bench_group,blake3,131072,131072,bytes,3168784.0,ns,27
bench_group,blake3,131072,131072,bytes,4210637.0,ns,36
bench_group,blake3,131072,131072,bytes,5311921.0,ns,45
bench_group,blake3,131072,131072,bytes,6378418.0,ns,54
bench_group,blake3,131072,131072,bytes,7441567.0,ns,63
bench_group,blake3,131072,131072,bytes,8463914.0,ns,72
bench_group,blake3,131072,131072,bytes,9545476.0,ns,81
bench_group,blake3,131072,131072,bytes,10594987.0,ns,90
bench_group,blake3,131072,131072,bytes,11663153.0,ns,99
bench_group,blake3,131072,131072,bytes,12704656.0,ns,108
bench_group,blake3,131072,131072,bytes,13816175.0,ns,117
bench_group,blake3,131072,131072,bytes,14829220.0,ns,126
bench_group,blake3,131072,131072,bytes,15895000.0,ns,135
bench_group,blake3,131072,131072,bytes,16979370.0,ns,144
bench_group,blake3,131072,131072,bytes,18022402.0,ns,153
bench_group,blake3,131072,131072,bytes,19101687.0,ns,162
bench_group,blake3,131072,131072,bytes,20142636.0,ns,171
bench_group,blake3,131072,131072,bytes,21206570.0,ns,180
bench_group,blake3,131072,131072,bytes,22300121.0,ns,189
bench_group,blake3,131072,131072,bytes,23312228.0,ns,198
bench_group,blake3,131072,131072,bytes,24401425.0,ns,207
bench_group,blake3,131072,131072,bytes,25414911.0,ns,216
bench_group,blake3,131072,131072,bytes,26526273.0,ns,225
bench_group,blake3,131072,131072,bytes,27585760.0,ns,234
bench_group,blake3,131072,131072,bytes,28640038.0,ns,243
bench_group,blake3,131072,131072,bytes,29697661.0,ns,252
bench_group,blake3,131072,131072,bytes,30752507.0,ns,261
bench_group,blake3,131072,131072,bytes,31741820.0,ns,270
bench_group,blake3,131072,131072,bytes,32829744.0,ns,279
bench_group,blake3,131072,131072,bytes,34007690.0,ns,288
bench_group,blake3,131072,131072,bytes,34949250.0,ns,297
bench_group,blake3,131072,131072,bytes,35972698.0,ns,306
bench_group,blake3,131072,131072,bytes,37040351.0,ns,315
bench_group,blake3,131072,131072,bytes,38160174.0,ns,324
bench_group,blake3,131072,131072,bytes,39253727.0,ns,333
bench_group,blake3,131072,131072,bytes,40258998.0,ns,342
bench_group,blake3,131072,131072,bytes,41358266.0,ns,351
bench_group,blake3,131072,131072,bytes,42438649.0,ns,360
bench_group,blake3,131072,131072,bytes,43484308.0,ns,369
bench_group,blake3,131072,131072,bytes,44561476.0,ns,378
bench_group,blake3,131072,131072,bytes,45621665.0,ns,387
bench_group,blake3,131072,131072,bytes,46663615.0,ns,396
bench_group,blake3,131072,131072,bytes,47771018.0,ns,405
bench_group,blake3,131072,131072,bytes,48735989.0,ns,414
bench_group,blake3,131072,131072,bytes,49877461.0,ns,423
bench_group,blake3,131072,131072,bytes,50925551.0,ns,432
bench_group,blake3,131072,131072,bytes,51923522.0,ns,441
bench_group,blake3,131072,131072,bytes,53044003.0,ns,450
bench_group,blake3,131072,131072,bytes,54101330.0,ns,459
bench_group,blake3,131072,131072,bytes,55145767.0,ns,468
bench_group,blake3,131072,131072,bytes,56170196.0,ns,477
bench_group,blake3,131072,131072,bytes,57279430.0,ns,486
bench_group,blake3,131072,131072,bytes,58323323.0,ns,495
bench_group,blake3,131072,131072,bytes,59369778.0,ns,504
bench_group,blake3,131072,131072,bytes,60433271.0,ns,513
bench_group,blake3,131072,131072,bytes,61615776.0,ns,522
bench_group,blake3,131072,131072,bytes,62571565.0,ns,531
bench_group,blake3,131072,131072,bytes,63683894.0,ns,540
bench_group,blake3,131072,131072,bytes,64707719.0,ns,549
bench_group,blake3,131072,131072,bytes,65815834.0,ns,558
bench_group,blake3,131072,131072,bytes,66832390.0,ns,567
bench_group,blake3,131072,131072,bytes,67849643.0,ns,576
bench_group,blake3,131072,131072,bytes,68928028.0,ns,585
bench_group,blake3,131072,131072,bytes,70061472.0,ns,594
bench_group,blake3,131072,131072,bytes,71039698.0,ns,603
bench_group,blake3,131072,131072,bytes,71998810.0,ns,612
bench_group,blake3,131072,131072,bytes,73027504.0,ns,621
bench_group,blake3,131072,131072,bytes,74158114.0,ns,630
bench_group,blake3,131072,131072,bytes,75133607.0,ns,639
bench_group,blake3,131072,131072,bytes,76250096.0,ns,648
bench_group,blake3,131072,131072,bytes,77263138.0,ns,657
bench_group,blake3,131072,131072,bytes,78376466.0,ns,666
bench_group,blake3,131072,131072,bytes,79555725.0,ns,675
bench_group,blake3,131072,131072,bytes,80616771.0,ns,684
bench_group,blake3,131072,131072,bytes,81661844.0,ns,693
bench_group,blake3,131072,131072,bytes,82701322.0,ns,702
bench_group,blake3,131072,131072,bytes,83770151.0,ns,711
bench_group,blake3,131072,131072,bytes,84917284.0,ns,720
bench_group,blake3,131072,131072,bytes,85896092.0,ns,729
bench_group,blake3,131072,131072,bytes,87066677.0,ns,738
bench_group,blake3,131072,131072,bytes,88089588.0,ns,747
bench_group,blake3,131072,131072,bytes,89078992.0,ns,756
bench_group,blake3,131072,131072,bytes,90145861.0,ns,765
bench_group,blake3,131072,131072,bytes,91279392.0,ns,774
bench_group,blake3,131072,131072,bytes,92440290.0,ns,783
bench_group,blake3,131072,131072,bytes,93376592.0,ns,792
bench_group,blake3,131072,131072,bytes,94369620.0,ns,801
bench_group,blake3,131072,131072,bytes,95456429.0,ns,810
bench_group,blake3,131072,131072,bytes,96478949.0,ns,819
bench_group,blake3,131072,131072,bytes,97596594.0,ns,828
bench_group,blake3,131072,131072,bytes,98657999.0,ns,837
bench_group,blake3,131072,131072,bytes,99566912.0,ns,846
bench_group,blake3,131072,131072,bytes,100627625.0,ns,855
bench_group,blake3,131072,131072,bytes,101716909.0,ns,864
bench_group,blake3,131072,131072,bytes,102783237.0,ns,873
bench_group,blake3,131072,131072,bytes,103986115.0,ns,882
bench_group,blake3,131072,131072,bytes,105009252.0,ns,891
bench_group,blake3,131072,131072,bytes,106122209.0,ns,900
