<?xml version="1.0" encoding="utf-8"  standalone="no"?>
<svg 
 viewBox="0 0 450 300"
 xmlns="http://www.w3.org/2000/svg"
 xmlns:xlink="http://www.w3.org/1999/xlink"
>

<title>Gnuplot</title>
<desc>Produced by GNUPLOT 5.2 patchlevel 8 </desc>

<g id="gnuplot_canvas">

<rect x="0" y="0" width="450" height="300" fill="none"/>
<defs>

	<circle id='gpDot' r='0.5' stroke-width='0.5' stroke='currentColor'/>
	<path id='gpPt0' stroke-width='0.222' stroke='currentColor' d='M-1,0 h2 M0,-1 v2'/>
	<path id='gpPt1' stroke-width='0.222' stroke='currentColor' d='M-1,-1 L1,1 M1,-1 L-1,1'/>
	<path id='gpPt2' stroke-width='0.222' stroke='currentColor' d='M-1,0 L1,0 M0,-1 L0,1 M-1,-1 L1,1 M-1,1 L1,-1'/>
	<rect id='gpPt3' stroke-width='0.222' stroke='currentColor' x='-1' y='-1' width='2' height='2'/>
	<rect id='gpPt4' stroke-width='0.222' stroke='currentColor' fill='currentColor' x='-1' y='-1' width='2' height='2'/>
	<circle id='gpPt5' stroke-width='0.222' stroke='currentColor' cx='0' cy='0' r='1'/>
	<use xlink:href='#gpPt5' id='gpPt6' fill='currentColor' stroke='none'/>
	<path id='gpPt7' stroke-width='0.222' stroke='currentColor' d='M0,-1.33 L-1.33,0.67 L1.33,0.67 z'/>
	<use xlink:href='#gpPt7' id='gpPt8' fill='currentColor' stroke='none'/>
	<use xlink:href='#gpPt7' id='gpPt9' stroke='currentColor' transform='rotate(180)'/>
	<use xlink:href='#gpPt9' id='gpPt10' fill='currentColor' stroke='none'/>
	<use xlink:href='#gpPt3' id='gpPt11' stroke='currentColor' transform='rotate(45)'/>
	<use xlink:href='#gpPt11' id='gpPt12' fill='currentColor' stroke='none'/>
	<path id='gpPt13' stroke-width='0.222' stroke='currentColor' d='M0,1.330 L1.265,0.411 L0.782,-1.067 L-0.782,-1.076 L-1.265,0.411 z'/>
	<use xlink:href='#gpPt13' id='gpPt14' fill='currentColor' stroke='none'/>
	<filter id='textbox' filterUnits='objectBoundingBox' x='0' y='0' height='1' width='1'>
	  <feFlood flood-color='white' flood-opacity='1' result='bgnd'/>
	  <feComposite in='SourceGraphic' in2='bgnd' operator='atop'/>
	</filter>
	<filter id='greybox' filterUnits='objectBoundingBox' x='0' y='0' height='1' width='1'>
	  <feFlood flood-color='lightgrey' flood-opacity='1' result='grey'/>
	  <feComposite in='SourceGraphic' in2='grey' operator='atop'/>
	</filter>
</defs>
<g fill="none" color="white" stroke="currentColor" stroke-width="1.00" stroke-linecap="butt" stroke-linejoin="miter">
</g>
<g fill="none" color="black" stroke="currentColor" stroke-width="1.00" stroke-linecap="butt" stroke-linejoin="miter">
	<path stroke='black'  d='M55.3,242.4 L64.3,242.4  '/>	<g transform="translate(47.0,246.3)" stroke="none" fill="black" font-family="Helvetica" font-size="12.00"  text-anchor="end">
		<text><tspan font-family="Helvetica" > 0</tspan></text>
	</g>
</g>
<g fill="none" color="black" stroke="currentColor" stroke-width="1.00" stroke-linecap="butt" stroke-linejoin="miter">
	<path stroke='black'  d='M55.3,211.5 L64.3,211.5  '/>	<g transform="translate(47.0,215.4)" stroke="none" fill="black" font-family="Helvetica" font-size="12.00"  text-anchor="end">
		<text><tspan font-family="Helvetica" > 1</tspan></text>
	</g>
</g>
<g fill="none" color="black" stroke="currentColor" stroke-width="1.00" stroke-linecap="butt" stroke-linejoin="miter">
	<path stroke='black'  d='M55.3,180.6 L64.3,180.6  '/>	<g transform="translate(47.0,184.5)" stroke="none" fill="black" font-family="Helvetica" font-size="12.00"  text-anchor="end">
		<text><tspan font-family="Helvetica" > 2</tspan></text>
	</g>
</g>
<g fill="none" color="black" stroke="currentColor" stroke-width="1.00" stroke-linecap="butt" stroke-linejoin="miter">
	<path stroke='black'  d='M55.3,149.7 L64.3,149.7  '/>	<g transform="translate(47.0,153.6)" stroke="none" fill="black" font-family="Helvetica" font-size="12.00"  text-anchor="end">
		<text><tspan font-family="Helvetica" > 3</tspan></text>
	</g>
</g>
<g fill="none" color="black" stroke="currentColor" stroke-width="1.00" stroke-linecap="butt" stroke-linejoin="miter">
	<path stroke='black'  d='M55.3,118.8 L64.3,118.8  '/>	<g transform="translate(47.0,122.7)" stroke="none" fill="black" font-family="Helvetica" font-size="12.00"  text-anchor="end">
		<text><tspan font-family="Helvetica" > 4</tspan></text>
	</g>
</g>
<g fill="none" color="black" stroke="currentColor" stroke-width="1.00" stroke-linecap="butt" stroke-linejoin="miter">
	<path stroke='black'  d='M55.3,87.9 L64.3,87.9  '/>	<g transform="translate(47.0,91.8)" stroke="none" fill="black" font-family="Helvetica" font-size="12.00"  text-anchor="end">
		<text><tspan font-family="Helvetica" > 5</tspan></text>
	</g>
</g>
<g fill="none" color="black" stroke="currentColor" stroke-width="1.00" stroke-linecap="butt" stroke-linejoin="miter">
	<path stroke='black'  d='M55.3,57.0 L64.3,57.0  '/>	<g transform="translate(47.0,60.9)" stroke="none" fill="black" font-family="Helvetica" font-size="12.00"  text-anchor="end">
		<text><tspan font-family="Helvetica" > 6</tspan></text>
	</g>
</g>
<g fill="none" color="black" stroke="currentColor" stroke-width="1.00" stroke-linecap="butt" stroke-linejoin="miter">
	<path stroke='black'  d='M55.3,26.1 L64.3,26.1  '/>	<g transform="translate(47.0,30.0)" stroke="none" fill="black" font-family="Helvetica" font-size="12.00"  text-anchor="end">
		<text><tspan font-family="Helvetica" > 7</tspan></text>
	</g>
</g>
<g fill="none" color="black" stroke="currentColor" stroke-width="1.00" stroke-linecap="butt" stroke-linejoin="miter">
	<path stroke='black'  d='M94.6,242.4 L94.6,233.4  '/>	<g transform="translate(94.6,264.3)" stroke="none" fill="black" font-family="Helvetica" font-size="12.00"  text-anchor="middle">
		<text><tspan font-family="Helvetica" > 73</tspan></text>
	</g>
</g>
<g fill="none" color="black" stroke="currentColor" stroke-width="1.00" stroke-linecap="butt" stroke-linejoin="miter">
	<path stroke='black'  d='M143.7,242.4 L143.7,233.4  '/>	<g transform="translate(143.7,264.3)" stroke="none" fill="black" font-family="Helvetica" font-size="12.00"  text-anchor="middle">
		<text><tspan font-family="Helvetica" > 73.1</tspan></text>
	</g>
</g>
<g fill="none" color="black" stroke="currentColor" stroke-width="1.00" stroke-linecap="butt" stroke-linejoin="miter">
	<path stroke='black'  d='M192.9,242.4 L192.9,233.4  '/>	<g transform="translate(192.9,264.3)" stroke="none" fill="black" font-family="Helvetica" font-size="12.00"  text-anchor="middle">
		<text><tspan font-family="Helvetica" > 73.2</tspan></text>
	</g>
</g>
<g fill="none" color="black" stroke="currentColor" stroke-width="1.00" stroke-linecap="butt" stroke-linejoin="miter">
	<path stroke='black'  d='M242.0,242.4 L242.0,233.4  '/>	<g transform="translate(242.0,264.3)" stroke="none" fill="black" font-family="Helvetica" font-size="12.00"  text-anchor="middle">
		<text><tspan font-family="Helvetica" > 73.3</tspan></text>
	</g>
</g>
<g fill="none" color="black" stroke="currentColor" stroke-width="1.00" stroke-linecap="butt" stroke-linejoin="miter">
	<path stroke='black'  d='M291.2,242.4 L291.2,233.4  '/>	<g transform="translate(291.2,264.3)" stroke="none" fill="black" font-family="Helvetica" font-size="12.00"  text-anchor="middle">
		<text><tspan font-family="Helvetica" > 73.4</tspan></text>
	</g>
</g>
<g fill="none" color="black" stroke="currentColor" stroke-width="1.00" stroke-linecap="butt" stroke-linejoin="miter">
	<path stroke='black'  d='M340.3,242.4 L340.3,233.4  '/>	<g transform="translate(340.3,264.3)" stroke="none" fill="black" font-family="Helvetica" font-size="12.00"  text-anchor="middle">
		<text><tspan font-family="Helvetica" > 73.5</tspan></text>
	</g>
</g>
<g fill="none" color="black" stroke="currentColor" stroke-width="1.00" stroke-linecap="butt" stroke-linejoin="miter">
	<path stroke='black'  d='M389.5,242.4 L389.5,233.4  '/>	<g transform="translate(389.5,264.3)" stroke="none" fill="black" font-family="Helvetica" font-size="12.00"  text-anchor="middle">
		<text><tspan font-family="Helvetica" > 73.6</tspan></text>
	</g>
</g>
<g fill="none" color="black" stroke="currentColor" stroke-width="1.00" stroke-linecap="butt" stroke-linejoin="miter">
</g>
<g fill="none" color="black" stroke="currentColor" stroke-width="1.00" stroke-linecap="butt" stroke-linejoin="miter">
	<path stroke='black'  d='M55.3,18.1 L55.3,242.4 L425.0,242.4 L425.0,18.1 L55.3,18.1 Z  '/></g>
<g fill="none" color="black" stroke="currentColor" stroke-width="1.00" stroke-linecap="butt" stroke-linejoin="miter">
	<g transform="translate(19.0,130.3) rotate(270)" stroke="none" fill="black" font-family="Helvetica" font-size="12.00"  text-anchor="middle">
		<text><tspan font-family="Helvetica" >Density (a.u.)</tspan></text>
	</g>
</g>
<g fill="none" color="black" stroke="currentColor" stroke-width="1.00" stroke-linecap="butt" stroke-linejoin="miter">
	<g transform="translate(240.1,291.3)" stroke="none" fill="black" font-family="Helvetica" font-size="12.00"  text-anchor="middle">
		<text><tspan font-family="Helvetica" >Average time (us)</tspan></text>
	</g>
</g>
<g fill="none" color="black" stroke="currentColor" stroke-width="1.00" stroke-linecap="butt" stroke-linejoin="miter">
</g>
	<g id="gnuplot_plot_1" ><title>PDF</title>
<g fill="none" color="black" stroke="currentColor" stroke-width="1.00" stroke-linecap="butt" stroke-linejoin="miter">
	<g stroke='none' shape-rendering='crispEdges'>
		<polygon fill = 'rgb( 31, 120, 180)' fill-opacity = '0.250000' points = '55.3,242.4 56.0,242.3 56.8,242.3 57.5,242.3 58.3,242.3 59.0,242.3 59.7,242.3 60.5,242.3 61.2,242.3 62.0,242.3 62.7,242.2 63.4,242.2 64.2,242.2 64.9,242.2 65.7,242.2 66.4,242.1
67.2,242.1 67.9,242.1 68.6,242.0 69.4,242.0 70.1,242.0 70.9,241.9 71.6,241.9 72.3,241.8 73.1,241.8 73.8,241.7 74.6,241.6 75.3,241.6 76.0,241.5 76.8,241.4 77.5,241.3 78.3,241.2
79.0,241.2 79.7,241.1 80.5,241.0 81.2,240.9 82.0,240.7 82.7,240.6 83.5,240.5 84.2,240.4 84.9,240.3 85.7,240.1 86.4,240.0 87.2,239.8 87.9,239.7 88.6,239.5 89.4,239.4 90.1,239.2
90.9,239.1 91.6,238.9 92.3,238.7 93.1,238.6 93.8,238.4 94.6,238.2 95.3,238.0 96.0,237.8 96.8,237.6 97.5,237.5 98.3,237.3 99.0,237.1 99.8,236.9 100.5,236.7 101.2,236.5 102.0,236.3
102.7,236.1 103.5,235.9 104.2,235.6 104.9,235.4 105.7,235.2 106.4,235.0 107.2,234.8 107.9,234.5 108.6,234.3 109.4,234.0 110.1,233.8 110.9,233.5 111.6,233.2 112.3,232.9 113.1,232.6 113.8,232.3
114.6,231.9 115.3,231.6 116.1,231.2 116.8,230.8 117.5,230.3 118.3,229.9 119.0,229.4 119.8,228.9 120.5,228.3 121.2,227.7 122.0,227.1 122.7,226.5 123.5,225.8 124.2,225.0 124.9,224.3 125.7,223.4
126.4,222.5 127.2,221.6 127.9,220.6 128.6,219.6 129.4,218.5 130.1,217.4 130.9,216.2 131.6,214.9 132.4,213.6 133.1,212.2 133.8,210.8 134.6,209.3 135.3,207.8 136.1,206.2 136.8,204.5 137.5,202.8
138.3,201.0 139.0,199.2 139.8,197.4 140.5,195.5 141.2,193.5 142.0,191.5 142.7,189.5 143.5,187.5 144.2,185.4 144.9,183.3 145.7,181.2 146.4,179.0 147.2,176.9 147.9,174.8 148.7,172.7 149.4,170.6
150.1,168.5 150.9,166.4 151.6,164.4 152.4,162.5 153.1,160.5 153.8,158.7 154.6,156.9 155.3,155.1 156.1,153.5 156.8,151.9 157.5,150.4 158.3,149.0 159.0,147.8 159.8,146.6 160.5,145.5 161.2,144.6
162.0,143.8 162.7,143.1 163.5,142.5 164.2,142.1 165.0,141.8 165.7,141.6 166.4,141.5 167.2,141.6 167.9,141.8 168.7,142.2 169.4,142.6 170.1,143.2 170.9,143.9 171.6,144.7 172.4,145.6 173.1,146.6
173.8,147.7 174.6,148.9 175.3,150.2 176.1,151.5 176.8,152.9 177.5,154.3 178.3,155.8 179.0,157.3 179.8,158.8 180.5,160.3 181.2,161.8 182.0,163.2 182.7,164.7 183.5,166.1 184.2,167.4 185.0,168.7
185.7,169.8 186.4,170.9 187.2,171.9 187.9,172.8 188.7,173.6 189.4,174.2 190.1,174.6 190.9,175.0 191.6,175.1 192.4,175.1 193.1,174.9 193.8,174.5 194.6,173.9 195.3,173.1 196.1,172.1 196.8,170.9
197.5,169.5 198.3,167.9 199.0,166.1 199.8,164.0 200.5,161.8 201.3,159.3 202.0,156.6 202.7,153.7 203.5,150.6 204.2,147.3 205.0,143.9 205.7,140.2 206.4,136.4 207.2,132.4 207.9,128.3 208.7,124.0
209.4,119.6 210.1,115.1 210.9,110.5 211.6,105.8 212.4,101.1 213.1,96.4 213.8,91.6 214.6,86.8 215.3,82.0 216.1,77.3 216.8,72.6 217.6,68.0 218.3,63.5 219.0,59.1 219.8,54.8 220.5,50.7
221.3,46.8 222.0,43.0 222.7,39.5 223.5,36.2 224.2,33.1 225.0,30.3 225.7,27.7 226.4,25.5 227.2,23.5 227.9,21.8 228.7,20.4 229.4,19.4 230.1,18.6 230.9,18.2 231.6,18.1 232.4,18.3
233.1,18.9 233.9,19.7 234.6,20.9 235.3,22.4 236.1,24.2 236.8,26.2 237.6,28.6 238.3,31.2 239.0,34.1 239.8,37.2 240.5,40.6 241.3,44.2 242.0,47.9 242.7,51.9 243.5,56.0 244.2,60.3
245.0,64.7 245.7,69.3 246.4,73.9 247.2,78.6 247.9,83.4 248.7,88.3 249.4,93.2 250.2,98.1 250.9,103.0 251.6,107.9 252.4,112.8 253.1,117.6 253.9,122.4 254.6,127.2 255.3,131.9 256.1,136.5
256.8,141.0 257.6,145.4 258.3,149.8 259.0,154.0 259.8,158.1 260.5,162.1 261.3,166.0 262.0,169.7 262.7,173.3 263.5,176.8 264.2,180.2 265.0,183.4 265.7,186.5 266.5,189.5 267.2,192.3 267.9,195.0
268.7,197.6 269.4,200.1 270.2,202.4 270.9,204.7 271.6,206.8 272.4,208.8 273.1,210.7 273.9,212.5 274.6,214.1 275.3,215.7 276.1,217.2 276.8,218.6 277.6,220.0 278.3,221.2 279.0,222.4 279.8,223.5
280.5,224.5 281.3,225.4 282.0,226.3 282.8,227.2 283.5,227.9 284.2,228.7 285.0,229.3 285.7,230.0 286.5,230.6 287.2,231.1 287.9,231.6 288.7,232.1 289.4,232.6 290.2,233.0 290.9,233.4 291.6,233.7
292.4,234.1 293.1,234.4 293.9,234.7 294.6,235.0 295.3,235.3 296.1,235.5 296.8,235.8 297.6,236.0 298.3,236.2 299.1,236.4 299.8,236.6 300.5,236.8 301.3,237.0 302.0,237.2 302.8,237.4 303.5,237.6
304.2,237.8 305.0,237.9 305.7,238.1 306.5,238.3 307.2,238.4 307.9,238.6 308.7,238.7 309.4,238.9 310.2,239.0 310.9,239.2 311.6,239.3 312.4,239.5 313.1,239.6 313.9,239.8 314.6,239.9 315.3,240.0
316.1,240.1 316.8,240.3 317.6,240.4 318.3,240.5 319.1,240.6 319.8,240.7 320.5,240.8 321.3,240.9 322.0,241.0 322.8,241.1 323.5,241.2 324.2,241.2 325.0,241.3 325.7,241.4 326.5,241.5 327.2,241.5
327.9,241.6 328.7,241.6 329.4,241.7 330.2,241.7 330.9,241.7 331.6,241.8 332.4,241.8 333.1,241.8 333.9,241.8 334.6,241.8 335.4,241.8 336.1,241.8 336.8,241.8 337.6,241.8 338.3,241.8 339.1,241.8
339.8,241.8 340.5,241.8 341.3,241.7 342.0,241.7 342.8,241.7 343.5,241.6 344.2,241.6 345.0,241.5 345.7,241.4 346.5,241.4 347.2,241.3 347.9,241.2 348.7,241.2 349.4,241.1 350.2,241.0 350.9,240.9
351.7,240.8 352.4,240.7 353.1,240.6 353.9,240.5 354.6,240.4 355.4,240.3 356.1,240.2 356.8,240.1 357.6,240.0 358.3,239.9 359.1,239.8 359.8,239.7 360.5,239.6 361.3,239.5 362.0,239.4 362.8,239.3
363.5,239.2 364.2,239.1 365.0,239.0 365.7,239.0 366.5,238.9 367.2,238.8 368.0,238.7 368.7,238.7 369.4,238.6 370.2,238.6 370.9,238.5 371.7,238.5 372.4,238.5 373.1,238.4 373.9,238.4 374.6,238.4
375.4,238.4 376.1,238.4 376.8,238.5 377.6,238.5 378.3,238.5 379.1,238.6 379.8,238.6 380.5,238.7 381.3,238.7 382.0,238.8 382.8,238.9 383.5,238.9 384.3,239.0 385.0,239.1 385.7,239.2 386.5,239.3
387.2,239.4 388.0,239.5 388.7,239.6 389.4,239.7 390.2,239.8 390.9,239.9 391.7,240.0 392.4,240.1 393.1,240.2 393.9,240.3 394.6,240.4 395.4,240.5 396.1,240.6 396.8,240.7 397.6,240.8 398.3,240.9
399.1,241.0 399.8,241.1 400.6,241.2 401.3,241.3 402.0,241.3 402.8,241.4 403.5,241.5 404.3,241.6 405.0,241.6 405.7,241.7 406.5,241.7 407.2,241.8 408.0,241.8 408.7,241.9 409.4,241.9 410.2,242.0
410.9,242.0 411.7,242.1 412.4,242.1 413.1,242.1 413.9,242.1 414.6,242.2 415.4,242.2 416.1,242.2 416.9,242.2 417.6,242.2 418.3,242.3 419.1,242.3 419.8,242.3 420.6,242.3 421.3,242.3 422.0,242.3
422.8,242.3 423.5,242.3 424.3,242.3 425.0,242.4 425.0,242.4 424.3,242.4 423.5,242.4 422.8,242.4 422.0,242.4 421.3,242.4 420.6,242.4 419.8,242.4 419.1,242.4 418.3,242.4 417.6,242.4 416.9,242.4
416.1,242.4 415.4,242.4 414.6,242.4 413.9,242.4 413.1,242.4 412.4,242.4 411.7,242.4 410.9,242.4 410.2,242.4 409.4,242.4 408.7,242.4 408.0,242.4 407.2,242.4 406.5,242.4 405.7,242.4 405.0,242.4
404.3,242.4 403.5,242.4 402.8,242.4 402.0,242.4 401.3,242.4 400.6,242.4 399.8,242.4 399.1,242.4 398.3,242.4 397.6,242.4 396.8,242.4 396.1,242.4 395.4,242.4 394.6,242.4 393.9,242.4 393.1,242.4
392.4,242.4 391.7,242.4 390.9,242.4 390.2,242.4 389.4,242.4 388.7,242.4 388.0,242.4 387.2,242.4 386.5,242.4 385.7,242.4 385.0,242.4 384.3,242.4 383.5,242.4 382.8,242.4 382.0,242.4 381.3,242.4
380.5,242.4 379.8,242.4 379.1,242.4 378.3,242.4 377.6,242.4 376.8,242.4 376.1,242.4 375.4,242.4 374.6,242.4 373.9,242.4 373.1,242.4 372.4,242.4 371.7,242.4 370.9,242.4 370.2,242.4 369.4,242.4
368.7,242.4 368.0,242.4 367.2,242.4 366.5,242.4 365.7,242.4 365.0,242.4 364.2,242.4 363.5,242.4 362.8,242.4 362.0,242.4 361.3,242.4 360.5,242.4 359.8,242.4 359.1,242.4 358.3,242.4 357.6,242.4
356.8,242.4 356.1,242.4 355.4,242.4 354.6,242.4 353.9,242.4 353.1,242.4 352.4,242.4 351.7,242.4 350.9,242.4 350.2,242.4 349.4,242.4 348.7,242.4 347.9,242.4 347.2,242.4 346.5,242.4 345.7,242.4
345.0,242.4 344.2,242.4 343.5,242.4 342.8,242.4 342.0,242.4 341.3,242.4 340.5,242.4 339.8,242.4 339.1,242.4 338.3,242.4 337.6,242.4 336.8,242.4 336.1,242.4 335.4,242.4 334.6,242.4 333.9,242.4
333.1,242.4 332.4,242.4 331.6,242.4 330.9,242.4 330.2,242.4 329.4,242.4 328.7,242.4 327.9,242.4 327.2,242.4 326.5,242.4 325.7,242.4 325.0,242.4 324.2,242.4 323.5,242.4 322.8,242.4 322.0,242.4
321.3,242.4 320.5,242.4 319.8,242.4 319.1,242.4 318.3,242.4 317.6,242.4 316.8,242.4 316.1,242.4 315.3,242.4 314.6,242.4 313.9,242.4 313.1,242.4 312.4,242.4 311.6,242.4 310.9,242.4 310.2,242.4
309.4,242.4 308.7,242.4 307.9,242.4 307.2,242.4 306.5,242.4 305.7,242.4 305.0,242.4 304.2,242.4 303.5,242.4 302.8,242.4 302.0,242.4 301.3,242.4 300.5,242.4 299.8,242.4 299.1,242.4 298.3,242.4
297.6,242.4 296.8,242.4 296.1,242.4 295.3,242.4 294.6,242.4 293.9,242.4 293.1,242.4 292.4,242.4 291.6,242.4 290.9,242.4 290.2,242.4 289.4,242.4 288.7,242.4 287.9,242.4 287.2,242.4 286.5,242.4
285.7,242.4 285.0,242.4 284.2,242.4 283.5,242.4 282.8,242.4 282.0,242.4 281.3,242.4 280.5,242.4 279.8,242.4 279.0,242.4 278.3,242.4 277.6,242.4 276.8,242.4 276.1,242.4 275.3,242.4 274.6,242.4
273.9,242.4 273.1,242.4 272.4,242.4 271.6,242.4 270.9,242.4 270.2,242.4 269.4,242.4 268.7,242.4 267.9,242.4 267.2,242.4 266.5,242.4 265.7,242.4 265.0,242.4 264.2,242.4 263.5,242.4 262.7,242.4
262.0,242.4 261.3,242.4 260.5,242.4 259.8,242.4 259.0,242.4 258.3,242.4 257.6,242.4 256.8,242.4 256.1,242.4 255.3,242.4 254.6,242.4 253.9,242.4 253.1,242.4 252.4,242.4 251.6,242.4 250.9,242.4
250.2,242.4 249.4,242.4 248.7,242.4 247.9,242.4 247.2,242.4 246.4,242.4 245.7,242.4 245.0,242.4 244.2,242.4 243.5,242.4 242.7,242.4 242.0,242.4 241.3,242.4 240.5,242.4 239.8,242.4 239.0,242.4
238.3,242.4 237.6,242.4 236.8,242.4 236.1,242.4 235.3,242.4 234.6,242.4 233.9,242.4 233.1,242.4 232.4,242.4 231.6,242.4 230.9,242.4 230.1,242.4 229.4,242.4 228.7,242.4 227.9,242.4 227.2,242.4
226.4,242.4 225.7,242.4 225.0,242.4 224.2,242.4 223.5,242.4 222.7,242.4 222.0,242.4 221.3,242.4 220.5,242.4 219.8,242.4 219.0,242.4 218.3,242.4 217.6,242.4 216.8,242.4 216.1,242.4 215.3,242.4
214.6,242.4 213.8,242.4 213.1,242.4 212.4,242.4 211.6,242.4 210.9,242.4 210.1,242.4 209.4,242.4 208.7,242.4 207.9,242.4 207.2,242.4 206.4,242.4 205.7,242.4 205.0,242.4 204.2,242.4 203.5,242.4
202.7,242.4 202.0,242.4 201.3,242.4 200.5,242.4 199.8,242.4 199.0,242.4 198.3,242.4 197.5,242.4 196.8,242.4 196.1,242.4 195.3,242.4 194.6,242.4 193.8,242.4 193.1,242.4 192.4,242.4 191.6,242.4
190.9,242.4 190.1,242.4 189.4,242.4 188.7,242.4 187.9,242.4 187.2,242.4 186.4,242.4 185.7,242.4 185.0,242.4 184.2,242.4 183.5,242.4 182.7,242.4 182.0,242.4 181.2,242.4 180.5,242.4 179.8,242.4
179.0,242.4 178.3,242.4 177.5,242.4 176.8,242.4 176.1,242.4 175.3,242.4 174.6,242.4 173.8,242.4 173.1,242.4 172.4,242.4 171.6,242.4 170.9,242.4 170.1,242.4 169.4,242.4 168.7,242.4 167.9,242.4
167.2,242.4 166.4,242.4 165.7,242.4 165.0,242.4 164.2,242.4 163.5,242.4 162.7,242.4 162.0,242.4 161.2,242.4 160.5,242.4 159.8,242.4 159.0,242.4 158.3,242.4 157.5,242.4 156.8,242.4 156.1,242.4
155.3,242.4 154.6,242.4 153.8,242.4 153.1,242.4 152.4,242.4 151.6,242.4 150.9,242.4 150.1,242.4 149.4,242.4 148.7,242.4 147.9,242.4 147.2,242.4 146.4,242.4 145.7,242.4 144.9,242.4 144.2,242.4
143.5,242.4 142.7,242.4 142.0,242.4 141.2,242.4 140.5,242.4 139.8,242.4 139.0,242.4 138.3,242.4 137.5,242.4 136.8,242.4 136.1,242.4 135.3,242.4 134.6,242.4 133.8,242.4 133.1,242.4 132.4,242.4
131.6,242.4 130.9,242.4 130.1,242.4 129.4,242.4 128.6,242.4 127.9,242.4 127.2,242.4 126.4,242.4 125.7,242.4 124.9,242.4 124.2,242.4 123.5,242.4 122.7,242.4 122.0,242.4 121.2,242.4 120.5,242.4
119.8,242.4 119.0,242.4 118.3,242.4 117.5,242.4 116.8,242.4 116.1,242.4 115.3,242.4 114.6,242.4 113.8,242.4 113.1,242.4 112.3,242.4 111.6,242.4 110.9,242.4 110.1,242.4 109.4,242.4 108.6,242.4
107.9,242.4 107.2,242.4 106.4,242.4 105.7,242.4 104.9,242.4 104.2,242.4 103.5,242.4 102.7,242.4 102.0,242.4 101.2,242.4 100.5,242.4 99.8,242.4 99.0,242.4 98.3,242.4 97.5,242.4 96.8,242.4
96.0,242.4 95.3,242.4 94.6,242.4 93.8,242.4 93.1,242.4 92.3,242.4 91.6,242.4 90.9,242.4 90.1,242.4 89.4,242.4 88.6,242.4 87.9,242.4 87.2,242.4 86.4,242.4 85.7,242.4 84.9,242.4
84.2,242.4 83.5,242.4 82.7,242.4 82.0,242.4 81.2,242.4 80.5,242.4 79.7,242.4 79.0,242.4 78.3,242.4 77.5,242.4 76.8,242.4 76.0,242.4 75.3,242.4 74.6,242.4 73.8,242.4 73.1,242.4
72.3,242.4 71.6,242.4 70.9,242.4 70.1,242.4 69.4,242.4 68.6,242.4 67.9,242.4 67.2,242.4 66.4,242.4 65.7,242.4 64.9,242.4 64.2,242.4 63.4,242.4 62.7,242.4 62.0,242.4 61.2,242.4
60.5,242.4 59.7,242.4 59.0,242.4 58.3,242.4 57.5,242.4 56.8,242.4 56.0,242.4 55.3,242.4 '/>
	</g>
</g>
	</g>
	<g id="gnuplot_plot_2" ><title>Mean</title>
<g fill="none" color="white" stroke="rgb( 31, 120, 180)" stroke-width="2.00" stroke-linecap="butt" stroke-linejoin="miter">
</g>
<g fill="none" color="black" stroke="currentColor" stroke-width="2.00" stroke-linecap="butt" stroke-linejoin="miter">
	<path stroke='rgb( 31, 120, 180)'  d='M212.7,242.4 L212.7,112.2  '/></g>
	</g>
<g fill="none" color="black" stroke="currentColor" stroke-width="2.00" stroke-linecap="butt" stroke-linejoin="miter">
</g>
<g fill="none" color="black" stroke="black" stroke-width="1.00" stroke-linecap="butt" stroke-linejoin="miter">
</g>
<g fill="none" color="black" stroke="currentColor" stroke-width="1.00" stroke-linecap="butt" stroke-linejoin="miter">
	<path stroke='black'  d='M55.3,18.1 L55.3,242.4 L425.0,242.4 L425.0,18.1 L55.3,18.1 Z  '/></g>
<g fill="none" color="black" stroke="currentColor" stroke-width="1.00" stroke-linecap="butt" stroke-linejoin="miter">
</g>
</g>
</svg>

