<?xml version="1.0" encoding="utf-8"  standalone="no"?>
<svg 
 viewBox="0 0 450 300"
 xmlns="http://www.w3.org/2000/svg"
 xmlns:xlink="http://www.w3.org/1999/xlink"
>

<title>Gnuplot</title>
<desc>Produced by GNUPLOT 5.2 patchlevel 8 </desc>

<g id="gnuplot_canvas">

<rect x="0" y="0" width="450" height="300" fill="none"/>
<defs>

	<circle id='gpDot' r='0.5' stroke-width='0.5' stroke='currentColor'/>
	<path id='gpPt0' stroke-width='0.222' stroke='currentColor' d='M-1,0 h2 M0,-1 v2'/>
	<path id='gpPt1' stroke-width='0.222' stroke='currentColor' d='M-1,-1 L1,1 M1,-1 L-1,1'/>
	<path id='gpPt2' stroke-width='0.222' stroke='currentColor' d='M-1,0 L1,0 M0,-1 L0,1 M-1,-1 L1,1 M-1,1 L1,-1'/>
	<rect id='gpPt3' stroke-width='0.222' stroke='currentColor' x='-1' y='-1' width='2' height='2'/>
	<rect id='gpPt4' stroke-width='0.222' stroke='currentColor' fill='currentColor' x='-1' y='-1' width='2' height='2'/>
	<circle id='gpPt5' stroke-width='0.222' stroke='currentColor' cx='0' cy='0' r='1'/>
	<use xlink:href='#gpPt5' id='gpPt6' fill='currentColor' stroke='none'/>
	<path id='gpPt7' stroke-width='0.222' stroke='currentColor' d='M0,-1.33 L-1.33,0.67 L1.33,0.67 z'/>
	<use xlink:href='#gpPt7' id='gpPt8' fill='currentColor' stroke='none'/>
	<use xlink:href='#gpPt7' id='gpPt9' stroke='currentColor' transform='rotate(180)'/>
	<use xlink:href='#gpPt9' id='gpPt10' fill='currentColor' stroke='none'/>
	<use xlink:href='#gpPt3' id='gpPt11' stroke='currentColor' transform='rotate(45)'/>
	<use xlink:href='#gpPt11' id='gpPt12' fill='currentColor' stroke='none'/>
	<path id='gpPt13' stroke-width='0.222' stroke='currentColor' d='M0,1.330 L1.265,0.411 L0.782,-1.067 L-0.782,-1.076 L-1.265,0.411 z'/>
	<use xlink:href='#gpPt13' id='gpPt14' fill='currentColor' stroke='none'/>
	<filter id='textbox' filterUnits='objectBoundingBox' x='0' y='0' height='1' width='1'>
	  <feFlood flood-color='white' flood-opacity='1' result='bgnd'/>
	  <feComposite in='SourceGraphic' in2='bgnd' operator='atop'/>
	</filter>
	<filter id='greybox' filterUnits='objectBoundingBox' x='0' y='0' height='1' width='1'>
	  <feFlood flood-color='lightgrey' flood-opacity='1' result='grey'/>
	  <feComposite in='SourceGraphic' in2='grey' operator='atop'/>
	</filter>
</defs>
<g fill="none" color="white" stroke="currentColor" stroke-width="1.00" stroke-linecap="butt" stroke-linejoin="miter">
</g>
<g fill="none" color="black" stroke="currentColor" stroke-width="1.00" stroke-linecap="butt" stroke-linejoin="miter">
	<path stroke='black'  d='M55.3,242.4 L64.3,242.4  '/>	<g transform="translate(47.0,246.3)" stroke="none" fill="black" font-family="Helvetica" font-size="12.00"  text-anchor="end">
		<text><tspan font-family="Helvetica" > 0</tspan></text>
	</g>
</g>
<g fill="none" color="black" stroke="currentColor" stroke-width="1.00" stroke-linecap="butt" stroke-linejoin="miter">
	<path stroke='black'  d='M55.3,210.4 L64.3,210.4  '/>	<g transform="translate(47.0,214.3)" stroke="none" fill="black" font-family="Helvetica" font-size="12.00"  text-anchor="end">
		<text><tspan font-family="Helvetica" > 1</tspan></text>
	</g>
</g>
<g fill="none" color="black" stroke="currentColor" stroke-width="1.00" stroke-linecap="butt" stroke-linejoin="miter">
	<path stroke='black'  d='M55.3,178.3 L64.3,178.3  '/>	<g transform="translate(47.0,182.2)" stroke="none" fill="black" font-family="Helvetica" font-size="12.00"  text-anchor="end">
		<text><tspan font-family="Helvetica" > 2</tspan></text>
	</g>
</g>
<g fill="none" color="black" stroke="currentColor" stroke-width="1.00" stroke-linecap="butt" stroke-linejoin="miter">
	<path stroke='black'  d='M55.3,146.3 L64.3,146.3  '/>	<g transform="translate(47.0,150.2)" stroke="none" fill="black" font-family="Helvetica" font-size="12.00"  text-anchor="end">
		<text><tspan font-family="Helvetica" > 3</tspan></text>
	</g>
</g>
<g fill="none" color="black" stroke="currentColor" stroke-width="1.00" stroke-linecap="butt" stroke-linejoin="miter">
	<path stroke='black'  d='M55.3,114.2 L64.3,114.2  '/>	<g transform="translate(47.0,118.1)" stroke="none" fill="black" font-family="Helvetica" font-size="12.00"  text-anchor="end">
		<text><tspan font-family="Helvetica" > 4</tspan></text>
	</g>
</g>
<g fill="none" color="black" stroke="currentColor" stroke-width="1.00" stroke-linecap="butt" stroke-linejoin="miter">
	<path stroke='black'  d='M55.3,82.2 L64.3,82.2  '/>	<g transform="translate(47.0,86.1)" stroke="none" fill="black" font-family="Helvetica" font-size="12.00"  text-anchor="end">
		<text><tspan font-family="Helvetica" > 5</tspan></text>
	</g>
</g>
<g fill="none" color="black" stroke="currentColor" stroke-width="1.00" stroke-linecap="butt" stroke-linejoin="miter">
	<path stroke='black'  d='M55.3,50.1 L64.3,50.1  '/>	<g transform="translate(47.0,54.0)" stroke="none" fill="black" font-family="Helvetica" font-size="12.00"  text-anchor="end">
		<text><tspan font-family="Helvetica" > 6</tspan></text>
	</g>
</g>
<g fill="none" color="black" stroke="currentColor" stroke-width="1.00" stroke-linecap="butt" stroke-linejoin="miter">
	<path stroke='black'  d='M55.3,18.1 L64.3,18.1  '/>	<g transform="translate(47.0,22.0)" stroke="none" fill="black" font-family="Helvetica" font-size="12.00"  text-anchor="end">
		<text><tspan font-family="Helvetica" > 7</tspan></text>
	</g>
</g>
<g fill="none" color="black" stroke="currentColor" stroke-width="1.00" stroke-linecap="butt" stroke-linejoin="miter">
	<path stroke='black'  d='M55.3,242.4 L55.3,233.4  '/>	<g transform="translate(55.3,264.3)" stroke="none" fill="black" font-family="Helvetica" font-size="12.00"  text-anchor="middle">
		<text><tspan font-family="Helvetica" > 60</tspan></text>
	</g>
</g>
<g fill="none" color="black" stroke="currentColor" stroke-width="1.00" stroke-linecap="butt" stroke-linejoin="miter">
	<path stroke='black'  d='M92.3,242.4 L92.3,233.4  '/>	<g transform="translate(92.3,264.3)" stroke="none" fill="black" font-family="Helvetica" font-size="12.00"  text-anchor="middle">
		<text><tspan font-family="Helvetica" > 80</tspan></text>
	</g>
</g>
<g fill="none" color="black" stroke="currentColor" stroke-width="1.00" stroke-linecap="butt" stroke-linejoin="miter">
	<path stroke='black'  d='M129.2,242.4 L129.2,233.4  '/>	<g transform="translate(129.2,264.3)" stroke="none" fill="black" font-family="Helvetica" font-size="12.00"  text-anchor="middle">
		<text><tspan font-family="Helvetica" > 100</tspan></text>
	</g>
</g>
<g fill="none" color="black" stroke="currentColor" stroke-width="1.00" stroke-linecap="butt" stroke-linejoin="miter">
	<path stroke='black'  d='M166.2,242.4 L166.2,233.4  '/>	<g transform="translate(166.2,264.3)" stroke="none" fill="black" font-family="Helvetica" font-size="12.00"  text-anchor="middle">
		<text><tspan font-family="Helvetica" > 120</tspan></text>
	</g>
</g>
<g fill="none" color="black" stroke="currentColor" stroke-width="1.00" stroke-linecap="butt" stroke-linejoin="miter">
	<path stroke='black'  d='M203.2,242.4 L203.2,233.4  '/>	<g transform="translate(203.2,264.3)" stroke="none" fill="black" font-family="Helvetica" font-size="12.00"  text-anchor="middle">
		<text><tspan font-family="Helvetica" > 140</tspan></text>
	</g>
</g>
<g fill="none" color="black" stroke="currentColor" stroke-width="1.00" stroke-linecap="butt" stroke-linejoin="miter">
	<path stroke='black'  d='M240.2,242.4 L240.2,233.4  '/>	<g transform="translate(240.2,264.3)" stroke="none" fill="black" font-family="Helvetica" font-size="12.00"  text-anchor="middle">
		<text><tspan font-family="Helvetica" > 160</tspan></text>
	</g>
</g>
<g fill="none" color="black" stroke="currentColor" stroke-width="1.00" stroke-linecap="butt" stroke-linejoin="miter">
	<path stroke='black'  d='M277.1,242.4 L277.1,233.4  '/>	<g transform="translate(277.1,264.3)" stroke="none" fill="black" font-family="Helvetica" font-size="12.00"  text-anchor="middle">
		<text><tspan font-family="Helvetica" > 180</tspan></text>
	</g>
</g>
<g fill="none" color="black" stroke="currentColor" stroke-width="1.00" stroke-linecap="butt" stroke-linejoin="miter">
	<path stroke='black'  d='M314.1,242.4 L314.1,233.4  '/>	<g transform="translate(314.1,264.3)" stroke="none" fill="black" font-family="Helvetica" font-size="12.00"  text-anchor="middle">
		<text><tspan font-family="Helvetica" > 200</tspan></text>
	</g>
</g>
<g fill="none" color="black" stroke="currentColor" stroke-width="1.00" stroke-linecap="butt" stroke-linejoin="miter">
	<path stroke='black'  d='M351.1,242.4 L351.1,233.4  '/>	<g transform="translate(351.1,264.3)" stroke="none" fill="black" font-family="Helvetica" font-size="12.00"  text-anchor="middle">
		<text><tspan font-family="Helvetica" > 220</tspan></text>
	</g>
</g>
<g fill="none" color="black" stroke="currentColor" stroke-width="1.00" stroke-linecap="butt" stroke-linejoin="miter">
	<path stroke='black'  d='M388.0,242.4 L388.0,233.4  '/>	<g transform="translate(388.0,264.3)" stroke="none" fill="black" font-family="Helvetica" font-size="12.00"  text-anchor="middle">
		<text><tspan font-family="Helvetica" > 240</tspan></text>
	</g>
</g>
<g fill="none" color="black" stroke="currentColor" stroke-width="1.00" stroke-linecap="butt" stroke-linejoin="miter">
	<path stroke='black'  d='M425.0,242.4 L425.0,233.4  '/>	<g transform="translate(425.0,264.3)" stroke="none" fill="black" font-family="Helvetica" font-size="12.00"  text-anchor="middle">
		<text><tspan font-family="Helvetica" > 260</tspan></text>
	</g>
</g>
<g fill="none" color="black" stroke="currentColor" stroke-width="1.00" stroke-linecap="butt" stroke-linejoin="miter">
</g>
<g fill="none" color="black" stroke="currentColor" stroke-width="1.00" stroke-linecap="butt" stroke-linejoin="miter">
	<path stroke='black'  d='M55.3,18.1 L55.3,242.4 L425.0,242.4 L425.0,18.1 L55.3,18.1 Z  '/></g>
<g fill="none" color="black" stroke="currentColor" stroke-width="1.00" stroke-linecap="butt" stroke-linejoin="miter">
	<g transform="translate(19.0,130.3) rotate(270)" stroke="none" fill="black" font-family="Helvetica" font-size="12.00"  text-anchor="middle">
		<text><tspan font-family="Helvetica" >Density (a.u.)</tspan></text>
	</g>
</g>
<g fill="none" color="black" stroke="currentColor" stroke-width="1.00" stroke-linecap="butt" stroke-linejoin="miter">
	<g transform="translate(240.1,291.3)" stroke="none" fill="black" font-family="Helvetica" font-size="12.00"  text-anchor="middle">
		<text><tspan font-family="Helvetica" >Average time (us)</tspan></text>
	</g>
</g>
<g fill="none" color="black" stroke="currentColor" stroke-width="1.00" stroke-linecap="butt" stroke-linejoin="miter">
</g>
	<g id="gnuplot_plot_1" ><title>Base PDF</title>
<g fill="none" color="black" stroke="currentColor" stroke-width="1.00" stroke-linecap="butt" stroke-linejoin="miter">
	<g stroke='none' shape-rendering='crispEdges'>
		<polygon fill = 'rgb(227,  26,  28)' fill-opacity = '0.500000' points = '396.8,242.4 396.8,242.4 396.8,242.4 396.9,242.4 396.9,242.4 396.9,242.4 396.9,242.4 396.9,242.4 396.9,242.4 396.9,242.3 397.0,242.3 397.0,242.3 397.0,242.3 397.0,242.3 397.0,242.3 397.0,242.3
397.0,242.3 397.1,242.2 397.1,242.2 397.1,242.2 397.1,242.2 397.1,242.2 397.1,242.1 397.1,242.1 397.2,242.1 397.2,242.0 397.2,242.0 397.2,242.0 397.2,241.9 397.2,241.9 397.2,241.9 397.3,241.8
397.3,241.8 397.3,241.8 397.3,241.7 397.3,241.7 397.3,241.6 397.3,241.6 397.4,241.6 397.4,241.5 397.4,241.5 397.4,241.5 397.4,241.5 397.4,241.4 397.4,241.4 397.5,241.4 397.5,241.4 397.5,241.4
397.5,241.4 397.5,241.4 397.5,241.4 397.5,241.4 397.6,241.4 397.6,241.4 397.6,241.4 397.6,241.4 397.6,241.4 397.6,241.5 397.6,241.5 397.7,241.5 397.7,241.5 397.7,241.6 397.7,241.6 397.7,241.6
397.7,241.6 397.7,241.7 397.8,241.7 397.8,241.7 397.8,241.7 397.8,241.7 397.8,241.7 397.8,241.7 397.8,241.7 397.9,241.7 397.9,241.7 397.9,241.7 397.9,241.7 397.9,241.7 397.9,241.7 397.9,241.7
398.0,241.7 398.0,241.7 398.0,241.6 398.0,241.6 398.0,241.6 398.0,241.6 398.0,241.5 398.1,241.5 398.1,241.5 398.1,241.5 398.1,241.4 398.1,241.4 398.1,241.4 398.1,241.4 398.2,241.4 398.2,241.4
398.2,241.4 398.2,241.4 398.2,241.4 398.2,241.4 398.2,241.4 398.3,241.4 398.3,241.4 398.3,241.4 398.3,241.5 398.3,241.5 398.3,241.5 398.3,241.5 398.4,241.6 398.4,241.6 398.4,241.6 398.4,241.7
398.4,241.7 398.4,241.8 398.4,241.8 398.5,241.8 398.5,241.9 398.5,241.9 398.5,241.9 398.5,242.0 398.5,242.0 398.5,242.0 398.6,242.1 398.6,242.1 398.6,242.1 398.6,242.2 398.6,242.2 398.6,242.2
398.6,242.2 398.7,242.2 398.7,242.3 398.7,242.3 398.7,242.3 398.7,242.3 398.7,242.3 398.7,242.3 398.8,242.3 398.8,242.3 398.8,242.3 398.8,242.3 398.8,242.3 398.8,242.3 398.8,242.3 398.9,242.3
398.9,242.3 398.9,242.2 398.9,242.2 398.9,242.2 398.9,242.2 398.9,242.1 399.0,242.1 399.0,242.0 399.0,242.0 399.0,241.9 399.0,241.9 399.0,241.8 399.0,241.7 399.1,241.6 399.1,241.6 399.1,241.5
399.1,241.3 399.1,241.2 399.1,241.1 399.1,240.9 399.2,240.8 399.2,240.6 399.2,240.4 399.2,240.2 399.2,240.0 399.2,239.8 399.2,239.5 399.3,239.2 399.3,238.9 399.3,238.6 399.3,238.2 399.3,237.8
399.3,237.4 399.3,237.0 399.4,236.5 399.4,236.0 399.4,235.4 399.4,234.8 399.4,234.2 399.4,233.5 399.4,232.7 399.5,231.9 399.5,231.0 399.5,230.1 399.5,229.1 399.5,228.0 399.5,226.9 399.5,225.7
399.6,224.4 399.6,223.1 399.6,221.7 399.6,220.2 399.6,218.6 399.6,217.0 399.6,215.3 399.7,213.5 399.7,211.7 399.7,209.8 399.7,207.8 399.7,205.9 399.7,203.8 399.7,201.8 399.8,199.7 399.8,197.6
399.8,195.6 399.8,193.5 399.8,191.5 399.8,189.5 399.8,187.5 399.9,185.6 399.9,183.8 399.9,182.0 399.9,180.4 399.9,178.8 399.9,177.4 399.9,176.1 400.0,174.9 400.0,173.9 400.0,173.0 400.0,172.3
400.0,171.8 400.0,171.4 400.0,171.2 400.1,171.1 400.1,171.2 400.1,171.5 400.1,172.0 400.1,172.6 400.1,173.4 400.1,174.3 400.2,175.4 400.2,176.6 400.2,177.9 400.2,179.4 400.2,180.9 400.2,182.6
400.2,184.3 400.3,186.1 400.3,188.0 400.3,189.9 400.3,191.9 400.3,193.9 400.3,195.9 400.3,197.9 400.4,199.9 400.4,201.9 400.4,203.9 400.4,205.8 400.4,207.7 400.4,209.6 400.4,211.4 400.5,213.1
400.5,214.8 400.5,216.4 400.5,217.9 400.5,219.4 400.5,220.8 400.5,222.1 400.6,223.4 400.6,224.6 400.6,225.7 400.6,226.7 400.6,227.7 400.6,228.6 400.6,229.4 400.7,230.2 400.7,230.9 400.7,231.6
400.7,232.2 400.7,232.8 400.7,233.3 400.7,233.8 400.8,234.2 400.8,234.6 400.8,234.9 400.8,235.3 400.8,235.5 400.8,235.8 400.8,236.0 400.9,236.3 400.9,236.4 400.9,236.6 400.9,236.8 400.9,236.9
400.9,237.0 401.0,237.2 401.0,237.3 401.0,237.4 401.0,237.5 401.0,237.5 401.0,237.6 401.0,237.7 401.1,237.8 401.1,237.8 401.1,237.9 401.1,238.0 401.1,238.1 401.1,238.1 401.1,238.2 401.2,238.3
401.2,238.3 401.2,238.4 401.2,238.5 401.2,238.5 401.2,238.6 401.2,238.7 401.3,238.8 401.3,238.9 401.3,239.0 401.3,239.1 401.3,239.2 401.3,239.3 401.3,239.4 401.4,239.5 401.4,239.6 401.4,239.7
401.4,239.8 401.4,239.9 401.4,240.0 401.4,240.1 401.5,240.2 401.5,240.4 401.5,240.5 401.5,240.6 401.5,240.7 401.5,240.8 401.5,240.9 401.6,241.0 401.6,241.1 401.6,241.2 401.6,241.3 401.6,241.4
401.6,241.5 401.6,241.5 401.7,241.6 401.7,241.7 401.7,241.8 401.7,241.8 401.7,241.9 401.7,241.9 401.7,242.0 401.8,242.0 401.8,242.1 401.8,242.1 401.8,242.1 401.8,242.2 401.8,242.2 401.8,242.2
401.9,242.3 401.9,242.3 401.9,242.3 401.9,242.3 401.9,242.3 401.9,242.3 401.9,242.3 402.0,242.4 402.0,242.4 402.0,242.4 402.0,242.4 402.0,242.4 402.0,242.4 402.0,242.4 402.1,242.4 402.1,242.4
402.1,242.4 402.1,242.4 402.1,242.4 402.1,242.4 402.1,242.4 402.2,242.4 402.2,242.4 402.2,242.4 402.2,242.4 402.2,242.4 402.2,242.4 402.2,242.4 402.3,242.4 402.3,242.4 402.3,242.4 402.3,242.4
402.3,242.4 402.3,242.4 402.3,242.4 402.4,242.4 402.4,242.4 402.4,242.4 402.4,242.4 402.4,242.4 402.4,242.4 402.4,242.4 402.5,242.4 402.5,242.4 402.5,242.4 402.5,242.4 402.5,242.4 402.5,242.4
402.5,242.4 402.6,242.4 402.6,242.4 402.6,242.4 402.6,242.4 402.6,242.4 402.6,242.4 402.6,242.4 402.7,242.4 402.7,242.4 402.7,242.4 402.7,242.3 402.7,242.3 402.7,242.3 402.7,242.3 402.8,242.3
402.8,242.3 402.8,242.3 402.8,242.3 402.8,242.2 402.8,242.2 402.8,242.2 402.9,242.2 402.9,242.2 402.9,242.1 402.9,242.1 402.9,242.1 402.9,242.0 402.9,242.0 403.0,242.0 403.0,241.9 403.0,241.9
403.0,241.9 403.0,241.8 403.0,241.8 403.0,241.7 403.1,241.7 403.1,241.7 403.1,241.6 403.1,241.6 403.1,241.6 403.1,241.5 403.1,241.5 403.2,241.5 403.2,241.5 403.2,241.4 403.2,241.4 403.2,241.4
403.2,241.4 403.2,241.4 403.3,241.4 403.3,241.4 403.3,241.4 403.3,241.4 403.3,241.4 403.3,241.4 403.3,241.4 403.4,241.5 403.4,241.5 403.4,241.5 403.4,241.5 403.4,241.6 403.4,241.6 403.4,241.7
403.5,241.7 403.5,241.7 403.5,241.8 403.5,241.8 403.5,241.8 403.5,241.9 403.5,241.9 403.6,241.9 403.6,242.0 403.6,242.0 403.6,242.0 403.6,242.1 403.6,242.1 403.6,242.1 403.7,242.2 403.7,242.2
403.7,242.2 403.7,242.2 403.7,242.2 403.7,242.3 403.7,242.3 403.8,242.3 403.8,242.3 403.8,242.3 403.8,242.3 403.8,242.3 403.8,242.3 403.8,242.4 403.9,242.4 403.9,242.4 403.9,242.4 403.9,242.4
403.9,242.4 403.9,242.4 403.9,242.4 404.0,242.4 404.0,242.4 403.9,242.4 403.9,242.4 403.9,242.4 403.9,242.4 403.9,242.4 403.9,242.4 403.9,242.4 403.8,242.4 403.8,242.4 403.8,242.4 403.8,242.4
403.8,242.4 403.8,242.4 403.8,242.4 403.7,242.4 403.7,242.4 403.7,242.4 403.7,242.4 403.7,242.4 403.7,242.4 403.7,242.4 403.6,242.4 403.6,242.4 403.6,242.4 403.6,242.4 403.6,242.4 403.6,242.4
403.6,242.4 403.5,242.4 403.5,242.4 403.5,242.4 403.5,242.4 403.5,242.4 403.5,242.4 403.5,242.4 403.4,242.4 403.4,242.4 403.4,242.4 403.4,242.4 403.4,242.4 403.4,242.4 403.4,242.4 403.3,242.4
403.3,242.4 403.3,242.4 403.3,242.4 403.3,242.4 403.3,242.4 403.3,242.4 403.2,242.4 403.2,242.4 403.2,242.4 403.2,242.4 403.2,242.4 403.2,242.4 403.2,242.4 403.1,242.4 403.1,242.4 403.1,242.4
403.1,242.4 403.1,242.4 403.1,242.4 403.1,242.4 403.0,242.4 403.0,242.4 403.0,242.4 403.0,242.4 403.0,242.4 403.0,242.4 403.0,242.4 402.9,242.4 402.9,242.4 402.9,242.4 402.9,242.4 402.9,242.4
402.9,242.4 402.9,242.4 402.8,242.4 402.8,242.4 402.8,242.4 402.8,242.4 402.8,242.4 402.8,242.4 402.8,242.4 402.7,242.4 402.7,242.4 402.7,242.4 402.7,242.4 402.7,242.4 402.7,242.4 402.7,242.4
402.6,242.4 402.6,242.4 402.6,242.4 402.6,242.4 402.6,242.4 402.6,242.4 402.6,242.4 402.5,242.4 402.5,242.4 402.5,242.4 402.5,242.4 402.5,242.4 402.5,242.4 402.5,242.4 402.4,242.4 402.4,242.4
402.4,242.4 402.4,242.4 402.4,242.4 402.4,242.4 402.4,242.4 402.3,242.4 402.3,242.4 402.3,242.4 402.3,242.4 402.3,242.4 402.3,242.4 402.3,242.4 402.2,242.4 402.2,242.4 402.2,242.4 402.2,242.4
402.2,242.4 402.2,242.4 402.2,242.4 402.1,242.4 402.1,242.4 402.1,242.4 402.1,242.4 402.1,242.4 402.1,242.4 402.1,242.4 402.0,242.4 402.0,242.4 402.0,242.4 402.0,242.4 402.0,242.4 402.0,242.4
402.0,242.4 401.9,242.4 401.9,242.4 401.9,242.4 401.9,242.4 401.9,242.4 401.9,242.4 401.9,242.4 401.8,242.4 401.8,242.4 401.8,242.4 401.8,242.4 401.8,242.4 401.8,242.4 401.8,242.4 401.7,242.4
401.7,242.4 401.7,242.4 401.7,242.4 401.7,242.4 401.7,242.4 401.7,242.4 401.6,242.4 401.6,242.4 401.6,242.4 401.6,242.4 401.6,242.4 401.6,242.4 401.6,242.4 401.5,242.4 401.5,242.4 401.5,242.4
401.5,242.4 401.5,242.4 401.5,242.4 401.5,242.4 401.4,242.4 401.4,242.4 401.4,242.4 401.4,242.4 401.4,242.4 401.4,242.4 401.4,242.4 401.3,242.4 401.3,242.4 401.3,242.4 401.3,242.4 401.3,242.4
401.3,242.4 401.3,242.4 401.2,242.4 401.2,242.4 401.2,242.4 401.2,242.4 401.2,242.4 401.2,242.4 401.2,242.4 401.1,242.4 401.1,242.4 401.1,242.4 401.1,242.4 401.1,242.4 401.1,242.4 401.1,242.4
401.0,242.4 401.0,242.4 401.0,242.4 401.0,242.4 401.0,242.4 401.0,242.4 401.0,242.4 400.9,242.4 400.9,242.4 400.9,242.4 400.9,242.4 400.9,242.4 400.9,242.4 400.8,242.4 400.8,242.4 400.8,242.4
400.8,242.4 400.8,242.4 400.8,242.4 400.8,242.4 400.7,242.4 400.7,242.4 400.7,242.4 400.7,242.4 400.7,242.4 400.7,242.4 400.7,242.4 400.6,242.4 400.6,242.4 400.6,242.4 400.6,242.4 400.6,242.4
400.6,242.4 400.6,242.4 400.5,242.4 400.5,242.4 400.5,242.4 400.5,242.4 400.5,242.4 400.5,242.4 400.5,242.4 400.4,242.4 400.4,242.4 400.4,242.4 400.4,242.4 400.4,242.4 400.4,242.4 400.4,242.4
400.3,242.4 400.3,242.4 400.3,242.4 400.3,242.4 400.3,242.4 400.3,242.4 400.3,242.4 400.2,242.4 400.2,242.4 400.2,242.4 400.2,242.4 400.2,242.4 400.2,242.4 400.2,242.4 400.1,242.4 400.1,242.4
400.1,242.4 400.1,242.4 400.1,242.4 400.1,242.4 400.1,242.4 400.0,242.4 400.0,242.4 400.0,242.4 400.0,242.4 400.0,242.4 400.0,242.4 400.0,242.4 399.9,242.4 399.9,242.4 399.9,242.4 399.9,242.4
399.9,242.4 399.9,242.4 399.9,242.4 399.8,242.4 399.8,242.4 399.8,242.4 399.8,242.4 399.8,242.4 399.8,242.4 399.8,242.4 399.7,242.4 399.7,242.4 399.7,242.4 399.7,242.4 399.7,242.4 399.7,242.4
399.7,242.4 399.6,242.4 399.6,242.4 399.6,242.4 399.6,242.4 399.6,242.4 399.6,242.4 399.6,242.4 399.5,242.4 399.5,242.4 399.5,242.4 399.5,242.4 399.5,242.4 399.5,242.4 399.5,242.4 399.4,242.4
399.4,242.4 399.4,242.4 399.4,242.4 399.4,242.4 399.4,242.4 399.4,242.4 399.3,242.4 399.3,242.4 399.3,242.4 399.3,242.4 399.3,242.4 399.3,242.4 399.3,242.4 399.2,242.4 399.2,242.4 399.2,242.4
399.2,242.4 399.2,242.4 399.2,242.4 399.2,242.4 399.1,242.4 399.1,242.4 399.1,242.4 399.1,242.4 399.1,242.4 399.1,242.4 399.1,242.4 399.0,242.4 399.0,242.4 399.0,242.4 399.0,242.4 399.0,242.4
399.0,242.4 399.0,242.4 398.9,242.4 398.9,242.4 398.9,242.4 398.9,242.4 398.9,242.4 398.9,242.4 398.9,242.4 398.8,242.4 398.8,242.4 398.8,242.4 398.8,242.4 398.8,242.4 398.8,242.4 398.8,242.4
398.7,242.4 398.7,242.4 398.7,242.4 398.7,242.4 398.7,242.4 398.7,242.4 398.7,242.4 398.6,242.4 398.6,242.4 398.6,242.4 398.6,242.4 398.6,242.4 398.6,242.4 398.6,242.4 398.5,242.4 398.5,242.4
398.5,242.4 398.5,242.4 398.5,242.4 398.5,242.4 398.5,242.4 398.4,242.4 398.4,242.4 398.4,242.4 398.4,242.4 398.4,242.4 398.4,242.4 398.4,242.4 398.3,242.4 398.3,242.4 398.3,242.4 398.3,242.4
398.3,242.4 398.3,242.4 398.3,242.4 398.2,242.4 398.2,242.4 398.2,242.4 398.2,242.4 398.2,242.4 398.2,242.4 398.2,242.4 398.1,242.4 398.1,242.4 398.1,242.4 398.1,242.4 398.1,242.4 398.1,242.4
398.1,242.4 398.0,242.4 398.0,242.4 398.0,242.4 398.0,242.4 398.0,242.4 398.0,242.4 398.0,242.4 397.9,242.4 397.9,242.4 397.9,242.4 397.9,242.4 397.9,242.4 397.9,242.4 397.9,242.4 397.8,242.4
397.8,242.4 397.8,242.4 397.8,242.4 397.8,242.4 397.8,242.4 397.8,242.4 397.7,242.4 397.7,242.4 397.7,242.4 397.7,242.4 397.7,242.4 397.7,242.4 397.7,242.4 397.6,242.4 397.6,242.4 397.6,242.4
397.6,242.4 397.6,242.4 397.6,242.4 397.6,242.4 397.5,242.4 397.5,242.4 397.5,242.4 397.5,242.4 397.5,242.4 397.5,242.4 397.5,242.4 397.4,242.4 397.4,242.4 397.4,242.4 397.4,242.4 397.4,242.4
397.4,242.4 397.4,242.4 397.3,242.4 397.3,242.4 397.3,242.4 397.3,242.4 397.3,242.4 397.3,242.4 397.3,242.4 397.2,242.4 397.2,242.4 397.2,242.4 397.2,242.4 397.2,242.4 397.2,242.4 397.2,242.4
397.1,242.4 397.1,242.4 397.1,242.4 397.1,242.4 397.1,242.4 397.1,242.4 397.1,242.4 397.0,242.4 397.0,242.4 397.0,242.4 397.0,242.4 397.0,242.4 397.0,242.4 397.0,242.4 396.9,242.4 396.9,242.4
396.9,242.4 396.9,242.4 396.9,242.4 396.9,242.4 396.9,242.4 396.8,242.4 396.8,242.4 396.8,242.4 '/>
	</g>
</g>
	</g>
	<g id="gnuplot_plot_2" ><title>Base Mean</title>
<g fill="none" color="white" stroke="rgb(227,  26,  28)" stroke-width="2.00" stroke-linecap="butt" stroke-linejoin="miter">
</g>
<g fill="none" color="black" stroke="currentColor" stroke-width="2.00" stroke-linecap="butt" stroke-linejoin="miter">
	<path stroke='rgb(227,  26,  28)'  d='M400.1,242.4 L400.1,171.9  '/></g>
	</g>
	<g id="gnuplot_plot_3" ><title>New PDF</title>
<g fill="none" color="white" stroke="rgb(227,  26,  28)" stroke-width="1.00" stroke-linecap="butt" stroke-linejoin="miter">
</g>
<g fill="none" color="black" stroke="currentColor" stroke-width="1.00" stroke-linecap="butt" stroke-linejoin="miter">
	<g stroke='none' shape-rendering='crispEdges'>
		<polygon fill = 'rgb( 31, 120, 180)' fill-opacity = '0.500000' points = '79.2,242.4 79.2,242.4 79.2,242.3 79.2,242.3 79.2,242.3 79.2,242.3 79.2,242.3 79.2,242.3 79.2,242.3 79.2,242.3 79.2,242.3 79.2,242.2 79.2,242.2 79.2,242.2 79.2,242.2 79.2,242.1
79.2,242.1 79.2,242.1 79.2,242.1 79.2,242.0 79.2,242.0 79.2,241.9 79.2,241.9 79.2,241.8 79.2,241.8 79.3,241.7 79.3,241.7 79.3,241.6 79.3,241.5 79.3,241.5 79.3,241.4 79.3,241.3
79.3,241.2 79.3,241.1 79.3,241.0 79.3,240.9 79.3,240.8 79.3,240.7 79.3,240.6 79.3,240.5 79.3,240.4 79.3,240.3 79.3,240.1 79.3,240.0 79.3,239.8 79.3,239.7 79.3,239.6 79.3,239.4
79.3,239.3 79.3,239.1 79.3,238.9 79.3,238.8 79.3,238.6 79.3,238.4 79.3,238.3 79.3,238.1 79.3,237.9 79.3,237.7 79.3,237.6 79.3,237.4 79.3,237.2 79.4,237.0 79.4,236.8 79.4,236.6
79.4,236.4 79.4,236.2 79.4,236.0 79.4,235.8 79.4,235.6 79.4,235.4 79.4,235.2 79.4,235.0 79.4,234.7 79.4,234.5 79.4,234.3 79.4,234.0 79.4,233.7 79.4,233.5 79.4,233.2 79.4,232.8
79.4,232.5 79.4,232.2 79.4,231.8 79.4,231.4 79.4,231.0 79.4,230.6 79.4,230.1 79.4,229.7 79.4,229.1 79.4,228.6 79.4,228.0 79.4,227.4 79.4,226.7 79.4,226.0 79.4,225.3 79.4,224.5
79.5,223.7 79.5,222.8 79.5,221.9 79.5,220.9 79.5,219.9 79.5,218.8 79.5,217.7 79.5,216.5 79.5,215.3 79.5,214.0 79.5,212.6 79.5,211.2 79.5,209.8 79.5,208.3 79.5,206.7 79.5,205.1
79.5,203.4 79.5,201.7 79.5,200.0 79.5,198.2 79.5,196.3 79.5,194.5 79.5,192.5 79.5,190.6 79.5,188.7 79.5,186.7 79.5,184.7 79.5,182.7 79.5,180.7 79.5,178.7 79.5,176.7 79.5,174.7
79.5,172.7 79.5,170.8 79.5,168.9 79.5,167.0 79.6,165.2 79.6,163.5 79.6,161.8 79.6,160.1 79.6,158.6 79.6,157.1 79.6,155.7 79.6,154.4 79.6,153.2 79.6,152.1 79.6,151.1 79.6,150.2
79.6,149.4 79.6,148.8 79.6,148.2 79.6,147.8 79.6,147.5 79.6,147.4 79.6,147.3 79.6,147.4 79.6,147.6 79.6,147.9 79.6,148.4 79.6,148.9 79.6,149.6 79.6,150.3 79.6,151.2 79.6,152.1
79.6,153.2 79.6,154.3 79.6,155.5 79.6,156.7 79.6,158.0 79.6,159.4 79.6,160.8 79.6,162.2 79.7,163.6 79.7,165.0 79.7,166.4 79.7,167.8 79.7,169.1 79.7,170.4 79.7,171.7 79.7,172.9
79.7,174.0 79.7,175.0 79.7,176.0 79.7,176.8 79.7,177.5 79.7,178.1 79.7,178.5 79.7,178.8 79.7,179.0 79.7,178.9 79.7,178.8 79.7,178.4 79.7,177.8 79.7,177.1 79.7,176.2 79.7,175.0
79.7,173.7 79.7,172.2 79.7,170.5 79.7,168.5 79.7,166.4 79.7,164.1 79.7,161.5 79.7,158.8 79.7,155.9 79.7,152.8 79.7,149.5 79.7,146.1 79.8,142.5 79.8,138.7 79.8,134.8 79.8,130.8
79.8,126.6 79.8,122.4 79.8,118.1 79.8,113.7 79.8,109.2 79.8,104.7 79.8,100.2 79.8,95.7 79.8,91.2 79.8,86.8 79.8,82.3 79.8,78.0 79.8,73.7 79.8,69.6 79.8,65.6 79.8,61.7
79.8,58.0 79.8,54.5 79.8,51.1 79.8,48.0 79.8,45.1 79.8,42.5 79.8,40.1 79.8,37.9 79.8,36.1 79.8,34.5 79.8,33.2 79.8,32.2 79.8,31.5 79.8,31.1 79.8,31.0 79.8,31.2
79.9,31.7 79.9,32.5 79.9,33.6 79.9,35.0 79.9,36.7 79.9,38.6 79.9,40.9 79.9,43.3 79.9,46.1 79.9,49.0 79.9,52.2 79.9,55.5 79.9,59.1 79.9,62.8 79.9,66.7 79.9,70.8
79.9,74.9 79.9,79.2 79.9,83.6 79.9,88.0 79.9,92.6 79.9,97.1 79.9,101.7 79.9,106.4 79.9,111.0 79.9,115.6 79.9,120.2 79.9,124.8 79.9,129.3 79.9,133.8 79.9,138.2 79.9,142.6
79.9,146.8 79.9,151.0 79.9,155.1 79.9,159.1 80.0,162.9 80.0,166.7 80.0,170.3 80.0,173.9 80.0,177.3 80.0,180.6 80.0,183.7 80.0,186.8 80.0,189.7 80.0,192.5 80.0,195.2 80.0,197.8
80.0,200.2 80.0,202.5 80.0,204.7 80.0,206.8 80.0,208.8 80.0,210.7 80.0,212.5 80.0,214.2 80.0,215.8 80.0,217.3 80.0,218.7 80.0,220.0 80.0,221.3 80.0,222.4 80.0,223.5 80.0,224.6
80.0,225.5 80.0,226.4 80.0,227.3 80.0,228.0 80.0,228.8 80.0,229.5 80.0,230.1 80.0,230.7 80.1,231.2 80.1,231.8 80.1,232.2 80.1,232.7 80.1,233.1 80.1,233.5 80.1,233.9 80.1,234.2
80.1,234.5 80.1,234.8 80.1,235.1 80.1,235.4 80.1,235.7 80.1,235.9 80.1,236.1 80.1,236.4 80.1,236.6 80.1,236.8 80.1,237.0 80.1,237.2 80.1,237.3 80.1,237.5 80.1,237.7 80.1,237.9
80.1,238.0 80.1,238.2 80.1,238.3 80.1,238.5 80.1,238.7 80.1,238.8 80.1,238.9 80.1,239.1 80.1,239.2 80.1,239.4 80.1,239.5 80.1,239.6 80.2,239.8 80.2,239.9 80.2,240.0 80.2,240.1
80.2,240.3 80.2,240.4 80.2,240.5 80.2,240.6 80.2,240.7 80.2,240.8 80.2,240.9 80.2,241.0 80.2,241.1 80.2,241.2 80.2,241.2 80.2,241.3 80.2,241.4 80.2,241.4 80.2,241.5 80.2,241.6
80.2,241.6 80.2,241.7 80.2,241.7 80.2,241.7 80.2,241.8 80.2,241.8 80.2,241.8 80.2,241.8 80.2,241.9 80.2,241.9 80.2,241.9 80.2,241.9 80.2,241.9 80.2,241.9 80.2,241.9 80.2,241.8
80.3,241.8 80.3,241.8 80.3,241.8 80.3,241.7 80.3,241.7 80.3,241.7 80.3,241.6 80.3,241.6 80.3,241.5 80.3,241.4 80.3,241.4 80.3,241.3 80.3,241.2 80.3,241.2 80.3,241.1 80.3,241.0
80.3,240.9 80.3,240.8 80.3,240.7 80.3,240.7 80.3,240.6 80.3,240.5 80.3,240.4 80.3,240.3 80.3,240.2 80.3,240.1 80.3,240.0 80.3,239.9 80.3,239.8 80.3,239.7 80.3,239.6 80.3,239.5
80.3,239.4 80.3,239.3 80.3,239.2 80.4,239.1 80.4,239.1 80.4,239.0 80.4,238.9 80.4,238.9 80.4,238.8 80.4,238.8 80.4,238.7 80.4,238.7 80.4,238.7 80.4,238.7 80.4,238.7 80.4,238.7
80.4,238.7 80.4,238.7 80.4,238.7 80.4,238.7 80.4,238.7 80.4,238.8 80.4,238.8 80.4,238.9 80.4,238.9 80.4,239.0 80.4,239.1 80.4,239.1 80.4,239.2 80.4,239.3 80.4,239.4 80.4,239.5
80.4,239.6 80.4,239.7 80.4,239.8 80.4,239.9 80.4,240.0 80.4,240.1 80.4,240.2 80.5,240.3 80.5,240.4 80.5,240.5 80.5,240.6 80.5,240.7 80.5,240.7 80.5,240.8 80.5,240.9 80.5,241.0
80.5,241.1 80.5,241.2 80.5,241.3 80.5,241.3 80.5,241.4 80.5,241.5 80.5,241.5 80.5,241.6 80.5,241.7 80.5,241.7 80.5,241.8 80.5,241.8 80.5,241.9 80.5,241.9 80.5,242.0 80.5,242.0
80.5,242.0 80.5,242.1 80.5,242.1 80.5,242.1 80.5,242.2 80.5,242.2 80.5,242.2 80.5,242.2 80.5,242.2 80.5,242.3 80.5,242.3 80.6,242.3 80.6,242.3 80.6,242.3 80.6,242.3 80.6,242.3
80.6,242.3 80.6,242.3 80.6,242.4 80.6,242.4 80.6,242.4 80.6,242.4 80.6,242.4 80.6,242.4 80.6,242.4 80.6,242.4 80.6,242.4 80.6,242.4 80.6,242.4 80.5,242.4 80.5,242.4 80.5,242.4
80.5,242.4 80.5,242.4 80.5,242.4 80.5,242.4 80.5,242.4 80.5,242.4 80.5,242.4 80.5,242.4 80.5,242.4 80.5,242.4 80.5,242.4 80.5,242.4 80.5,242.4 80.5,242.4 80.5,242.4 80.5,242.4
80.5,242.4 80.5,242.4 80.5,242.4 80.5,242.4 80.5,242.4 80.5,242.4 80.5,242.4 80.5,242.4 80.5,242.4 80.5,242.4 80.5,242.4 80.5,242.4 80.5,242.4 80.5,242.4 80.5,242.4 80.5,242.4
80.5,242.4 80.4,242.4 80.4,242.4 80.4,242.4 80.4,242.4 80.4,242.4 80.4,242.4 80.4,242.4 80.4,242.4 80.4,242.4 80.4,242.4 80.4,242.4 80.4,242.4 80.4,242.4 80.4,242.4 80.4,242.4
80.4,242.4 80.4,242.4 80.4,242.4 80.4,242.4 80.4,242.4 80.4,242.4 80.4,242.4 80.4,242.4 80.4,242.4 80.4,242.4 80.4,242.4 80.4,242.4 80.4,242.4 80.4,242.4 80.4,242.4 80.4,242.4
80.4,242.4 80.4,242.4 80.4,242.4 80.4,242.4 80.4,242.4 80.3,242.4 80.3,242.4 80.3,242.4 80.3,242.4 80.3,242.4 80.3,242.4 80.3,242.4 80.3,242.4 80.3,242.4 80.3,242.4 80.3,242.4
80.3,242.4 80.3,242.4 80.3,242.4 80.3,242.4 80.3,242.4 80.3,242.4 80.3,242.4 80.3,242.4 80.3,242.4 80.3,242.4 80.3,242.4 80.3,242.4 80.3,242.4 80.3,242.4 80.3,242.4 80.3,242.4
80.3,242.4 80.3,242.4 80.3,242.4 80.3,242.4 80.3,242.4 80.3,242.4 80.3,242.4 80.3,242.4 80.2,242.4 80.2,242.4 80.2,242.4 80.2,242.4 80.2,242.4 80.2,242.4 80.2,242.4 80.2,242.4
80.2,242.4 80.2,242.4 80.2,242.4 80.2,242.4 80.2,242.4 80.2,242.4 80.2,242.4 80.2,242.4 80.2,242.4 80.2,242.4 80.2,242.4 80.2,242.4 80.2,242.4 80.2,242.4 80.2,242.4 80.2,242.4
80.2,242.4 80.2,242.4 80.2,242.4 80.2,242.4 80.2,242.4 80.2,242.4 80.2,242.4 80.2,242.4 80.2,242.4 80.2,242.4 80.2,242.4 80.2,242.4 80.1,242.4 80.1,242.4 80.1,242.4 80.1,242.4
80.1,242.4 80.1,242.4 80.1,242.4 80.1,242.4 80.1,242.4 80.1,242.4 80.1,242.4 80.1,242.4 80.1,242.4 80.1,242.4 80.1,242.4 80.1,242.4 80.1,242.4 80.1,242.4 80.1,242.4 80.1,242.4
80.1,242.4 80.1,242.4 80.1,242.4 80.1,242.4 80.1,242.4 80.1,242.4 80.1,242.4 80.1,242.4 80.1,242.4 80.1,242.4 80.1,242.4 80.1,242.4 80.1,242.4 80.1,242.4 80.1,242.4 80.1,242.4
80.0,242.4 80.0,242.4 80.0,242.4 80.0,242.4 80.0,242.4 80.0,242.4 80.0,242.4 80.0,242.4 80.0,242.4 80.0,242.4 80.0,242.4 80.0,242.4 80.0,242.4 80.0,242.4 80.0,242.4 80.0,242.4
80.0,242.4 80.0,242.4 80.0,242.4 80.0,242.4 80.0,242.4 80.0,242.4 80.0,242.4 80.0,242.4 80.0,242.4 80.0,242.4 80.0,242.4 80.0,242.4 80.0,242.4 80.0,242.4 80.0,242.4 80.0,242.4
80.0,242.4 80.0,242.4 80.0,242.4 80.0,242.4 79.9,242.4 79.9,242.4 79.9,242.4 79.9,242.4 79.9,242.4 79.9,242.4 79.9,242.4 79.9,242.4 79.9,242.4 79.9,242.4 79.9,242.4 79.9,242.4
79.9,242.4 79.9,242.4 79.9,242.4 79.9,242.4 79.9,242.4 79.9,242.4 79.9,242.4 79.9,242.4 79.9,242.4 79.9,242.4 79.9,242.4 79.9,242.4 79.9,242.4 79.9,242.4 79.9,242.4 79.9,242.4
79.9,242.4 79.9,242.4 79.9,242.4 79.9,242.4 79.9,242.4 79.9,242.4 79.9,242.4 79.9,242.4 79.8,242.4 79.8,242.4 79.8,242.4 79.8,242.4 79.8,242.4 79.8,242.4 79.8,242.4 79.8,242.4
79.8,242.4 79.8,242.4 79.8,242.4 79.8,242.4 79.8,242.4 79.8,242.4 79.8,242.4 79.8,242.4 79.8,242.4 79.8,242.4 79.8,242.4 79.8,242.4 79.8,242.4 79.8,242.4 79.8,242.4 79.8,242.4
79.8,242.4 79.8,242.4 79.8,242.4 79.8,242.4 79.8,242.4 79.8,242.4 79.8,242.4 79.8,242.4 79.8,242.4 79.8,242.4 79.8,242.4 79.8,242.4 79.7,242.4 79.7,242.4 79.7,242.4 79.7,242.4
79.7,242.4 79.7,242.4 79.7,242.4 79.7,242.4 79.7,242.4 79.7,242.4 79.7,242.4 79.7,242.4 79.7,242.4 79.7,242.4 79.7,242.4 79.7,242.4 79.7,242.4 79.7,242.4 79.7,242.4 79.7,242.4
79.7,242.4 79.7,242.4 79.7,242.4 79.7,242.4 79.7,242.4 79.7,242.4 79.7,242.4 79.7,242.4 79.7,242.4 79.7,242.4 79.7,242.4 79.7,242.4 79.7,242.4 79.7,242.4 79.7,242.4 79.7,242.4
79.6,242.4 79.6,242.4 79.6,242.4 79.6,242.4 79.6,242.4 79.6,242.4 79.6,242.4 79.6,242.4 79.6,242.4 79.6,242.4 79.6,242.4 79.6,242.4 79.6,242.4 79.6,242.4 79.6,242.4 79.6,242.4
79.6,242.4 79.6,242.4 79.6,242.4 79.6,242.4 79.6,242.4 79.6,242.4 79.6,242.4 79.6,242.4 79.6,242.4 79.6,242.4 79.6,242.4 79.6,242.4 79.6,242.4 79.6,242.4 79.6,242.4 79.6,242.4
79.6,242.4 79.6,242.4 79.6,242.4 79.6,242.4 79.5,242.4 79.5,242.4 79.5,242.4 79.5,242.4 79.5,242.4 79.5,242.4 79.5,242.4 79.5,242.4 79.5,242.4 79.5,242.4 79.5,242.4 79.5,242.4
79.5,242.4 79.5,242.4 79.5,242.4 79.5,242.4 79.5,242.4 79.5,242.4 79.5,242.4 79.5,242.4 79.5,242.4 79.5,242.4 79.5,242.4 79.5,242.4 79.5,242.4 79.5,242.4 79.5,242.4 79.5,242.4
79.5,242.4 79.5,242.4 79.5,242.4 79.5,242.4 79.5,242.4 79.5,242.4 79.5,242.4 79.5,242.4 79.4,242.4 79.4,242.4 79.4,242.4 79.4,242.4 79.4,242.4 79.4,242.4 79.4,242.4 79.4,242.4
79.4,242.4 79.4,242.4 79.4,242.4 79.4,242.4 79.4,242.4 79.4,242.4 79.4,242.4 79.4,242.4 79.4,242.4 79.4,242.4 79.4,242.4 79.4,242.4 79.4,242.4 79.4,242.4 79.4,242.4 79.4,242.4
79.4,242.4 79.4,242.4 79.4,242.4 79.4,242.4 79.4,242.4 79.4,242.4 79.4,242.4 79.4,242.4 79.4,242.4 79.4,242.4 79.4,242.4 79.3,242.4 79.3,242.4 79.3,242.4 79.3,242.4 79.3,242.4
79.3,242.4 79.3,242.4 79.3,242.4 79.3,242.4 79.3,242.4 79.3,242.4 79.3,242.4 79.3,242.4 79.3,242.4 79.3,242.4 79.3,242.4 79.3,242.4 79.3,242.4 79.3,242.4 79.3,242.4 79.3,242.4
79.3,242.4 79.3,242.4 79.3,242.4 79.3,242.4 79.3,242.4 79.3,242.4 79.3,242.4 79.3,242.4 79.3,242.4 79.3,242.4 79.3,242.4 79.3,242.4 79.3,242.4 79.3,242.4 79.3,242.4 79.2,242.4
79.2,242.4 79.2,242.4 79.2,242.4 79.2,242.4 79.2,242.4 79.2,242.4 79.2,242.4 79.2,242.4 79.2,242.4 79.2,242.4 79.2,242.4 79.2,242.4 79.2,242.4 79.2,242.4 79.2,242.4 79.2,242.4
79.2,242.4 79.2,242.4 79.2,242.4 79.2,242.4 79.2,242.4 79.2,242.4 79.2,242.4 79.2,242.4 '/>
	</g>
</g>
	</g>
	<g id="gnuplot_plot_4" ><title>New Mean</title>
<g fill="none" color="white" stroke="rgb( 31, 120, 180)" stroke-width="2.00" stroke-linecap="butt" stroke-linejoin="miter">
</g>
<g fill="none" color="black" stroke="currentColor" stroke-width="2.00" stroke-linecap="butt" stroke-linejoin="miter">
	<path stroke='rgb( 31, 120, 180)'  d='M79.8,242.4 L79.8,107.4  '/></g>
	</g>
<g fill="none" color="black" stroke="currentColor" stroke-width="2.00" stroke-linecap="butt" stroke-linejoin="miter">
</g>
<g fill="none" color="black" stroke="black" stroke-width="1.00" stroke-linecap="butt" stroke-linejoin="miter">
</g>
<g fill="none" color="black" stroke="currentColor" stroke-width="1.00" stroke-linecap="butt" stroke-linejoin="miter">
	<path stroke='black'  d='M55.3,18.1 L55.3,242.4 L425.0,242.4 L425.0,18.1 L55.3,18.1 Z  '/></g>
<g fill="none" color="black" stroke="currentColor" stroke-width="1.00" stroke-linecap="butt" stroke-linejoin="miter">
</g>
</g>
</svg>

