<?xml version="1.0" encoding="utf-8"  standalone="no"?>
<svg 
 viewBox="0 0 1280 720"
 xmlns="http://www.w3.org/2000/svg"
 xmlns:xlink="http://www.w3.org/1999/xlink"
>

<title>Gnuplot</title>
<desc>Produced by GNUPLOT 5.2 patchlevel 8 </desc>

<g id="gnuplot_canvas">

<rect x="0" y="0" width="1280" height="720" fill="none"/>
<defs>

	<circle id='gpDot' r='0.5' stroke-width='0.5' stroke='currentColor'/>
	<path id='gpPt0' stroke-width='0.222' stroke='currentColor' d='M-1,0 h2 M0,-1 v2'/>
	<path id='gpPt1' stroke-width='0.222' stroke='currentColor' d='M-1,-1 L1,1 M1,-1 L-1,1'/>
	<path id='gpPt2' stroke-width='0.222' stroke='currentColor' d='M-1,0 L1,0 M0,-1 L0,1 M-1,-1 L1,1 M-1,1 L1,-1'/>
	<rect id='gpPt3' stroke-width='0.222' stroke='currentColor' x='-1' y='-1' width='2' height='2'/>
	<rect id='gpPt4' stroke-width='0.222' stroke='currentColor' fill='currentColor' x='-1' y='-1' width='2' height='2'/>
	<circle id='gpPt5' stroke-width='0.222' stroke='currentColor' cx='0' cy='0' r='1'/>
	<use xlink:href='#gpPt5' id='gpPt6' fill='currentColor' stroke='none'/>
	<path id='gpPt7' stroke-width='0.222' stroke='currentColor' d='M0,-1.33 L-1.33,0.67 L1.33,0.67 z'/>
	<use xlink:href='#gpPt7' id='gpPt8' fill='currentColor' stroke='none'/>
	<use xlink:href='#gpPt7' id='gpPt9' stroke='currentColor' transform='rotate(180)'/>
	<use xlink:href='#gpPt9' id='gpPt10' fill='currentColor' stroke='none'/>
	<use xlink:href='#gpPt3' id='gpPt11' stroke='currentColor' transform='rotate(45)'/>
	<use xlink:href='#gpPt11' id='gpPt12' fill='currentColor' stroke='none'/>
	<path id='gpPt13' stroke-width='0.222' stroke='currentColor' d='M0,1.330 L1.265,0.411 L0.782,-1.067 L-0.782,-1.076 L-1.265,0.411 z'/>
	<use xlink:href='#gpPt13' id='gpPt14' fill='currentColor' stroke='none'/>
	<filter id='textbox' filterUnits='objectBoundingBox' x='0' y='0' height='1' width='1'>
	  <feFlood flood-color='white' flood-opacity='1' result='bgnd'/>
	  <feComposite in='SourceGraphic' in2='bgnd' operator='atop'/>
	</filter>
	<filter id='greybox' filterUnits='objectBoundingBox' x='0' y='0' height='1' width='1'>
	  <feFlood flood-color='lightgrey' flood-opacity='1' result='grey'/>
	  <feComposite in='SourceGraphic' in2='grey' operator='atop'/>
	</filter>
</defs>
<g fill="none" color="white" stroke="currentColor" stroke-width="1.00" stroke-linecap="butt" stroke-linejoin="miter">
</g>
<g fill="none" color="black" stroke="currentColor" stroke-width="1.00" stroke-linecap="butt" stroke-linejoin="miter">
	<path stroke='black'  d='M63.6,662.4 L72.6,662.4  '/>	<g transform="translate(55.3,666.3)" stroke="none" fill="black" font-family="Helvetica" font-size="12.00"  text-anchor="end">
		<text><tspan font-family="Helvetica" > 0</tspan></text>
	</g>
</g>
<g fill="none" color="black" stroke="currentColor" stroke-width="1.00" stroke-linecap="butt" stroke-linejoin="miter">
	<path stroke='black'  d='M63.6,575.5 L72.6,575.5  '/>	<g transform="translate(55.3,579.4)" stroke="none" fill="black" font-family="Helvetica" font-size="12.00"  text-anchor="end">
		<text><tspan font-family="Helvetica" > 10</tspan></text>
	</g>
</g>
<g fill="none" color="black" stroke="currentColor" stroke-width="1.00" stroke-linecap="butt" stroke-linejoin="miter">
	<path stroke='black'  d='M63.6,488.6 L72.6,488.6  '/>	<g transform="translate(55.3,492.5)" stroke="none" fill="black" font-family="Helvetica" font-size="12.00"  text-anchor="end">
		<text><tspan font-family="Helvetica" > 20</tspan></text>
	</g>
</g>
<g fill="none" color="black" stroke="currentColor" stroke-width="1.00" stroke-linecap="butt" stroke-linejoin="miter">
	<path stroke='black'  d='M63.6,401.7 L72.6,401.7  '/>	<g transform="translate(55.3,405.6)" stroke="none" fill="black" font-family="Helvetica" font-size="12.00"  text-anchor="end">
		<text><tspan font-family="Helvetica" > 30</tspan></text>
	</g>
</g>
<g fill="none" color="black" stroke="currentColor" stroke-width="1.00" stroke-linecap="butt" stroke-linejoin="miter">
	<path stroke='black'  d='M63.6,314.8 L72.6,314.8  '/>	<g transform="translate(55.3,318.7)" stroke="none" fill="black" font-family="Helvetica" font-size="12.00"  text-anchor="end">
		<text><tspan font-family="Helvetica" > 40</tspan></text>
	</g>
</g>
<g fill="none" color="black" stroke="currentColor" stroke-width="1.00" stroke-linecap="butt" stroke-linejoin="miter">
	<path stroke='black'  d='M63.6,227.9 L72.6,227.9  '/>	<g transform="translate(55.3,231.8)" stroke="none" fill="black" font-family="Helvetica" font-size="12.00"  text-anchor="end">
		<text><tspan font-family="Helvetica" > 50</tspan></text>
	</g>
</g>
<g fill="none" color="black" stroke="currentColor" stroke-width="1.00" stroke-linecap="butt" stroke-linejoin="miter">
	<path stroke='black'  d='M63.6,141.0 L72.6,141.0  '/>	<g transform="translate(55.3,144.9)" stroke="none" fill="black" font-family="Helvetica" font-size="12.00"  text-anchor="end">
		<text><tspan font-family="Helvetica" > 60</tspan></text>
	</g>
</g>
<g fill="none" color="black" stroke="currentColor" stroke-width="1.00" stroke-linecap="butt" stroke-linejoin="miter">
	<path stroke='black'  d='M63.6,54.1 L72.6,54.1  '/>	<g transform="translate(55.3,58.0)" stroke="none" fill="black" font-family="Helvetica" font-size="12.00"  text-anchor="end">
		<text><tspan font-family="Helvetica" > 70</tspan></text>
	</g>
</g>
<g fill="none" color="black" stroke="currentColor" stroke-width="1.00" stroke-linecap="butt" stroke-linejoin="miter">
	<path stroke='black'  d='M155.7,662.4 L155.7,653.4  '/>	<g transform="translate(155.7,684.3)" stroke="none" fill="black" font-family="Helvetica" font-size="12.00"  text-anchor="middle">
		<text><tspan font-family="Helvetica" > 73.25</tspan></text>
	</g>
</g>
<g fill="none" color="black" stroke="currentColor" stroke-width="1.00" stroke-linecap="butt" stroke-linejoin="miter">
	<path stroke='black'  d='M316.5,662.4 L316.5,653.4  '/>	<g transform="translate(316.5,684.3)" stroke="none" fill="black" font-family="Helvetica" font-size="12.00"  text-anchor="middle">
		<text><tspan font-family="Helvetica" > 73.255</tspan></text>
	</g>
</g>
<g fill="none" color="black" stroke="currentColor" stroke-width="1.00" stroke-linecap="butt" stroke-linejoin="miter">
	<path stroke='black'  d='M477.4,662.4 L477.4,653.4  '/>	<g transform="translate(477.4,684.3)" stroke="none" fill="black" font-family="Helvetica" font-size="12.00"  text-anchor="middle">
		<text><tspan font-family="Helvetica" > 73.26</tspan></text>
	</g>
</g>
<g fill="none" color="black" stroke="currentColor" stroke-width="1.00" stroke-linecap="butt" stroke-linejoin="miter">
	<path stroke='black'  d='M638.2,662.4 L638.2,653.4  '/>	<g transform="translate(638.2,684.3)" stroke="none" fill="black" font-family="Helvetica" font-size="12.00"  text-anchor="middle">
		<text><tspan font-family="Helvetica" > 73.265</tspan></text>
	</g>
</g>
<g fill="none" color="black" stroke="currentColor" stroke-width="1.00" stroke-linecap="butt" stroke-linejoin="miter">
	<path stroke='black'  d='M799.0,662.4 L799.0,653.4  '/>	<g transform="translate(799.0,684.3)" stroke="none" fill="black" font-family="Helvetica" font-size="12.00"  text-anchor="middle">
		<text><tspan font-family="Helvetica" > 73.27</tspan></text>
	</g>
</g>
<g fill="none" color="black" stroke="currentColor" stroke-width="1.00" stroke-linecap="butt" stroke-linejoin="miter">
	<path stroke='black'  d='M959.8,662.4 L959.8,653.4  '/>	<g transform="translate(959.8,684.3)" stroke="none" fill="black" font-family="Helvetica" font-size="12.00"  text-anchor="middle">
		<text><tspan font-family="Helvetica" > 73.275</tspan></text>
	</g>
</g>
<g fill="none" color="black" stroke="currentColor" stroke-width="1.00" stroke-linecap="butt" stroke-linejoin="miter">
</g>
<g fill="none" color="black" stroke="currentColor" stroke-width="1.00" stroke-linecap="butt" stroke-linejoin="miter">
	<path stroke='black'  d='M63.6,54.1 L63.6,662.4 L1013.6,662.4 L1013.6,54.1 L63.6,54.1 Z  '/></g>
<g fill="none" color="black" stroke="currentColor" stroke-width="1.00" stroke-linecap="butt" stroke-linejoin="miter">
	<g transform="translate(19.0,358.3) rotate(270)" stroke="none" fill="black" font-family="Helvetica" font-size="12.00"  text-anchor="middle">
		<text><tspan font-family="Helvetica" >Density (a.u.)</tspan></text>
	</g>
</g>
<g fill="none" color="black" stroke="currentColor" stroke-width="1.00" stroke-linecap="butt" stroke-linejoin="miter">
	<g transform="translate(538.6,711.3)" stroke="none" fill="black" font-family="Helvetica" font-size="12.00"  text-anchor="middle">
		<text><tspan font-family="Helvetica" >Average time (us)</tspan></text>
	</g>
</g>
<g fill="none" color="black" stroke="currentColor" stroke-width="1.00" stroke-linecap="butt" stroke-linejoin="miter">
	<g transform="translate(538.6,31.0)" stroke="none" fill="black" font-family="Helvetica" font-size="12.00"  text-anchor="middle">
		<text><tspan font-family="Helvetica" >bench_group/blake3/81920: slope</tspan></text>
	</g>
</g>
<g fill="none" color="black" stroke="currentColor" stroke-width="1.00" stroke-linecap="butt" stroke-linejoin="miter">
</g>
	<g id="gnuplot_plot_1" ><title>Bootstrap distribution</title>
<g fill="none" color="white" stroke="currentColor" stroke-width="2.00" stroke-linecap="butt" stroke-linejoin="miter">
</g>
<g fill="none" color="black" stroke="currentColor" stroke-width="2.00" stroke-linecap="butt" stroke-linejoin="miter">
	<g transform="translate(1089.0,67.0)" stroke="none" fill="black" font-family="Helvetica" font-size="12.00"  text-anchor="start">
		<text><tspan font-family="Helvetica" >Bootstrap distribution</tspan></text>
	</g>
</g>
<g fill="none" color="black" stroke="currentColor" stroke-width="2.00" stroke-linecap="butt" stroke-linejoin="miter">
	<path stroke='rgb( 31, 120, 180)'  d='M1038.5,63.1 L1080.7,63.1 M63.6,630.9 L65.5,630.3 L67.4,629.6 L69.3,629.0 L71.2,628.4 L73.1,627.7
		L75.0,627.1 L76.9,626.4 L78.8,625.7 L80.7,625.0 L82.6,624.3 L84.5,623.6 L86.4,622.9 L88.3,622.1
		L90.3,621.4 L92.2,620.6 L94.1,619.9 L96.0,619.1 L97.9,618.3 L99.8,617.5 L101.7,616.7 L103.6,615.8
		L105.5,615.0 L107.4,614.2 L109.3,613.3 L111.2,612.4 L113.1,611.6 L115.0,610.7 L116.9,609.8 L118.8,608.9
		L120.7,607.9 L122.6,607.0 L124.5,606.1 L126.4,605.1 L128.3,604.1 L130.2,603.2 L132.1,602.2 L134.0,601.1
		L135.9,600.1 L137.8,599.1 L139.8,598.0 L141.7,596.9 L143.6,595.9 L145.5,594.7 L147.4,593.6 L149.3,592.4
		L151.2,591.3 L153.1,590.0 L155.0,588.8 L156.9,587.5 L158.8,586.2 L160.7,584.9 L162.6,583.6 L164.5,582.2
		L166.4,580.8 L168.3,579.3 L170.2,577.9 L172.1,576.4 L174.0,574.9 L175.9,573.4 L177.8,571.9 L179.7,570.3
		L181.6,568.8 L183.5,567.2 L185.4,565.7 L187.3,564.1 L189.3,562.6 L191.2,561.0 L193.1,559.4 L195.0,557.8
		L196.9,556.2 L198.8,554.6 L200.7,553.0 L202.6,551.4 L204.5,549.8 L206.4,548.2 L208.3,546.5 L210.2,544.9
		L212.1,543.2 L214.0,541.5 L215.9,539.8 L217.8,538.1 L219.7,536.3 L221.6,534.6 L223.5,532.9 L225.4,531.1
		L227.3,529.3 L229.2,527.6 L231.1,525.8 L233.0,524.0 L234.9,522.2 L236.8,520.4 L238.8,518.6 L240.7,516.8
		L242.6,514.9 L244.5,513.0 L246.4,511.2 L248.3,509.2 L250.2,507.3 L252.1,505.3 L254.0,503.3 L255.9,501.3
		L257.8,499.2 L259.7,497.1 L261.6,494.9 L263.5,492.8 L265.4,490.5 L267.3,488.3 L269.2,486.0 L271.1,483.7
		L273.0,481.3 L274.9,478.9 L276.8,476.5 L278.7,474.1 L280.6,471.7 L282.5,469.3 L284.4,466.8 L286.3,464.3
		L288.2,461.8 L290.2,459.4 L292.1,456.9 L294.0,454.4 L295.9,451.9 L297.8,449.4 L299.7,446.9 L301.6,444.4
		L303.5,441.9 L305.4,439.4 L307.3,436.9 L309.2,434.4 L311.1,431.8 L313.0,429.3 L314.9,426.8 L316.8,424.3
		L318.7,421.7 L320.6,419.2 L322.5,416.6 L324.4,414.0 L326.3,411.4 L328.2,408.8 L330.1,406.1 L332.0,403.4
		L333.9,400.7 L335.8,397.9 L337.7,395.1 L339.7,392.3 L341.6,389.4 L343.5,386.5 L345.4,383.5 L347.3,380.5
		L349.2,377.5 L351.1,374.4 L353.0,371.3 L354.9,368.2 L356.8,365.1 L358.7,361.9 L360.6,358.8 L362.5,355.6
		L364.4,352.5 L366.3,349.4 L368.2,346.3 L370.1,343.2 L372.0,340.2 L373.9,337.1 L375.8,334.1 L377.7,331.2
		L379.6,328.2 L381.5,325.3 L383.4,322.5 L385.3,319.6 L387.2,316.8 L389.2,314.0 L391.1,311.2 L393.0,308.4
		L394.9,305.6 L396.8,302.8 L398.7,300.0 L400.6,297.2 L402.5,294.4 L404.4,291.6 L406.3,288.8 L408.2,286.0
		L410.1,283.2 L412.0,280.4 L413.9,277.5 L415.8,274.7 L417.7,271.9 L419.6,269.0 L421.5,266.2 L423.4,263.4
		L425.3,260.5 L427.2,257.7 L429.1,254.8 L431.0,252.0 L432.9,249.1 L434.8,246.3 L436.7,243.4 L438.7,240.5
		L440.6,237.6 L442.5,234.8 L444.4,231.9 L446.3,229.0 L448.2,226.1 L450.1,223.2 L452.0,220.4 L453.9,217.5
		L455.8,214.7 L457.7,211.9 L459.6,209.1 L461.5,206.4 L463.4,203.8 L465.3,201.2 L467.2,198.6 L469.1,196.1
		L471.0,193.6 L472.9,191.3 L474.8,188.9 L476.7,186.6 L478.6,184.4 L480.5,182.2 L482.4,180.1 L484.3,178.0
		L486.2,175.9 L488.1,173.8 L490.1,171.7 L492.0,169.6 L493.9,167.5 L495.8,165.3 L497.7,163.2 L499.6,161.0
		L501.5,158.8 L503.4,156.6 L505.3,154.3 L507.2,152.1 L509.1,149.8 L511.0,147.5 L512.9,145.2 L514.8,143.0
		L516.7,140.7 L518.6,138.6 L520.5,136.4 L522.4,134.4 L524.3,132.4 L526.2,130.5 L528.1,128.7 L530.0,127.0
		L531.9,125.5 L533.8,124.0 L535.7,122.7 L537.6,121.5 L539.6,120.4 L541.5,119.4 L543.4,118.6 L545.3,117.8
		L547.2,117.1 L549.1,116.5 L551.0,116.0 L552.9,115.5 L554.8,115.1 L556.7,114.7 L558.6,114.4 L560.5,114.0
		L562.4,113.7 L564.3,113.4 L566.2,113.1 L568.1,112.8 L570.0,112.4 L571.9,112.1 L573.8,111.7 L575.7,111.4
		L577.6,111.0 L579.5,110.6 L581.4,110.2 L583.3,109.8 L585.2,109.4 L587.1,108.9 L589.1,108.5 L591.0,108.1
		L592.9,107.7 L594.8,107.4 L596.7,107.1 L598.6,106.8 L600.5,106.5 L602.4,106.3 L604.3,106.2 L606.2,106.1
		L608.1,106.1 L610.0,106.2 L611.9,106.3 L613.8,106.5 L615.7,106.8 L617.6,107.2 L619.5,107.7 L621.4,108.2
		L623.3,108.8 L625.2,109.5 L627.1,110.3 L629.0,111.1 L630.9,112.0 L632.8,113.0 L634.7,114.0 L636.6,115.0
		L638.5,116.1 L640.5,117.2 L642.4,118.3 L644.3,119.5 L646.2,120.7 L648.1,122.0 L650.0,123.3 L651.9,124.6
		L653.8,125.9 L655.7,127.3 L657.6,128.7 L659.5,130.2 L661.4,131.6 L663.3,133.2 L665.2,134.8 L667.1,136.4
		L669.0,138.1 L670.9,139.8 L672.8,141.6 L674.7,143.4 L676.6,145.4 L678.5,147.3 L680.4,149.4 L682.3,151.4
		L684.2,153.6 L686.1,155.8 L688.0,158.1 L690.0,160.4 L691.9,162.8 L693.8,165.2 L695.7,167.7 L697.6,170.3
		L699.5,172.8 L701.4,175.5 L703.3,178.1 L705.2,180.8 L707.1,183.5 L709.0,186.3 L710.9,189.1 L712.8,191.9
		L714.7,194.8 L716.6,197.6 L718.5,200.6 L720.4,203.5 L722.3,206.5 L724.2,209.5 L726.1,212.6 L728.0,215.7
		L729.9,218.8 L731.8,222.0 L733.7,225.3 L735.6,228.6 L737.5,232.0 L739.5,235.4 L741.4,238.9 L743.3,242.4
		L745.2,246.0 L747.1,249.7 L749.0,253.4 L750.9,257.2 L752.8,261.0 L754.7,264.9 L756.6,268.8 L758.5,272.7
		L760.4,276.7 L762.3,280.7 L764.2,284.7 L766.1,288.7 L768.0,292.8 L769.9,296.8 L771.8,300.9 L773.7,304.9
		L775.6,308.9 L777.5,312.9 L779.4,316.9 L781.3,320.8 L783.2,324.8 L785.1,328.7 L787.0,332.6 L789.0,336.4
		L790.9,340.2 L792.8,344.0 L794.7,347.7 L796.6,351.4 L798.5,355.1 L800.4,358.7 L802.3,362.3 L804.2,365.9
		L806.1,369.5 L808.0,373.0 L809.9,376.5 L811.8,380.0 L813.7,383.5 L815.6,387.0 L817.5,390.4 L819.4,393.9
		L821.3,397.4 L823.2,400.9 L825.1,404.4 L827.0,407.9 L828.9,411.4 L830.8,414.9 L832.7,418.5 L834.6,422.0
		L836.5,425.5 L838.4,429.1 L840.4,432.6 L842.3,436.1 L844.2,439.6 L846.1,443.0 L848.0,446.4 L849.9,449.8
		L851.8,453.2 L853.7,456.5 L855.6,459.7 L857.5,462.9 L859.4,466.1 L861.3,469.2 L863.2,472.3 L865.1,475.3
		L867.0,478.3 L868.9,481.2 L870.8,484.1 L872.7,487.0 L874.6,489.8 L876.5,492.6 L878.4,495.4 L880.3,498.2
		L882.2,500.9 L884.1,503.6 L886.0,506.3 L887.9,509.0 L889.9,511.7 L891.8,514.3 L893.7,516.9 L895.6,519.5
		L897.5,522.1 L899.4,524.7 L901.3,527.2 L903.2,529.7 L905.1,532.2 L907.0,534.6 L908.9,537.0 L910.8,539.4
		L912.7,541.8 L914.6,544.2 L916.5,546.5 L918.4,548.8 L920.3,551.1 L922.2,553.3 L924.1,555.5 L926.0,557.7
		L927.9,559.9 L929.8,562.0 L931.7,564.2 L933.6,566.3 L935.5,568.3 L937.4,570.4 L939.4,572.4 L941.3,574.4
		L943.2,576.4 L945.1,578.3 L947.0,580.3 L948.9,582.2 L950.8,584.0 L952.7,585.9 L954.6,587.7 L956.5,589.4
		L958.4,591.2 L960.3,592.9 L962.2,594.6 L964.1,596.3 L966.0,597.9 L967.9,599.5 L969.8,601.1 L971.7,602.7
		L973.6,604.2 L975.5,605.7 L977.4,607.1 L979.3,608.6 L981.2,609.9 L983.1,611.3 L985.0,612.6 L986.9,613.9
		L988.9,615.1 L990.8,616.4 L992.7,617.5 L994.6,618.7 L996.5,619.8 L998.4,620.8 L1000.3,621.9 L1002.2,622.9
		L1004.1,623.9 L1006.0,624.8 L1007.9,625.7 L1009.8,626.6 L1011.7,627.5 L1013.6,628.4  '/></g>
	</g>
	<g id="gnuplot_plot_2" ><title>Confidence interval</title>
<g fill="none" color="white" stroke="rgb( 31, 120, 180)" stroke-width="1.00" stroke-linecap="butt" stroke-linejoin="miter">
</g>
<g fill="none" color="black" stroke="currentColor" stroke-width="1.00" stroke-linecap="butt" stroke-linejoin="miter">
	<g transform="translate(1089.0,85.0)" stroke="none" fill="black" font-family="Helvetica" font-size="12.00"  text-anchor="start">
		<text><tspan font-family="Helvetica" >Confidence interval</tspan></text>
	</g>
</g>
<g fill="none" color="black" stroke="currentColor" stroke-width="1.00" stroke-linecap="butt" stroke-linejoin="miter">
	<g stroke='none' shape-rendering='crispEdges'>
		<polygon fill = 'rgb( 31, 120, 180)' fill-opacity = '0.250000' points = '1038.5,85.6 1080.7,85.6 1080.7,76.6 1038.5,76.6 '/>
		<polygon fill = 'rgb( 31, 120, 180)' fill-opacity = '0.250000' points = '151.2,591.3 153.1,590.0 155.0,588.8 156.9,587.5 158.8,586.2 160.7,584.9 162.6,583.6 164.5,582.2 166.4,580.8 168.3,579.3 170.2,577.9 172.1,576.4 174.0,574.9 175.9,573.4 177.8,571.9 179.7,570.3
181.6,568.8 183.5,567.2 185.4,565.7 187.3,564.1 189.3,562.6 191.2,561.0 193.1,559.4 195.0,557.8 196.9,556.2 198.8,554.6 200.7,553.0 202.6,551.4 204.5,549.8 206.4,548.2 208.3,546.5 210.2,544.9
212.1,543.2 214.0,541.5 215.9,539.8 217.8,538.1 219.7,536.3 221.6,534.6 223.5,532.9 225.4,531.1 227.3,529.3 229.2,527.6 231.1,525.8 233.0,524.0 234.9,522.2 236.8,520.4 238.8,518.6 240.7,516.8
242.6,514.9 244.5,513.0 246.4,511.2 248.3,509.2 250.2,507.3 252.1,505.3 254.0,503.3 255.9,501.3 257.8,499.2 259.7,497.1 261.6,494.9 263.5,492.8 265.4,490.5 267.3,488.3 269.2,486.0 271.1,483.7
273.0,481.3 274.9,478.9 276.8,476.5 278.7,474.1 280.6,471.7 282.5,469.3 284.4,466.8 286.3,464.3 288.2,461.8 290.2,459.4 292.1,456.9 294.0,454.4 295.9,451.9 297.8,449.4 299.7,446.9 301.6,444.4
303.5,441.9 305.4,439.4 307.3,436.9 309.2,434.4 311.1,431.8 313.0,429.3 314.9,426.8 316.8,424.3 318.7,421.7 320.6,419.2 322.5,416.6 324.4,414.0 326.3,411.4 328.2,408.8 330.1,406.1 332.0,403.4
333.9,400.7 335.8,397.9 337.7,395.1 339.7,392.3 341.6,389.4 343.5,386.5 345.4,383.5 347.3,380.5 349.2,377.5 351.1,374.4 353.0,371.3 354.9,368.2 356.8,365.1 358.7,361.9 360.6,358.8 362.5,355.6
364.4,352.5 366.3,349.4 368.2,346.3 370.1,343.2 372.0,340.2 373.9,337.1 375.8,334.1 377.7,331.2 379.6,328.2 381.5,325.3 383.4,322.5 385.3,319.6 387.2,316.8 389.2,314.0 391.1,311.2 393.0,308.4
394.9,305.6 396.8,302.8 398.7,300.0 400.6,297.2 402.5,294.4 404.4,291.6 406.3,288.8 408.2,286.0 410.1,283.2 412.0,280.4 413.9,277.5 415.8,274.7 417.7,271.9 419.6,269.0 421.5,266.2 423.4,263.4
425.3,260.5 427.2,257.7 429.1,254.8 431.0,252.0 432.9,249.1 434.8,246.3 436.7,243.4 438.7,240.5 440.6,237.6 442.5,234.8 444.4,231.9 446.3,229.0 448.2,226.1 450.1,223.2 452.0,220.4 453.9,217.5
455.8,214.7 457.7,211.9 459.6,209.1 461.5,206.4 463.4,203.8 465.3,201.2 467.2,198.6 469.1,196.1 471.0,193.6 472.9,191.3 474.8,188.9 476.7,186.6 478.6,184.4 480.5,182.2 482.4,180.1 484.3,178.0
486.2,175.9 488.1,173.8 490.1,171.7 492.0,169.6 493.9,167.5 495.8,165.3 497.7,163.2 499.6,161.0 501.5,158.8 503.4,156.6 505.3,154.3 507.2,152.1 509.1,149.8 511.0,147.5 512.9,145.2 514.8,143.0
516.7,140.7 518.6,138.6 520.5,136.4 522.4,134.4 524.3,132.4 526.2,130.5 528.1,128.7 530.0,127.0 531.9,125.5 533.8,124.0 535.7,122.7 537.6,121.5 539.6,120.4 541.5,119.4 543.4,118.6 545.3,117.8
547.2,117.1 549.1,116.5 551.0,116.0 552.9,115.5 554.8,115.1 556.7,114.7 558.6,114.4 560.5,114.0 562.4,113.7 564.3,113.4 566.2,113.1 568.1,112.8 570.0,112.4 571.9,112.1 573.8,111.7 575.7,111.4
577.6,111.0 579.5,110.6 581.4,110.2 583.3,109.8 585.2,109.4 587.1,108.9 589.1,108.5 591.0,108.1 592.9,107.7 594.8,107.4 596.7,107.1 598.6,106.8 600.5,106.5 602.4,106.3 604.3,106.2 606.2,106.1
608.1,106.1 610.0,106.2 611.9,106.3 613.8,106.5 615.7,106.8 617.6,107.2 619.5,107.7 621.4,108.2 623.3,108.8 625.2,109.5 627.1,110.3 629.0,111.1 630.9,112.0 632.8,113.0 634.7,114.0 636.6,115.0
638.5,116.1 640.5,117.2 642.4,118.3 644.3,119.5 646.2,120.7 648.1,122.0 650.0,123.3 651.9,124.6 653.8,125.9 655.7,127.3 657.6,128.7 659.5,130.2 661.4,131.6 663.3,133.2 665.2,134.8 667.1,136.4
669.0,138.1 670.9,139.8 672.8,141.6 674.7,143.4 676.6,145.4 678.5,147.3 680.4,149.4 682.3,151.4 684.2,153.6 686.1,155.8 688.0,158.1 690.0,160.4 691.9,162.8 693.8,165.2 695.7,167.7 697.6,170.3
699.5,172.8 701.4,175.5 703.3,178.1 705.2,180.8 707.1,183.5 709.0,186.3 710.9,189.1 712.8,191.9 714.7,194.8 716.6,197.6 718.5,200.6 720.4,203.5 722.3,206.5 724.2,209.5 726.1,212.6 728.0,215.7
729.9,218.8 731.8,222.0 733.7,225.3 735.6,228.6 737.5,232.0 739.5,235.4 741.4,238.9 743.3,242.4 745.2,246.0 747.1,249.7 749.0,253.4 750.9,257.2 752.8,261.0 754.7,264.9 756.6,268.8 758.5,272.7
760.4,276.7 762.3,280.7 764.2,284.7 766.1,288.7 768.0,292.8 769.9,296.8 771.8,300.9 773.7,304.9 775.6,308.9 777.5,312.9 779.4,316.9 781.3,320.8 783.2,324.8 785.1,328.7 787.0,332.6 789.0,336.4
790.9,340.2 792.8,344.0 794.7,347.7 796.6,351.4 798.5,355.1 800.4,358.7 802.3,362.3 804.2,365.9 806.1,369.5 808.0,373.0 809.9,376.5 811.8,380.0 813.7,383.5 815.6,387.0 817.5,390.4 819.4,393.9
821.3,397.4 823.2,400.9 825.1,404.4 827.0,407.9 828.9,411.4 830.8,414.9 832.7,418.5 834.6,422.0 836.5,425.5 838.4,429.1 840.4,432.6 842.3,436.1 844.2,439.6 846.1,443.0 848.0,446.4 849.9,449.8
851.8,453.2 853.7,456.5 855.6,459.7 857.5,462.9 859.4,466.1 861.3,469.2 863.2,472.3 865.1,475.3 867.0,478.3 868.9,481.2 870.8,484.1 872.7,487.0 874.6,489.8 876.5,492.6 878.4,495.4 880.3,498.2
882.2,500.9 884.1,503.6 886.0,506.3 887.9,509.0 889.9,511.7 891.8,514.3 893.7,516.9 895.6,519.5 897.5,522.1 899.4,524.7 901.3,527.2 903.2,529.7 905.1,532.2 907.0,534.6 908.9,537.0 910.8,539.4
912.7,541.8 914.6,544.2 916.5,546.5 918.4,548.8 920.3,551.1 922.2,553.3 924.1,555.5 924.1,662.4 922.2,662.4 920.3,662.4 918.4,662.4 916.5,662.4 914.6,662.4 912.7,662.4 910.8,662.4 908.9,662.4
907.0,662.4 905.1,662.4 903.2,662.4 901.3,662.4 899.4,662.4 897.5,662.4 895.6,662.4 893.7,662.4 891.8,662.4 889.9,662.4 887.9,662.4 886.0,662.4 884.1,662.4 882.2,662.4 880.3,662.4 878.4,662.4
876.5,662.4 874.6,662.4 872.7,662.4 870.8,662.4 868.9,662.4 867.0,662.4 865.1,662.4 863.2,662.4 861.3,662.4 859.4,662.4 857.5,662.4 855.6,662.4 853.7,662.4 851.8,662.4 849.9,662.4 848.0,662.4
846.1,662.4 844.2,662.4 842.3,662.4 840.4,662.4 838.4,662.4 836.5,662.4 834.6,662.4 832.7,662.4 830.8,662.4 828.9,662.4 827.0,662.4 825.1,662.4 823.2,662.4 821.3,662.4 819.4,662.4 817.5,662.4
815.6,662.4 813.7,662.4 811.8,662.4 809.9,662.4 808.0,662.4 806.1,662.4 804.2,662.4 802.3,662.4 800.4,662.4 798.5,662.4 796.6,662.4 794.7,662.4 792.8,662.4 790.9,662.4 789.0,662.4 787.0,662.4
785.1,662.4 783.2,662.4 781.3,662.4 779.4,662.4 777.5,662.4 775.6,662.4 773.7,662.4 771.8,662.4 769.9,662.4 768.0,662.4 766.1,662.4 764.2,662.4 762.3,662.4 760.4,662.4 758.5,662.4 756.6,662.4
754.7,662.4 752.8,662.4 750.9,662.4 749.0,662.4 747.1,662.4 745.2,662.4 743.3,662.4 741.4,662.4 739.5,662.4 737.5,662.4 735.6,662.4 733.7,662.4 731.8,662.4 729.9,662.4 728.0,662.4 726.1,662.4
724.2,662.4 722.3,662.4 720.4,662.4 718.5,662.4 716.6,662.4 714.7,662.4 712.8,662.4 710.9,662.4 709.0,662.4 707.1,662.4 705.2,662.4 703.3,662.4 701.4,662.4 699.5,662.4 697.6,662.4 695.7,662.4
693.8,662.4 691.9,662.4 690.0,662.4 688.0,662.4 686.1,662.4 684.2,662.4 682.3,662.4 680.4,662.4 678.5,662.4 676.6,662.4 674.7,662.4 672.8,662.4 670.9,662.4 669.0,662.4 667.1,662.4 665.2,662.4
663.3,662.4 661.4,662.4 659.5,662.4 657.6,662.4 655.7,662.4 653.8,662.4 651.9,662.4 650.0,662.4 648.1,662.4 646.2,662.4 644.3,662.4 642.4,662.4 640.5,662.4 638.5,662.4 636.6,662.4 634.7,662.4
632.8,662.4 630.9,662.4 629.0,662.4 627.1,662.4 625.2,662.4 623.3,662.4 621.4,662.4 619.5,662.4 617.6,662.4 615.7,662.4 613.8,662.4 611.9,662.4 610.0,662.4 608.1,662.4 606.2,662.4 604.3,662.4
602.4,662.4 600.5,662.4 598.6,662.4 596.7,662.4 594.8,662.4 592.9,662.4 591.0,662.4 589.1,662.4 587.1,662.4 585.2,662.4 583.3,662.4 581.4,662.4 579.5,662.4 577.6,662.4 575.7,662.4 573.8,662.4
571.9,662.4 570.0,662.4 568.1,662.4 566.2,662.4 564.3,662.4 562.4,662.4 560.5,662.4 558.6,662.4 556.7,662.4 554.8,662.4 552.9,662.4 551.0,662.4 549.1,662.4 547.2,662.4 545.3,662.4 543.4,662.4
541.5,662.4 539.6,662.4 537.6,662.4 535.7,662.4 533.8,662.4 531.9,662.4 530.0,662.4 528.1,662.4 526.2,662.4 524.3,662.4 522.4,662.4 520.5,662.4 518.6,662.4 516.7,662.4 514.8,662.4 512.9,662.4
511.0,662.4 509.1,662.4 507.2,662.4 505.3,662.4 503.4,662.4 501.5,662.4 499.6,662.4 497.7,662.4 495.8,662.4 493.9,662.4 492.0,662.4 490.1,662.4 488.1,662.4 486.2,662.4 484.3,662.4 482.4,662.4
480.5,662.4 478.6,662.4 476.7,662.4 474.8,662.4 472.9,662.4 471.0,662.4 469.1,662.4 467.2,662.4 465.3,662.4 463.4,662.4 461.5,662.4 459.6,662.4 457.7,662.4 455.8,662.4 453.9,662.4 452.0,662.4
450.1,662.4 448.2,662.4 446.3,662.4 444.4,662.4 442.5,662.4 440.6,662.4 438.7,662.4 436.7,662.4 434.8,662.4 432.9,662.4 431.0,662.4 429.1,662.4 427.2,662.4 425.3,662.4 423.4,662.4 421.5,662.4
419.6,662.4 417.7,662.4 415.8,662.4 413.9,662.4 412.0,662.4 410.1,662.4 408.2,662.4 406.3,662.4 404.4,662.4 402.5,662.4 400.6,662.4 398.7,662.4 396.8,662.4 394.9,662.4 393.0,662.4 391.1,662.4
389.2,662.4 387.2,662.4 385.3,662.4 383.4,662.4 381.5,662.4 379.6,662.4 377.7,662.4 375.8,662.4 373.9,662.4 372.0,662.4 370.1,662.4 368.2,662.4 366.3,662.4 364.4,662.4 362.5,662.4 360.6,662.4
358.7,662.4 356.8,662.4 354.9,662.4 353.0,662.4 351.1,662.4 349.2,662.4 347.3,662.4 345.4,662.4 343.5,662.4 341.6,662.4 339.7,662.4 337.7,662.4 335.8,662.4 333.9,662.4 332.0,662.4 330.1,662.4
328.2,662.4 326.3,662.4 324.4,662.4 322.5,662.4 320.6,662.4 318.7,662.4 316.8,662.4 314.9,662.4 313.0,662.4 311.1,662.4 309.2,662.4 307.3,662.4 305.4,662.4 303.5,662.4 301.6,662.4 299.7,662.4
297.8,662.4 295.9,662.4 294.0,662.4 292.1,662.4 290.2,662.4 288.2,662.4 286.3,662.4 284.4,662.4 282.5,662.4 280.6,662.4 278.7,662.4 276.8,662.4 274.9,662.4 273.0,662.4 271.1,662.4 269.2,662.4
267.3,662.4 265.4,662.4 263.5,662.4 261.6,662.4 259.7,662.4 257.8,662.4 255.9,662.4 254.0,662.4 252.1,662.4 250.2,662.4 248.3,662.4 246.4,662.4 244.5,662.4 242.6,662.4 240.7,662.4 238.8,662.4
236.8,662.4 234.9,662.4 233.0,662.4 231.1,662.4 229.2,662.4 227.3,662.4 225.4,662.4 223.5,662.4 221.6,662.4 219.7,662.4 217.8,662.4 215.9,662.4 214.0,662.4 212.1,662.4 210.2,662.4 208.3,662.4
206.4,662.4 204.5,662.4 202.6,662.4 200.7,662.4 198.8,662.4 196.9,662.4 195.0,662.4 193.1,662.4 191.2,662.4 189.3,662.4 187.3,662.4 185.4,662.4 183.5,662.4 181.6,662.4 179.7,662.4 177.8,662.4
175.9,662.4 174.0,662.4 172.1,662.4 170.2,662.4 168.3,662.4 166.4,662.4 164.5,662.4 162.6,662.4 160.7,662.4 158.8,662.4 156.9,662.4 155.0,662.4 153.1,662.4 151.2,662.4 '/>
	</g>
</g>
	</g>
	<g id="gnuplot_plot_3" ><title>Point estimate</title>
<g fill="none" color="white" stroke="rgb( 31, 120, 180)" stroke-width="2.00" stroke-linecap="butt" stroke-linejoin="miter">
</g>
<g fill="none" color="black" stroke="currentColor" stroke-width="2.00" stroke-linecap="butt" stroke-linejoin="miter">
	<g transform="translate(1089.0,103.0)" stroke="none" fill="black" font-family="Helvetica" font-size="12.00"  text-anchor="start">
		<text><tspan font-family="Helvetica" >Point estimate</tspan></text>
	</g>
</g>
<g fill="none" color="black" stroke="currentColor" stroke-width="2.00" stroke-linecap="butt" stroke-linejoin="miter">
	<path stroke='rgb( 31, 120, 180)'  d='M1038.5,99.1 L1080.7,99.1 M566.5,662.4 L566.5,113.0  '/></g>
	</g>
<g fill="none" color="black" stroke="currentColor" stroke-width="2.00" stroke-linecap="butt" stroke-linejoin="miter">
</g>
<g fill="none" color="black" stroke="black" stroke-width="1.00" stroke-linecap="butt" stroke-linejoin="miter">
</g>
<g fill="none" color="black" stroke="currentColor" stroke-width="1.00" stroke-linecap="butt" stroke-linejoin="miter">
	<path stroke='black'  d='M63.6,54.1 L63.6,662.4 L1013.6,662.4 L1013.6,54.1 L63.6,54.1 Z  '/></g>
<g fill="none" color="black" stroke="currentColor" stroke-width="1.00" stroke-linecap="butt" stroke-linejoin="miter">
</g>
</g>
</svg>

