group,function,value,throughput_num,throughput_type,sample_measured_value,unit,iteration_count
bench_group,blake3,3072,3072,bytes,997549.0,ns,153
bench_group,blake3,3072,3072,bytes,1984740.0,ns,306
bench_group,blake3,3072,3072,bytes,2983048.0,ns,459
bench_group,blake3,3072,3072,bytes,3974589.0,ns,612
bench_group,blake3,3072,3072,bytes,4964154.0,ns,765
bench_group,blake3,3072,3072,bytes,5958399.0,ns,918
bench_group,blake3,3072,3072,bytes,6948946.0,ns,1071
bench_group,blake3,3072,3072,bytes,7950979.0,ns,1224
bench_group,blake3,3072,3072,bytes,8964840.0,ns,1377
bench_group,blake3,3072,3072,bytes,9939285.0,ns,1530
bench_group,blake3,3072,3072,bytes,10923962.0,ns,1683
bench_group,blake3,3072,3072,bytes,11934902.0,ns,1836
bench_group,blake3,3072,3072,bytes,12920056.0,ns,1989
bench_group,blake3,3072,3072,bytes,13917601.0,ns,2142
bench_group,blake3,3072,3072,bytes,14915894.0,ns,2295
bench_group,blake3,3072,3072,bytes,15918193.0,ns,2448
bench_group,blake3,3072,3072,bytes,16881671.0,ns,2601
bench_group,blake3,3072,3072,bytes,17888359.0,ns,2754
bench_group,blake3,3072,3072,bytes,18882549.0,ns,2907
bench_group,blake3,3072,3072,bytes,19866503.0,ns,3060
bench_group,blake3,3072,3072,bytes,20869079.0,ns,3213
bench_group,blake3,3072,3072,bytes,21845230.0,ns,3366
bench_group,blake3,3072,3072,bytes,22856023.0,ns,3519
bench_group,blake3,3072,3072,bytes,23834442.0,ns,3672
bench_group,blake3,3072,3072,bytes,24863297.0,ns,3825
bench_group,blake3,3072,3072,bytes,25883541.0,ns,3978
bench_group,blake3,3072,3072,bytes,26808220.0,ns,4131
bench_group,blake3,3072,3072,bytes,27815929.0,ns,4284
bench_group,blake3,3072,3072,bytes,28824195.0,ns,4437
bench_group,blake3,3072,3072,bytes,29793072.0,ns,4590
bench_group,blake3,3072,3072,bytes,30797540.0,ns,4743
bench_group,blake3,3072,3072,bytes,31786762.0,ns,4896
bench_group,blake3,3072,3072,bytes,32780696.0,ns,5049
bench_group,blake3,3072,3072,bytes,33797066.0,ns,5202
bench_group,blake3,3072,3072,bytes,34758171.0,ns,5355
bench_group,blake3,3072,3072,bytes,35766132.0,ns,5508
bench_group,blake3,3072,3072,bytes,36751232.0,ns,5661
bench_group,blake3,3072,3072,bytes,37736708.0,ns,5814
bench_group,blake3,3072,3072,bytes,38751217.0,ns,5967
bench_group,blake3,3072,3072,bytes,39763218.0,ns,6120
bench_group,blake3,3072,3072,bytes,40736850.0,ns,6273
bench_group,blake3,3072,3072,bytes,41730468.0,ns,6426
bench_group,blake3,3072,3072,bytes,42719088.0,ns,6579
bench_group,blake3,3072,3072,bytes,43715060.0,ns,6732
bench_group,blake3,3072,3072,bytes,44704912.0,ns,6885
bench_group,blake3,3072,3072,bytes,45701184.0,ns,7038
bench_group,blake3,3072,3072,bytes,46699599.0,ns,7191
bench_group,blake3,3072,3072,bytes,47671370.0,ns,7344
bench_group,blake3,3072,3072,bytes,48654857.0,ns,7497
bench_group,blake3,3072,3072,bytes,49685974.0,ns,7650
bench_group,blake3,3072,3072,bytes,50656530.0,ns,7803
bench_group,blake3,3072,3072,bytes,51662656.0,ns,7956
bench_group,blake3,3072,3072,bytes,52650329.0,ns,8109
bench_group,blake3,3072,3072,bytes,53652861.0,ns,8262
bench_group,blake3,3072,3072,bytes,54650275.0,ns,8415
bench_group,blake3,3072,3072,bytes,55633090.0,ns,8568
bench_group,blake3,3072,3072,bytes,56620810.0,ns,8721
bench_group,blake3,3072,3072,bytes,57626103.0,ns,8874
bench_group,blake3,3072,3072,bytes,58595134.0,ns,9027
bench_group,blake3,3072,3072,bytes,59601788.0,ns,9180
bench_group,blake3,3072,3072,bytes,60646283.0,ns,9333
bench_group,blake3,3072,3072,bytes,61619331.0,ns,9486
bench_group,blake3,3072,3072,bytes,62572303.0,ns,9639
bench_group,blake3,3072,3072,bytes,63571526.0,ns,9792
bench_group,blake3,3072,3072,bytes,64586637.0,ns,9945
bench_group,blake3,3072,3072,bytes,65566264.0,ns,10098
bench_group,blake3,3072,3072,bytes,66581538.0,ns,10251
bench_group,blake3,3072,3072,bytes,67561456.0,ns,10404
bench_group,blake3,3072,3072,bytes,68617925.0,ns,10557
bench_group,blake3,3072,3072,bytes,69539719.0,ns,10710
bench_group,blake3,3072,3072,bytes,70532307.0,ns,10863
bench_group,blake3,3072,3072,bytes,71524514.0,ns,11016
bench_group,blake3,3072,3072,bytes,72485325.0,ns,11169
bench_group,blake3,3072,3072,bytes,73510684.0,ns,11322
bench_group,blake3,3072,3072,bytes,74499911.0,ns,11475
bench_group,blake3,3072,3072,bytes,75514476.0,ns,11628
bench_group,blake3,3072,3072,bytes,76532180.0,ns,11781
bench_group,blake3,3072,3072,bytes,77476941.0,ns,11934
bench_group,blake3,3072,3072,bytes,78472653.0,ns,12087
bench_group,blake3,3072,3072,bytes,79476570.0,ns,12240
bench_group,blake3,3072,3072,bytes,80475680.0,ns,12393
bench_group,blake3,3072,3072,bytes,81467974.0,ns,12546
bench_group,blake3,3072,3072,bytes,82482219.0,ns,12699
bench_group,blake3,3072,3072,bytes,83480017.0,ns,12852
bench_group,blake3,3072,3072,bytes,84453713.0,ns,13005
bench_group,blake3,3072,3072,bytes,85430469.0,ns,13158
bench_group,blake3,3072,3072,bytes,86419634.0,ns,13311
bench_group,blake3,3072,3072,bytes,87431821.0,ns,13464
bench_group,blake3,3072,3072,bytes,88456533.0,ns,13617
bench_group,blake3,3072,3072,bytes,89393925.0,ns,13770
bench_group,blake3,3072,3072,bytes,90381055.0,ns,13923
bench_group,blake3,3072,3072,bytes,91374147.0,ns,14076
bench_group,blake3,3072,3072,bytes,92372279.0,ns,14229
bench_group,blake3,3072,3072,bytes,93383201.0,ns,14382
bench_group,blake3,3072,3072,bytes,94356016.0,ns,14535
bench_group,blake3,3072,3072,bytes,95375658.0,ns,14688
bench_group,blake3,3072,3072,bytes,96344807.0,ns,14841
bench_group,blake3,3072,3072,bytes,97318781.0,ns,14994
bench_group,blake3,3072,3072,bytes,98383850.0,ns,15147
bench_group,blake3,3072,3072,bytes,99329458.0,ns,15300
