<?xml version="1.0" encoding="utf-8"  standalone="no"?>
<svg 
 viewBox="0 0 1280 720"
 xmlns="http://www.w3.org/2000/svg"
 xmlns:xlink="http://www.w3.org/1999/xlink"
>

<title>Gnuplot</title>
<desc>Produced by GNUPLOT 5.2 patchlevel 8 </desc>

<g id="gnuplot_canvas">

<rect x="0" y="0" width="1280" height="720" fill="none"/>
<defs>

	<circle id='gpDot' r='0.5' stroke-width='0.5' stroke='currentColor'/>
	<path id='gpPt0' stroke-width='0.222' stroke='currentColor' d='M-1,0 h2 M0,-1 v2'/>
	<path id='gpPt1' stroke-width='0.222' stroke='currentColor' d='M-1,-1 L1,1 M1,-1 L-1,1'/>
	<path id='gpPt2' stroke-width='0.222' stroke='currentColor' d='M-1,0 L1,0 M0,-1 L0,1 M-1,-1 L1,1 M-1,1 L1,-1'/>
	<rect id='gpPt3' stroke-width='0.222' stroke='currentColor' x='-1' y='-1' width='2' height='2'/>
	<rect id='gpPt4' stroke-width='0.222' stroke='currentColor' fill='currentColor' x='-1' y='-1' width='2' height='2'/>
	<circle id='gpPt5' stroke-width='0.222' stroke='currentColor' cx='0' cy='0' r='1'/>
	<use xlink:href='#gpPt5' id='gpPt6' fill='currentColor' stroke='none'/>
	<path id='gpPt7' stroke-width='0.222' stroke='currentColor' d='M0,-1.33 L-1.33,0.67 L1.33,0.67 z'/>
	<use xlink:href='#gpPt7' id='gpPt8' fill='currentColor' stroke='none'/>
	<use xlink:href='#gpPt7' id='gpPt9' stroke='currentColor' transform='rotate(180)'/>
	<use xlink:href='#gpPt9' id='gpPt10' fill='currentColor' stroke='none'/>
	<use xlink:href='#gpPt3' id='gpPt11' stroke='currentColor' transform='rotate(45)'/>
	<use xlink:href='#gpPt11' id='gpPt12' fill='currentColor' stroke='none'/>
	<path id='gpPt13' stroke-width='0.222' stroke='currentColor' d='M0,1.330 L1.265,0.411 L0.782,-1.067 L-0.782,-1.076 L-1.265,0.411 z'/>
	<use xlink:href='#gpPt13' id='gpPt14' fill='currentColor' stroke='none'/>
	<filter id='textbox' filterUnits='objectBoundingBox' x='0' y='0' height='1' width='1'>
	  <feFlood flood-color='white' flood-opacity='1' result='bgnd'/>
	  <feComposite in='SourceGraphic' in2='bgnd' operator='atop'/>
	</filter>
	<filter id='greybox' filterUnits='objectBoundingBox' x='0' y='0' height='1' width='1'>
	  <feFlood flood-color='lightgrey' flood-opacity='1' result='grey'/>
	  <feComposite in='SourceGraphic' in2='grey' operator='atop'/>
	</filter>
</defs>
<g fill="none" color="white" stroke="currentColor" stroke-width="1.00" stroke-linecap="butt" stroke-linejoin="miter">
</g>
<g fill="none" color="black" stroke="currentColor" stroke-width="1.00" stroke-linecap="butt" stroke-linejoin="miter">
	<path stroke='black'  d='M80.2,662.4 L89.2,662.4  '/>	<g transform="translate(71.9,666.3)" stroke="none" fill="black" font-family="Helvetica" font-size="12.00"  text-anchor="end">
		<text><tspan font-family="Helvetica" > 0</tspan></text>
	</g>
</g>
<g fill="none" color="black" stroke="currentColor" stroke-width="1.00" stroke-linecap="butt" stroke-linejoin="miter">
	<path stroke='black'  d='M80.2,575.5 L89.2,575.5  '/>	<g transform="translate(71.9,579.4)" stroke="none" fill="black" font-family="Helvetica" font-size="12.00"  text-anchor="end">
		<text><tspan font-family="Helvetica" > 1000</tspan></text>
	</g>
</g>
<g fill="none" color="black" stroke="currentColor" stroke-width="1.00" stroke-linecap="butt" stroke-linejoin="miter">
	<path stroke='black'  d='M80.2,488.6 L89.2,488.6  '/>	<g transform="translate(71.9,492.5)" stroke="none" fill="black" font-family="Helvetica" font-size="12.00"  text-anchor="end">
		<text><tspan font-family="Helvetica" > 2000</tspan></text>
	</g>
</g>
<g fill="none" color="black" stroke="currentColor" stroke-width="1.00" stroke-linecap="butt" stroke-linejoin="miter">
	<path stroke='black'  d='M80.2,401.7 L89.2,401.7  '/>	<g transform="translate(71.9,405.6)" stroke="none" fill="black" font-family="Helvetica" font-size="12.00"  text-anchor="end">
		<text><tspan font-family="Helvetica" > 3000</tspan></text>
	</g>
</g>
<g fill="none" color="black" stroke="currentColor" stroke-width="1.00" stroke-linecap="butt" stroke-linejoin="miter">
	<path stroke='black'  d='M80.2,314.8 L89.2,314.8  '/>	<g transform="translate(71.9,318.7)" stroke="none" fill="black" font-family="Helvetica" font-size="12.00"  text-anchor="end">
		<text><tspan font-family="Helvetica" > 4000</tspan></text>
	</g>
</g>
<g fill="none" color="black" stroke="currentColor" stroke-width="1.00" stroke-linecap="butt" stroke-linejoin="miter">
	<path stroke='black'  d='M80.2,227.9 L89.2,227.9  '/>	<g transform="translate(71.9,231.8)" stroke="none" fill="black" font-family="Helvetica" font-size="12.00"  text-anchor="end">
		<text><tspan font-family="Helvetica" > 5000</tspan></text>
	</g>
</g>
<g fill="none" color="black" stroke="currentColor" stroke-width="1.00" stroke-linecap="butt" stroke-linejoin="miter">
	<path stroke='black'  d='M80.2,141.0 L89.2,141.0  '/>	<g transform="translate(71.9,144.9)" stroke="none" fill="black" font-family="Helvetica" font-size="12.00"  text-anchor="end">
		<text><tspan font-family="Helvetica" > 6000</tspan></text>
	</g>
</g>
<g fill="none" color="black" stroke="currentColor" stroke-width="1.00" stroke-linecap="butt" stroke-linejoin="miter">
	<path stroke='black'  d='M80.2,54.1 L89.2,54.1  '/>	<g transform="translate(71.9,58.0)" stroke="none" fill="black" font-family="Helvetica" font-size="12.00"  text-anchor="end">
		<text><tspan font-family="Helvetica" > 7000</tspan></text>
	</g>
</g>
<g fill="none" color="black" stroke="currentColor" stroke-width="1.00" stroke-linecap="butt" stroke-linejoin="miter">
	<path stroke='black'  d='M93.2,662.4 L93.2,653.4  '/>	<g transform="translate(93.2,684.3)" stroke="none" fill="black" font-family="Helvetica" font-size="12.00"  text-anchor="middle">
		<text><tspan font-family="Helvetica" >-70.265</tspan></text>
	</g>
</g>
<g fill="none" color="black" stroke="currentColor" stroke-width="1.00" stroke-linecap="butt" stroke-linejoin="miter">
	<path stroke='black'  d='M248.3,662.4 L248.3,653.4  '/>	<g transform="translate(248.3,684.3)" stroke="none" fill="black" font-family="Helvetica" font-size="12.00"  text-anchor="middle">
		<text><tspan font-family="Helvetica" >-70.26</tspan></text>
	</g>
</g>
<g fill="none" color="black" stroke="currentColor" stroke-width="1.00" stroke-linecap="butt" stroke-linejoin="miter">
	<path stroke='black'  d='M403.5,662.4 L403.5,653.4  '/>	<g transform="translate(403.5,684.3)" stroke="none" fill="black" font-family="Helvetica" font-size="12.00"  text-anchor="middle">
		<text><tspan font-family="Helvetica" >-70.255</tspan></text>
	</g>
</g>
<g fill="none" color="black" stroke="currentColor" stroke-width="1.00" stroke-linecap="butt" stroke-linejoin="miter">
	<path stroke='black'  d='M558.6,662.4 L558.6,653.4  '/>	<g transform="translate(558.6,684.3)" stroke="none" fill="black" font-family="Helvetica" font-size="12.00"  text-anchor="middle">
		<text><tspan font-family="Helvetica" >-70.25</tspan></text>
	</g>
</g>
<g fill="none" color="black" stroke="currentColor" stroke-width="1.00" stroke-linecap="butt" stroke-linejoin="miter">
	<path stroke='black'  d='M713.8,662.4 L713.8,653.4  '/>	<g transform="translate(713.8,684.3)" stroke="none" fill="black" font-family="Helvetica" font-size="12.00"  text-anchor="middle">
		<text><tspan font-family="Helvetica" >-70.245</tspan></text>
	</g>
</g>
<g fill="none" color="black" stroke="currentColor" stroke-width="1.00" stroke-linecap="butt" stroke-linejoin="miter">
	<path stroke='black'  d='M868.9,662.4 L868.9,653.4  '/>	<g transform="translate(868.9,684.3)" stroke="none" fill="black" font-family="Helvetica" font-size="12.00"  text-anchor="middle">
		<text><tspan font-family="Helvetica" >-70.24</tspan></text>
	</g>
</g>
<g fill="none" color="black" stroke="currentColor" stroke-width="1.00" stroke-linecap="butt" stroke-linejoin="miter">
</g>
<g fill="none" color="black" stroke="currentColor" stroke-width="1.00" stroke-linecap="butt" stroke-linejoin="miter">
	<path stroke='black'  d='M80.2,54.1 L80.2,662.4 L1013.6,662.4 L1013.6,54.1 L80.2,54.1 Z  '/></g>
<g fill="none" color="black" stroke="currentColor" stroke-width="1.00" stroke-linecap="butt" stroke-linejoin="miter">
	<g transform="translate(19.0,358.3) rotate(270)" stroke="none" fill="black" font-family="Helvetica" font-size="12.00"  text-anchor="middle">
		<text><tspan font-family="Helvetica" >Density (a.u.)</tspan></text>
	</g>
</g>
<g fill="none" color="black" stroke="currentColor" stroke-width="1.00" stroke-linecap="butt" stroke-linejoin="miter">
	<g transform="translate(546.9,711.3)" stroke="none" fill="black" font-family="Helvetica" font-size="12.00"  text-anchor="middle">
		<text><tspan font-family="Helvetica" >Relative change (%)</tspan></text>
	</g>
</g>
<g fill="none" color="black" stroke="currentColor" stroke-width="1.00" stroke-linecap="butt" stroke-linejoin="miter">
	<g transform="translate(546.9,31.0)" stroke="none" fill="black" font-family="Helvetica" font-size="12.00"  text-anchor="middle">
		<text><tspan font-family="Helvetica" >bench_group/blake3/393216: mean</tspan></text>
	</g>
</g>
<g fill="none" color="black" stroke="currentColor" stroke-width="1.00" stroke-linecap="butt" stroke-linejoin="miter">
</g>
	<g id="gnuplot_plot_1" ><title>Bootstrap distribution</title>
<g fill="none" color="white" stroke="currentColor" stroke-width="2.00" stroke-linecap="butt" stroke-linejoin="miter">
</g>
<g fill="none" color="black" stroke="currentColor" stroke-width="2.00" stroke-linecap="butt" stroke-linejoin="miter">
	<g transform="translate(1089.0,67.0)" stroke="none" fill="black" font-family="Helvetica" font-size="12.00"  text-anchor="start">
		<text><tspan font-family="Helvetica" >Bootstrap distribution</tspan></text>
	</g>
</g>
<g fill="none" color="black" stroke="currentColor" stroke-width="2.00" stroke-linecap="butt" stroke-linejoin="miter">
	<path stroke='rgb( 31, 120, 180)'  d='M1038.5,63.1 L1080.7,63.1 M80.2,630.3 L82.1,629.5 L83.9,628.8 L85.8,628.0 L87.7,627.3 L89.6,626.5
		L91.4,625.7 L93.3,624.8 L95.2,624.0 L97.0,623.1 L98.9,622.2 L100.8,621.3 L102.6,620.3 L104.5,619.4
		L106.4,618.4 L108.3,617.4 L110.1,616.3 L112.0,615.3 L113.9,614.2 L115.7,613.1 L117.6,612.0 L119.5,610.9
		L121.4,609.8 L123.2,608.7 L125.1,607.5 L127.0,606.3 L128.8,605.1 L130.7,603.9 L132.6,602.7 L134.4,601.4
		L136.3,600.2 L138.2,598.9 L140.1,597.6 L141.9,596.2 L143.8,594.9 L145.7,593.5 L147.5,592.1 L149.4,590.6
		L151.3,589.2 L153.2,587.7 L155.0,586.2 L156.9,584.7 L158.8,583.1 L160.6,581.6 L162.5,580.0 L164.4,578.4
		L166.2,576.8 L168.1,575.2 L170.0,573.6 L171.9,572.0 L173.7,570.4 L175.6,568.8 L177.5,567.2 L179.3,565.6
		L181.2,564.0 L183.1,562.4 L185.0,560.8 L186.8,559.2 L188.7,557.6 L190.6,556.0 L192.4,554.4 L194.3,552.8
		L196.2,551.1 L198.0,549.5 L199.9,547.8 L201.8,546.1 L203.7,544.4 L205.5,542.6 L207.4,540.9 L209.3,539.1
		L211.1,537.2 L213.0,535.3 L214.9,533.4 L216.7,531.4 L218.6,529.4 L220.5,527.3 L222.4,525.2 L224.2,523.0
		L226.1,520.8 L228.0,518.5 L229.8,516.2 L231.7,513.9 L233.6,511.5 L235.5,509.1 L237.3,506.6 L239.2,504.1
		L241.1,501.6 L242.9,499.1 L244.8,496.5 L246.7,494.0 L248.5,491.4 L250.4,488.8 L252.3,486.2 L254.2,483.6
		L256.0,480.9 L257.9,478.3 L259.8,475.6 L261.6,473.0 L263.5,470.3 L265.4,467.6 L267.3,464.9 L269.1,462.1
		L271.0,459.4 L272.9,456.6 L274.7,453.7 L276.6,450.9 L278.5,448.0 L280.3,445.1 L282.2,442.2 L284.1,439.2
		L286.0,436.3 L287.8,433.3 L289.7,430.3 L291.6,427.3 L293.4,424.3 L295.3,421.3 L297.2,418.3 L299.1,415.3
		L300.9,412.4 L302.8,409.5 L304.7,406.5 L306.5,403.6 L308.4,400.8 L310.3,397.9 L312.1,395.1 L314.0,392.2
		L315.9,389.4 L317.8,386.6 L319.6,383.8 L321.5,380.9 L323.4,378.1 L325.2,375.2 L327.1,372.3 L329.0,369.3
		L330.9,366.3 L332.7,363.3 L334.6,360.2 L336.5,357.0 L338.3,353.8 L340.2,350.5 L342.1,347.1 L343.9,343.7
		L345.8,340.3 L347.7,336.7 L349.6,333.1 L351.4,329.5 L353.3,325.9 L355.2,322.2 L357.0,318.5 L358.9,314.7
		L360.8,311.0 L362.7,307.3 L364.5,303.6 L366.4,299.9 L368.3,296.2 L370.1,292.6 L372.0,289.0 L373.9,285.4
		L375.7,281.9 L377.6,278.4 L379.5,275.0 L381.4,271.6 L383.2,268.2 L385.1,265.0 L387.0,261.7 L388.8,258.5
		L390.7,255.3 L392.6,252.2 L394.5,249.1 L396.3,246.1 L398.2,243.0 L400.1,240.0 L401.9,237.1 L403.8,234.2
		L405.7,231.3 L407.5,228.4 L409.4,225.6 L411.3,222.9 L413.2,220.2 L415.0,217.5 L416.9,215.0 L418.8,212.4
		L420.6,209.9 L422.5,207.5 L424.4,205.1 L426.3,202.8 L428.1,200.5 L430.0,198.3 L431.9,196.1 L433.7,193.9
		L435.6,191.8 L437.5,189.6 L439.3,187.5 L441.2,185.4 L443.1,183.3 L445.0,181.1 L446.8,179.0 L448.7,176.9
		L450.6,174.7 L452.4,172.5 L454.3,170.4 L456.2,168.2 L458.0,166.0 L459.9,163.8 L461.8,161.7 L463.7,159.5
		L465.5,157.3 L467.4,155.2 L469.3,153.0 L471.1,150.9 L473.0,148.9 L474.9,146.8 L476.8,144.8 L478.6,142.8
		L480.5,140.9 L482.4,139.0 L484.2,137.1 L486.1,135.3 L488.0,133.6 L489.8,131.9 L491.7,130.2 L493.6,128.6
		L495.5,127.1 L497.3,125.6 L499.2,124.2 L501.1,122.8 L502.9,121.5 L504.8,120.3 L506.7,119.1 L508.6,118.0
		L510.4,116.9 L512.3,116.0 L514.2,115.0 L516.0,114.2 L517.9,113.4 L519.8,112.6 L521.6,111.9 L523.5,111.3
		L525.4,110.7 L527.3,110.2 L529.1,109.7 L531.0,109.3 L532.9,108.9 L534.7,108.6 L536.6,108.4 L538.5,108.2
		L540.4,108.0 L542.2,107.9 L544.1,107.9 L546.0,108.0 L547.8,108.1 L549.7,108.3 L551.6,108.5 L553.4,108.9
		L555.3,109.3 L557.2,109.8 L559.1,110.4 L560.9,111.1 L562.8,111.8 L564.7,112.6 L566.5,113.5 L568.4,114.4
		L570.3,115.3 L572.2,116.3 L574.0,117.3 L575.9,118.3 L577.8,119.4 L579.6,120.4 L581.5,121.5 L583.4,122.6
		L585.2,123.7 L587.1,124.8 L589.0,125.9 L590.9,127.0 L592.7,128.1 L594.6,129.2 L596.5,130.4 L598.3,131.6
		L600.2,132.8 L602.1,134.1 L604.0,135.4 L605.8,136.7 L607.7,138.1 L609.6,139.5 L611.4,141.0 L613.3,142.5
		L615.2,144.1 L617.0,145.7 L618.9,147.4 L620.8,149.1 L622.7,150.9 L624.5,152.7 L626.4,154.6 L628.3,156.5
		L630.1,158.4 L632.0,160.4 L633.9,162.5 L635.8,164.5 L637.6,166.7 L639.5,168.9 L641.4,171.1 L643.2,173.3
		L645.1,175.7 L647.0,178.0 L648.8,180.4 L650.7,182.9 L652.6,185.4 L654.5,187.9 L656.3,190.5 L658.2,193.1
		L660.1,195.8 L661.9,198.5 L663.8,201.2 L665.7,203.9 L667.5,206.7 L669.4,209.5 L671.3,212.3 L673.2,215.1
		L675.0,218.0 L676.9,220.9 L678.8,223.8 L680.6,226.7 L682.5,229.7 L684.4,232.6 L686.3,235.6 L688.1,238.6
		L690.0,241.6 L691.9,244.7 L693.7,247.7 L695.6,250.8 L697.5,253.9 L699.3,257.0 L701.2,260.1 L703.1,263.2
		L705.0,266.3 L706.8,269.5 L708.7,272.6 L710.6,275.8 L712.4,278.9 L714.3,282.1 L716.2,285.3 L718.1,288.5
		L719.9,291.7 L721.8,294.9 L723.7,298.2 L725.5,301.4 L727.4,304.6 L729.3,307.9 L731.1,311.1 L733.0,314.4
		L734.9,317.6 L736.8,320.9 L738.6,324.2 L740.5,327.5 L742.4,330.8 L744.2,334.1 L746.1,337.4 L748.0,340.7
		L749.9,344.1 L751.7,347.4 L753.6,350.8 L755.5,354.2 L757.3,357.6 L759.2,361.0 L761.1,364.4 L762.9,367.9
		L764.8,371.3 L766.7,374.8 L768.6,378.3 L770.4,381.8 L772.3,385.3 L774.2,388.8 L776.0,392.3 L777.9,395.7
		L779.8,399.2 L781.7,402.7 L783.5,406.1 L785.4,409.5 L787.3,412.9 L789.1,416.2 L791.0,419.5 L792.9,422.8
		L794.7,426.0 L796.6,429.1 L798.5,432.3 L800.4,435.3 L802.2,438.3 L804.1,441.3 L806.0,444.2 L807.8,447.0
		L809.7,449.8 L811.6,452.6 L813.5,455.3 L815.3,457.9 L817.2,460.6 L819.1,463.1 L820.9,465.6 L822.8,468.1
		L824.7,470.6 L826.5,473.0 L828.4,475.4 L830.3,477.8 L832.2,480.1 L834.0,482.5 L835.9,484.8 L837.8,487.1
		L839.6,489.4 L841.5,491.7 L843.4,494.0 L845.3,496.2 L847.1,498.5 L849.0,500.8 L850.9,503.0 L852.7,505.3
		L854.6,507.5 L856.5,509.8 L858.3,512.0 L860.2,514.2 L862.1,516.5 L864.0,518.7 L865.8,520.9 L867.7,523.1
		L869.6,525.2 L871.4,527.4 L873.3,529.5 L875.2,531.6 L877.1,533.7 L878.9,535.8 L880.8,537.8 L882.7,539.8
		L884.5,541.8 L886.4,543.7 L888.3,545.6 L890.1,547.4 L892.0,549.3 L893.9,551.1 L895.8,552.9 L897.6,554.6
		L899.5,556.3 L901.4,558.0 L903.2,559.7 L905.1,561.4 L907.0,563.0 L908.8,564.7 L910.7,566.3 L912.6,567.9
		L914.5,569.5 L916.3,571.2 L918.2,572.8 L920.1,574.4 L921.9,575.9 L923.8,577.5 L925.7,579.1 L927.6,580.7
		L929.4,582.3 L931.3,583.8 L933.2,585.4 L935.0,587.0 L936.9,588.5 L938.8,590.0 L940.6,591.5 L942.5,593.0
		L944.4,594.5 L946.3,596.0 L948.1,597.4 L950.0,598.9 L951.9,600.3 L953.7,601.7 L955.6,603.0 L957.5,604.4
		L959.4,605.7 L961.2,607.0 L963.1,608.3 L965.0,609.6 L966.8,610.8 L968.7,612.0 L970.6,613.2 L972.4,614.3
		L974.3,615.5 L976.2,616.6 L978.1,617.6 L979.9,618.7 L981.8,619.7 L983.7,620.7 L985.5,621.6 L987.4,622.5
		L989.3,623.4 L991.2,624.3 L993.0,625.1 L994.9,625.9 L996.8,626.6 L998.6,627.3 L1000.5,628.0 L1002.4,628.7
		L1004.2,629.4 L1006.1,630.0 L1008.0,630.6 L1009.9,631.1 L1011.7,631.7 L1013.6,632.2  '/></g>
	</g>
	<g id="gnuplot_plot_2" ><title>Confidence interval</title>
<g fill="none" color="white" stroke="rgb( 31, 120, 180)" stroke-width="1.00" stroke-linecap="butt" stroke-linejoin="miter">
</g>
<g fill="none" color="black" stroke="currentColor" stroke-width="1.00" stroke-linecap="butt" stroke-linejoin="miter">
	<g transform="translate(1089.0,85.0)" stroke="none" fill="black" font-family="Helvetica" font-size="12.00"  text-anchor="start">
		<text><tspan font-family="Helvetica" >Confidence interval</tspan></text>
	</g>
</g>
<g fill="none" color="black" stroke="currentColor" stroke-width="1.00" stroke-linecap="butt" stroke-linejoin="miter">
	<g stroke='none' shape-rendering='crispEdges'>
		<polygon fill = 'rgb( 31, 120, 180)' fill-opacity = '0.250000' points = '1038.5,85.6 1080.7,85.6 1080.7,76.6 1038.5,76.6 '/>
		<polygon fill = 'rgb( 31, 120, 180)' fill-opacity = '0.250000' points = '166.2,576.8 168.1,575.2 170.0,573.6 171.9,572.0 173.7,570.4 175.6,568.8 177.5,567.2 179.3,565.6 181.2,564.0 183.1,562.4 185.0,560.8 186.8,559.2 188.7,557.6 190.6,556.0 192.4,554.4 194.3,552.8
196.2,551.1 198.0,549.5 199.9,547.8 201.8,546.1 203.7,544.4 205.5,542.6 207.4,540.9 209.3,539.1 211.1,537.2 213.0,535.3 214.9,533.4 216.7,531.4 218.6,529.4 220.5,527.3 222.4,525.2 224.2,523.0
226.1,520.8 228.0,518.5 229.8,516.2 231.7,513.9 233.6,511.5 235.5,509.1 237.3,506.6 239.2,504.1 241.1,501.6 242.9,499.1 244.8,496.5 246.7,494.0 248.5,491.4 250.4,488.8 252.3,486.2 254.2,483.6
256.0,480.9 257.9,478.3 259.8,475.6 261.6,473.0 263.5,470.3 265.4,467.6 267.3,464.9 269.1,462.1 271.0,459.4 272.9,456.6 274.7,453.7 276.6,450.9 278.5,448.0 280.3,445.1 282.2,442.2 284.1,439.2
286.0,436.3 287.8,433.3 289.7,430.3 291.6,427.3 293.4,424.3 295.3,421.3 297.2,418.3 299.1,415.3 300.9,412.4 302.8,409.5 304.7,406.5 306.5,403.6 308.4,400.8 310.3,397.9 312.1,395.1 314.0,392.2
315.9,389.4 317.8,386.6 319.6,383.8 321.5,380.9 323.4,378.1 325.2,375.2 327.1,372.3 329.0,369.3 330.9,366.3 332.7,363.3 334.6,360.2 336.5,357.0 338.3,353.8 340.2,350.5 342.1,347.1 343.9,343.7
345.8,340.3 347.7,336.7 349.6,333.1 351.4,329.5 353.3,325.9 355.2,322.2 357.0,318.5 358.9,314.7 360.8,311.0 362.7,307.3 364.5,303.6 366.4,299.9 368.3,296.2 370.1,292.6 372.0,289.0 373.9,285.4
375.7,281.9 377.6,278.4 379.5,275.0 381.4,271.6 383.2,268.2 385.1,265.0 387.0,261.7 388.8,258.5 390.7,255.3 392.6,252.2 394.5,249.1 396.3,246.1 398.2,243.0 400.1,240.0 401.9,237.1 403.8,234.2
405.7,231.3 407.5,228.4 409.4,225.6 411.3,222.9 413.2,220.2 415.0,217.5 416.9,215.0 418.8,212.4 420.6,209.9 422.5,207.5 424.4,205.1 426.3,202.8 428.1,200.5 430.0,198.3 431.9,196.1 433.7,193.9
435.6,191.8 437.5,189.6 439.3,187.5 441.2,185.4 443.1,183.3 445.0,181.1 446.8,179.0 448.7,176.9 450.6,174.7 452.4,172.5 454.3,170.4 456.2,168.2 458.0,166.0 459.9,163.8 461.8,161.7 463.7,159.5
465.5,157.3 467.4,155.2 469.3,153.0 471.1,150.9 473.0,148.9 474.9,146.8 476.8,144.8 478.6,142.8 480.5,140.9 482.4,139.0 484.2,137.1 486.1,135.3 488.0,133.6 489.8,131.9 491.7,130.2 493.6,128.6
495.5,127.1 497.3,125.6 499.2,124.2 501.1,122.8 502.9,121.5 504.8,120.3 506.7,119.1 508.6,118.0 510.4,116.9 512.3,116.0 514.2,115.0 516.0,114.2 517.9,113.4 519.8,112.6 521.6,111.9 523.5,111.3
525.4,110.7 527.3,110.2 529.1,109.7 531.0,109.3 532.9,108.9 534.7,108.6 536.6,108.4 538.5,108.2 540.4,108.0 542.2,107.9 544.1,107.9 546.0,108.0 547.8,108.1 549.7,108.3 551.6,108.5 553.4,108.9
555.3,109.3 557.2,109.8 559.1,110.4 560.9,111.1 562.8,111.8 564.7,112.6 566.5,113.5 568.4,114.4 570.3,115.3 572.2,116.3 574.0,117.3 575.9,118.3 577.8,119.4 579.6,120.4 581.5,121.5 583.4,122.6
585.2,123.7 587.1,124.8 589.0,125.9 590.9,127.0 592.7,128.1 594.6,129.2 596.5,130.4 598.3,131.6 600.2,132.8 602.1,134.1 604.0,135.4 605.8,136.7 607.7,138.1 609.6,139.5 611.4,141.0 613.3,142.5
615.2,144.1 617.0,145.7 618.9,147.4 620.8,149.1 622.7,150.9 624.5,152.7 626.4,154.6 628.3,156.5 630.1,158.4 632.0,160.4 633.9,162.5 635.8,164.5 637.6,166.7 639.5,168.9 641.4,171.1 643.2,173.3
645.1,175.7 647.0,178.0 648.8,180.4 650.7,182.9 652.6,185.4 654.5,187.9 656.3,190.5 658.2,193.1 660.1,195.8 661.9,198.5 663.8,201.2 665.7,203.9 667.5,206.7 669.4,209.5 671.3,212.3 673.2,215.1
675.0,218.0 676.9,220.9 678.8,223.8 680.6,226.7 682.5,229.7 684.4,232.6 686.3,235.6 688.1,238.6 690.0,241.6 691.9,244.7 693.7,247.7 695.6,250.8 697.5,253.9 699.3,257.0 701.2,260.1 703.1,263.2
705.0,266.3 706.8,269.5 708.7,272.6 710.6,275.8 712.4,278.9 714.3,282.1 716.2,285.3 718.1,288.5 719.9,291.7 721.8,294.9 723.7,298.2 725.5,301.4 727.4,304.6 729.3,307.9 731.1,311.1 733.0,314.4
734.9,317.6 736.8,320.9 738.6,324.2 740.5,327.5 742.4,330.8 744.2,334.1 746.1,337.4 748.0,340.7 749.9,344.1 751.7,347.4 753.6,350.8 755.5,354.2 757.3,357.6 759.2,361.0 761.1,364.4 762.9,367.9
764.8,371.3 766.7,374.8 768.6,378.3 770.4,381.8 772.3,385.3 774.2,388.8 776.0,392.3 777.9,395.7 779.8,399.2 781.7,402.7 783.5,406.1 785.4,409.5 787.3,412.9 789.1,416.2 791.0,419.5 792.9,422.8
794.7,426.0 796.6,429.1 798.5,432.3 800.4,435.3 802.2,438.3 804.1,441.3 806.0,444.2 807.8,447.0 809.7,449.8 811.6,452.6 813.5,455.3 815.3,457.9 817.2,460.6 819.1,463.1 820.9,465.6 822.8,468.1
824.7,470.6 826.5,473.0 828.4,475.4 830.3,477.8 832.2,480.1 834.0,482.5 835.9,484.8 837.8,487.1 839.6,489.4 841.5,491.7 843.4,494.0 845.3,496.2 847.1,498.5 849.0,500.8 850.9,503.0 852.7,505.3
854.6,507.5 856.5,509.8 858.3,512.0 860.2,514.2 862.1,516.5 864.0,518.7 865.8,520.9 867.7,523.1 869.6,525.2 871.4,527.4 873.3,529.5 875.2,531.6 877.1,533.7 878.9,535.8 880.8,537.8 882.7,539.8
884.5,541.8 886.4,543.7 888.3,545.6 890.1,547.4 892.0,549.3 893.9,551.1 895.8,552.9 897.6,554.6 899.5,556.3 901.4,558.0 903.2,559.7 905.1,561.4 907.0,563.0 908.8,564.7 910.7,566.3 912.6,567.9
914.5,569.5 916.3,571.2 918.2,572.8 920.1,574.4 921.9,575.9 923.8,577.5 925.7,579.1 925.7,662.4 923.8,662.4 921.9,662.4 920.1,662.4 918.2,662.4 916.3,662.4 914.5,662.4 912.6,662.4 910.7,662.4
908.8,662.4 907.0,662.4 905.1,662.4 903.2,662.4 901.4,662.4 899.5,662.4 897.6,662.4 895.8,662.4 893.9,662.4 892.0,662.4 890.1,662.4 888.3,662.4 886.4,662.4 884.5,662.4 882.7,662.4 880.8,662.4
878.9,662.4 877.1,662.4 875.2,662.4 873.3,662.4 871.4,662.4 869.6,662.4 867.7,662.4 865.8,662.4 864.0,662.4 862.1,662.4 860.2,662.4 858.3,662.4 856.5,662.4 854.6,662.4 852.7,662.4 850.9,662.4
849.0,662.4 847.1,662.4 845.3,662.4 843.4,662.4 841.5,662.4 839.6,662.4 837.8,662.4 835.9,662.4 834.0,662.4 832.2,662.4 830.3,662.4 828.4,662.4 826.5,662.4 824.7,662.4 822.8,662.4 820.9,662.4
819.1,662.4 817.2,662.4 815.3,662.4 813.5,662.4 811.6,662.4 809.7,662.4 807.8,662.4 806.0,662.4 804.1,662.4 802.2,662.4 800.4,662.4 798.5,662.4 796.6,662.4 794.7,662.4 792.9,662.4 791.0,662.4
789.1,662.4 787.3,662.4 785.4,662.4 783.5,662.4 781.7,662.4 779.8,662.4 777.9,662.4 776.0,662.4 774.2,662.4 772.3,662.4 770.4,662.4 768.6,662.4 766.7,662.4 764.8,662.4 762.9,662.4 761.1,662.4
759.2,662.4 757.3,662.4 755.5,662.4 753.6,662.4 751.7,662.4 749.9,662.4 748.0,662.4 746.1,662.4 744.2,662.4 742.4,662.4 740.5,662.4 738.6,662.4 736.8,662.4 734.9,662.4 733.0,662.4 731.1,662.4
729.3,662.4 727.4,662.4 725.5,662.4 723.7,662.4 721.8,662.4 719.9,662.4 718.1,662.4 716.2,662.4 714.3,662.4 712.4,662.4 710.6,662.4 708.7,662.4 706.8,662.4 705.0,662.4 703.1,662.4 701.2,662.4
699.3,662.4 697.5,662.4 695.6,662.4 693.7,662.4 691.9,662.4 690.0,662.4 688.1,662.4 686.3,662.4 684.4,662.4 682.5,662.4 680.6,662.4 678.8,662.4 676.9,662.4 675.0,662.4 673.2,662.4 671.3,662.4
669.4,662.4 667.5,662.4 665.7,662.4 663.8,662.4 661.9,662.4 660.1,662.4 658.2,662.4 656.3,662.4 654.5,662.4 652.6,662.4 650.7,662.4 648.8,662.4 647.0,662.4 645.1,662.4 643.2,662.4 641.4,662.4
639.5,662.4 637.6,662.4 635.8,662.4 633.9,662.4 632.0,662.4 630.1,662.4 628.3,662.4 626.4,662.4 624.5,662.4 622.7,662.4 620.8,662.4 618.9,662.4 617.0,662.4 615.2,662.4 613.3,662.4 611.4,662.4
609.6,662.4 607.7,662.4 605.8,662.4 604.0,662.4 602.1,662.4 600.2,662.4 598.3,662.4 596.5,662.4 594.6,662.4 592.7,662.4 590.9,662.4 589.0,662.4 587.1,662.4 585.2,662.4 583.4,662.4 581.5,662.4
579.6,662.4 577.8,662.4 575.9,662.4 574.0,662.4 572.2,662.4 570.3,662.4 568.4,662.4 566.5,662.4 564.7,662.4 562.8,662.4 560.9,662.4 559.1,662.4 557.2,662.4 555.3,662.4 553.4,662.4 551.6,662.4
549.7,662.4 547.8,662.4 546.0,662.4 544.1,662.4 542.2,662.4 540.4,662.4 538.5,662.4 536.6,662.4 534.7,662.4 532.9,662.4 531.0,662.4 529.1,662.4 527.3,662.4 525.4,662.4 523.5,662.4 521.6,662.4
519.8,662.4 517.9,662.4 516.0,662.4 514.2,662.4 512.3,662.4 510.4,662.4 508.6,662.4 506.7,662.4 504.8,662.4 502.9,662.4 501.1,662.4 499.2,662.4 497.3,662.4 495.5,662.4 493.6,662.4 491.7,662.4
489.8,662.4 488.0,662.4 486.1,662.4 484.2,662.4 482.4,662.4 480.5,662.4 478.6,662.4 476.8,662.4 474.9,662.4 473.0,662.4 471.1,662.4 469.3,662.4 467.4,662.4 465.5,662.4 463.7,662.4 461.8,662.4
459.9,662.4 458.0,662.4 456.2,662.4 454.3,662.4 452.4,662.4 450.6,662.4 448.7,662.4 446.8,662.4 445.0,662.4 443.1,662.4 441.2,662.4 439.3,662.4 437.5,662.4 435.6,662.4 433.7,662.4 431.9,662.4
430.0,662.4 428.1,662.4 426.3,662.4 424.4,662.4 422.5,662.4 420.6,662.4 418.8,662.4 416.9,662.4 415.0,662.4 413.2,662.4 411.3,662.4 409.4,662.4 407.5,662.4 405.7,662.4 403.8,662.4 401.9,662.4
400.1,662.4 398.2,662.4 396.3,662.4 394.5,662.4 392.6,662.4 390.7,662.4 388.8,662.4 387.0,662.4 385.1,662.4 383.2,662.4 381.4,662.4 379.5,662.4 377.6,662.4 375.7,662.4 373.9,662.4 372.0,662.4
370.1,662.4 368.3,662.4 366.4,662.4 364.5,662.4 362.7,662.4 360.8,662.4 358.9,662.4 357.0,662.4 355.2,662.4 353.3,662.4 351.4,662.4 349.6,662.4 347.7,662.4 345.8,662.4 343.9,662.4 342.1,662.4
340.2,662.4 338.3,662.4 336.5,662.4 334.6,662.4 332.7,662.4 330.9,662.4 329.0,662.4 327.1,662.4 325.2,662.4 323.4,662.4 321.5,662.4 319.6,662.4 317.8,662.4 315.9,662.4 314.0,662.4 312.1,662.4
310.3,662.4 308.4,662.4 306.5,662.4 304.7,662.4 302.8,662.4 300.9,662.4 299.1,662.4 297.2,662.4 295.3,662.4 293.4,662.4 291.6,662.4 289.7,662.4 287.8,662.4 286.0,662.4 284.1,662.4 282.2,662.4
280.3,662.4 278.5,662.4 276.6,662.4 274.7,662.4 272.9,662.4 271.0,662.4 269.1,662.4 267.3,662.4 265.4,662.4 263.5,662.4 261.6,662.4 259.8,662.4 257.9,662.4 256.0,662.4 254.2,662.4 252.3,662.4
250.4,662.4 248.5,662.4 246.7,662.4 244.8,662.4 242.9,662.4 241.1,662.4 239.2,662.4 237.3,662.4 235.5,662.4 233.6,662.4 231.7,662.4 229.8,662.4 228.0,662.4 226.1,662.4 224.2,662.4 222.4,662.4
220.5,662.4 218.6,662.4 216.7,662.4 214.9,662.4 213.0,662.4 211.1,662.4 209.3,662.4 207.4,662.4 205.5,662.4 203.7,662.4 201.8,662.4 199.9,662.4 198.0,662.4 196.2,662.4 194.3,662.4 192.4,662.4
190.6,662.4 188.7,662.4 186.8,662.4 185.0,662.4 183.1,662.4 181.2,662.4 179.3,662.4 177.5,662.4 175.6,662.4 173.7,662.4 171.9,662.4 170.0,662.4 168.1,662.4 166.2,662.4 '/>
	</g>
</g>
	</g>
	<g id="gnuplot_plot_3" ><title>Point estimate</title>
<g fill="none" color="white" stroke="rgb( 31, 120, 180)" stroke-width="2.00" stroke-linecap="butt" stroke-linejoin="miter">
</g>
<g fill="none" color="black" stroke="currentColor" stroke-width="2.00" stroke-linecap="butt" stroke-linejoin="miter">
	<g transform="translate(1089.0,103.0)" stroke="none" fill="black" font-family="Helvetica" font-size="12.00"  text-anchor="start">
		<text><tspan font-family="Helvetica" >Point estimate</tspan></text>
	</g>
</g>
<g fill="none" color="black" stroke="currentColor" stroke-width="2.00" stroke-linecap="butt" stroke-linejoin="miter">
	<path stroke='rgb( 31, 120, 180)'  d='M1038.5,99.1 L1080.7,99.1 M548.3,662.4 L548.3,108.1  '/></g>
	</g>
	<g id="gnuplot_plot_4" ><title>Noise threshold</title>
<g fill="none" color="white" stroke="rgb( 31, 120, 180)" stroke-width="1.00" stroke-linecap="butt" stroke-linejoin="miter">
</g>
<g fill="none" color="black" stroke="currentColor" stroke-width="1.00" stroke-linecap="butt" stroke-linejoin="miter">
	<g transform="translate(1089.0,121.0)" stroke="none" fill="black" font-family="Helvetica" font-size="12.00"  text-anchor="start">
		<text><tspan font-family="Helvetica" >Noise threshold</tspan></text>
	</g>
</g>
<g fill="none" color="black" stroke="currentColor" stroke-width="1.00" stroke-linecap="butt" stroke-linejoin="miter">
	<g stroke='none' shape-rendering='crispEdges'>
		<polygon fill = 'rgb(227,  26,  28)' fill-opacity = '0.100000' points = '1038.5,121.6 1080.7,121.6 1080.7,112.6 1038.5,112.6 '/>
		<polygon fill = 'rgb(227,  26,  28)' fill-opacity = '0.100000' points = '546.9,54.1 546.9,54.1 546.9,662.4 546.9,662.4 '/>
	</g>
</g>
	</g>
<g fill="none" color="white" stroke="rgb(227,  26,  28)" stroke-width="2.00" stroke-linecap="butt" stroke-linejoin="miter">
</g>
<g fill="none" color="black" stroke="currentColor" stroke-width="2.00" stroke-linecap="butt" stroke-linejoin="miter">
</g>
<g fill="none" color="black" stroke="black" stroke-width="1.00" stroke-linecap="butt" stroke-linejoin="miter">
</g>
<g fill="none" color="black" stroke="currentColor" stroke-width="1.00" stroke-linecap="butt" stroke-linejoin="miter">
	<path stroke='black'  d='M80.2,54.1 L80.2,662.4 L1013.6,662.4 L1013.6,54.1 L80.2,54.1 Z  '/></g>
<g fill="none" color="black" stroke="currentColor" stroke-width="1.00" stroke-linecap="butt" stroke-linejoin="miter">
</g>
</g>
</svg>

