<?xml version="1.0" encoding="utf-8"  standalone="no"?>
<svg 
 viewBox="0 0 1280 720"
 xmlns="http://www.w3.org/2000/svg"
 xmlns:xlink="http://www.w3.org/1999/xlink"
>

<title>Gnuplot</title>
<desc>Produced by GNUPLOT 5.2 patchlevel 8 </desc>

<g id="gnuplot_canvas">

<rect x="0" y="0" width="1280" height="720" fill="none"/>
<defs>

	<circle id='gpDot' r='0.5' stroke-width='0.5' stroke='currentColor'/>
	<path id='gpPt0' stroke-width='0.222' stroke='currentColor' d='M-1,0 h2 M0,-1 v2'/>
	<path id='gpPt1' stroke-width='0.222' stroke='currentColor' d='M-1,-1 L1,1 M1,-1 L-1,1'/>
	<path id='gpPt2' stroke-width='0.222' stroke='currentColor' d='M-1,0 L1,0 M0,-1 L0,1 M-1,-1 L1,1 M-1,1 L1,-1'/>
	<rect id='gpPt3' stroke-width='0.222' stroke='currentColor' x='-1' y='-1' width='2' height='2'/>
	<rect id='gpPt4' stroke-width='0.222' stroke='currentColor' fill='currentColor' x='-1' y='-1' width='2' height='2'/>
	<circle id='gpPt5' stroke-width='0.222' stroke='currentColor' cx='0' cy='0' r='1'/>
	<use xlink:href='#gpPt5' id='gpPt6' fill='currentColor' stroke='none'/>
	<path id='gpPt7' stroke-width='0.222' stroke='currentColor' d='M0,-1.33 L-1.33,0.67 L1.33,0.67 z'/>
	<use xlink:href='#gpPt7' id='gpPt8' fill='currentColor' stroke='none'/>
	<use xlink:href='#gpPt7' id='gpPt9' stroke='currentColor' transform='rotate(180)'/>
	<use xlink:href='#gpPt9' id='gpPt10' fill='currentColor' stroke='none'/>
	<use xlink:href='#gpPt3' id='gpPt11' stroke='currentColor' transform='rotate(45)'/>
	<use xlink:href='#gpPt11' id='gpPt12' fill='currentColor' stroke='none'/>
	<path id='gpPt13' stroke-width='0.222' stroke='currentColor' d='M0,1.330 L1.265,0.411 L0.782,-1.067 L-0.782,-1.076 L-1.265,0.411 z'/>
	<use xlink:href='#gpPt13' id='gpPt14' fill='currentColor' stroke='none'/>
	<filter id='textbox' filterUnits='objectBoundingBox' x='0' y='0' height='1' width='1'>
	  <feFlood flood-color='white' flood-opacity='1' result='bgnd'/>
	  <feComposite in='SourceGraphic' in2='bgnd' operator='atop'/>
	</filter>
	<filter id='greybox' filterUnits='objectBoundingBox' x='0' y='0' height='1' width='1'>
	  <feFlood flood-color='lightgrey' flood-opacity='1' result='grey'/>
	  <feComposite in='SourceGraphic' in2='grey' operator='atop'/>
	</filter>
</defs>
<g fill="none" color="white" stroke="currentColor" stroke-width="1.00" stroke-linecap="butt" stroke-linejoin="miter">
</g>
<g fill="none" color="black" stroke="currentColor" stroke-width="1.00" stroke-linecap="butt" stroke-linejoin="miter">
	<path stroke='black'  d='M88.5,662.4 L97.5,662.4  '/>	<g transform="translate(80.2,666.3)" stroke="none" fill="black" font-family="Helvetica" font-size="12.00"  text-anchor="end">
		<text><tspan font-family="Helvetica" > 0</tspan></text>
	</g>
</g>
<g fill="none" color="black" stroke="currentColor" stroke-width="1.00" stroke-linecap="butt" stroke-linejoin="miter">
	<path stroke='black'  d='M88.5,575.5 L97.5,575.5  '/>	<g transform="translate(80.2,579.4)" stroke="none" fill="black" font-family="Helvetica" font-size="12.00"  text-anchor="end">
		<text><tspan font-family="Helvetica" > 2000</tspan></text>
	</g>
</g>
<g fill="none" color="black" stroke="currentColor" stroke-width="1.00" stroke-linecap="butt" stroke-linejoin="miter">
	<path stroke='black'  d='M88.5,488.6 L97.5,488.6  '/>	<g transform="translate(80.2,492.5)" stroke="none" fill="black" font-family="Helvetica" font-size="12.00"  text-anchor="end">
		<text><tspan font-family="Helvetica" > 4000</tspan></text>
	</g>
</g>
<g fill="none" color="black" stroke="currentColor" stroke-width="1.00" stroke-linecap="butt" stroke-linejoin="miter">
	<path stroke='black'  d='M88.5,401.7 L97.5,401.7  '/>	<g transform="translate(80.2,405.6)" stroke="none" fill="black" font-family="Helvetica" font-size="12.00"  text-anchor="end">
		<text><tspan font-family="Helvetica" > 6000</tspan></text>
	</g>
</g>
<g fill="none" color="black" stroke="currentColor" stroke-width="1.00" stroke-linecap="butt" stroke-linejoin="miter">
	<path stroke='black'  d='M88.5,314.8 L97.5,314.8  '/>	<g transform="translate(80.2,318.7)" stroke="none" fill="black" font-family="Helvetica" font-size="12.00"  text-anchor="end">
		<text><tspan font-family="Helvetica" > 8000</tspan></text>
	</g>
</g>
<g fill="none" color="black" stroke="currentColor" stroke-width="1.00" stroke-linecap="butt" stroke-linejoin="miter">
	<path stroke='black'  d='M88.5,227.9 L97.5,227.9  '/>	<g transform="translate(80.2,231.8)" stroke="none" fill="black" font-family="Helvetica" font-size="12.00"  text-anchor="end">
		<text><tspan font-family="Helvetica" > 10000</tspan></text>
	</g>
</g>
<g fill="none" color="black" stroke="currentColor" stroke-width="1.00" stroke-linecap="butt" stroke-linejoin="miter">
	<path stroke='black'  d='M88.5,141.0 L97.5,141.0  '/>	<g transform="translate(80.2,144.9)" stroke="none" fill="black" font-family="Helvetica" font-size="12.00"  text-anchor="end">
		<text><tspan font-family="Helvetica" > 12000</tspan></text>
	</g>
</g>
<g fill="none" color="black" stroke="currentColor" stroke-width="1.00" stroke-linecap="butt" stroke-linejoin="miter">
	<path stroke='black'  d='M88.5,54.1 L97.5,54.1  '/>	<g transform="translate(80.2,58.0)" stroke="none" fill="black" font-family="Helvetica" font-size="12.00"  text-anchor="end">
		<text><tspan font-family="Helvetica" > 14000</tspan></text>
	</g>
</g>
<g fill="none" color="black" stroke="currentColor" stroke-width="1.00" stroke-linecap="butt" stroke-linejoin="miter">
	<path stroke='black'  d='M208.2,662.4 L208.2,653.4  '/>	<g transform="translate(208.2,684.3)" stroke="none" fill="black" font-family="Helvetica" font-size="12.00"  text-anchor="middle">
		<text><tspan font-family="Helvetica" >-70.25</tspan></text>
	</g>
</g>
<g fill="none" color="black" stroke="currentColor" stroke-width="1.00" stroke-linecap="butt" stroke-linejoin="miter">
	<path stroke='black'  d='M330.3,662.4 L330.3,653.4  '/>	<g transform="translate(330.3,684.3)" stroke="none" fill="black" font-family="Helvetica" font-size="12.00"  text-anchor="middle">
		<text><tspan font-family="Helvetica" >-70.248</tspan></text>
	</g>
</g>
<g fill="none" color="black" stroke="currentColor" stroke-width="1.00" stroke-linecap="butt" stroke-linejoin="miter">
	<path stroke='black'  d='M452.3,662.4 L452.3,653.4  '/>	<g transform="translate(452.3,684.3)" stroke="none" fill="black" font-family="Helvetica" font-size="12.00"  text-anchor="middle">
		<text><tspan font-family="Helvetica" >-70.246</tspan></text>
	</g>
</g>
<g fill="none" color="black" stroke="currentColor" stroke-width="1.00" stroke-linecap="butt" stroke-linejoin="miter">
	<path stroke='black'  d='M574.4,662.4 L574.4,653.4  '/>	<g transform="translate(574.4,684.3)" stroke="none" fill="black" font-family="Helvetica" font-size="12.00"  text-anchor="middle">
		<text><tspan font-family="Helvetica" >-70.244</tspan></text>
	</g>
</g>
<g fill="none" color="black" stroke="currentColor" stroke-width="1.00" stroke-linecap="butt" stroke-linejoin="miter">
	<path stroke='black'  d='M696.4,662.4 L696.4,653.4  '/>	<g transform="translate(696.4,684.3)" stroke="none" fill="black" font-family="Helvetica" font-size="12.00"  text-anchor="middle">
		<text><tspan font-family="Helvetica" >-70.242</tspan></text>
	</g>
</g>
<g fill="none" color="black" stroke="currentColor" stroke-width="1.00" stroke-linecap="butt" stroke-linejoin="miter">
	<path stroke='black'  d='M818.5,662.4 L818.5,653.4  '/>	<g transform="translate(818.5,684.3)" stroke="none" fill="black" font-family="Helvetica" font-size="12.00"  text-anchor="middle">
		<text><tspan font-family="Helvetica" >-70.24</tspan></text>
	</g>
</g>
<g fill="none" color="black" stroke="currentColor" stroke-width="1.00" stroke-linecap="butt" stroke-linejoin="miter">
	<path stroke='black'  d='M940.5,662.4 L940.5,653.4  '/>	<g transform="translate(940.5,684.3)" stroke="none" fill="black" font-family="Helvetica" font-size="12.00"  text-anchor="middle">
		<text><tspan font-family="Helvetica" >-70.238</tspan></text>
	</g>
</g>
<g fill="none" color="black" stroke="currentColor" stroke-width="1.00" stroke-linecap="butt" stroke-linejoin="miter">
</g>
<g fill="none" color="black" stroke="currentColor" stroke-width="1.00" stroke-linecap="butt" stroke-linejoin="miter">
	<path stroke='black'  d='M88.5,54.1 L88.5,662.4 L1013.6,662.4 L1013.6,54.1 L88.5,54.1 Z  '/></g>
<g fill="none" color="black" stroke="currentColor" stroke-width="1.00" stroke-linecap="butt" stroke-linejoin="miter">
	<g transform="translate(19.0,358.3) rotate(270)" stroke="none" fill="black" font-family="Helvetica" font-size="12.00"  text-anchor="middle">
		<text><tspan font-family="Helvetica" >Density (a.u.)</tspan></text>
	</g>
</g>
<g fill="none" color="black" stroke="currentColor" stroke-width="1.00" stroke-linecap="butt" stroke-linejoin="miter">
	<g transform="translate(551.0,711.3)" stroke="none" fill="black" font-family="Helvetica" font-size="12.00"  text-anchor="middle">
		<text><tspan font-family="Helvetica" >Relative change (%)</tspan></text>
	</g>
</g>
<g fill="none" color="black" stroke="currentColor" stroke-width="1.00" stroke-linecap="butt" stroke-linejoin="miter">
	<g transform="translate(551.0,31.0)" stroke="none" fill="black" font-family="Helvetica" font-size="12.00"  text-anchor="middle">
		<text><tspan font-family="Helvetica" >bench_group/blake3/393216: median</tspan></text>
	</g>
</g>
<g fill="none" color="black" stroke="currentColor" stroke-width="1.00" stroke-linecap="butt" stroke-linejoin="miter">
</g>
	<g id="gnuplot_plot_1" ><title>Bootstrap distribution</title>
<g fill="none" color="white" stroke="currentColor" stroke-width="2.00" stroke-linecap="butt" stroke-linejoin="miter">
</g>
<g fill="none" color="black" stroke="currentColor" stroke-width="2.00" stroke-linecap="butt" stroke-linejoin="miter">
	<g transform="translate(1089.0,67.0)" stroke="none" fill="black" font-family="Helvetica" font-size="12.00"  text-anchor="start">
		<text><tspan font-family="Helvetica" >Bootstrap distribution</tspan></text>
	</g>
</g>
<g fill="none" color="black" stroke="currentColor" stroke-width="2.00" stroke-linecap="butt" stroke-linejoin="miter">
	<path stroke='rgb( 31, 120, 180)'  d='M1038.5,63.1 L1080.7,63.1 M88.5,628.8 L90.4,628.3 L92.2,627.8 L94.1,627.3 L95.9,626.8 L97.8,626.3
		L99.6,625.9 L101.5,625.4 L103.3,624.9 L105.2,624.5 L107.0,624.1 L108.9,623.7 L110.7,623.3 L112.6,622.9
		L114.5,622.6 L116.3,622.2 L118.2,621.9 L120.0,621.6 L121.9,621.3 L123.7,621.0 L125.6,620.6 L127.4,620.3
		L129.3,619.9 L131.1,619.6 L133.0,619.2 L134.8,618.7 L136.7,618.3 L138.6,617.8 L140.4,617.3 L142.3,616.7
		L144.1,616.1 L146.0,615.5 L147.8,614.8 L149.7,614.1 L151.5,613.4 L153.4,612.6 L155.2,611.8 L157.1,611.0
		L158.9,610.1 L160.8,609.2 L162.7,608.3 L164.5,607.3 L166.4,606.3 L168.2,605.3 L170.1,604.2 L171.9,603.1
		L173.8,601.9 L175.6,600.7 L177.5,599.5 L179.3,598.2 L181.2,596.9 L183.0,595.5 L184.9,594.1 L186.8,592.7
		L188.6,591.2 L190.5,589.6 L192.3,588.1 L194.2,586.5 L196.0,584.8 L197.9,583.2 L199.7,581.5 L201.6,579.8
		L203.4,578.1 L205.3,576.4 L207.2,574.7 L209.0,573.1 L210.9,571.4 L212.7,569.7 L214.6,568.1 L216.4,566.5
		L218.3,564.9 L220.1,563.3 L222.0,561.7 L223.8,560.2 L225.7,558.6 L227.5,557.1 L229.4,555.6 L231.3,554.1
		L233.1,552.6 L235.0,551.1 L236.8,549.7 L238.7,548.2 L240.5,546.8 L242.4,545.4 L244.2,544.0 L246.1,542.6
		L247.9,541.3 L249.8,539.9 L251.6,538.6 L253.5,537.3 L255.4,536.0 L257.2,534.8 L259.1,533.5 L260.9,532.3
		L262.8,531.0 L264.6,529.7 L266.5,528.4 L268.3,527.1 L270.2,525.8 L272.0,524.4 L273.9,522.9 L275.7,521.4
		L277.6,519.9 L279.5,518.3 L281.3,516.6 L283.2,514.8 L285.0,513.0 L286.9,511.1 L288.7,509.1 L290.6,507.1
		L292.4,505.0 L294.3,502.9 L296.1,500.7 L298.0,498.5 L299.8,496.2 L301.7,493.9 L303.6,491.6 L305.4,489.2
		L307.3,486.8 L309.1,484.4 L311.0,481.9 L312.8,479.4 L314.7,476.9 L316.5,474.4 L318.4,471.9 L320.2,469.3
		L322.1,466.8 L323.9,464.2 L325.8,461.7 L327.7,459.1 L329.5,456.6 L331.4,454.0 L333.2,451.5 L335.1,449.0
		L336.9,446.5 L338.8,444.0 L340.6,441.5 L342.5,439.1 L344.3,436.6 L346.2,434.2 L348.0,431.7 L349.9,429.2
		L351.8,426.8 L353.6,424.3 L355.5,421.8 L357.3,419.3 L359.2,416.8 L361.0,414.3 L362.9,411.8 L364.7,409.3
		L366.6,406.8 L368.4,404.3 L370.3,401.9 L372.1,399.4 L374.0,397.0 L375.9,394.6 L377.7,392.3 L379.6,390.0
		L381.4,387.7 L383.3,385.5 L385.1,383.3 L387.0,381.1 L388.8,379.0 L390.7,376.8 L392.5,374.7 L394.4,372.6
		L396.2,370.5 L398.1,368.4 L400.0,366.2 L401.8,364.1 L403.7,361.9 L405.5,359.7 L407.4,357.4 L409.2,355.2
		L411.1,352.9 L412.9,350.5 L414.8,348.2 L416.6,345.9 L418.5,343.5 L420.3,341.2 L422.2,338.9 L424.1,336.6
		L425.9,334.4 L427.8,332.3 L429.6,330.2 L431.5,328.2 L433.3,326.3 L435.2,324.5 L437.0,322.9 L438.9,321.3
		L440.7,319.9 L442.6,318.6 L444.5,317.4 L446.3,316.3 L448.2,315.3 L450.0,314.3 L451.9,313.4 L453.7,312.5
		L455.6,311.6 L457.4,310.7 L459.3,309.7 L461.1,308.7 L463.0,307.6 L464.8,306.3 L466.7,305.0 L468.6,303.5
		L470.4,301.8 L472.3,300.1 L474.1,298.2 L476.0,296.1 L477.8,294.0 L479.7,291.7 L481.5,289.4 L483.4,287.0
		L485.2,284.5 L487.1,282.0 L488.9,279.5 L490.8,277.0 L492.7,274.4 L494.5,271.9 L496.4,269.5 L498.2,267.0
		L500.1,264.6 L501.9,262.2 L503.8,259.8 L505.6,257.4 L507.5,255.0 L509.3,252.7 L511.2,250.3 L513.0,247.9
		L514.9,245.4 L516.8,243.0 L518.6,240.5 L520.5,238.1 L522.3,235.6 L524.2,233.1 L526.0,230.5 L527.9,228.1
		L529.7,225.6 L531.6,223.1 L533.4,220.7 L535.3,218.4 L537.1,216.1 L539.0,213.8 L540.9,211.7 L542.7,209.6
		L544.6,207.6 L546.4,205.7 L548.3,203.9 L550.1,202.2 L552.0,200.6 L553.8,199.1 L555.7,197.7 L557.5,196.5
		L559.4,195.4 L561.2,194.4 L563.1,193.6 L565.0,193.0 L566.8,192.5 L568.7,192.1 L570.5,191.9 L572.4,191.8
		L574.2,191.8 L576.1,191.9 L577.9,192.2 L579.8,192.4 L581.6,192.7 L583.5,192.9 L585.3,193.1 L587.2,193.2
		L589.1,193.1 L590.9,192.9 L592.8,192.4 L594.6,191.7 L596.5,190.7 L598.3,189.4 L600.2,187.8 L602.0,185.9
		L603.9,183.6 L605.7,181.0 L607.6,178.0 L609.4,174.7 L611.3,171.1 L613.2,167.2 L615.0,163.1 L616.9,158.7
		L618.7,154.2 L620.6,149.6 L622.4,144.9 L624.3,140.2 L626.1,135.5 L628.0,130.9 L629.8,126.4 L631.7,122.1
		L633.5,118.0 L635.4,114.2 L637.3,110.6 L639.1,107.4 L641.0,104.5 L642.8,102.0 L644.7,99.8 L646.5,98.1
		L648.4,96.7 L650.2,95.6 L652.1,94.9 L653.9,94.6 L655.8,94.6 L657.6,94.8 L659.5,95.3 L661.4,96.0
		L663.2,97.0 L665.1,98.0 L666.9,99.2 L668.8,100.5 L670.6,101.8 L672.5,103.2 L674.3,104.5 L676.2,105.8
		L678.0,107.1 L679.9,108.2 L681.8,109.2 L683.6,110.0 L685.5,110.6 L687.3,111.1 L689.2,111.3 L691.0,111.3
		L692.9,111.0 L694.7,110.5 L696.6,109.7 L698.4,108.7 L700.3,107.5 L702.1,106.0 L704.0,104.4 L705.9,102.6
		L707.7,100.7 L709.6,98.7 L711.4,96.7 L713.3,94.7 L715.1,92.7 L717.0,90.9 L718.8,89.3 L720.7,87.8
		L722.5,86.7 L724.4,85.9 L726.2,85.4 L728.1,85.3 L730.0,85.7 L731.8,86.5 L733.7,87.8 L735.5,89.6
		L737.4,91.9 L739.2,94.7 L741.1,98.0 L742.9,101.8 L744.8,106.1 L746.6,110.8 L748.5,116.0 L750.3,121.5
		L752.2,127.5 L754.1,133.7 L755.9,140.3 L757.8,147.1 L759.6,154.1 L761.5,161.2 L763.3,168.5 L765.2,175.8
		L767.0,183.2 L768.9,190.4 L770.7,197.6 L772.6,204.6 L774.4,211.5 L776.3,218.0 L778.2,224.3 L780.0,230.3
		L781.9,236.0 L783.7,241.2 L785.6,246.1 L787.4,250.6 L789.3,254.7 L791.1,258.5 L793.0,261.8 L794.8,264.8
		L796.7,267.6 L798.5,270.0 L800.4,272.3 L802.3,274.4 L804.1,276.4 L806.0,278.5 L807.8,280.5 L809.7,282.7
		L811.5,285.0 L813.4,287.6 L815.2,290.5 L817.1,293.7 L818.9,297.3 L820.8,301.2 L822.6,305.7 L824.5,310.5
		L826.4,315.8 L828.2,321.4 L830.1,327.5 L831.9,334.0 L833.8,340.8 L835.6,347.9 L837.5,355.3 L839.3,362.9
		L841.2,370.6 L843.0,378.4 L844.9,386.3 L846.7,394.2 L848.6,402.0 L850.5,409.8 L852.3,417.4 L854.2,424.9
		L856.0,432.2 L857.9,439.2 L859.7,446.1 L861.6,452.7 L863.4,459.0 L865.3,465.1 L867.1,471.0 L869.0,476.5
		L870.8,481.8 L872.7,486.9 L874.6,491.7 L876.4,496.2 L878.3,500.5 L880.1,504.5 L882.0,508.4 L883.8,511.9
		L885.7,515.3 L887.5,518.5 L889.4,521.4 L891.2,524.1 L893.1,526.7 L894.9,529.1 L896.8,531.2 L898.7,533.3
		L900.5,535.2 L902.4,536.9 L904.2,538.5 L906.1,540.1 L907.9,541.5 L909.8,542.9 L911.6,544.3 L913.5,545.6
		L915.3,546.9 L917.2,548.2 L919.1,549.5 L920.9,550.9 L922.8,552.3 L924.6,553.8 L926.5,555.3 L928.3,557.0
		L930.2,558.7 L932.0,560.5 L933.9,562.4 L935.7,564.4 L937.6,566.5 L939.4,568.6 L941.3,570.9 L943.2,573.2
		L945.0,575.5 L946.9,577.9 L948.7,580.3 L950.6,582.8 L952.4,585.2 L954.3,587.7 L956.1,590.1 L958.0,592.5
		L959.8,594.9 L961.7,597.2 L963.5,599.5 L965.4,601.8 L967.3,603.9 L969.1,606.0 L971.0,608.1 L972.8,610.0
		L974.7,611.9 L976.5,613.7 L978.4,615.4 L980.2,617.1 L982.1,618.7 L983.9,620.2 L985.8,621.6 L987.6,623.0
		L989.5,624.3 L991.4,625.6 L993.2,626.8 L995.1,627.9 L996.9,629.0 L998.8,630.0 L1000.6,630.9 L1002.5,631.8
		L1004.3,632.7 L1006.2,633.5 L1008.0,634.2 L1009.9,634.9 L1011.7,635.6 L1013.6,636.2  '/></g>
	</g>
	<g id="gnuplot_plot_2" ><title>Confidence interval</title>
<g fill="none" color="white" stroke="rgb( 31, 120, 180)" stroke-width="1.00" stroke-linecap="butt" stroke-linejoin="miter">
</g>
<g fill="none" color="black" stroke="currentColor" stroke-width="1.00" stroke-linecap="butt" stroke-linejoin="miter">
	<g transform="translate(1089.0,85.0)" stroke="none" fill="black" font-family="Helvetica" font-size="12.00"  text-anchor="start">
		<text><tspan font-family="Helvetica" >Confidence interval</tspan></text>
	</g>
</g>
<g fill="none" color="black" stroke="currentColor" stroke-width="1.00" stroke-linecap="butt" stroke-linejoin="miter">
	<g stroke='none' shape-rendering='crispEdges'>
		<polygon fill = 'rgb( 31, 120, 180)' fill-opacity = '0.250000' points = '1038.5,85.6 1080.7,85.6 1080.7,76.6 1038.5,76.6 '/>
		<polygon fill = 'rgb( 31, 120, 180)' fill-opacity = '0.250000' points = '173.8,601.9 175.6,600.7 177.5,599.5 179.3,598.2 181.2,596.9 183.0,595.5 184.9,594.1 186.8,592.7 188.6,591.2 190.5,589.6 192.3,588.1 194.2,586.5 196.0,584.8 197.9,583.2 199.7,581.5 201.6,579.8
203.4,578.1 205.3,576.4 207.2,574.7 209.0,573.1 210.9,571.4 212.7,569.7 214.6,568.1 216.4,566.5 218.3,564.9 220.1,563.3 222.0,561.7 223.8,560.2 225.7,558.6 227.5,557.1 229.4,555.6 231.3,554.1
233.1,552.6 235.0,551.1 236.8,549.7 238.7,548.2 240.5,546.8 242.4,545.4 244.2,544.0 246.1,542.6 247.9,541.3 249.8,539.9 251.6,538.6 253.5,537.3 255.4,536.0 257.2,534.8 259.1,533.5 260.9,532.3
262.8,531.0 264.6,529.7 266.5,528.4 268.3,527.1 270.2,525.8 272.0,524.4 273.9,522.9 275.7,521.4 277.6,519.9 279.5,518.3 281.3,516.6 283.2,514.8 285.0,513.0 286.9,511.1 288.7,509.1 290.6,507.1
292.4,505.0 294.3,502.9 296.1,500.7 298.0,498.5 299.8,496.2 301.7,493.9 303.6,491.6 305.4,489.2 307.3,486.8 309.1,484.4 311.0,481.9 312.8,479.4 314.7,476.9 316.5,474.4 318.4,471.9 320.2,469.3
322.1,466.8 323.9,464.2 325.8,461.7 327.7,459.1 329.5,456.6 331.4,454.0 333.2,451.5 335.1,449.0 336.9,446.5 338.8,444.0 340.6,441.5 342.5,439.1 344.3,436.6 346.2,434.2 348.0,431.7 349.9,429.2
351.8,426.8 353.6,424.3 355.5,421.8 357.3,419.3 359.2,416.8 361.0,414.3 362.9,411.8 364.7,409.3 366.6,406.8 368.4,404.3 370.3,401.9 372.1,399.4 374.0,397.0 375.9,394.6 377.7,392.3 379.6,390.0
381.4,387.7 383.3,385.5 385.1,383.3 387.0,381.1 388.8,379.0 390.7,376.8 392.5,374.7 394.4,372.6 396.2,370.5 398.1,368.4 400.0,366.2 401.8,364.1 403.7,361.9 405.5,359.7 407.4,357.4 409.2,355.2
411.1,352.9 412.9,350.5 414.8,348.2 416.6,345.9 418.5,343.5 420.3,341.2 422.2,338.9 424.1,336.6 425.9,334.4 427.8,332.3 429.6,330.2 431.5,328.2 433.3,326.3 435.2,324.5 437.0,322.9 438.9,321.3
440.7,319.9 442.6,318.6 444.5,317.4 446.3,316.3 448.2,315.3 450.0,314.3 451.9,313.4 453.7,312.5 455.6,311.6 457.4,310.7 459.3,309.7 461.1,308.7 463.0,307.6 464.8,306.3 466.7,305.0 468.6,303.5
470.4,301.8 472.3,300.1 474.1,298.2 476.0,296.1 477.8,294.0 479.7,291.7 481.5,289.4 483.4,287.0 485.2,284.5 487.1,282.0 488.9,279.5 490.8,277.0 492.7,274.4 494.5,271.9 496.4,269.5 498.2,267.0
500.1,264.6 501.9,262.2 503.8,259.8 505.6,257.4 507.5,255.0 509.3,252.7 511.2,250.3 513.0,247.9 514.9,245.4 516.8,243.0 518.6,240.5 520.5,238.1 522.3,235.6 524.2,233.1 526.0,230.5 527.9,228.1
529.7,225.6 531.6,223.1 533.4,220.7 535.3,218.4 537.1,216.1 539.0,213.8 540.9,211.7 542.7,209.6 544.6,207.6 546.4,205.7 548.3,203.9 550.1,202.2 552.0,200.6 553.8,199.1 555.7,197.7 557.5,196.5
559.4,195.4 561.2,194.4 563.1,193.6 565.0,193.0 566.8,192.5 568.7,192.1 570.5,191.9 572.4,191.8 574.2,191.8 576.1,191.9 577.9,192.2 579.8,192.4 581.6,192.7 583.5,192.9 585.3,193.1 587.2,193.2
589.1,193.1 590.9,192.9 592.8,192.4 594.6,191.7 596.5,190.7 598.3,189.4 600.2,187.8 602.0,185.9 603.9,183.6 605.7,181.0 607.6,178.0 609.4,174.7 611.3,171.1 613.2,167.2 615.0,163.1 616.9,158.7
618.7,154.2 620.6,149.6 622.4,144.9 624.3,140.2 626.1,135.5 628.0,130.9 629.8,126.4 631.7,122.1 633.5,118.0 635.4,114.2 637.3,110.6 639.1,107.4 641.0,104.5 642.8,102.0 644.7,99.8 646.5,98.1
648.4,96.7 650.2,95.6 652.1,94.9 653.9,94.6 655.8,94.6 657.6,94.8 659.5,95.3 661.4,96.0 663.2,97.0 665.1,98.0 666.9,99.2 668.8,100.5 670.6,101.8 672.5,103.2 674.3,104.5 676.2,105.8
678.0,107.1 679.9,108.2 681.8,109.2 683.6,110.0 685.5,110.6 687.3,111.1 689.2,111.3 691.0,111.3 692.9,111.0 694.7,110.5 696.6,109.7 698.4,108.7 700.3,107.5 702.1,106.0 704.0,104.4 705.9,102.6
707.7,100.7 709.6,98.7 711.4,96.7 713.3,94.7 715.1,92.7 717.0,90.9 718.8,89.3 720.7,87.8 722.5,86.7 724.4,85.9 726.2,85.4 728.1,85.3 730.0,85.7 731.8,86.5 733.7,87.8 735.5,89.6
737.4,91.9 739.2,94.7 741.1,98.0 742.9,101.8 744.8,106.1 746.6,110.8 748.5,116.0 750.3,121.5 752.2,127.5 754.1,133.7 755.9,140.3 757.8,147.1 759.6,154.1 761.5,161.2 763.3,168.5 765.2,175.8
767.0,183.2 768.9,190.4 770.7,197.6 772.6,204.6 774.4,211.5 776.3,218.0 778.2,224.3 780.0,230.3 781.9,236.0 783.7,241.2 785.6,246.1 787.4,250.6 789.3,254.7 791.1,258.5 793.0,261.8 794.8,264.8
796.7,267.6 798.5,270.0 800.4,272.3 802.3,274.4 804.1,276.4 806.0,278.5 807.8,280.5 809.7,282.7 811.5,285.0 813.4,287.6 815.2,290.5 817.1,293.7 818.9,297.3 820.8,301.2 822.6,305.7 824.5,310.5
826.4,315.8 828.2,321.4 830.1,327.5 831.9,334.0 833.8,340.8 835.6,347.9 837.5,355.3 839.3,362.9 841.2,370.6 843.0,378.4 844.9,386.3 846.7,394.2 848.6,402.0 850.5,409.8 852.3,417.4 854.2,424.9
856.0,432.2 857.9,439.2 859.7,446.1 861.6,452.7 863.4,459.0 865.3,465.1 867.1,471.0 869.0,476.5 870.8,481.8 872.7,486.9 874.6,491.7 876.4,496.2 878.3,500.5 880.1,504.5 882.0,508.4 883.8,511.9
885.7,515.3 887.5,518.5 889.4,521.4 891.2,524.1 893.1,526.7 894.9,529.1 896.8,531.2 898.7,533.3 900.5,535.2 902.4,536.9 904.2,538.5 906.1,540.1 907.9,541.5 909.8,542.9 911.6,544.3 913.5,545.6
915.3,546.9 917.2,548.2 919.1,549.5 920.9,550.9 922.8,552.3 924.6,553.8 926.5,555.3 926.5,662.4 924.6,662.4 922.8,662.4 920.9,662.4 919.1,662.4 917.2,662.4 915.3,662.4 913.5,662.4 911.6,662.4
909.8,662.4 907.9,662.4 906.1,662.4 904.2,662.4 902.4,662.4 900.5,662.4 898.7,662.4 896.8,662.4 894.9,662.4 893.1,662.4 891.2,662.4 889.4,662.4 887.5,662.4 885.7,662.4 883.8,662.4 882.0,662.4
880.1,662.4 878.3,662.4 876.4,662.4 874.6,662.4 872.7,662.4 870.8,662.4 869.0,662.4 867.1,662.4 865.3,662.4 863.4,662.4 861.6,662.4 859.7,662.4 857.9,662.4 856.0,662.4 854.2,662.4 852.3,662.4
850.5,662.4 848.6,662.4 846.7,662.4 844.9,662.4 843.0,662.4 841.2,662.4 839.3,662.4 837.5,662.4 835.6,662.4 833.8,662.4 831.9,662.4 830.1,662.4 828.2,662.4 826.4,662.4 824.5,662.4 822.6,662.4
820.8,662.4 818.9,662.4 817.1,662.4 815.2,662.4 813.4,662.4 811.5,662.4 809.7,662.4 807.8,662.4 806.0,662.4 804.1,662.4 802.3,662.4 800.4,662.4 798.5,662.4 796.7,662.4 794.8,662.4 793.0,662.4
791.1,662.4 789.3,662.4 787.4,662.4 785.6,662.4 783.7,662.4 781.9,662.4 780.0,662.4 778.2,662.4 776.3,662.4 774.4,662.4 772.6,662.4 770.7,662.4 768.9,662.4 767.0,662.4 765.2,662.4 763.3,662.4
761.5,662.4 759.6,662.4 757.8,662.4 755.9,662.4 754.1,662.4 752.2,662.4 750.3,662.4 748.5,662.4 746.6,662.4 744.8,662.4 742.9,662.4 741.1,662.4 739.2,662.4 737.4,662.4 735.5,662.4 733.7,662.4
731.8,662.4 730.0,662.4 728.1,662.4 726.2,662.4 724.4,662.4 722.5,662.4 720.7,662.4 718.8,662.4 717.0,662.4 715.1,662.4 713.3,662.4 711.4,662.4 709.6,662.4 707.7,662.4 705.9,662.4 704.0,662.4
702.1,662.4 700.3,662.4 698.4,662.4 696.6,662.4 694.7,662.4 692.9,662.4 691.0,662.4 689.2,662.4 687.3,662.4 685.5,662.4 683.6,662.4 681.8,662.4 679.9,662.4 678.0,662.4 676.2,662.4 674.3,662.4
672.5,662.4 670.6,662.4 668.8,662.4 666.9,662.4 665.1,662.4 663.2,662.4 661.4,662.4 659.5,662.4 657.6,662.4 655.8,662.4 653.9,662.4 652.1,662.4 650.2,662.4 648.4,662.4 646.5,662.4 644.7,662.4
642.8,662.4 641.0,662.4 639.1,662.4 637.3,662.4 635.4,662.4 633.5,662.4 631.7,662.4 629.8,662.4 628.0,662.4 626.1,662.4 624.3,662.4 622.4,662.4 620.6,662.4 618.7,662.4 616.9,662.4 615.0,662.4
613.2,662.4 611.3,662.4 609.4,662.4 607.6,662.4 605.7,662.4 603.9,662.4 602.0,662.4 600.2,662.4 598.3,662.4 596.5,662.4 594.6,662.4 592.8,662.4 590.9,662.4 589.1,662.4 587.2,662.4 585.3,662.4
583.5,662.4 581.6,662.4 579.8,662.4 577.9,662.4 576.1,662.4 574.2,662.4 572.4,662.4 570.5,662.4 568.7,662.4 566.8,662.4 565.0,662.4 563.1,662.4 561.2,662.4 559.4,662.4 557.5,662.4 555.7,662.4
553.8,662.4 552.0,662.4 550.1,662.4 548.3,662.4 546.4,662.4 544.6,662.4 542.7,662.4 540.9,662.4 539.0,662.4 537.1,662.4 535.3,662.4 533.4,662.4 531.6,662.4 529.7,662.4 527.9,662.4 526.0,662.4
524.2,662.4 522.3,662.4 520.5,662.4 518.6,662.4 516.8,662.4 514.9,662.4 513.0,662.4 511.2,662.4 509.3,662.4 507.5,662.4 505.6,662.4 503.8,662.4 501.9,662.4 500.1,662.4 498.2,662.4 496.4,662.4
494.5,662.4 492.7,662.4 490.8,662.4 488.9,662.4 487.1,662.4 485.2,662.4 483.4,662.4 481.5,662.4 479.7,662.4 477.8,662.4 476.0,662.4 474.1,662.4 472.3,662.4 470.4,662.4 468.6,662.4 466.7,662.4
464.8,662.4 463.0,662.4 461.1,662.4 459.3,662.4 457.4,662.4 455.6,662.4 453.7,662.4 451.9,662.4 450.0,662.4 448.2,662.4 446.3,662.4 444.5,662.4 442.6,662.4 440.7,662.4 438.9,662.4 437.0,662.4
435.2,662.4 433.3,662.4 431.5,662.4 429.6,662.4 427.8,662.4 425.9,662.4 424.1,662.4 422.2,662.4 420.3,662.4 418.5,662.4 416.6,662.4 414.8,662.4 412.9,662.4 411.1,662.4 409.2,662.4 407.4,662.4
405.5,662.4 403.7,662.4 401.8,662.4 400.0,662.4 398.1,662.4 396.2,662.4 394.4,662.4 392.5,662.4 390.7,662.4 388.8,662.4 387.0,662.4 385.1,662.4 383.3,662.4 381.4,662.4 379.6,662.4 377.7,662.4
375.9,662.4 374.0,662.4 372.1,662.4 370.3,662.4 368.4,662.4 366.6,662.4 364.7,662.4 362.9,662.4 361.0,662.4 359.2,662.4 357.3,662.4 355.5,662.4 353.6,662.4 351.8,662.4 349.9,662.4 348.0,662.4
346.2,662.4 344.3,662.4 342.5,662.4 340.6,662.4 338.8,662.4 336.9,662.4 335.1,662.4 333.2,662.4 331.4,662.4 329.5,662.4 327.7,662.4 325.8,662.4 323.9,662.4 322.1,662.4 320.2,662.4 318.4,662.4
316.5,662.4 314.7,662.4 312.8,662.4 311.0,662.4 309.1,662.4 307.3,662.4 305.4,662.4 303.6,662.4 301.7,662.4 299.8,662.4 298.0,662.4 296.1,662.4 294.3,662.4 292.4,662.4 290.6,662.4 288.7,662.4
286.9,662.4 285.0,662.4 283.2,662.4 281.3,662.4 279.5,662.4 277.6,662.4 275.7,662.4 273.9,662.4 272.0,662.4 270.2,662.4 268.3,662.4 266.5,662.4 264.6,662.4 262.8,662.4 260.9,662.4 259.1,662.4
257.2,662.4 255.4,662.4 253.5,662.4 251.6,662.4 249.8,662.4 247.9,662.4 246.1,662.4 244.2,662.4 242.4,662.4 240.5,662.4 238.7,662.4 236.8,662.4 235.0,662.4 233.1,662.4 231.3,662.4 229.4,662.4
227.5,662.4 225.7,662.4 223.8,662.4 222.0,662.4 220.1,662.4 218.3,662.4 216.4,662.4 214.6,662.4 212.7,662.4 210.9,662.4 209.0,662.4 207.2,662.4 205.3,662.4 203.4,662.4 201.6,662.4 199.7,662.4
197.9,662.4 196.0,662.4 194.2,662.4 192.3,662.4 190.5,662.4 188.6,662.4 186.8,662.4 184.9,662.4 183.0,662.4 181.2,662.4 179.3,662.4 177.5,662.4 175.6,662.4 173.8,662.4 '/>
	</g>
</g>
	</g>
	<g id="gnuplot_plot_3" ><title>Point estimate</title>
<g fill="none" color="white" stroke="rgb( 31, 120, 180)" stroke-width="2.00" stroke-linecap="butt" stroke-linejoin="miter">
</g>
<g fill="none" color="black" stroke="currentColor" stroke-width="2.00" stroke-linecap="butt" stroke-linejoin="miter">
	<g transform="translate(1089.0,103.0)" stroke="none" fill="black" font-family="Helvetica" font-size="12.00"  text-anchor="start">
		<text><tspan font-family="Helvetica" >Point estimate</tspan></text>
	</g>
</g>
<g fill="none" color="black" stroke="currentColor" stroke-width="2.00" stroke-linecap="butt" stroke-linejoin="miter">
	<path stroke='rgb( 31, 120, 180)'  d='M1038.5,99.1 L1080.7,99.1 M660.5,662.4 L660.5,95.7  '/></g>
	</g>
	<g id="gnuplot_plot_4" ><title>Noise threshold</title>
<g fill="none" color="white" stroke="rgb( 31, 120, 180)" stroke-width="1.00" stroke-linecap="butt" stroke-linejoin="miter">
</g>
<g fill="none" color="black" stroke="currentColor" stroke-width="1.00" stroke-linecap="butt" stroke-linejoin="miter">
	<g transform="translate(1089.0,121.0)" stroke="none" fill="black" font-family="Helvetica" font-size="12.00"  text-anchor="start">
		<text><tspan font-family="Helvetica" >Noise threshold</tspan></text>
	</g>
</g>
<g fill="none" color="black" stroke="currentColor" stroke-width="1.00" stroke-linecap="butt" stroke-linejoin="miter">
	<g stroke='none' shape-rendering='crispEdges'>
		<polygon fill = 'rgb(227,  26,  28)' fill-opacity = '0.100000' points = '1038.5,121.6 1080.7,121.6 1080.7,112.6 1038.5,112.6 '/>
		<polygon fill = 'rgb(227,  26,  28)' fill-opacity = '0.100000' points = '551.1,54.1 551.1,54.1 551.1,662.4 551.1,662.4 '/>
	</g>
</g>
	</g>
<g fill="none" color="white" stroke="rgb(227,  26,  28)" stroke-width="2.00" stroke-linecap="butt" stroke-linejoin="miter">
</g>
<g fill="none" color="black" stroke="currentColor" stroke-width="2.00" stroke-linecap="butt" stroke-linejoin="miter">
</g>
<g fill="none" color="black" stroke="black" stroke-width="1.00" stroke-linecap="butt" stroke-linejoin="miter">
</g>
<g fill="none" color="black" stroke="currentColor" stroke-width="1.00" stroke-linecap="butt" stroke-linejoin="miter">
	<path stroke='black'  d='M88.5,54.1 L88.5,662.4 L1013.6,662.4 L1013.6,54.1 L88.5,54.1 Z  '/></g>
<g fill="none" color="black" stroke="currentColor" stroke-width="1.00" stroke-linecap="butt" stroke-linejoin="miter">
</g>
</g>
</svg>

