<?xml version="1.0" encoding="utf-8"  standalone="no"?>
<svg 
 viewBox="0 0 1280 720"
 xmlns="http://www.w3.org/2000/svg"
 xmlns:xlink="http://www.w3.org/1999/xlink"
>

<title>Gnuplot</title>
<desc>Produced by GNUPLOT 5.2 patchlevel 8 </desc>

<g id="gnuplot_canvas">

<rect x="0" y="0" width="1280" height="720" fill="none"/>
<defs>

	<circle id='gpDot' r='0.5' stroke-width='0.5' stroke='currentColor'/>
	<path id='gpPt0' stroke-width='0.222' stroke='currentColor' d='M-1,0 h2 M0,-1 v2'/>
	<path id='gpPt1' stroke-width='0.222' stroke='currentColor' d='M-1,-1 L1,1 M1,-1 L-1,1'/>
	<path id='gpPt2' stroke-width='0.222' stroke='currentColor' d='M-1,0 L1,0 M0,-1 L0,1 M-1,-1 L1,1 M-1,1 L1,-1'/>
	<rect id='gpPt3' stroke-width='0.222' stroke='currentColor' x='-1' y='-1' width='2' height='2'/>
	<rect id='gpPt4' stroke-width='0.222' stroke='currentColor' fill='currentColor' x='-1' y='-1' width='2' height='2'/>
	<circle id='gpPt5' stroke-width='0.222' stroke='currentColor' cx='0' cy='0' r='1'/>
	<use xlink:href='#gpPt5' id='gpPt6' fill='currentColor' stroke='none'/>
	<path id='gpPt7' stroke-width='0.222' stroke='currentColor' d='M0,-1.33 L-1.33,0.67 L1.33,0.67 z'/>
	<use xlink:href='#gpPt7' id='gpPt8' fill='currentColor' stroke='none'/>
	<use xlink:href='#gpPt7' id='gpPt9' stroke='currentColor' transform='rotate(180)'/>
	<use xlink:href='#gpPt9' id='gpPt10' fill='currentColor' stroke='none'/>
	<use xlink:href='#gpPt3' id='gpPt11' stroke='currentColor' transform='rotate(45)'/>
	<use xlink:href='#gpPt11' id='gpPt12' fill='currentColor' stroke='none'/>
	<path id='gpPt13' stroke-width='0.222' stroke='currentColor' d='M0,1.330 L1.265,0.411 L0.782,-1.067 L-0.782,-1.076 L-1.265,0.411 z'/>
	<use xlink:href='#gpPt13' id='gpPt14' fill='currentColor' stroke='none'/>
	<filter id='textbox' filterUnits='objectBoundingBox' x='0' y='0' height='1' width='1'>
	  <feFlood flood-color='white' flood-opacity='1' result='bgnd'/>
	  <feComposite in='SourceGraphic' in2='bgnd' operator='atop'/>
	</filter>
	<filter id='greybox' filterUnits='objectBoundingBox' x='0' y='0' height='1' width='1'>
	  <feFlood flood-color='lightgrey' flood-opacity='1' result='grey'/>
	  <feComposite in='SourceGraphic' in2='grey' operator='atop'/>
	</filter>
</defs>
<g fill="none" color="white" stroke="currentColor" stroke-width="1.00" stroke-linecap="butt" stroke-linejoin="miter">
</g>
<g fill="none" color="black" stroke="currentColor" stroke-width="1.00" stroke-linecap="butt" stroke-linejoin="miter">
	<path stroke='black'  d='M63.6,662.4 L72.6,662.4  '/>	<g transform="translate(55.3,666.3)" stroke="none" fill="black" font-family="Helvetica" font-size="12.00"  text-anchor="end">
		<text><tspan font-family="Helvetica" > 0</tspan></text>
	</g>
</g>
<g fill="none" color="black" stroke="currentColor" stroke-width="1.00" stroke-linecap="butt" stroke-linejoin="miter">
	<path stroke='black'  d='M63.6,561.0 L72.6,561.0  '/>	<g transform="translate(55.3,564.9)" stroke="none" fill="black" font-family="Helvetica" font-size="12.00"  text-anchor="end">
		<text><tspan font-family="Helvetica" > 10</tspan></text>
	</g>
</g>
<g fill="none" color="black" stroke="currentColor" stroke-width="1.00" stroke-linecap="butt" stroke-linejoin="miter">
	<path stroke='black'  d='M63.6,459.6 L72.6,459.6  '/>	<g transform="translate(55.3,463.5)" stroke="none" fill="black" font-family="Helvetica" font-size="12.00"  text-anchor="end">
		<text><tspan font-family="Helvetica" > 20</tspan></text>
	</g>
</g>
<g fill="none" color="black" stroke="currentColor" stroke-width="1.00" stroke-linecap="butt" stroke-linejoin="miter">
	<path stroke='black'  d='M63.6,358.2 L72.6,358.2  '/>	<g transform="translate(55.3,362.1)" stroke="none" fill="black" font-family="Helvetica" font-size="12.00"  text-anchor="end">
		<text><tspan font-family="Helvetica" > 30</tspan></text>
	</g>
</g>
<g fill="none" color="black" stroke="currentColor" stroke-width="1.00" stroke-linecap="butt" stroke-linejoin="miter">
	<path stroke='black'  d='M63.6,256.9 L72.6,256.9  '/>	<g transform="translate(55.3,260.8)" stroke="none" fill="black" font-family="Helvetica" font-size="12.00"  text-anchor="end">
		<text><tspan font-family="Helvetica" > 40</tspan></text>
	</g>
</g>
<g fill="none" color="black" stroke="currentColor" stroke-width="1.00" stroke-linecap="butt" stroke-linejoin="miter">
	<path stroke='black'  d='M63.6,155.5 L72.6,155.5  '/>	<g transform="translate(55.3,159.4)" stroke="none" fill="black" font-family="Helvetica" font-size="12.00"  text-anchor="end">
		<text><tspan font-family="Helvetica" > 50</tspan></text>
	</g>
</g>
<g fill="none" color="black" stroke="currentColor" stroke-width="1.00" stroke-linecap="butt" stroke-linejoin="miter">
	<path stroke='black'  d='M63.6,54.1 L72.6,54.1  '/>	<g transform="translate(55.3,58.0)" stroke="none" fill="black" font-family="Helvetica" font-size="12.00"  text-anchor="end">
		<text><tspan font-family="Helvetica" > 60</tspan></text>
	</g>
</g>
<g fill="none" color="black" stroke="currentColor" stroke-width="1.00" stroke-linecap="butt" stroke-linejoin="miter">
	<path stroke='black'  d='M75.9,662.4 L75.9,653.4  '/>	<g transform="translate(75.9,684.3)" stroke="none" fill="black" font-family="Helvetica" font-size="12.00"  text-anchor="middle">
		<text><tspan font-family="Helvetica" > 25.76</tspan></text>
	</g>
</g>
<g fill="none" color="black" stroke="currentColor" stroke-width="1.00" stroke-linecap="butt" stroke-linejoin="miter">
	<path stroke='black'  d='M203.2,662.4 L203.2,653.4  '/>	<g transform="translate(203.2,684.3)" stroke="none" fill="black" font-family="Helvetica" font-size="12.00"  text-anchor="middle">
		<text><tspan font-family="Helvetica" > 25.765</tspan></text>
	</g>
</g>
<g fill="none" color="black" stroke="currentColor" stroke-width="1.00" stroke-linecap="butt" stroke-linejoin="miter">
	<path stroke='black'  d='M330.4,662.4 L330.4,653.4  '/>	<g transform="translate(330.4,684.3)" stroke="none" fill="black" font-family="Helvetica" font-size="12.00"  text-anchor="middle">
		<text><tspan font-family="Helvetica" > 25.77</tspan></text>
	</g>
</g>
<g fill="none" color="black" stroke="currentColor" stroke-width="1.00" stroke-linecap="butt" stroke-linejoin="miter">
	<path stroke='black'  d='M457.7,662.4 L457.7,653.4  '/>	<g transform="translate(457.7,684.3)" stroke="none" fill="black" font-family="Helvetica" font-size="12.00"  text-anchor="middle">
		<text><tspan font-family="Helvetica" > 25.775</tspan></text>
	</g>
</g>
<g fill="none" color="black" stroke="currentColor" stroke-width="1.00" stroke-linecap="butt" stroke-linejoin="miter">
	<path stroke='black'  d='M585.0,662.4 L585.0,653.4  '/>	<g transform="translate(585.0,684.3)" stroke="none" fill="black" font-family="Helvetica" font-size="12.00"  text-anchor="middle">
		<text><tspan font-family="Helvetica" > 25.78</tspan></text>
	</g>
</g>
<g fill="none" color="black" stroke="currentColor" stroke-width="1.00" stroke-linecap="butt" stroke-linejoin="miter">
	<path stroke='black'  d='M712.3,662.4 L712.3,653.4  '/>	<g transform="translate(712.3,684.3)" stroke="none" fill="black" font-family="Helvetica" font-size="12.00"  text-anchor="middle">
		<text><tspan font-family="Helvetica" > 25.785</tspan></text>
	</g>
</g>
<g fill="none" color="black" stroke="currentColor" stroke-width="1.00" stroke-linecap="butt" stroke-linejoin="miter">
	<path stroke='black'  d='M839.6,662.4 L839.6,653.4  '/>	<g transform="translate(839.6,684.3)" stroke="none" fill="black" font-family="Helvetica" font-size="12.00"  text-anchor="middle">
		<text><tspan font-family="Helvetica" > 25.79</tspan></text>
	</g>
</g>
<g fill="none" color="black" stroke="currentColor" stroke-width="1.00" stroke-linecap="butt" stroke-linejoin="miter">
	<path stroke='black'  d='M966.8,662.4 L966.8,653.4  '/>	<g transform="translate(966.8,684.3)" stroke="none" fill="black" font-family="Helvetica" font-size="12.00"  text-anchor="middle">
		<text><tspan font-family="Helvetica" > 25.795</tspan></text>
	</g>
</g>
<g fill="none" color="black" stroke="currentColor" stroke-width="1.00" stroke-linecap="butt" stroke-linejoin="miter">
</g>
<g fill="none" color="black" stroke="currentColor" stroke-width="1.00" stroke-linecap="butt" stroke-linejoin="miter">
	<path stroke='black'  d='M63.6,54.1 L63.6,662.4 L1013.6,662.4 L1013.6,54.1 L63.6,54.1 Z  '/></g>
<g fill="none" color="black" stroke="currentColor" stroke-width="1.00" stroke-linecap="butt" stroke-linejoin="miter">
	<g transform="translate(19.0,358.3) rotate(270)" stroke="none" fill="black" font-family="Helvetica" font-size="12.00"  text-anchor="middle">
		<text><tspan font-family="Helvetica" >Density (a.u.)</tspan></text>
	</g>
</g>
<g fill="none" color="black" stroke="currentColor" stroke-width="1.00" stroke-linecap="butt" stroke-linejoin="miter">
	<g transform="translate(538.6,711.3)" stroke="none" fill="black" font-family="Helvetica" font-size="12.00"  text-anchor="middle">
		<text><tspan font-family="Helvetica" >Average time (us)</tspan></text>
	</g>
</g>
<g fill="none" color="black" stroke="currentColor" stroke-width="1.00" stroke-linecap="butt" stroke-linejoin="miter">
	<g transform="translate(538.6,31.0)" stroke="none" fill="black" font-family="Helvetica" font-size="12.00"  text-anchor="middle">
		<text><tspan font-family="Helvetica" >bench_group/blake3/28672: mean</tspan></text>
	</g>
</g>
<g fill="none" color="black" stroke="currentColor" stroke-width="1.00" stroke-linecap="butt" stroke-linejoin="miter">
</g>
	<g id="gnuplot_plot_1" ><title>Bootstrap distribution</title>
<g fill="none" color="white" stroke="currentColor" stroke-width="2.00" stroke-linecap="butt" stroke-linejoin="miter">
</g>
<g fill="none" color="black" stroke="currentColor" stroke-width="2.00" stroke-linecap="butt" stroke-linejoin="miter">
	<g transform="translate(1089.0,67.0)" stroke="none" fill="black" font-family="Helvetica" font-size="12.00"  text-anchor="start">
		<text><tspan font-family="Helvetica" >Bootstrap distribution</tspan></text>
	</g>
</g>
<g fill="none" color="black" stroke="currentColor" stroke-width="2.00" stroke-linecap="butt" stroke-linejoin="miter">
	<path stroke='rgb( 31, 120, 180)'  d='M1038.5,63.1 L1080.7,63.1 M63.6,633.0 L65.5,632.1 L67.4,631.3 L69.3,630.3 L71.2,629.4 L73.1,628.4
		L75.0,627.4 L76.9,626.3 L78.8,625.2 L80.7,624.1 L82.6,622.9 L84.5,621.7 L86.4,620.5 L88.3,619.2
		L90.3,617.9 L92.2,616.6 L94.1,615.3 L96.0,613.9 L97.9,612.5 L99.8,611.1 L101.7,609.7 L103.6,608.2
		L105.5,606.8 L107.4,605.3 L109.3,603.8 L111.2,602.3 L113.1,600.7 L115.0,599.1 L116.9,597.5 L118.8,595.9
		L120.7,594.2 L122.6,592.5 L124.5,590.8 L126.4,589.1 L128.3,587.3 L130.2,585.5 L132.1,583.6 L134.0,581.7
		L135.9,579.8 L137.8,577.8 L139.8,575.8 L141.7,573.8 L143.6,571.7 L145.5,569.6 L147.4,567.4 L149.3,565.3
		L151.2,563.0 L153.1,560.8 L155.0,558.5 L156.9,556.2 L158.8,553.8 L160.7,551.4 L162.6,549.0 L164.5,546.5
		L166.4,544.0 L168.3,541.5 L170.2,539.0 L172.1,536.4 L174.0,533.7 L175.9,531.0 L177.8,528.3 L179.7,525.6
		L181.6,522.8 L183.5,519.9 L185.4,517.0 L187.3,514.1 L189.3,511.1 L191.2,508.0 L193.1,504.9 L195.0,501.7
		L196.9,498.4 L198.8,495.1 L200.7,491.7 L202.6,488.2 L204.5,484.6 L206.4,481.0 L208.3,477.3 L210.2,473.5
		L212.1,469.7 L214.0,465.9 L215.9,462.0 L217.8,458.0 L219.7,454.1 L221.6,450.1 L223.5,446.1 L225.4,442.1
		L227.3,438.2 L229.2,434.2 L231.1,430.3 L233.0,426.4 L234.9,422.5 L236.8,418.7 L238.8,414.9 L240.7,411.2
		L242.6,407.5 L244.5,403.9 L246.4,400.3 L248.3,396.8 L250.2,393.2 L252.1,389.8 L254.0,386.3 L255.9,382.9
		L257.8,379.5 L259.7,376.1 L261.6,372.7 L263.5,369.3 L265.4,365.9 L267.3,362.4 L269.2,359.0 L271.1,355.5
		L273.0,352.1 L274.9,348.6 L276.8,345.0 L278.7,341.5 L280.6,337.9 L282.5,334.2 L284.4,330.6 L286.3,327.0
		L288.2,323.3 L290.2,319.6 L292.1,315.9 L294.0,312.2 L295.9,308.5 L297.8,304.8 L299.7,301.1 L301.6,297.3
		L303.5,293.6 L305.4,290.0 L307.3,286.3 L309.2,282.6 L311.1,278.9 L313.0,275.3 L314.9,271.6 L316.8,268.0
		L318.7,264.4 L320.6,260.8 L322.5,257.2 L324.4,253.6 L326.3,250.0 L328.2,246.5 L330.1,243.0 L332.0,239.5
		L333.9,236.0 L335.8,232.6 L337.7,229.2 L339.7,225.8 L341.6,222.5 L343.5,219.2 L345.4,215.9 L347.3,212.7
		L349.2,209.5 L351.1,206.4 L353.0,203.3 L354.9,200.3 L356.8,197.3 L358.7,194.4 L360.6,191.6 L362.5,188.8
		L364.4,186.1 L366.3,183.5 L368.2,180.9 L370.1,178.4 L372.0,176.0 L373.9,173.6 L375.8,171.3 L377.7,169.1
		L379.6,167.0 L381.5,164.9 L383.4,163.0 L385.3,161.1 L387.2,159.3 L389.2,157.6 L391.1,156.0 L393.0,154.4
		L394.9,153.0 L396.8,151.6 L398.7,150.3 L400.6,149.1 L402.5,147.9 L404.4,146.8 L406.3,145.8 L408.2,144.8
		L410.1,143.9 L412.0,143.0 L413.9,142.2 L415.8,141.4 L417.7,140.7 L419.6,140.0 L421.5,139.4 L423.4,138.8
		L425.3,138.2 L427.2,137.6 L429.1,137.1 L431.0,136.6 L432.9,136.1 L434.8,135.7 L436.7,135.3 L438.7,134.9
		L440.6,134.5 L442.5,134.2 L444.4,133.9 L446.3,133.6 L448.2,133.3 L450.1,133.0 L452.0,132.7 L453.9,132.5
		L455.8,132.2 L457.7,132.0 L459.6,131.8 L461.5,131.6 L463.4,131.4 L465.3,131.3 L467.2,131.2 L469.1,131.1
		L471.0,131.1 L472.9,131.2 L474.8,131.4 L476.7,131.6 L478.6,131.9 L480.5,132.3 L482.4,132.9 L484.3,133.5
		L486.2,134.2 L488.1,135.1 L490.1,136.1 L492.0,137.1 L493.9,138.3 L495.8,139.6 L497.7,140.9 L499.6,142.3
		L501.5,143.8 L503.4,145.4 L505.3,147.0 L507.2,148.6 L509.1,150.2 L511.0,151.9 L512.9,153.6 L514.8,155.2
		L516.7,156.9 L518.6,158.6 L520.5,160.2 L522.4,161.9 L524.3,163.5 L526.2,165.2 L528.1,166.8 L530.0,168.5
		L531.9,170.2 L533.8,171.9 L535.7,173.6 L537.6,175.4 L539.6,177.1 L541.5,179.0 L543.4,180.9 L545.3,182.8
		L547.2,184.8 L549.1,186.8 L551.0,188.8 L552.9,190.9 L554.8,193.1 L556.7,195.3 L558.6,197.5 L560.5,199.7
		L562.4,202.0 L564.3,204.3 L566.2,206.7 L568.1,209.0 L570.0,211.4 L571.9,213.8 L573.8,216.2 L575.7,218.6
		L577.6,221.1 L579.5,223.5 L581.4,226.0 L583.3,228.5 L585.2,230.9 L587.1,233.4 L589.1,236.0 L591.0,238.5
		L592.9,241.0 L594.8,243.5 L596.7,246.1 L598.6,248.6 L600.5,251.2 L602.4,253.7 L604.3,256.3 L606.2,258.9
		L608.1,261.5 L610.0,264.1 L611.9,266.7 L613.8,269.3 L615.7,271.9 L617.6,274.6 L619.5,277.2 L621.4,279.9
		L623.3,282.6 L625.2,285.3 L627.1,288.0 L629.0,290.7 L630.9,293.4 L632.8,296.2 L634.7,299.0 L636.6,301.8
		L638.5,304.6 L640.5,307.5 L642.4,310.3 L644.3,313.2 L646.2,316.1 L648.1,319.0 L650.0,321.9 L651.9,324.9
		L653.8,327.8 L655.7,330.8 L657.6,333.7 L659.5,336.7 L661.4,339.6 L663.3,342.6 L665.2,345.5 L667.1,348.4
		L669.0,351.3 L670.9,354.2 L672.8,357.1 L674.7,360.0 L676.6,362.8 L678.5,365.7 L680.4,368.5 L682.3,371.3
		L684.2,374.0 L686.1,376.8 L688.0,379.5 L690.0,382.3 L691.9,385.0 L693.8,387.7 L695.7,390.4 L697.6,393.1
		L699.5,395.7 L701.4,398.4 L703.3,401.1 L705.2,403.7 L707.1,406.4 L709.0,409.0 L710.9,411.7 L712.8,414.3
		L714.7,416.9 L716.6,419.5 L718.5,422.1 L720.4,424.6 L722.3,427.2 L724.2,429.7 L726.1,432.2 L728.0,434.7
		L729.9,437.1 L731.8,439.5 L733.7,441.9 L735.6,444.3 L737.5,446.6 L739.5,448.9 L741.4,451.2 L743.3,453.4
		L745.2,455.6 L747.1,457.8 L749.0,459.9 L750.9,462.0 L752.8,464.1 L754.7,466.1 L756.6,468.1 L758.5,470.1
		L760.4,472.1 L762.3,474.0 L764.2,475.9 L766.1,477.8 L768.0,479.7 L769.9,481.6 L771.8,483.4 L773.7,485.3
		L775.6,487.1 L777.5,489.0 L779.4,490.8 L781.3,492.6 L783.2,494.4 L785.1,496.3 L787.0,498.1 L789.0,500.0
		L790.9,501.8 L792.8,503.7 L794.7,505.5 L796.6,507.4 L798.5,509.3 L800.4,511.2 L802.3,513.1 L804.2,515.0
		L806.1,516.9 L808.0,518.8 L809.9,520.7 L811.8,522.6 L813.7,524.5 L815.6,526.3 L817.5,528.2 L819.4,530.1
		L821.3,531.9 L823.2,533.7 L825.1,535.5 L827.0,537.3 L828.9,539.1 L830.8,540.8 L832.7,542.5 L834.6,544.1
		L836.5,545.8 L838.4,547.4 L840.4,549.0 L842.3,550.5 L844.2,552.0 L846.1,553.5 L848.0,555.0 L849.9,556.4
		L851.8,557.8 L853.7,559.2 L855.6,560.6 L857.5,562.0 L859.4,563.3 L861.3,564.7 L863.2,566.0 L865.1,567.3
		L867.0,568.6 L868.9,569.9 L870.8,571.2 L872.7,572.5 L874.6,573.7 L876.5,575.0 L878.4,576.2 L880.3,577.5
		L882.2,578.7 L884.1,579.9 L886.0,581.1 L887.9,582.3 L889.9,583.5 L891.8,584.6 L893.7,585.8 L895.6,586.9
		L897.5,588.0 L899.4,589.0 L901.3,590.0 L903.2,591.1 L905.1,592.0 L907.0,593.0 L908.9,593.9 L910.8,594.8
		L912.7,595.7 L914.6,596.6 L916.5,597.4 L918.4,598.3 L920.3,599.1 L922.2,599.9 L924.1,600.7 L926.0,601.5
		L927.9,602.2 L929.8,603.0 L931.7,603.8 L933.6,604.6 L935.5,605.4 L937.4,606.1 L939.4,606.9 L941.3,607.7
		L943.2,608.5 L945.1,609.3 L947.0,610.2 L948.9,611.0 L950.8,611.8 L952.7,612.6 L954.6,613.4 L956.5,614.2
		L958.4,615.1 L960.3,615.9 L962.2,616.7 L964.1,617.5 L966.0,618.3 L967.9,619.1 L969.8,619.8 L971.7,620.6
		L973.6,621.4 L975.5,622.1 L977.4,622.8 L979.3,623.5 L981.2,624.3 L983.1,624.9 L985.0,625.6 L986.9,626.3
		L988.9,627.0 L990.8,627.6 L992.7,628.2 L994.6,628.9 L996.5,629.5 L998.4,630.1 L1000.3,630.7 L1002.2,631.3
		L1004.1,631.9 L1006.0,632.4 L1007.9,633.0 L1009.8,633.5 L1011.7,634.0 L1013.6,634.5  '/></g>
	</g>
	<g id="gnuplot_plot_2" ><title>Confidence interval</title>
<g fill="none" color="white" stroke="rgb( 31, 120, 180)" stroke-width="1.00" stroke-linecap="butt" stroke-linejoin="miter">
</g>
<g fill="none" color="black" stroke="currentColor" stroke-width="1.00" stroke-linecap="butt" stroke-linejoin="miter">
	<g transform="translate(1089.0,85.0)" stroke="none" fill="black" font-family="Helvetica" font-size="12.00"  text-anchor="start">
		<text><tspan font-family="Helvetica" >Confidence interval</tspan></text>
	</g>
</g>
<g fill="none" color="black" stroke="currentColor" stroke-width="1.00" stroke-linecap="butt" stroke-linejoin="miter">
	<g stroke='none' shape-rendering='crispEdges'>
		<polygon fill = 'rgb( 31, 120, 180)' fill-opacity = '0.250000' points = '1038.5,85.6 1080.7,85.6 1080.7,76.6 1038.5,76.6 '/>
		<polygon fill = 'rgb( 31, 120, 180)' fill-opacity = '0.250000' points = '151.2,563.0 153.1,560.8 155.0,558.5 156.9,556.2 158.8,553.8 160.7,551.4 162.6,549.0 164.5,546.5 166.4,544.0 168.3,541.5 170.2,539.0 172.1,536.4 174.0,533.7 175.9,531.0 177.8,528.3 179.7,525.6
181.6,522.8 183.5,519.9 185.4,517.0 187.3,514.1 189.3,511.1 191.2,508.0 193.1,504.9 195.0,501.7 196.9,498.4 198.8,495.1 200.7,491.7 202.6,488.2 204.5,484.6 206.4,481.0 208.3,477.3 210.2,473.5
212.1,469.7 214.0,465.9 215.9,462.0 217.8,458.0 219.7,454.1 221.6,450.1 223.5,446.1 225.4,442.1 227.3,438.2 229.2,434.2 231.1,430.3 233.0,426.4 234.9,422.5 236.8,418.7 238.8,414.9 240.7,411.2
242.6,407.5 244.5,403.9 246.4,400.3 248.3,396.8 250.2,393.2 252.1,389.8 254.0,386.3 255.9,382.9 257.8,379.5 259.7,376.1 261.6,372.7 263.5,369.3 265.4,365.9 267.3,362.4 269.2,359.0 271.1,355.5
273.0,352.1 274.9,348.6 276.8,345.0 278.7,341.5 280.6,337.9 282.5,334.2 284.4,330.6 286.3,327.0 288.2,323.3 290.2,319.6 292.1,315.9 294.0,312.2 295.9,308.5 297.8,304.8 299.7,301.1 301.6,297.3
303.5,293.6 305.4,290.0 307.3,286.3 309.2,282.6 311.1,278.9 313.0,275.3 314.9,271.6 316.8,268.0 318.7,264.4 320.6,260.8 322.5,257.2 324.4,253.6 326.3,250.0 328.2,246.5 330.1,243.0 332.0,239.5
333.9,236.0 335.8,232.6 337.7,229.2 339.7,225.8 341.6,222.5 343.5,219.2 345.4,215.9 347.3,212.7 349.2,209.5 351.1,206.4 353.0,203.3 354.9,200.3 356.8,197.3 358.7,194.4 360.6,191.6 362.5,188.8
364.4,186.1 366.3,183.5 368.2,180.9 370.1,178.4 372.0,176.0 373.9,173.6 375.8,171.3 377.7,169.1 379.6,167.0 381.5,164.9 383.4,163.0 385.3,161.1 387.2,159.3 389.2,157.6 391.1,156.0 393.0,154.4
394.9,153.0 396.8,151.6 398.7,150.3 400.6,149.1 402.5,147.9 404.4,146.8 406.3,145.8 408.2,144.8 410.1,143.9 412.0,143.0 413.9,142.2 415.8,141.4 417.7,140.7 419.6,140.0 421.5,139.4 423.4,138.8
425.3,138.2 427.2,137.6 429.1,137.1 431.0,136.6 432.9,136.1 434.8,135.7 436.7,135.3 438.7,134.9 440.6,134.5 442.5,134.2 444.4,133.9 446.3,133.6 448.2,133.3 450.1,133.0 452.0,132.7 453.9,132.5
455.8,132.2 457.7,132.0 459.6,131.8 461.5,131.6 463.4,131.4 465.3,131.3 467.2,131.2 469.1,131.1 471.0,131.1 472.9,131.2 474.8,131.4 476.7,131.6 478.6,131.9 480.5,132.3 482.4,132.9 484.3,133.5
486.2,134.2 488.1,135.1 490.1,136.1 492.0,137.1 493.9,138.3 495.8,139.6 497.7,140.9 499.6,142.3 501.5,143.8 503.4,145.4 505.3,147.0 507.2,148.6 509.1,150.2 511.0,151.9 512.9,153.6 514.8,155.2
516.7,156.9 518.6,158.6 520.5,160.2 522.4,161.9 524.3,163.5 526.2,165.2 528.1,166.8 530.0,168.5 531.9,170.2 533.8,171.9 535.7,173.6 537.6,175.4 539.6,177.1 541.5,179.0 543.4,180.9 545.3,182.8
547.2,184.8 549.1,186.8 551.0,188.8 552.9,190.9 554.8,193.1 556.7,195.3 558.6,197.5 560.5,199.7 562.4,202.0 564.3,204.3 566.2,206.7 568.1,209.0 570.0,211.4 571.9,213.8 573.8,216.2 575.7,218.6
577.6,221.1 579.5,223.5 581.4,226.0 583.3,228.5 585.2,230.9 587.1,233.4 589.1,236.0 591.0,238.5 592.9,241.0 594.8,243.5 596.7,246.1 598.6,248.6 600.5,251.2 602.4,253.7 604.3,256.3 606.2,258.9
608.1,261.5 610.0,264.1 611.9,266.7 613.8,269.3 615.7,271.9 617.6,274.6 619.5,277.2 621.4,279.9 623.3,282.6 625.2,285.3 627.1,288.0 629.0,290.7 630.9,293.4 632.8,296.2 634.7,299.0 636.6,301.8
638.5,304.6 640.5,307.5 642.4,310.3 644.3,313.2 646.2,316.1 648.1,319.0 650.0,321.9 651.9,324.9 653.8,327.8 655.7,330.8 657.6,333.7 659.5,336.7 661.4,339.6 663.3,342.6 665.2,345.5 667.1,348.4
669.0,351.3 670.9,354.2 672.8,357.1 674.7,360.0 676.6,362.8 678.5,365.7 680.4,368.5 682.3,371.3 684.2,374.0 686.1,376.8 688.0,379.5 690.0,382.3 691.9,385.0 693.8,387.7 695.7,390.4 697.6,393.1
699.5,395.7 701.4,398.4 703.3,401.1 705.2,403.7 707.1,406.4 709.0,409.0 710.9,411.7 712.8,414.3 714.7,416.9 716.6,419.5 718.5,422.1 720.4,424.6 722.3,427.2 724.2,429.7 726.1,432.2 728.0,434.7
729.9,437.1 731.8,439.5 733.7,441.9 735.6,444.3 737.5,446.6 739.5,448.9 741.4,451.2 743.3,453.4 745.2,455.6 747.1,457.8 749.0,459.9 750.9,462.0 752.8,464.1 754.7,466.1 756.6,468.1 758.5,470.1
760.4,472.1 762.3,474.0 764.2,475.9 766.1,477.8 768.0,479.7 769.9,481.6 771.8,483.4 773.7,485.3 775.6,487.1 777.5,489.0 779.4,490.8 781.3,492.6 783.2,494.4 785.1,496.3 787.0,498.1 789.0,500.0
790.9,501.8 792.8,503.7 794.7,505.5 796.6,507.4 798.5,509.3 800.4,511.2 802.3,513.1 804.2,515.0 806.1,516.9 808.0,518.8 809.9,520.7 811.8,522.6 813.7,524.5 815.6,526.3 817.5,528.2 819.4,530.1
821.3,531.9 823.2,533.7 825.1,535.5 827.0,537.3 828.9,539.1 830.8,540.8 832.7,542.5 834.6,544.1 836.5,545.8 838.4,547.4 840.4,549.0 842.3,550.5 844.2,552.0 846.1,553.5 848.0,555.0 849.9,556.4
851.8,557.8 853.7,559.2 855.6,560.6 857.5,562.0 859.4,563.3 861.3,564.7 863.2,566.0 865.1,567.3 867.0,568.6 868.9,569.9 870.8,571.2 872.7,572.5 874.6,573.7 876.5,575.0 878.4,576.2 880.3,577.5
882.2,578.7 884.1,579.9 886.0,581.1 887.9,582.3 889.9,583.5 891.8,584.6 893.7,585.8 895.6,586.9 897.5,588.0 899.4,589.0 901.3,590.0 903.2,591.1 905.1,592.0 907.0,593.0 908.9,593.9 910.8,594.8
912.7,595.7 914.6,596.6 916.5,597.4 918.4,598.3 920.3,599.1 922.2,599.9 924.1,600.7 924.1,662.4 922.2,662.4 920.3,662.4 918.4,662.4 916.5,662.4 914.6,662.4 912.7,662.4 910.8,662.4 908.9,662.4
907.0,662.4 905.1,662.4 903.2,662.4 901.3,662.4 899.4,662.4 897.5,662.4 895.6,662.4 893.7,662.4 891.8,662.4 889.9,662.4 887.9,662.4 886.0,662.4 884.1,662.4 882.2,662.4 880.3,662.4 878.4,662.4
876.5,662.4 874.6,662.4 872.7,662.4 870.8,662.4 868.9,662.4 867.0,662.4 865.1,662.4 863.2,662.4 861.3,662.4 859.4,662.4 857.5,662.4 855.6,662.4 853.7,662.4 851.8,662.4 849.9,662.4 848.0,662.4
846.1,662.4 844.2,662.4 842.3,662.4 840.4,662.4 838.4,662.4 836.5,662.4 834.6,662.4 832.7,662.4 830.8,662.4 828.9,662.4 827.0,662.4 825.1,662.4 823.2,662.4 821.3,662.4 819.4,662.4 817.5,662.4
815.6,662.4 813.7,662.4 811.8,662.4 809.9,662.4 808.0,662.4 806.1,662.4 804.2,662.4 802.3,662.4 800.4,662.4 798.5,662.4 796.6,662.4 794.7,662.4 792.8,662.4 790.9,662.4 789.0,662.4 787.0,662.4
785.1,662.4 783.2,662.4 781.3,662.4 779.4,662.4 777.5,662.4 775.6,662.4 773.7,662.4 771.8,662.4 769.9,662.4 768.0,662.4 766.1,662.4 764.2,662.4 762.3,662.4 760.4,662.4 758.5,662.4 756.6,662.4
754.7,662.4 752.8,662.4 750.9,662.4 749.0,662.4 747.1,662.4 745.2,662.4 743.3,662.4 741.4,662.4 739.5,662.4 737.5,662.4 735.6,662.4 733.7,662.4 731.8,662.4 729.9,662.4 728.0,662.4 726.1,662.4
724.2,662.4 722.3,662.4 720.4,662.4 718.5,662.4 716.6,662.4 714.7,662.4 712.8,662.4 710.9,662.4 709.0,662.4 707.1,662.4 705.2,662.4 703.3,662.4 701.4,662.4 699.5,662.4 697.6,662.4 695.7,662.4
693.8,662.4 691.9,662.4 690.0,662.4 688.0,662.4 686.1,662.4 684.2,662.4 682.3,662.4 680.4,662.4 678.5,662.4 676.6,662.4 674.7,662.4 672.8,662.4 670.9,662.4 669.0,662.4 667.1,662.4 665.2,662.4
663.3,662.4 661.4,662.4 659.5,662.4 657.6,662.4 655.7,662.4 653.8,662.4 651.9,662.4 650.0,662.4 648.1,662.4 646.2,662.4 644.3,662.4 642.4,662.4 640.5,662.4 638.5,662.4 636.6,662.4 634.7,662.4
632.8,662.4 630.9,662.4 629.0,662.4 627.1,662.4 625.2,662.4 623.3,662.4 621.4,662.4 619.5,662.4 617.6,662.4 615.7,662.4 613.8,662.4 611.9,662.4 610.0,662.4 608.1,662.4 606.2,662.4 604.3,662.4
602.4,662.4 600.5,662.4 598.6,662.4 596.7,662.4 594.8,662.4 592.9,662.4 591.0,662.4 589.1,662.4 587.1,662.4 585.2,662.4 583.3,662.4 581.4,662.4 579.5,662.4 577.6,662.4 575.7,662.4 573.8,662.4
571.9,662.4 570.0,662.4 568.1,662.4 566.2,662.4 564.3,662.4 562.4,662.4 560.5,662.4 558.6,662.4 556.7,662.4 554.8,662.4 552.9,662.4 551.0,662.4 549.1,662.4 547.2,662.4 545.3,662.4 543.4,662.4
541.5,662.4 539.6,662.4 537.6,662.4 535.7,662.4 533.8,662.4 531.9,662.4 530.0,662.4 528.1,662.4 526.2,662.4 524.3,662.4 522.4,662.4 520.5,662.4 518.6,662.4 516.7,662.4 514.8,662.4 512.9,662.4
511.0,662.4 509.1,662.4 507.2,662.4 505.3,662.4 503.4,662.4 501.5,662.4 499.6,662.4 497.7,662.4 495.8,662.4 493.9,662.4 492.0,662.4 490.1,662.4 488.1,662.4 486.2,662.4 484.3,662.4 482.4,662.4
480.5,662.4 478.6,662.4 476.7,662.4 474.8,662.4 472.9,662.4 471.0,662.4 469.1,662.4 467.2,662.4 465.3,662.4 463.4,662.4 461.5,662.4 459.6,662.4 457.7,662.4 455.8,662.4 453.9,662.4 452.0,662.4
450.1,662.4 448.2,662.4 446.3,662.4 444.4,662.4 442.5,662.4 440.6,662.4 438.7,662.4 436.7,662.4 434.8,662.4 432.9,662.4 431.0,662.4 429.1,662.4 427.2,662.4 425.3,662.4 423.4,662.4 421.5,662.4
419.6,662.4 417.7,662.4 415.8,662.4 413.9,662.4 412.0,662.4 410.1,662.4 408.2,662.4 406.3,662.4 404.4,662.4 402.5,662.4 400.6,662.4 398.7,662.4 396.8,662.4 394.9,662.4 393.0,662.4 391.1,662.4
389.2,662.4 387.2,662.4 385.3,662.4 383.4,662.4 381.5,662.4 379.6,662.4 377.7,662.4 375.8,662.4 373.9,662.4 372.0,662.4 370.1,662.4 368.2,662.4 366.3,662.4 364.4,662.4 362.5,662.4 360.6,662.4
358.7,662.4 356.8,662.4 354.9,662.4 353.0,662.4 351.1,662.4 349.2,662.4 347.3,662.4 345.4,662.4 343.5,662.4 341.6,662.4 339.7,662.4 337.7,662.4 335.8,662.4 333.9,662.4 332.0,662.4 330.1,662.4
328.2,662.4 326.3,662.4 324.4,662.4 322.5,662.4 320.6,662.4 318.7,662.4 316.8,662.4 314.9,662.4 313.0,662.4 311.1,662.4 309.2,662.4 307.3,662.4 305.4,662.4 303.5,662.4 301.6,662.4 299.7,662.4
297.8,662.4 295.9,662.4 294.0,662.4 292.1,662.4 290.2,662.4 288.2,662.4 286.3,662.4 284.4,662.4 282.5,662.4 280.6,662.4 278.7,662.4 276.8,662.4 274.9,662.4 273.0,662.4 271.1,662.4 269.2,662.4
267.3,662.4 265.4,662.4 263.5,662.4 261.6,662.4 259.7,662.4 257.8,662.4 255.9,662.4 254.0,662.4 252.1,662.4 250.2,662.4 248.3,662.4 246.4,662.4 244.5,662.4 242.6,662.4 240.7,662.4 238.8,662.4
236.8,662.4 234.9,662.4 233.0,662.4 231.1,662.4 229.2,662.4 227.3,662.4 225.4,662.4 223.5,662.4 221.6,662.4 219.7,662.4 217.8,662.4 215.9,662.4 214.0,662.4 212.1,662.4 210.2,662.4 208.3,662.4
206.4,662.4 204.5,662.4 202.6,662.4 200.7,662.4 198.8,662.4 196.9,662.4 195.0,662.4 193.1,662.4 191.2,662.4 189.3,662.4 187.3,662.4 185.4,662.4 183.5,662.4 181.6,662.4 179.7,662.4 177.8,662.4
175.9,662.4 174.0,662.4 172.1,662.4 170.2,662.4 168.3,662.4 166.4,662.4 164.5,662.4 162.6,662.4 160.7,662.4 158.8,662.4 156.9,662.4 155.0,662.4 153.1,662.4 151.2,662.4 '/>
	</g>
</g>
	</g>
	<g id="gnuplot_plot_3" ><title>Point estimate</title>
<g fill="none" color="white" stroke="rgb( 31, 120, 180)" stroke-width="2.00" stroke-linecap="butt" stroke-linejoin="miter">
</g>
<g fill="none" color="black" stroke="currentColor" stroke-width="2.00" stroke-linecap="butt" stroke-linejoin="miter">
	<g transform="translate(1089.0,103.0)" stroke="none" fill="black" font-family="Helvetica" font-size="12.00"  text-anchor="start">
		<text><tspan font-family="Helvetica" >Point estimate</tspan></text>
	</g>
</g>
<g fill="none" color="black" stroke="currentColor" stroke-width="2.00" stroke-linecap="butt" stroke-linejoin="miter">
	<path stroke='rgb( 31, 120, 180)'  d='M1038.5,99.1 L1080.7,99.1 M497.6,662.4 L497.6,140.9  '/></g>
	</g>
<g fill="none" color="black" stroke="currentColor" stroke-width="2.00" stroke-linecap="butt" stroke-linejoin="miter">
</g>
<g fill="none" color="black" stroke="black" stroke-width="1.00" stroke-linecap="butt" stroke-linejoin="miter">
</g>
<g fill="none" color="black" stroke="currentColor" stroke-width="1.00" stroke-linecap="butt" stroke-linejoin="miter">
	<path stroke='black'  d='M63.6,54.1 L63.6,662.4 L1013.6,662.4 L1013.6,54.1 L63.6,54.1 Z  '/></g>
<g fill="none" color="black" stroke="currentColor" stroke-width="1.00" stroke-linecap="butt" stroke-linejoin="miter">
</g>
</g>
</svg>

