<?xml version="1.0" encoding="utf-8"  standalone="no"?>
<svg 
 viewBox="0 0 1280 720"
 xmlns="http://www.w3.org/2000/svg"
 xmlns:xlink="http://www.w3.org/1999/xlink"
>

<title>Gnuplot</title>
<desc>Produced by GNUPLOT 5.2 patchlevel 8 </desc>

<g id="gnuplot_canvas">

<rect x="0" y="0" width="1280" height="720" fill="none"/>
<defs>

	<circle id='gpDot' r='0.5' stroke-width='0.5' stroke='currentColor'/>
	<path id='gpPt0' stroke-width='0.222' stroke='currentColor' d='M-1,0 h2 M0,-1 v2'/>
	<path id='gpPt1' stroke-width='0.222' stroke='currentColor' d='M-1,-1 L1,1 M1,-1 L-1,1'/>
	<path id='gpPt2' stroke-width='0.222' stroke='currentColor' d='M-1,0 L1,0 M0,-1 L0,1 M-1,-1 L1,1 M-1,1 L1,-1'/>
	<rect id='gpPt3' stroke-width='0.222' stroke='currentColor' x='-1' y='-1' width='2' height='2'/>
	<rect id='gpPt4' stroke-width='0.222' stroke='currentColor' fill='currentColor' x='-1' y='-1' width='2' height='2'/>
	<circle id='gpPt5' stroke-width='0.222' stroke='currentColor' cx='0' cy='0' r='1'/>
	<use xlink:href='#gpPt5' id='gpPt6' fill='currentColor' stroke='none'/>
	<path id='gpPt7' stroke-width='0.222' stroke='currentColor' d='M0,-1.33 L-1.33,0.67 L1.33,0.67 z'/>
	<use xlink:href='#gpPt7' id='gpPt8' fill='currentColor' stroke='none'/>
	<use xlink:href='#gpPt7' id='gpPt9' stroke='currentColor' transform='rotate(180)'/>
	<use xlink:href='#gpPt9' id='gpPt10' fill='currentColor' stroke='none'/>
	<use xlink:href='#gpPt3' id='gpPt11' stroke='currentColor' transform='rotate(45)'/>
	<use xlink:href='#gpPt11' id='gpPt12' fill='currentColor' stroke='none'/>
	<path id='gpPt13' stroke-width='0.222' stroke='currentColor' d='M0,1.330 L1.265,0.411 L0.782,-1.067 L-0.782,-1.076 L-1.265,0.411 z'/>
	<use xlink:href='#gpPt13' id='gpPt14' fill='currentColor' stroke='none'/>
	<filter id='textbox' filterUnits='objectBoundingBox' x='0' y='0' height='1' width='1'>
	  <feFlood flood-color='white' flood-opacity='1' result='bgnd'/>
	  <feComposite in='SourceGraphic' in2='bgnd' operator='atop'/>
	</filter>
	<filter id='greybox' filterUnits='objectBoundingBox' x='0' y='0' height='1' width='1'>
	  <feFlood flood-color='lightgrey' flood-opacity='1' result='grey'/>
	  <feComposite in='SourceGraphic' in2='grey' operator='atop'/>
	</filter>
</defs>
<g fill="none" color="white" stroke="currentColor" stroke-width="1.00" stroke-linecap="butt" stroke-linejoin="miter">
</g>
<g fill="none" color="black" stroke="currentColor" stroke-width="1.00" stroke-linecap="butt" stroke-linejoin="miter">
	<path stroke='black'  d='M71.9,662.4 L80.9,662.4  '/>	<g transform="translate(63.6,666.3)" stroke="none" fill="black" font-family="Helvetica" font-size="12.00"  text-anchor="end">
		<text><tspan font-family="Helvetica" > 0</tspan></text>
	</g>
</g>
<g fill="none" color="black" stroke="currentColor" stroke-width="1.00" stroke-linecap="butt" stroke-linejoin="miter">
	<path stroke='black'  d='M71.9,575.5 L80.9,575.5  '/>	<g transform="translate(63.6,579.4)" stroke="none" fill="black" font-family="Helvetica" font-size="12.00"  text-anchor="end">
		<text><tspan font-family="Helvetica" > 100</tspan></text>
	</g>
</g>
<g fill="none" color="black" stroke="currentColor" stroke-width="1.00" stroke-linecap="butt" stroke-linejoin="miter">
	<path stroke='black'  d='M71.9,488.6 L80.9,488.6  '/>	<g transform="translate(63.6,492.5)" stroke="none" fill="black" font-family="Helvetica" font-size="12.00"  text-anchor="end">
		<text><tspan font-family="Helvetica" > 200</tspan></text>
	</g>
</g>
<g fill="none" color="black" stroke="currentColor" stroke-width="1.00" stroke-linecap="butt" stroke-linejoin="miter">
	<path stroke='black'  d='M71.9,401.7 L80.9,401.7  '/>	<g transform="translate(63.6,405.6)" stroke="none" fill="black" font-family="Helvetica" font-size="12.00"  text-anchor="end">
		<text><tspan font-family="Helvetica" > 300</tspan></text>
	</g>
</g>
<g fill="none" color="black" stroke="currentColor" stroke-width="1.00" stroke-linecap="butt" stroke-linejoin="miter">
	<path stroke='black'  d='M71.9,314.8 L80.9,314.8  '/>	<g transform="translate(63.6,318.7)" stroke="none" fill="black" font-family="Helvetica" font-size="12.00"  text-anchor="end">
		<text><tspan font-family="Helvetica" > 400</tspan></text>
	</g>
</g>
<g fill="none" color="black" stroke="currentColor" stroke-width="1.00" stroke-linecap="butt" stroke-linejoin="miter">
	<path stroke='black'  d='M71.9,227.9 L80.9,227.9  '/>	<g transform="translate(63.6,231.8)" stroke="none" fill="black" font-family="Helvetica" font-size="12.00"  text-anchor="end">
		<text><tspan font-family="Helvetica" > 500</tspan></text>
	</g>
</g>
<g fill="none" color="black" stroke="currentColor" stroke-width="1.00" stroke-linecap="butt" stroke-linejoin="miter">
	<path stroke='black'  d='M71.9,141.0 L80.9,141.0  '/>	<g transform="translate(63.6,144.9)" stroke="none" fill="black" font-family="Helvetica" font-size="12.00"  text-anchor="end">
		<text><tspan font-family="Helvetica" > 600</tspan></text>
	</g>
</g>
<g fill="none" color="black" stroke="currentColor" stroke-width="1.00" stroke-linecap="butt" stroke-linejoin="miter">
	<path stroke='black'  d='M71.9,54.1 L80.9,54.1  '/>	<g transform="translate(63.6,58.0)" stroke="none" fill="black" font-family="Helvetica" font-size="12.00"  text-anchor="end">
		<text><tspan font-family="Helvetica" > 700</tspan></text>
	</g>
</g>
<g fill="none" color="black" stroke="currentColor" stroke-width="1.00" stroke-linecap="butt" stroke-linejoin="miter">
	<path stroke='black'  d='M71.9,662.4 L71.9,653.4  '/>	<g transform="translate(71.9,684.3)" stroke="none" fill="black" font-family="Helvetica" font-size="12.00"  text-anchor="middle">
		<text><tspan font-family="Helvetica" > 1.446</tspan></text>
	</g>
</g>
<g fill="none" color="black" stroke="currentColor" stroke-width="1.00" stroke-linecap="butt" stroke-linejoin="miter">
	<path stroke='black'  d='M176.9,662.4 L176.9,653.4  '/>	<g transform="translate(176.9,684.3)" stroke="none" fill="black" font-family="Helvetica" font-size="12.00"  text-anchor="middle">
		<text><tspan font-family="Helvetica" > 1.448</tspan></text>
	</g>
</g>
<g fill="none" color="black" stroke="currentColor" stroke-width="1.00" stroke-linecap="butt" stroke-linejoin="miter">
	<path stroke='black'  d='M281.8,662.4 L281.8,653.4  '/>	<g transform="translate(281.8,684.3)" stroke="none" fill="black" font-family="Helvetica" font-size="12.00"  text-anchor="middle">
		<text><tspan font-family="Helvetica" > 1.45</tspan></text>
	</g>
</g>
<g fill="none" color="black" stroke="currentColor" stroke-width="1.00" stroke-linecap="butt" stroke-linejoin="miter">
	<path stroke='black'  d='M386.8,662.4 L386.8,653.4  '/>	<g transform="translate(386.8,684.3)" stroke="none" fill="black" font-family="Helvetica" font-size="12.00"  text-anchor="middle">
		<text><tspan font-family="Helvetica" > 1.452</tspan></text>
	</g>
</g>
<g fill="none" color="black" stroke="currentColor" stroke-width="1.00" stroke-linecap="butt" stroke-linejoin="miter">
	<path stroke='black'  d='M491.7,662.4 L491.7,653.4  '/>	<g transform="translate(491.7,684.3)" stroke="none" fill="black" font-family="Helvetica" font-size="12.00"  text-anchor="middle">
		<text><tspan font-family="Helvetica" > 1.454</tspan></text>
	</g>
</g>
<g fill="none" color="black" stroke="currentColor" stroke-width="1.00" stroke-linecap="butt" stroke-linejoin="miter">
	<path stroke='black'  d='M596.7,662.4 L596.7,653.4  '/>	<g transform="translate(596.7,684.3)" stroke="none" fill="black" font-family="Helvetica" font-size="12.00"  text-anchor="middle">
		<text><tspan font-family="Helvetica" > 1.456</tspan></text>
	</g>
</g>
<g fill="none" color="black" stroke="currentColor" stroke-width="1.00" stroke-linecap="butt" stroke-linejoin="miter">
	<path stroke='black'  d='M701.7,662.4 L701.7,653.4  '/>	<g transform="translate(701.7,684.3)" stroke="none" fill="black" font-family="Helvetica" font-size="12.00"  text-anchor="middle">
		<text><tspan font-family="Helvetica" > 1.458</tspan></text>
	</g>
</g>
<g fill="none" color="black" stroke="currentColor" stroke-width="1.00" stroke-linecap="butt" stroke-linejoin="miter">
	<path stroke='black'  d='M806.6,662.4 L806.6,653.4  '/>	<g transform="translate(806.6,684.3)" stroke="none" fill="black" font-family="Helvetica" font-size="12.00"  text-anchor="middle">
		<text><tspan font-family="Helvetica" > 1.46</tspan></text>
	</g>
</g>
<g fill="none" color="black" stroke="currentColor" stroke-width="1.00" stroke-linecap="butt" stroke-linejoin="miter">
	<path stroke='black'  d='M911.6,662.4 L911.6,653.4  '/>	<g transform="translate(911.6,684.3)" stroke="none" fill="black" font-family="Helvetica" font-size="12.00"  text-anchor="middle">
		<text><tspan font-family="Helvetica" > 1.462</tspan></text>
	</g>
</g>
<g fill="none" color="black" stroke="currentColor" stroke-width="1.00" stroke-linecap="butt" stroke-linejoin="miter">
	<path stroke='black'  d='M1016.5,662.4 L1016.5,653.4  '/>	<g transform="translate(1016.5,684.3)" stroke="none" fill="black" font-family="Helvetica" font-size="12.00"  text-anchor="middle">
		<text><tspan font-family="Helvetica" > 1.464</tspan></text>
	</g>
</g>
<g fill="none" color="black" stroke="currentColor" stroke-width="1.00" stroke-linecap="butt" stroke-linejoin="miter">
	<path stroke='black'  d='M1121.5,662.4 L1121.5,653.4  '/>	<g transform="translate(1121.5,684.3)" stroke="none" fill="black" font-family="Helvetica" font-size="12.00"  text-anchor="middle">
		<text><tspan font-family="Helvetica" > 1.466</tspan></text>
	</g>
</g>
<g fill="none" color="black" stroke="currentColor" stroke-width="1.00" stroke-linecap="butt" stroke-linejoin="miter">
</g>
<g fill="none" color="black" stroke="currentColor" stroke-width="1.00" stroke-linecap="butt" stroke-linejoin="miter">
	<path stroke='black'  d='M71.9,54.1 L71.9,662.4 L1121.5,662.4 L1121.5,54.1 L71.9,54.1 Z  '/></g>
<g fill="none" color="black" stroke="currentColor" stroke-width="1.00" stroke-linecap="butt" stroke-linejoin="miter">
	<g transform="translate(19.0,358.3) rotate(270)" stroke="none" fill="black" font-family="Helvetica" font-size="12.00"  text-anchor="middle">
		<text><tspan font-family="Helvetica" >Density (a.u.)</tspan></text>
	</g>
</g>
<g fill="none" color="black" stroke="currentColor" stroke-width="1.00" stroke-linecap="butt" stroke-linejoin="miter">
	<g transform="translate(596.7,711.3)" stroke="none" fill="black" font-family="Helvetica" font-size="12.00"  text-anchor="middle">
		<text><tspan font-family="Helvetica" >Average time (us)</tspan></text>
	</g>
</g>
<g fill="none" color="black" stroke="currentColor" stroke-width="1.00" stroke-linecap="butt" stroke-linejoin="miter">
	<g transform="translate(596.7,31.0)" stroke="none" fill="black" font-family="Helvetica" font-size="12.00"  text-anchor="middle">
		<text><tspan font-family="Helvetica" >bench_group/blake3/512</tspan></text>
	</g>
</g>
<g fill="none" color="black" stroke="currentColor" stroke-width="1.00" stroke-linecap="butt" stroke-linejoin="miter">
</g>
	<g id="gnuplot_plot_1" ><title>Base PDF</title>
<g fill="none" color="black" stroke="currentColor" stroke-width="1.00" stroke-linecap="butt" stroke-linejoin="miter">
	<g transform="translate(1196.9,67.0)" stroke="none" fill="black" font-family="Helvetica" font-size="12.00"  text-anchor="start">
		<text><tspan font-family="Helvetica" >Base PDF</tspan></text>
	</g>
</g>
<g fill="none" color="black" stroke="currentColor" stroke-width="1.00" stroke-linecap="butt" stroke-linejoin="miter">
	<g stroke='none' shape-rendering='crispEdges'>
		<polygon fill = 'rgb(227,  26,  28)' fill-opacity = '0.500000' points = '1146.4,67.6 1188.6,67.6 1188.6,58.6 1146.4,58.6 '/>
		<polygon fill = 'rgb(227,  26,  28)' fill-opacity = '0.500000' points = '116.0,662.3 117.9,662.3 119.9,662.3 121.9,662.3 123.9,662.3 125.8,662.3 127.8,662.3 129.8,662.3 131.8,662.2 133.8,662.2 135.7,662.2 137.7,662.2 139.7,662.1 141.7,662.1 143.7,662.1 145.6,662.0
147.6,662.0 149.6,661.9 151.6,661.9 153.5,661.8 155.5,661.7 157.5,661.7 159.5,661.6 161.5,661.5 163.4,661.4 165.4,661.3 167.4,661.2 169.4,661.1 171.4,661.0 173.3,660.8 175.3,660.7 177.3,660.5
179.3,660.4 181.3,660.2 183.2,660.0 185.2,659.9 187.2,659.7 189.2,659.4 191.1,659.2 193.1,659.0 195.1,658.8 197.1,658.5 199.1,658.3 201.0,658.0 203.0,657.7 205.0,657.4 207.0,657.2 209.0,656.9
210.9,656.5 212.9,656.2 214.9,655.9 216.9,655.6 218.9,655.2 220.8,654.9 222.8,654.5 224.8,654.2 226.8,653.8 228.7,653.5 230.7,653.1 232.7,652.7 234.7,652.4 236.7,652.0 238.6,651.7 240.6,651.3
242.6,650.9 244.6,650.6 246.6,650.2 248.5,649.9 250.5,649.6 252.5,649.3 254.5,649.0 256.5,648.7 258.4,648.4 260.4,648.1 262.4,647.9 264.4,647.7 266.3,647.4 268.3,647.3 270.3,647.1 272.3,647.0
274.3,646.8 276.2,646.7 278.2,646.7 280.2,646.6 282.2,646.6 284.2,646.6 286.1,646.6 288.1,646.7 290.1,646.8 292.1,646.9 294.1,647.0 296.0,647.2 298.0,647.3 300.0,647.5 302.0,647.7 303.9,648.0
305.9,648.2 307.9,648.5 309.9,648.7 311.9,649.0 313.8,649.3 315.8,649.6 317.8,649.9 319.8,650.2 321.8,650.5 323.7,650.8 325.7,651.2 327.7,651.5 329.7,651.8 331.6,652.1 333.6,652.3 335.6,652.6
337.6,652.9 339.6,653.2 341.5,653.4 343.5,653.6 345.5,653.9 347.5,654.1 349.5,654.3 351.4,654.5 353.4,654.6 355.4,654.8 357.4,655.0 359.4,655.1 361.3,655.3 363.3,655.4 365.3,655.5 367.3,655.6
369.2,655.7 371.2,655.8 373.2,655.9 375.2,655.9 377.2,656.0 379.1,656.1 381.1,656.1 383.1,656.2 385.1,656.2 387.1,656.2 389.0,656.2 391.0,656.2 393.0,656.2 395.0,656.2 397.0,656.2 398.9,656.1
400.9,656.0 402.9,656.0 404.9,655.8 406.8,655.7 408.8,655.6 410.8,655.4 412.8,655.1 414.8,654.9 416.7,654.6 418.7,654.2 420.7,653.8 422.7,653.4 424.7,652.9 426.6,652.3 428.6,651.7 430.6,651.0
432.6,650.2 434.6,649.4 436.5,648.4 438.5,647.4 440.5,646.2 442.5,645.0 444.4,643.6 446.4,642.1 448.4,640.5 450.4,638.7 452.4,636.8 454.3,634.7 456.3,632.5 458.3,630.1 460.3,627.6 462.3,624.8
464.2,621.9 466.2,618.7 468.2,615.4 470.2,611.9 472.1,608.1 474.1,604.1 476.1,599.9 478.1,595.5 480.1,590.9 482.0,586.1 484.0,581.0 486.0,575.7 488.0,570.2 490.0,564.5 491.9,558.6 493.9,552.5
495.9,546.2 497.9,539.8 499.9,533.2 501.8,526.4 503.8,519.5 505.8,512.6 507.8,505.5 509.7,498.3 511.7,491.2 513.7,483.9 515.7,476.7 517.7,469.6 519.6,462.4 521.6,455.4 523.6,448.4 525.6,441.6
527.6,434.9 529.5,428.4 531.5,422.2 533.5,416.1 535.5,410.4 537.5,404.9 539.4,399.7 541.4,394.8 543.4,390.3 545.4,386.2 547.3,382.5 549.3,379.1 551.3,376.2 553.3,373.7 555.3,371.6 557.2,369.9
559.2,368.7 561.2,367.9 563.2,367.6 565.2,367.7 567.1,368.2 569.1,369.1 571.1,370.5 573.1,372.2 575.1,374.3 577.0,376.8 579.0,379.7 581.0,382.9 583.0,386.3 584.9,390.1 586.9,394.2 588.9,398.5
590.9,403.0 592.9,407.7 594.8,412.6 596.8,417.7 598.8,422.9 600.8,428.2 602.8,433.6 604.7,439.1 606.7,444.6 608.7,450.1 610.7,455.7 612.6,461.3 614.6,466.8 616.6,472.4 618.6,477.9 620.6,483.3
622.5,488.6 624.5,493.9 626.5,499.1 628.5,504.2 630.5,509.2 632.4,514.1 634.4,518.9 636.4,523.6 638.4,528.2 640.4,532.6 642.3,537.0 644.3,541.2 646.3,545.3 648.3,549.4 650.2,553.3 652.2,557.0
654.2,560.7 656.2,564.3 658.2,567.8 660.1,571.2 662.1,574.4 664.1,577.6 666.1,580.7 668.1,583.7 670.0,586.6 672.0,589.5 674.0,592.2 676.0,594.9 678.0,597.5 679.9,600.0 681.9,602.4 683.9,604.8
685.9,607.1 687.8,609.3 689.8,611.4 691.8,613.5 693.8,615.5 695.8,617.5 697.7,619.3 699.7,621.1 701.7,622.9 703.7,624.5 705.7,626.1 707.6,627.7 709.6,629.1 711.6,630.5 713.6,631.9 715.6,633.2
717.5,634.4 719.5,635.6 721.5,636.7 723.5,637.7 725.4,638.7 727.4,639.7 729.4,640.6 731.4,641.4 733.4,642.2 735.3,642.9 737.3,643.6 739.3,644.3 741.3,644.9 743.3,645.5 745.2,646.1 747.2,646.6
749.2,647.1 751.2,647.5 753.1,648.0 755.1,648.4 757.1,648.8 759.1,649.1 761.1,649.5 763.0,649.8 765.0,650.1 767.0,650.4 769.0,650.7 771.0,651.0 772.9,651.3 774.9,651.5 776.9,651.8 778.9,652.0
780.9,652.2 782.8,652.4 784.8,652.7 786.8,652.9 788.8,653.1 790.7,653.3 792.7,653.5 794.7,653.6 796.7,653.8 798.7,654.0 800.6,654.1 802.6,654.3 804.6,654.5 806.6,654.6 808.6,654.7 810.5,654.9
812.5,655.0 814.5,655.1 816.5,655.2 818.5,655.3 820.4,655.4 822.4,655.5 824.4,655.6 826.4,655.7 828.3,655.8 830.3,655.9 832.3,656.0 834.3,656.0 836.3,656.1 838.2,656.2 840.2,656.3 842.2,656.3
844.2,656.4 846.2,656.5 848.1,656.6 850.1,656.7 852.1,656.7 854.1,656.8 856.1,656.9 858.0,657.0 860.0,657.1 862.0,657.2 864.0,657.3 865.9,657.4 867.9,657.6 869.9,657.7 871.9,657.8 873.9,657.9
875.8,658.0 877.8,658.2 879.8,658.3 881.8,658.4 883.8,658.5 885.7,658.7 887.7,658.8 889.7,658.9 891.7,659.0 893.6,659.1 895.6,659.2 897.6,659.3 899.6,659.4 901.6,659.5 903.5,659.6 905.5,659.7
907.5,659.7 909.5,659.8 911.5,659.8 913.4,659.9 915.4,659.9 917.4,659.9 919.4,659.9 921.4,659.9 923.3,659.9 925.3,659.9 927.3,659.8 929.3,659.8 931.2,659.7 933.2,659.7 935.2,659.6 937.2,659.5
939.2,659.4 941.1,659.4 943.1,659.3 945.1,659.2 947.1,659.1 949.1,659.0 951.0,658.9 953.0,658.8 955.0,658.7 957.0,658.6 959.0,658.5 960.9,658.4 962.9,658.3 964.9,658.2 966.9,658.1 968.8,658.1
970.8,658.0 972.8,658.0 974.8,657.9 976.8,657.9 978.7,657.8 980.7,657.8 982.7,657.8 984.7,657.8 986.7,657.8 988.6,657.9 990.6,657.9 992.6,658.0 994.6,658.0 996.6,658.1 998.5,658.2 1000.5,658.2
1002.5,658.3 1004.5,658.4 1006.4,658.5 1008.4,658.7 1010.4,658.8 1012.4,658.9 1014.4,659.0 1016.3,659.2 1018.3,659.3 1020.3,659.4 1022.3,659.6 1024.3,659.7 1026.2,659.8 1028.2,660.0 1030.2,660.1 1032.2,660.2
1034.2,660.4 1036.1,660.5 1038.1,660.6 1040.1,660.7 1042.1,660.8 1044.0,661.0 1046.0,661.1 1048.0,661.2 1050.0,661.3 1052.0,661.4 1053.9,661.4 1055.9,661.5 1057.9,661.6 1059.9,661.7 1061.9,661.7 1063.8,661.8
1065.8,661.9 1067.8,661.9 1069.8,662.0 1071.7,662.0 1073.7,662.0 1075.7,662.1 1077.7,662.1 1079.7,662.1 1081.6,662.2 1083.6,662.2 1085.6,662.2 1087.6,662.2 1089.6,662.3 1091.5,662.3 1093.5,662.3 1095.5,662.3
1097.5,662.3 1099.5,662.3 1101.4,662.3 1103.4,662.3 1103.4,662.4 1101.4,662.4 1099.5,662.4 1097.5,662.4 1095.5,662.4 1093.5,662.4 1091.5,662.4 1089.6,662.4 1087.6,662.4 1085.6,662.4 1083.6,662.4 1081.6,662.4
1079.7,662.4 1077.7,662.4 1075.7,662.4 1073.7,662.4 1071.7,662.4 1069.8,662.4 1067.8,662.4 1065.8,662.4 1063.8,662.4 1061.9,662.4 1059.9,662.4 1057.9,662.4 1055.9,662.4 1053.9,662.4 1052.0,662.4 1050.0,662.4
1048.0,662.4 1046.0,662.4 1044.0,662.4 1042.1,662.4 1040.1,662.4 1038.1,662.4 1036.1,662.4 1034.2,662.4 1032.2,662.4 1030.2,662.4 1028.2,662.4 1026.2,662.4 1024.3,662.4 1022.3,662.4 1020.3,662.4 1018.3,662.4
1016.3,662.4 1014.4,662.4 1012.4,662.4 1010.4,662.4 1008.4,662.4 1006.4,662.4 1004.5,662.4 1002.5,662.4 1000.5,662.4 998.5,662.4 996.6,662.4 994.6,662.4 992.6,662.4 990.6,662.4 988.6,662.4 986.7,662.4
984.7,662.4 982.7,662.4 980.7,662.4 978.7,662.4 976.8,662.4 974.8,662.4 972.8,662.4 970.8,662.4 968.8,662.4 966.9,662.4 964.9,662.4 962.9,662.4 960.9,662.4 959.0,662.4 957.0,662.4 955.0,662.4
953.0,662.4 951.0,662.4 949.1,662.4 947.1,662.4 945.1,662.4 943.1,662.4 941.1,662.4 939.2,662.4 937.2,662.4 935.2,662.4 933.2,662.4 931.2,662.4 929.3,662.4 927.3,662.4 925.3,662.4 923.3,662.4
921.4,662.4 919.4,662.4 917.4,662.4 915.4,662.4 913.4,662.4 911.5,662.4 909.5,662.4 907.5,662.4 905.5,662.4 903.5,662.4 901.6,662.4 899.6,662.4 897.6,662.4 895.6,662.4 893.6,662.4 891.7,662.4
889.7,662.4 887.7,662.4 885.7,662.4 883.8,662.4 881.8,662.4 879.8,662.4 877.8,662.4 875.8,662.4 873.9,662.4 871.9,662.4 869.9,662.4 867.9,662.4 865.9,662.4 864.0,662.4 862.0,662.4 860.0,662.4
858.0,662.4 856.1,662.4 854.1,662.4 852.1,662.4 850.1,662.4 848.1,662.4 846.2,662.4 844.2,662.4 842.2,662.4 840.2,662.4 838.2,662.4 836.3,662.4 834.3,662.4 832.3,662.4 830.3,662.4 828.3,662.4
826.4,662.4 824.4,662.4 822.4,662.4 820.4,662.4 818.5,662.4 816.5,662.4 814.5,662.4 812.5,662.4 810.5,662.4 808.6,662.4 806.6,662.4 804.6,662.4 802.6,662.4 800.6,662.4 798.7,662.4 796.7,662.4
794.7,662.4 792.7,662.4 790.7,662.4 788.8,662.4 786.8,662.4 784.8,662.4 782.8,662.4 780.9,662.4 778.9,662.4 776.9,662.4 774.9,662.4 772.9,662.4 771.0,662.4 769.0,662.4 767.0,662.4 765.0,662.4
763.0,662.4 761.1,662.4 759.1,662.4 757.1,662.4 755.1,662.4 753.1,662.4 751.2,662.4 749.2,662.4 747.2,662.4 745.2,662.4 743.3,662.4 741.3,662.4 739.3,662.4 737.3,662.4 735.3,662.4 733.4,662.4
731.4,662.4 729.4,662.4 727.4,662.4 725.4,662.4 723.5,662.4 721.5,662.4 719.5,662.4 717.5,662.4 715.6,662.4 713.6,662.4 711.6,662.4 709.6,662.4 707.6,662.4 705.7,662.4 703.7,662.4 701.7,662.4
699.7,662.4 697.7,662.4 695.8,662.4 693.8,662.4 691.8,662.4 689.8,662.4 687.8,662.4 685.9,662.4 683.9,662.4 681.9,662.4 679.9,662.4 678.0,662.4 676.0,662.4 674.0,662.4 672.0,662.4 670.0,662.4
668.1,662.4 666.1,662.4 664.1,662.4 662.1,662.4 660.1,662.4 658.2,662.4 656.2,662.4 654.2,662.4 652.2,662.4 650.2,662.4 648.3,662.4 646.3,662.4 644.3,662.4 642.3,662.4 640.4,662.4 638.4,662.4
636.4,662.4 634.4,662.4 632.4,662.4 630.5,662.4 628.5,662.4 626.5,662.4 624.5,662.4 622.5,662.4 620.6,662.4 618.6,662.4 616.6,662.4 614.6,662.4 612.6,662.4 610.7,662.4 608.7,662.4 606.7,662.4
604.7,662.4 602.8,662.4 600.8,662.4 598.8,662.4 596.8,662.4 594.8,662.4 592.9,662.4 590.9,662.4 588.9,662.4 586.9,662.4 584.9,662.4 583.0,662.4 581.0,662.4 579.0,662.4 577.0,662.4 575.1,662.4
573.1,662.4 571.1,662.4 569.1,662.4 567.1,662.4 565.2,662.4 563.2,662.4 561.2,662.4 559.2,662.4 557.2,662.4 555.3,662.4 553.3,662.4 551.3,662.4 549.3,662.4 547.3,662.4 545.4,662.4 543.4,662.4
541.4,662.4 539.4,662.4 537.5,662.4 535.5,662.4 533.5,662.4 531.5,662.4 529.5,662.4 527.6,662.4 525.6,662.4 523.6,662.4 521.6,662.4 519.6,662.4 517.7,662.4 515.7,662.4 513.7,662.4 511.7,662.4
509.7,662.4 507.8,662.4 505.8,662.4 503.8,662.4 501.8,662.4 499.9,662.4 497.9,662.4 495.9,662.4 493.9,662.4 491.9,662.4 490.0,662.4 488.0,662.4 486.0,662.4 484.0,662.4 482.0,662.4 480.1,662.4
478.1,662.4 476.1,662.4 474.1,662.4 472.1,662.4 470.2,662.4 468.2,662.4 466.2,662.4 464.2,662.4 462.3,662.4 460.3,662.4 458.3,662.4 456.3,662.4 454.3,662.4 452.4,662.4 450.4,662.4 448.4,662.4
446.4,662.4 444.4,662.4 442.5,662.4 440.5,662.4 438.5,662.4 436.5,662.4 434.6,662.4 432.6,662.4 430.6,662.4 428.6,662.4 426.6,662.4 424.7,662.4 422.7,662.4 420.7,662.4 418.7,662.4 416.7,662.4
414.8,662.4 412.8,662.4 410.8,662.4 408.8,662.4 406.8,662.4 404.9,662.4 402.9,662.4 400.9,662.4 398.9,662.4 397.0,662.4 395.0,662.4 393.0,662.4 391.0,662.4 389.0,662.4 387.1,662.4 385.1,662.4
383.1,662.4 381.1,662.4 379.1,662.4 377.2,662.4 375.2,662.4 373.2,662.4 371.2,662.4 369.2,662.4 367.3,662.4 365.3,662.4 363.3,662.4 361.3,662.4 359.4,662.4 357.4,662.4 355.4,662.4 353.4,662.4
351.4,662.4 349.5,662.4 347.5,662.4 345.5,662.4 343.5,662.4 341.5,662.4 339.6,662.4 337.6,662.4 335.6,662.4 333.6,662.4 331.6,662.4 329.7,662.4 327.7,662.4 325.7,662.4 323.7,662.4 321.8,662.4
319.8,662.4 317.8,662.4 315.8,662.4 313.8,662.4 311.9,662.4 309.9,662.4 307.9,662.4 305.9,662.4 303.9,662.4 302.0,662.4 300.0,662.4 298.0,662.4 296.0,662.4 294.1,662.4 292.1,662.4 290.1,662.4
288.1,662.4 286.1,662.4 284.2,662.4 282.2,662.4 280.2,662.4 278.2,662.4 276.2,662.4 274.3,662.4 272.3,662.4 270.3,662.4 268.3,662.4 266.3,662.4 264.4,662.4 262.4,662.4 260.4,662.4 258.4,662.4
256.5,662.4 254.5,662.4 252.5,662.4 250.5,662.4 248.5,662.4 246.6,662.4 244.6,662.4 242.6,662.4 240.6,662.4 238.6,662.4 236.7,662.4 234.7,662.4 232.7,662.4 230.7,662.4 228.7,662.4 226.8,662.4
224.8,662.4 222.8,662.4 220.8,662.4 218.9,662.4 216.9,662.4 214.9,662.4 212.9,662.4 210.9,662.4 209.0,662.4 207.0,662.4 205.0,662.4 203.0,662.4 201.0,662.4 199.1,662.4 197.1,662.4 195.1,662.4
193.1,662.4 191.1,662.4 189.2,662.4 187.2,662.4 185.2,662.4 183.2,662.4 181.3,662.4 179.3,662.4 177.3,662.4 175.3,662.4 173.3,662.4 171.4,662.4 169.4,662.4 167.4,662.4 165.4,662.4 163.4,662.4
161.5,662.4 159.5,662.4 157.5,662.4 155.5,662.4 153.5,662.4 151.6,662.4 149.6,662.4 147.6,662.4 145.6,662.4 143.7,662.4 141.7,662.4 139.7,662.4 137.7,662.4 135.7,662.4 133.8,662.4 131.8,662.4
129.8,662.4 127.8,662.4 125.8,662.4 123.9,662.4 121.9,662.4 119.9,662.4 117.9,662.4 116.0,662.4 '/>
	</g>
</g>
	</g>
	<g id="gnuplot_plot_2" ><title>Base Mean</title>
<g fill="none" color="white" stroke="rgb(227,  26,  28)" stroke-width="2.00" stroke-linecap="butt" stroke-linejoin="miter">
</g>
<g fill="none" color="black" stroke="currentColor" stroke-width="2.00" stroke-linecap="butt" stroke-linejoin="miter">
	<g transform="translate(1196.9,85.0)" stroke="none" fill="black" font-family="Helvetica" font-size="12.00"  text-anchor="start">
		<text><tspan font-family="Helvetica" >Base Mean</tspan></text>
	</g>
</g>
<g fill="none" color="black" stroke="currentColor" stroke-width="2.00" stroke-linecap="butt" stroke-linejoin="miter">
	<path stroke='rgb(227,  26,  28)'  d='M1146.4,81.1 L1188.6,81.1 M572.0,662.4 L572.0,371.2  '/></g>
	</g>
	<g id="gnuplot_plot_3" ><title>New PDF</title>
<g fill="none" color="white" stroke="rgb(227,  26,  28)" stroke-width="1.00" stroke-linecap="butt" stroke-linejoin="miter">
</g>
<g fill="none" color="black" stroke="currentColor" stroke-width="1.00" stroke-linecap="butt" stroke-linejoin="miter">
	<g transform="translate(1196.9,103.0)" stroke="none" fill="black" font-family="Helvetica" font-size="12.00"  text-anchor="start">
		<text><tspan font-family="Helvetica" >New PDF</tspan></text>
	</g>
</g>
<g fill="none" color="black" stroke="currentColor" stroke-width="1.00" stroke-linecap="butt" stroke-linejoin="miter">
	<g stroke='none' shape-rendering='crispEdges'>
		<polygon fill = 'rgb( 31, 120, 180)' fill-opacity = '0.500000' points = '1146.4,103.6 1188.6,103.6 1188.6,94.6 1146.4,94.6 '/>
		<polygon fill = 'rgb( 31, 120, 180)' fill-opacity = '0.500000' points = '518.6,662.3 519.8,662.3 521.0,662.3 522.2,662.3 523.4,662.2 524.5,662.2 525.7,662.2 526.9,662.2 528.1,662.1 529.3,662.1 530.5,662.0 531.6,662.0 532.8,661.9 534.0,661.9 535.2,661.8 536.4,661.7
537.6,661.6 538.7,661.5 539.9,661.4 541.1,661.3 542.3,661.2 543.5,661.0 544.7,660.8 545.8,660.6 547.0,660.4 548.2,660.2 549.4,659.9 550.6,659.7 551.8,659.3 552.9,659.0 554.1,658.6 555.3,658.2
556.5,657.7 557.7,657.2 558.9,656.6 560.0,656.0 561.2,655.3 562.4,654.5 563.6,653.7 564.8,652.7 566.0,651.7 567.1,650.6 568.3,649.3 569.5,648.0 570.7,646.5 571.9,644.8 573.1,643.1 574.3,641.1
575.4,639.0 576.6,636.6 577.8,634.1 579.0,631.3 580.2,628.3 581.4,625.0 582.5,621.5 583.7,617.7 584.9,613.5 586.1,609.1 587.3,604.3 588.5,599.2 589.6,593.7 590.8,587.8 592.0,581.5 593.2,574.9
594.4,567.8 595.6,560.2 596.7,552.3 597.9,543.9 599.1,535.1 600.3,525.8 601.5,516.1 602.7,506.0 603.8,495.4 605.0,484.4 606.2,473.1 607.4,461.3 608.6,449.2 609.8,436.8 610.9,424.1 612.1,411.1
613.3,397.8 614.5,384.4 615.7,370.8 616.9,357.2 618.0,343.5 619.2,329.7 620.4,316.1 621.6,302.5 622.8,289.1 624.0,276.0 625.1,263.1 626.3,250.6 627.5,238.4 628.7,226.7 629.9,215.6 631.1,205.0
632.2,195.0 633.4,185.7 634.6,177.1 635.8,169.2 637.0,162.2 638.2,156.0 639.3,150.6 640.5,146.1 641.7,142.5 642.9,139.8 644.1,137.9 645.3,137.0 646.4,137.0 647.6,137.9 648.8,139.7 650.0,142.3
651.2,145.7 652.4,150.0 653.5,154.9 654.7,160.6 655.9,167.0 657.1,174.0 658.3,181.5 659.5,189.6 660.6,198.1 661.8,207.0 663.0,216.3 664.2,225.9 665.4,235.7 666.6,245.8 667.7,255.9 668.9,266.2
670.1,276.5 671.3,286.8 672.5,297.0 673.7,307.1 674.8,317.2 676.0,327.0 677.2,336.7 678.4,346.1 679.6,355.4 680.8,364.3 681.9,373.0 683.1,381.4 684.3,389.6 685.5,397.4 686.7,405.0 687.9,412.2
689.1,419.2 690.2,425.9 691.4,432.3 692.6,438.5 693.8,444.4 695.0,450.1 696.2,455.6 697.3,460.9 698.5,466.0 699.7,470.9 700.9,475.7 702.1,480.3 703.3,484.8 704.4,489.2 705.6,493.5 706.8,497.8
708.0,501.9 709.2,506.0 710.4,510.1 711.5,514.1 712.7,518.1 713.9,522.1 715.1,526.0 716.3,529.9 717.5,533.9 718.6,537.8 719.8,541.6 721.0,545.5 722.2,549.3 723.4,553.2 724.6,557.0 725.7,560.7
726.9,564.5 728.1,568.2 729.3,571.8 730.5,575.4 731.7,579.0 732.8,582.5 734.0,585.9 735.2,589.3 736.4,592.6 737.6,595.8 738.8,598.9 739.9,601.9 741.1,604.8 742.3,607.7 743.5,610.4 744.7,613.1
745.9,615.6 747.0,618.1 748.2,620.4 749.4,622.6 750.6,624.8 751.8,626.8 753.0,628.8 754.1,630.6 755.3,632.4 756.5,634.0 757.7,635.6 758.9,637.1 760.1,638.5 761.2,639.8 762.4,641.1 763.6,642.2
764.8,643.3 766.0,644.4 767.2,645.4 768.3,646.3 769.5,647.1 770.7,648.0 771.9,648.7 773.1,649.4 774.3,650.1 775.4,650.8 776.6,651.3 777.8,651.9 779.0,652.4 780.2,652.9 781.4,653.4 782.5,653.8
783.7,654.2 784.9,654.6 786.1,654.9 787.3,655.2 788.5,655.5 789.6,655.8 790.8,656.0 792.0,656.2 793.2,656.4 794.4,656.6 795.6,656.8 796.7,656.9 797.9,657.0 799.1,657.1 800.3,657.1 801.5,657.2
802.7,657.2 803.9,657.2 805.0,657.2 806.2,657.2 807.4,657.1 808.6,657.1 809.8,657.0 811.0,656.9 812.1,656.8 813.3,656.7 814.5,656.6 815.7,656.5 816.9,656.4 818.1,656.2 819.2,656.1 820.4,656.0
821.6,655.8 822.8,655.7 824.0,655.6 825.2,655.5 826.3,655.4 827.5,655.3 828.7,655.2 829.9,655.1 831.1,655.0 832.3,655.0 833.4,654.9 834.6,654.9 835.8,654.9 837.0,654.9 838.2,654.9 839.4,654.9
840.5,655.0 841.7,655.1 842.9,655.1 844.1,655.2 845.3,655.3 846.5,655.5 847.6,655.6 848.8,655.7 850.0,655.9 851.2,656.1 852.4,656.2 853.6,656.4 854.7,656.6 855.9,656.8 857.1,657.0 858.3,657.2
859.5,657.5 860.7,657.7 861.8,657.9 863.0,658.1 864.2,658.3 865.4,658.5 866.6,658.7 867.8,658.9 868.9,659.1 870.1,659.3 871.3,659.5 872.5,659.7 873.7,659.9 874.9,660.0 876.0,660.2 877.2,660.3
878.4,660.5 879.6,660.6 880.8,660.7 882.0,660.8 883.1,660.9 884.3,661.0 885.5,661.1 886.7,661.1 887.9,661.2 889.1,661.2 890.2,661.3 891.4,661.3 892.6,661.3 893.8,661.3 895.0,661.3 896.2,661.3
897.3,661.3 898.5,661.2 899.7,661.2 900.9,661.1 902.1,661.1 903.3,661.0 904.4,660.9 905.6,660.8 906.8,660.7 908.0,660.5 909.2,660.4 910.4,660.3 911.5,660.1 912.7,660.0 913.9,659.8 915.1,659.6
916.3,659.4 917.5,659.3 918.6,659.1 919.8,658.9 921.0,658.7 922.2,658.4 923.4,658.2 924.6,658.0 925.8,657.8 926.9,657.6 928.1,657.4 929.3,657.2 930.5,657.0 931.7,656.8 932.9,656.6 934.0,656.4
935.2,656.2 936.4,656.0 937.6,655.9 938.8,655.7 940.0,655.6 941.1,655.4 942.3,655.3 943.5,655.2 944.7,655.1 945.9,655.1 947.1,655.0 948.2,655.0 949.4,655.0 950.6,655.0 951.8,655.0 953.0,655.0
954.2,655.1 955.3,655.1 956.5,655.2 957.7,655.3 958.9,655.4 960.1,655.5 961.3,655.7 962.4,655.8 963.6,656.0 964.8,656.1 966.0,656.3 967.2,656.5 968.4,656.7 969.5,656.8 970.7,657.0 971.9,657.2
973.1,657.4 974.3,657.6 975.5,657.7 976.6,657.9 977.8,658.1 979.0,658.2 980.2,658.4 981.4,658.5 982.6,658.6 983.7,658.7 984.9,658.8 986.1,658.9 987.3,659.0 988.5,659.1 989.7,659.1 990.8,659.1
992.0,659.2 993.2,659.2 994.4,659.1 995.6,659.1 996.8,659.1 997.9,659.0 999.1,658.9 1000.3,658.9 1001.5,658.8 1002.7,658.6 1003.9,658.5 1005.0,658.4 1006.2,658.2 1007.4,658.1 1008.6,657.9 1009.8,657.7
1011.0,657.6 1012.1,657.4 1013.3,657.2 1014.5,657.0 1015.7,656.8 1016.9,656.7 1018.1,656.5 1019.2,656.3 1020.4,656.1 1021.6,656.0 1022.8,655.8 1024.0,655.7 1025.2,655.6 1026.3,655.4 1027.5,655.3 1028.7,655.2
1029.9,655.1 1031.1,655.1 1032.3,655.0 1033.4,655.0 1034.6,655.0 1035.8,655.0 1037.0,655.0 1038.2,655.0 1039.4,655.1 1040.6,655.1 1041.7,655.2 1042.9,655.3 1044.1,655.4 1045.3,655.6 1046.5,655.7 1047.7,655.8
1048.8,656.0 1050.0,656.2 1051.2,656.4 1052.4,656.5 1053.6,656.7 1054.8,656.9 1055.9,657.2 1057.1,657.4 1058.3,657.6 1059.5,657.8 1060.7,658.0 1061.9,658.2 1063.0,658.4 1064.2,658.7 1065.4,658.9 1066.6,659.1
1067.8,659.3 1069.0,659.5 1070.1,659.7 1071.3,659.8 1072.5,660.0 1073.7,660.2 1074.9,660.3 1076.1,660.5 1077.2,660.6 1078.4,660.8 1079.6,660.9 1080.8,661.0 1082.0,661.2 1083.2,661.3 1084.3,661.4 1085.5,661.5
1086.7,661.6 1087.9,661.6 1089.1,661.7 1090.3,661.8 1091.4,661.8 1092.6,661.9 1093.8,662.0 1095.0,662.0 1096.2,662.0 1097.4,662.1 1098.5,662.1 1099.7,662.2 1100.9,662.2 1102.1,662.2 1103.3,662.2 1104.5,662.3
1105.6,662.3 1106.8,662.3 1108.0,662.3 1109.2,662.3 1109.2,662.4 1108.0,662.4 1106.8,662.4 1105.6,662.4 1104.5,662.4 1103.3,662.4 1102.1,662.4 1100.9,662.4 1099.7,662.4 1098.5,662.4 1097.4,662.4 1096.2,662.4
1095.0,662.4 1093.8,662.4 1092.6,662.4 1091.4,662.4 1090.3,662.4 1089.1,662.4 1087.9,662.4 1086.7,662.4 1085.5,662.4 1084.3,662.4 1083.2,662.4 1082.0,662.4 1080.8,662.4 1079.6,662.4 1078.4,662.4 1077.2,662.4
1076.1,662.4 1074.9,662.4 1073.7,662.4 1072.5,662.4 1071.3,662.4 1070.1,662.4 1069.0,662.4 1067.8,662.4 1066.6,662.4 1065.4,662.4 1064.2,662.4 1063.0,662.4 1061.9,662.4 1060.7,662.4 1059.5,662.4 1058.3,662.4
1057.1,662.4 1055.9,662.4 1054.8,662.4 1053.6,662.4 1052.4,662.4 1051.2,662.4 1050.0,662.4 1048.8,662.4 1047.7,662.4 1046.5,662.4 1045.3,662.4 1044.1,662.4 1042.9,662.4 1041.7,662.4 1040.6,662.4 1039.4,662.4
1038.2,662.4 1037.0,662.4 1035.8,662.4 1034.6,662.4 1033.4,662.4 1032.3,662.4 1031.1,662.4 1029.9,662.4 1028.7,662.4 1027.5,662.4 1026.3,662.4 1025.2,662.4 1024.0,662.4 1022.8,662.4 1021.6,662.4 1020.4,662.4
1019.2,662.4 1018.1,662.4 1016.9,662.4 1015.7,662.4 1014.5,662.4 1013.3,662.4 1012.1,662.4 1011.0,662.4 1009.8,662.4 1008.6,662.4 1007.4,662.4 1006.2,662.4 1005.0,662.4 1003.9,662.4 1002.7,662.4 1001.5,662.4
1000.3,662.4 999.1,662.4 997.9,662.4 996.8,662.4 995.6,662.4 994.4,662.4 993.2,662.4 992.0,662.4 990.8,662.4 989.7,662.4 988.5,662.4 987.3,662.4 986.1,662.4 984.9,662.4 983.7,662.4 982.6,662.4
981.4,662.4 980.2,662.4 979.0,662.4 977.8,662.4 976.6,662.4 975.5,662.4 974.3,662.4 973.1,662.4 971.9,662.4 970.7,662.4 969.5,662.4 968.4,662.4 967.2,662.4 966.0,662.4 964.8,662.4 963.6,662.4
962.4,662.4 961.3,662.4 960.1,662.4 958.9,662.4 957.7,662.4 956.5,662.4 955.3,662.4 954.2,662.4 953.0,662.4 951.8,662.4 950.6,662.4 949.4,662.4 948.2,662.4 947.1,662.4 945.9,662.4 944.7,662.4
943.5,662.4 942.3,662.4 941.1,662.4 940.0,662.4 938.8,662.4 937.6,662.4 936.4,662.4 935.2,662.4 934.0,662.4 932.9,662.4 931.7,662.4 930.5,662.4 929.3,662.4 928.1,662.4 926.9,662.4 925.8,662.4
924.6,662.4 923.4,662.4 922.2,662.4 921.0,662.4 919.8,662.4 918.6,662.4 917.5,662.4 916.3,662.4 915.1,662.4 913.9,662.4 912.7,662.4 911.5,662.4 910.4,662.4 909.2,662.4 908.0,662.4 906.8,662.4
905.6,662.4 904.4,662.4 903.3,662.4 902.1,662.4 900.9,662.4 899.7,662.4 898.5,662.4 897.3,662.4 896.2,662.4 895.0,662.4 893.8,662.4 892.6,662.4 891.4,662.4 890.2,662.4 889.1,662.4 887.9,662.4
886.7,662.4 885.5,662.4 884.3,662.4 883.1,662.4 882.0,662.4 880.8,662.4 879.6,662.4 878.4,662.4 877.2,662.4 876.0,662.4 874.9,662.4 873.7,662.4 872.5,662.4 871.3,662.4 870.1,662.4 868.9,662.4
867.8,662.4 866.6,662.4 865.4,662.4 864.2,662.4 863.0,662.4 861.8,662.4 860.7,662.4 859.5,662.4 858.3,662.4 857.1,662.4 855.9,662.4 854.7,662.4 853.6,662.4 852.4,662.4 851.2,662.4 850.0,662.4
848.8,662.4 847.6,662.4 846.5,662.4 845.3,662.4 844.1,662.4 842.9,662.4 841.7,662.4 840.5,662.4 839.4,662.4 838.2,662.4 837.0,662.4 835.8,662.4 834.6,662.4 833.4,662.4 832.3,662.4 831.1,662.4
829.9,662.4 828.7,662.4 827.5,662.4 826.3,662.4 825.2,662.4 824.0,662.4 822.8,662.4 821.6,662.4 820.4,662.4 819.2,662.4 818.1,662.4 816.9,662.4 815.7,662.4 814.5,662.4 813.3,662.4 812.1,662.4
811.0,662.4 809.8,662.4 808.6,662.4 807.4,662.4 806.2,662.4 805.0,662.4 803.9,662.4 802.7,662.4 801.5,662.4 800.3,662.4 799.1,662.4 797.9,662.4 796.7,662.4 795.6,662.4 794.4,662.4 793.2,662.4
792.0,662.4 790.8,662.4 789.6,662.4 788.5,662.4 787.3,662.4 786.1,662.4 784.9,662.4 783.7,662.4 782.5,662.4 781.4,662.4 780.2,662.4 779.0,662.4 777.8,662.4 776.6,662.4 775.4,662.4 774.3,662.4
773.1,662.4 771.9,662.4 770.7,662.4 769.5,662.4 768.3,662.4 767.2,662.4 766.0,662.4 764.8,662.4 763.6,662.4 762.4,662.4 761.2,662.4 760.1,662.4 758.9,662.4 757.7,662.4 756.5,662.4 755.3,662.4
754.1,662.4 753.0,662.4 751.8,662.4 750.6,662.4 749.4,662.4 748.2,662.4 747.0,662.4 745.9,662.4 744.7,662.4 743.5,662.4 742.3,662.4 741.1,662.4 739.9,662.4 738.8,662.4 737.6,662.4 736.4,662.4
735.2,662.4 734.0,662.4 732.8,662.4 731.7,662.4 730.5,662.4 729.3,662.4 728.1,662.4 726.9,662.4 725.7,662.4 724.6,662.4 723.4,662.4 722.2,662.4 721.0,662.4 719.8,662.4 718.6,662.4 717.5,662.4
716.3,662.4 715.1,662.4 713.9,662.4 712.7,662.4 711.5,662.4 710.4,662.4 709.2,662.4 708.0,662.4 706.8,662.4 705.6,662.4 704.4,662.4 703.3,662.4 702.1,662.4 700.9,662.4 699.7,662.4 698.5,662.4
697.3,662.4 696.2,662.4 695.0,662.4 693.8,662.4 692.6,662.4 691.4,662.4 690.2,662.4 689.1,662.4 687.9,662.4 686.7,662.4 685.5,662.4 684.3,662.4 683.1,662.4 681.9,662.4 680.8,662.4 679.6,662.4
678.4,662.4 677.2,662.4 676.0,662.4 674.8,662.4 673.7,662.4 672.5,662.4 671.3,662.4 670.1,662.4 668.9,662.4 667.7,662.4 666.6,662.4 665.4,662.4 664.2,662.4 663.0,662.4 661.8,662.4 660.6,662.4
659.5,662.4 658.3,662.4 657.1,662.4 655.9,662.4 654.7,662.4 653.5,662.4 652.4,662.4 651.2,662.4 650.0,662.4 648.8,662.4 647.6,662.4 646.4,662.4 645.3,662.4 644.1,662.4 642.9,662.4 641.7,662.4
640.5,662.4 639.3,662.4 638.2,662.4 637.0,662.4 635.8,662.4 634.6,662.4 633.4,662.4 632.2,662.4 631.1,662.4 629.9,662.4 628.7,662.4 627.5,662.4 626.3,662.4 625.1,662.4 624.0,662.4 622.8,662.4
621.6,662.4 620.4,662.4 619.2,662.4 618.0,662.4 616.9,662.4 615.7,662.4 614.5,662.4 613.3,662.4 612.1,662.4 610.9,662.4 609.8,662.4 608.6,662.4 607.4,662.4 606.2,662.4 605.0,662.4 603.8,662.4
602.7,662.4 601.5,662.4 600.3,662.4 599.1,662.4 597.9,662.4 596.7,662.4 595.6,662.4 594.4,662.4 593.2,662.4 592.0,662.4 590.8,662.4 589.6,662.4 588.5,662.4 587.3,662.4 586.1,662.4 584.9,662.4
583.7,662.4 582.5,662.4 581.4,662.4 580.2,662.4 579.0,662.4 577.8,662.4 576.6,662.4 575.4,662.4 574.3,662.4 573.1,662.4 571.9,662.4 570.7,662.4 569.5,662.4 568.3,662.4 567.1,662.4 566.0,662.4
564.8,662.4 563.6,662.4 562.4,662.4 561.2,662.4 560.0,662.4 558.9,662.4 557.7,662.4 556.5,662.4 555.3,662.4 554.1,662.4 552.9,662.4 551.8,662.4 550.6,662.4 549.4,662.4 548.2,662.4 547.0,662.4
545.8,662.4 544.7,662.4 543.5,662.4 542.3,662.4 541.1,662.4 539.9,662.4 538.7,662.4 537.6,662.4 536.4,662.4 535.2,662.4 534.0,662.4 532.8,662.4 531.6,662.4 530.5,662.4 529.3,662.4 528.1,662.4
526.9,662.4 525.7,662.4 524.5,662.4 523.4,662.4 522.2,662.4 521.0,662.4 519.8,662.4 518.6,662.4 '/>
	</g>
</g>
	</g>
	<g id="gnuplot_plot_4" ><title>New Mean</title>
<g fill="none" color="white" stroke="rgb( 31, 120, 180)" stroke-width="2.00" stroke-linecap="butt" stroke-linejoin="miter">
</g>
<g fill="none" color="black" stroke="currentColor" stroke-width="2.00" stroke-linecap="butt" stroke-linejoin="miter">
	<g transform="translate(1196.9,121.0)" stroke="none" fill="black" font-family="Helvetica" font-size="12.00"  text-anchor="start">
		<text><tspan font-family="Helvetica" >New Mean</tspan></text>
	</g>
</g>
<g fill="none" color="black" stroke="currentColor" stroke-width="2.00" stroke-linecap="butt" stroke-linejoin="miter">
	<path stroke='rgb( 31, 120, 180)'  d='M1146.4,117.1 L1188.6,117.1 M665.9,662.4 L665.9,240.2  '/></g>
	</g>
<g fill="none" color="black" stroke="currentColor" stroke-width="2.00" stroke-linecap="butt" stroke-linejoin="miter">
</g>
<g fill="none" color="black" stroke="black" stroke-width="1.00" stroke-linecap="butt" stroke-linejoin="miter">
</g>
<g fill="none" color="black" stroke="currentColor" stroke-width="1.00" stroke-linecap="butt" stroke-linejoin="miter">
	<path stroke='black'  d='M71.9,54.1 L71.9,662.4 L1121.5,662.4 L1121.5,54.1 L71.9,54.1 Z  '/></g>
<g fill="none" color="black" stroke="currentColor" stroke-width="1.00" stroke-linecap="butt" stroke-linejoin="miter">
</g>
</g>
</svg>

