<?xml version="1.0" encoding="utf-8"  standalone="no"?>
<svg 
 viewBox="0 0 1280 720"
 xmlns="http://www.w3.org/2000/svg"
 xmlns:xlink="http://www.w3.org/1999/xlink"
>

<title>Gnuplot</title>
<desc>Produced by GNUPLOT 5.2 patchlevel 8 </desc>

<g id="gnuplot_canvas">

<rect x="0" y="0" width="1280" height="720" fill="none"/>
<defs>

	<circle id='gpDot' r='0.5' stroke-width='0.5' stroke='currentColor'/>
	<path id='gpPt0' stroke-width='0.222' stroke='currentColor' d='M-1,0 h2 M0,-1 v2'/>
	<path id='gpPt1' stroke-width='0.222' stroke='currentColor' d='M-1,-1 L1,1 M1,-1 L-1,1'/>
	<path id='gpPt2' stroke-width='0.222' stroke='currentColor' d='M-1,0 L1,0 M0,-1 L0,1 M-1,-1 L1,1 M-1,1 L1,-1'/>
	<rect id='gpPt3' stroke-width='0.222' stroke='currentColor' x='-1' y='-1' width='2' height='2'/>
	<rect id='gpPt4' stroke-width='0.222' stroke='currentColor' fill='currentColor' x='-1' y='-1' width='2' height='2'/>
	<circle id='gpPt5' stroke-width='0.222' stroke='currentColor' cx='0' cy='0' r='1'/>
	<use xlink:href='#gpPt5' id='gpPt6' fill='currentColor' stroke='none'/>
	<path id='gpPt7' stroke-width='0.222' stroke='currentColor' d='M0,-1.33 L-1.33,0.67 L1.33,0.67 z'/>
	<use xlink:href='#gpPt7' id='gpPt8' fill='currentColor' stroke='none'/>
	<use xlink:href='#gpPt7' id='gpPt9' stroke='currentColor' transform='rotate(180)'/>
	<use xlink:href='#gpPt9' id='gpPt10' fill='currentColor' stroke='none'/>
	<use xlink:href='#gpPt3' id='gpPt11' stroke='currentColor' transform='rotate(45)'/>
	<use xlink:href='#gpPt11' id='gpPt12' fill='currentColor' stroke='none'/>
	<path id='gpPt13' stroke-width='0.222' stroke='currentColor' d='M0,1.330 L1.265,0.411 L0.782,-1.067 L-0.782,-1.076 L-1.265,0.411 z'/>
	<use xlink:href='#gpPt13' id='gpPt14' fill='currentColor' stroke='none'/>
	<filter id='textbox' filterUnits='objectBoundingBox' x='0' y='0' height='1' width='1'>
	  <feFlood flood-color='white' flood-opacity='1' result='bgnd'/>
	  <feComposite in='SourceGraphic' in2='bgnd' operator='atop'/>
	</filter>
	<filter id='greybox' filterUnits='objectBoundingBox' x='0' y='0' height='1' width='1'>
	  <feFlood flood-color='lightgrey' flood-opacity='1' result='grey'/>
	  <feComposite in='SourceGraphic' in2='grey' operator='atop'/>
	</filter>
</defs>
<g fill="none" color="white" stroke="currentColor" stroke-width="1.00" stroke-linecap="butt" stroke-linejoin="miter">
</g>
<g fill="none" color="black" stroke="currentColor" stroke-width="1.00" stroke-linecap="butt" stroke-linejoin="miter">
	<path stroke='black'  d='M71.9,662.4 L80.9,662.4  '/>	<g transform="translate(63.6,666.3)" stroke="none" fill="black" font-family="Helvetica" font-size="12.00"  text-anchor="end">
		<text><tspan font-family="Helvetica" > 0</tspan></text>
	</g>
</g>
<g fill="none" color="black" stroke="currentColor" stroke-width="1.00" stroke-linecap="butt" stroke-linejoin="miter">
	<path stroke='black'  d='M71.9,561.0 L80.9,561.0  '/>	<g transform="translate(63.6,564.9)" stroke="none" fill="black" font-family="Helvetica" font-size="12.00"  text-anchor="end">
		<text><tspan font-family="Helvetica" > 0.5</tspan></text>
	</g>
</g>
<g fill="none" color="black" stroke="currentColor" stroke-width="1.00" stroke-linecap="butt" stroke-linejoin="miter">
	<path stroke='black'  d='M71.9,459.6 L80.9,459.6  '/>	<g transform="translate(63.6,463.5)" stroke="none" fill="black" font-family="Helvetica" font-size="12.00"  text-anchor="end">
		<text><tspan font-family="Helvetica" > 1</tspan></text>
	</g>
</g>
<g fill="none" color="black" stroke="currentColor" stroke-width="1.00" stroke-linecap="butt" stroke-linejoin="miter">
	<path stroke='black'  d='M71.9,358.2 L80.9,358.2  '/>	<g transform="translate(63.6,362.1)" stroke="none" fill="black" font-family="Helvetica" font-size="12.00"  text-anchor="end">
		<text><tspan font-family="Helvetica" > 1.5</tspan></text>
	</g>
</g>
<g fill="none" color="black" stroke="currentColor" stroke-width="1.00" stroke-linecap="butt" stroke-linejoin="miter">
	<path stroke='black'  d='M71.9,256.9 L80.9,256.9  '/>	<g transform="translate(63.6,260.8)" stroke="none" fill="black" font-family="Helvetica" font-size="12.00"  text-anchor="end">
		<text><tspan font-family="Helvetica" > 2</tspan></text>
	</g>
</g>
<g fill="none" color="black" stroke="currentColor" stroke-width="1.00" stroke-linecap="butt" stroke-linejoin="miter">
	<path stroke='black'  d='M71.9,155.5 L80.9,155.5  '/>	<g transform="translate(63.6,159.4)" stroke="none" fill="black" font-family="Helvetica" font-size="12.00"  text-anchor="end">
		<text><tspan font-family="Helvetica" > 2.5</tspan></text>
	</g>
</g>
<g fill="none" color="black" stroke="currentColor" stroke-width="1.00" stroke-linecap="butt" stroke-linejoin="miter">
	<path stroke='black'  d='M71.9,54.1 L80.9,54.1  '/>	<g transform="translate(63.6,58.0)" stroke="none" fill="black" font-family="Helvetica" font-size="12.00"  text-anchor="end">
		<text><tspan font-family="Helvetica" > 3</tspan></text>
	</g>
</g>
<g fill="none" color="black" stroke="currentColor" stroke-width="1.00" stroke-linecap="butt" stroke-linejoin="miter">
	<path stroke='black'  d='M71.9,662.4 L71.9,653.4  '/>	<g transform="translate(71.9,684.3)" stroke="none" fill="black" font-family="Helvetica" font-size="12.00"  text-anchor="middle">
		<text><tspan font-family="Helvetica" > 100</tspan></text>
	</g>
</g>
<g fill="none" color="black" stroke="currentColor" stroke-width="1.00" stroke-linecap="butt" stroke-linejoin="miter">
	<path stroke='black'  d='M203.1,662.4 L203.1,653.4  '/>	<g transform="translate(203.1,684.3)" stroke="none" fill="black" font-family="Helvetica" font-size="12.00"  text-anchor="middle">
		<text><tspan font-family="Helvetica" > 150</tspan></text>
	</g>
</g>
<g fill="none" color="black" stroke="currentColor" stroke-width="1.00" stroke-linecap="butt" stroke-linejoin="miter">
	<path stroke='black'  d='M334.3,662.4 L334.3,653.4  '/>	<g transform="translate(334.3,684.3)" stroke="none" fill="black" font-family="Helvetica" font-size="12.00"  text-anchor="middle">
		<text><tspan font-family="Helvetica" > 200</tspan></text>
	</g>
</g>
<g fill="none" color="black" stroke="currentColor" stroke-width="1.00" stroke-linecap="butt" stroke-linejoin="miter">
	<path stroke='black'  d='M465.5,662.4 L465.5,653.4  '/>	<g transform="translate(465.5,684.3)" stroke="none" fill="black" font-family="Helvetica" font-size="12.00"  text-anchor="middle">
		<text><tspan font-family="Helvetica" > 250</tspan></text>
	</g>
</g>
<g fill="none" color="black" stroke="currentColor" stroke-width="1.00" stroke-linecap="butt" stroke-linejoin="miter">
	<path stroke='black'  d='M596.7,662.4 L596.7,653.4  '/>	<g transform="translate(596.7,684.3)" stroke="none" fill="black" font-family="Helvetica" font-size="12.00"  text-anchor="middle">
		<text><tspan font-family="Helvetica" > 300</tspan></text>
	</g>
</g>
<g fill="none" color="black" stroke="currentColor" stroke-width="1.00" stroke-linecap="butt" stroke-linejoin="miter">
	<path stroke='black'  d='M727.9,662.4 L727.9,653.4  '/>	<g transform="translate(727.9,684.3)" stroke="none" fill="black" font-family="Helvetica" font-size="12.00"  text-anchor="middle">
		<text><tspan font-family="Helvetica" > 350</tspan></text>
	</g>
</g>
<g fill="none" color="black" stroke="currentColor" stroke-width="1.00" stroke-linecap="butt" stroke-linejoin="miter">
	<path stroke='black'  d='M859.1,662.4 L859.1,653.4  '/>	<g transform="translate(859.1,684.3)" stroke="none" fill="black" font-family="Helvetica" font-size="12.00"  text-anchor="middle">
		<text><tspan font-family="Helvetica" > 400</tspan></text>
	</g>
</g>
<g fill="none" color="black" stroke="currentColor" stroke-width="1.00" stroke-linecap="butt" stroke-linejoin="miter">
	<path stroke='black'  d='M990.3,662.4 L990.3,653.4  '/>	<g transform="translate(990.3,684.3)" stroke="none" fill="black" font-family="Helvetica" font-size="12.00"  text-anchor="middle">
		<text><tspan font-family="Helvetica" > 450</tspan></text>
	</g>
</g>
<g fill="none" color="black" stroke="currentColor" stroke-width="1.00" stroke-linecap="butt" stroke-linejoin="miter">
	<path stroke='black'  d='M1121.5,662.4 L1121.5,653.4  '/>	<g transform="translate(1121.5,684.3)" stroke="none" fill="black" font-family="Helvetica" font-size="12.00"  text-anchor="middle">
		<text><tspan font-family="Helvetica" > 500</tspan></text>
	</g>
</g>
<g fill="none" color="black" stroke="currentColor" stroke-width="1.00" stroke-linecap="butt" stroke-linejoin="miter">
</g>
<g fill="none" color="black" stroke="currentColor" stroke-width="1.00" stroke-linecap="butt" stroke-linejoin="miter">
	<path stroke='black'  d='M71.9,54.1 L71.9,662.4 L1121.5,662.4 L1121.5,54.1 L71.9,54.1 Z  '/></g>
<g fill="none" color="black" stroke="currentColor" stroke-width="1.00" stroke-linecap="butt" stroke-linejoin="miter">
	<g transform="translate(19.0,358.3) rotate(270)" stroke="none" fill="black" font-family="Helvetica" font-size="12.00"  text-anchor="middle">
		<text><tspan font-family="Helvetica" >Density (a.u.)</tspan></text>
	</g>
</g>
<g fill="none" color="black" stroke="currentColor" stroke-width="1.00" stroke-linecap="butt" stroke-linejoin="miter">
	<g transform="translate(596.7,711.3)" stroke="none" fill="black" font-family="Helvetica" font-size="12.00"  text-anchor="middle">
		<text><tspan font-family="Helvetica" >Average time (us)</tspan></text>
	</g>
</g>
<g fill="none" color="black" stroke="currentColor" stroke-width="1.00" stroke-linecap="butt" stroke-linejoin="miter">
	<g transform="translate(596.7,31.0)" stroke="none" fill="black" font-family="Helvetica" font-size="12.00"  text-anchor="middle">
		<text><tspan font-family="Helvetica" >bench_group/blake3/163840</tspan></text>
	</g>
</g>
<g fill="none" color="black" stroke="currentColor" stroke-width="1.00" stroke-linecap="butt" stroke-linejoin="miter">
</g>
	<g id="gnuplot_plot_1" ><title>Base PDF</title>
<g fill="none" color="black" stroke="currentColor" stroke-width="1.00" stroke-linecap="butt" stroke-linejoin="miter">
	<g transform="translate(1196.9,67.0)" stroke="none" fill="black" font-family="Helvetica" font-size="12.00"  text-anchor="start">
		<text><tspan font-family="Helvetica" >Base PDF</tspan></text>
	</g>
</g>
<g fill="none" color="black" stroke="currentColor" stroke-width="1.00" stroke-linecap="butt" stroke-linejoin="miter">
	<g stroke='none' shape-rendering='crispEdges'>
		<polygon fill = 'rgb(227,  26,  28)' fill-opacity = '0.500000' points = '1146.4,67.6 1188.6,67.6 1188.6,58.6 1146.4,58.6 '/>
		<polygon fill = 'rgb(227,  26,  28)' fill-opacity = '0.500000' points = '1096.8,662.3 1096.8,662.3 1096.9,662.2 1096.9,662.2 1096.9,662.2 1096.9,662.1 1096.9,662.1 1096.9,662.1 1096.9,662.0 1096.9,661.9 1097.0,661.9 1097.0,661.8 1097.0,661.7 1097.0,661.6 1097.0,661.5 1097.0,661.4
1097.0,661.3 1097.0,661.1 1097.0,661.0 1097.1,660.8 1097.1,660.6 1097.1,660.4 1097.1,660.1 1097.1,659.9 1097.1,659.6 1097.1,659.3 1097.1,659.0 1097.2,658.6 1097.2,658.2 1097.2,657.8 1097.2,657.4 1097.2,656.9
1097.2,656.4 1097.2,655.8 1097.2,655.2 1097.3,654.6 1097.3,653.9 1097.3,653.2 1097.3,652.5 1097.3,651.6 1097.3,650.8 1097.3,649.9 1097.3,648.9 1097.4,647.9 1097.4,646.8 1097.4,645.7 1097.4,644.5 1097.4,643.2
1097.4,641.9 1097.4,640.5 1097.4,639.0 1097.4,637.4 1097.5,635.7 1097.5,633.9 1097.5,632.0 1097.5,630.0 1097.5,627.9 1097.5,625.7 1097.5,623.3 1097.5,620.7 1097.6,618.1 1097.6,615.2 1097.6,612.2 1097.6,609.1
1097.6,605.7 1097.6,602.1 1097.6,598.3 1097.6,594.4 1097.7,590.1 1097.7,585.7 1097.7,581.0 1097.7,576.1 1097.7,570.9 1097.7,565.4 1097.7,559.7 1097.7,553.7 1097.8,547.4 1097.8,540.8 1097.8,534.0 1097.8,526.8
1097.8,519.4 1097.8,511.7 1097.8,503.7 1097.8,495.4 1097.9,486.9 1097.9,478.1 1097.9,469.0 1097.9,459.7 1097.9,450.1 1097.9,440.3 1097.9,430.3 1097.9,420.2 1097.9,409.8 1098.0,399.3 1098.0,388.7 1098.0,377.9
1098.0,367.1 1098.0,356.2 1098.0,345.2 1098.0,334.3 1098.0,323.4 1098.1,312.6 1098.1,301.8 1098.1,291.1 1098.1,280.6 1098.1,270.3 1098.1,260.2 1098.1,250.4 1098.1,240.9 1098.2,231.6 1098.2,222.7 1098.2,214.3
1098.2,206.2 1098.2,198.6 1098.2,191.4 1098.2,184.8 1098.2,178.7 1098.3,173.2 1098.3,168.3 1098.3,163.9 1098.3,160.2 1098.3,157.1 1098.3,154.7 1098.3,152.9 1098.3,151.8 1098.4,151.4 1098.4,151.6 1098.4,152.5
1098.4,154.0 1098.4,156.2 1098.4,159.0 1098.4,162.4 1098.4,166.4 1098.4,170.9 1098.5,175.9 1098.5,181.5 1098.5,187.5 1098.5,193.9 1098.5,200.8 1098.5,208.0 1098.5,215.5 1098.5,223.3 1098.6,231.3 1098.6,239.5
1098.6,247.8 1098.6,256.3 1098.6,264.8 1098.6,273.4 1098.6,282.0 1098.6,290.6 1098.7,299.1 1098.7,307.5 1098.7,315.8 1098.7,324.0 1098.7,332.0 1098.7,339.8 1098.7,347.5 1098.7,354.9 1098.8,362.2 1098.8,369.2
1098.8,376.0 1098.8,382.5 1098.8,388.9 1098.8,395.0 1098.8,400.9 1098.8,406.6 1098.9,412.1 1098.9,417.4 1098.9,422.6 1098.9,427.6 1098.9,432.4 1098.9,437.1 1098.9,441.6 1098.9,446.0 1098.9,450.4 1099.0,454.6
1099.0,458.8 1099.0,462.9 1099.0,466.9 1099.0,470.9 1099.0,474.9 1099.0,478.9 1099.0,482.8 1099.1,486.7 1099.1,490.6 1099.1,494.5 1099.1,498.4 1099.1,502.3 1099.1,506.2 1099.1,510.2 1099.1,514.1 1099.2,518.0
1099.2,521.9 1099.2,525.8 1099.2,529.8 1099.2,533.7 1099.2,537.6 1099.2,541.4 1099.2,545.3 1099.3,549.1 1099.3,552.8 1099.3,556.6 1099.3,560.3 1099.3,563.9 1099.3,567.5 1099.3,571.0 1099.3,574.4 1099.4,577.7
1099.4,581.0 1099.4,584.2 1099.4,587.3 1099.4,590.3 1099.4,593.2 1099.4,596.0 1099.4,598.7 1099.4,601.3 1099.5,603.7 1099.5,606.1 1099.5,608.4 1099.5,610.5 1099.5,612.6 1099.5,614.6 1099.5,616.4 1099.5,618.2
1099.6,619.8 1099.6,621.4 1099.6,622.9 1099.6,624.3 1099.6,625.6 1099.6,626.8 1099.6,628.0 1099.6,629.1 1099.7,630.2 1099.7,631.2 1099.7,632.1 1099.7,633.0 1099.7,633.9 1099.7,634.7 1099.7,635.5 1099.7,636.3
1099.8,637.0 1099.8,637.8 1099.8,638.5 1099.8,639.2 1099.8,640.0 1099.8,640.7 1099.8,641.4 1099.8,642.1 1099.9,642.8 1099.9,643.5 1099.9,644.2 1099.9,644.9 1099.9,645.6 1099.9,646.3 1099.9,647.0 1099.9,647.6
1099.9,648.3 1100.0,649.0 1100.0,649.7 1100.0,650.4 1100.0,651.0 1100.0,651.6 1100.0,652.3 1100.0,652.9 1100.0,653.5 1100.1,654.1 1100.1,654.6 1100.1,655.2 1100.1,655.7 1100.1,656.2 1100.1,656.6 1100.1,657.1
1100.1,657.5 1100.2,657.9 1100.2,658.3 1100.2,658.7 1100.2,659.0 1100.2,659.3 1100.2,659.6 1100.2,659.9 1100.2,660.1 1100.3,660.4 1100.3,660.6 1100.3,660.8 1100.3,660.9 1100.3,661.1 1100.3,661.2 1100.3,661.4
1100.3,661.5 1100.3,661.6 1100.4,661.7 1100.4,661.8 1100.4,661.9 1100.4,661.9 1100.4,662.0 1100.4,662.1 1100.4,662.1 1100.4,662.1 1100.5,662.2 1100.5,662.2 1100.5,662.2 1100.5,662.3 1100.5,662.3 1100.5,662.3
1100.5,662.3 1100.5,662.3 1100.6,662.3 1100.6,662.3 1100.6,662.4 1100.6,662.4 1100.6,662.4 1100.6,662.4 1100.6,662.4 1100.6,662.4 1100.7,662.4 1100.7,662.4 1100.7,662.4 1100.7,662.4 1100.7,662.4 1100.7,662.4
1100.7,662.4 1100.7,662.4 1100.8,662.4 1100.8,662.4 1100.8,662.4 1100.8,662.4 1100.8,662.4 1100.8,662.4 1100.8,662.4 1100.8,662.4 1100.8,662.4 1100.9,662.4 1100.9,662.4 1100.9,662.4 1100.9,662.4 1100.9,662.4
1100.9,662.4 1100.9,662.4 1100.9,662.4 1101.0,662.4 1101.0,662.4 1101.0,662.4 1101.0,662.4 1101.0,662.4 1101.0,662.4 1101.0,662.4 1101.0,662.4 1101.1,662.4 1101.1,662.4 1101.1,662.4 1101.1,662.4 1101.1,662.4
1101.1,662.4 1101.1,662.4 1101.1,662.4 1101.2,662.4 1101.2,662.4 1101.2,662.4 1101.2,662.4 1101.2,662.4 1101.2,662.4 1101.2,662.4 1101.2,662.4 1101.3,662.4 1101.3,662.4 1101.3,662.4 1101.3,662.4 1101.3,662.4
1101.3,662.4 1101.3,662.4 1101.3,662.4 1101.3,662.4 1101.4,662.4 1101.4,662.4 1101.4,662.4 1101.4,662.4 1101.4,662.4 1101.4,662.4 1101.4,662.4 1101.4,662.4 1101.5,662.3 1101.5,662.3 1101.5,662.3 1101.5,662.3
1101.5,662.3 1101.5,662.3 1101.5,662.3 1101.5,662.2 1101.6,662.2 1101.6,662.2 1101.6,662.2 1101.6,662.1 1101.6,662.1 1101.6,662.0 1101.6,662.0 1101.6,661.9 1101.7,661.9 1101.7,661.8 1101.7,661.7 1101.7,661.6
1101.7,661.5 1101.7,661.4 1101.7,661.3 1101.7,661.2 1101.8,661.1 1101.8,660.9 1101.8,660.8 1101.8,660.6 1101.8,660.4 1101.8,660.2 1101.8,660.0 1101.8,659.8 1101.8,659.6 1101.9,659.4 1101.9,659.1 1101.9,658.9
1101.9,658.6 1101.9,658.4 1101.9,658.1 1101.9,657.8 1101.9,657.6 1102.0,657.3 1102.0,657.0 1102.0,656.7 1102.0,656.4 1102.0,656.1 1102.0,655.8 1102.0,655.6 1102.0,655.3 1102.1,655.0 1102.1,654.8 1102.1,654.6
1102.1,654.4 1102.1,654.2 1102.1,654.0 1102.1,653.8 1102.1,653.7 1102.2,653.6 1102.2,653.5 1102.2,653.4 1102.2,653.3 1102.2,653.3 1102.2,653.3 1102.2,653.3 1102.2,653.4 1102.3,653.5 1102.3,653.6 1102.3,653.7
1102.3,653.8 1102.3,654.0 1102.3,654.2 1102.3,654.4 1102.3,654.6 1102.3,654.8 1102.4,655.1 1102.4,655.3 1102.4,655.6 1102.4,655.9 1102.4,656.1 1102.4,656.4 1102.4,656.7 1102.4,657.0 1102.5,657.3 1102.5,657.6
1102.5,657.8 1102.5,658.1 1102.5,658.4 1102.5,658.7 1102.5,658.9 1102.5,659.2 1102.6,659.4 1102.6,659.6 1102.6,659.8 1102.6,660.0 1102.6,660.2 1102.6,660.4 1102.6,660.6 1102.6,660.8 1102.7,660.9 1102.7,661.1
1102.7,661.2 1102.7,661.3 1102.7,661.4 1102.7,661.5 1102.7,661.6 1102.7,661.7 1102.8,661.8 1102.8,661.9 1102.8,661.9 1102.8,662.0 1102.8,662.0 1102.8,662.1 1102.8,662.1 1102.8,662.2 1102.8,662.2 1102.9,662.2
1102.9,662.2 1102.9,662.3 1102.9,662.3 1102.9,662.3 1102.9,662.4 1102.9,662.4 1102.9,662.4 1102.9,662.4 1102.9,662.4 1102.8,662.4 1102.8,662.4 1102.8,662.4 1102.8,662.4 1102.8,662.4 1102.8,662.4 1102.8,662.4
1102.8,662.4 1102.8,662.4 1102.7,662.4 1102.7,662.4 1102.7,662.4 1102.7,662.4 1102.7,662.4 1102.7,662.4 1102.7,662.4 1102.7,662.4 1102.6,662.4 1102.6,662.4 1102.6,662.4 1102.6,662.4 1102.6,662.4 1102.6,662.4
1102.6,662.4 1102.6,662.4 1102.5,662.4 1102.5,662.4 1102.5,662.4 1102.5,662.4 1102.5,662.4 1102.5,662.4 1102.5,662.4 1102.5,662.4 1102.4,662.4 1102.4,662.4 1102.4,662.4 1102.4,662.4 1102.4,662.4 1102.4,662.4
1102.4,662.4 1102.4,662.4 1102.3,662.4 1102.3,662.4 1102.3,662.4 1102.3,662.4 1102.3,662.4 1102.3,662.4 1102.3,662.4 1102.3,662.4 1102.3,662.4 1102.2,662.4 1102.2,662.4 1102.2,662.4 1102.2,662.4 1102.2,662.4
1102.2,662.4 1102.2,662.4 1102.2,662.4 1102.1,662.4 1102.1,662.4 1102.1,662.4 1102.1,662.4 1102.1,662.4 1102.1,662.4 1102.1,662.4 1102.1,662.4 1102.0,662.4 1102.0,662.4 1102.0,662.4 1102.0,662.4 1102.0,662.4
1102.0,662.4 1102.0,662.4 1102.0,662.4 1101.9,662.4 1101.9,662.4 1101.9,662.4 1101.9,662.4 1101.9,662.4 1101.9,662.4 1101.9,662.4 1101.9,662.4 1101.8,662.4 1101.8,662.4 1101.8,662.4 1101.8,662.4 1101.8,662.4
1101.8,662.4 1101.8,662.4 1101.8,662.4 1101.8,662.4 1101.7,662.4 1101.7,662.4 1101.7,662.4 1101.7,662.4 1101.7,662.4 1101.7,662.4 1101.7,662.4 1101.7,662.4 1101.6,662.4 1101.6,662.4 1101.6,662.4 1101.6,662.4
1101.6,662.4 1101.6,662.4 1101.6,662.4 1101.6,662.4 1101.5,662.4 1101.5,662.4 1101.5,662.4 1101.5,662.4 1101.5,662.4 1101.5,662.4 1101.5,662.4 1101.5,662.4 1101.4,662.4 1101.4,662.4 1101.4,662.4 1101.4,662.4
1101.4,662.4 1101.4,662.4 1101.4,662.4 1101.4,662.4 1101.3,662.4 1101.3,662.4 1101.3,662.4 1101.3,662.4 1101.3,662.4 1101.3,662.4 1101.3,662.4 1101.3,662.4 1101.3,662.4 1101.2,662.4 1101.2,662.4 1101.2,662.4
1101.2,662.4 1101.2,662.4 1101.2,662.4 1101.2,662.4 1101.2,662.4 1101.1,662.4 1101.1,662.4 1101.1,662.4 1101.1,662.4 1101.1,662.4 1101.1,662.4 1101.1,662.4 1101.1,662.4 1101.0,662.4 1101.0,662.4 1101.0,662.4
1101.0,662.4 1101.0,662.4 1101.0,662.4 1101.0,662.4 1101.0,662.4 1100.9,662.4 1100.9,662.4 1100.9,662.4 1100.9,662.4 1100.9,662.4 1100.9,662.4 1100.9,662.4 1100.9,662.4 1100.8,662.4 1100.8,662.4 1100.8,662.4
1100.8,662.4 1100.8,662.4 1100.8,662.4 1100.8,662.4 1100.8,662.4 1100.8,662.4 1100.7,662.4 1100.7,662.4 1100.7,662.4 1100.7,662.4 1100.7,662.4 1100.7,662.4 1100.7,662.4 1100.7,662.4 1100.6,662.4 1100.6,662.4
1100.6,662.4 1100.6,662.4 1100.6,662.4 1100.6,662.4 1100.6,662.4 1100.6,662.4 1100.5,662.4 1100.5,662.4 1100.5,662.4 1100.5,662.4 1100.5,662.4 1100.5,662.4 1100.5,662.4 1100.5,662.4 1100.4,662.4 1100.4,662.4
1100.4,662.4 1100.4,662.4 1100.4,662.4 1100.4,662.4 1100.4,662.4 1100.4,662.4 1100.3,662.4 1100.3,662.4 1100.3,662.4 1100.3,662.4 1100.3,662.4 1100.3,662.4 1100.3,662.4 1100.3,662.4 1100.3,662.4 1100.2,662.4
1100.2,662.4 1100.2,662.4 1100.2,662.4 1100.2,662.4 1100.2,662.4 1100.2,662.4 1100.2,662.4 1100.1,662.4 1100.1,662.4 1100.1,662.4 1100.1,662.4 1100.1,662.4 1100.1,662.4 1100.1,662.4 1100.1,662.4 1100.0,662.4
1100.0,662.4 1100.0,662.4 1100.0,662.4 1100.0,662.4 1100.0,662.4 1100.0,662.4 1100.0,662.4 1099.9,662.4 1099.9,662.4 1099.9,662.4 1099.9,662.4 1099.9,662.4 1099.9,662.4 1099.9,662.4 1099.9,662.4 1099.9,662.4
1099.8,662.4 1099.8,662.4 1099.8,662.4 1099.8,662.4 1099.8,662.4 1099.8,662.4 1099.8,662.4 1099.8,662.4 1099.7,662.4 1099.7,662.4 1099.7,662.4 1099.7,662.4 1099.7,662.4 1099.7,662.4 1099.7,662.4 1099.7,662.4
1099.6,662.4 1099.6,662.4 1099.6,662.4 1099.6,662.4 1099.6,662.4 1099.6,662.4 1099.6,662.4 1099.6,662.4 1099.5,662.4 1099.5,662.4 1099.5,662.4 1099.5,662.4 1099.5,662.4 1099.5,662.4 1099.5,662.4 1099.5,662.4
1099.4,662.4 1099.4,662.4 1099.4,662.4 1099.4,662.4 1099.4,662.4 1099.4,662.4 1099.4,662.4 1099.4,662.4 1099.4,662.4 1099.3,662.4 1099.3,662.4 1099.3,662.4 1099.3,662.4 1099.3,662.4 1099.3,662.4 1099.3,662.4
1099.3,662.4 1099.2,662.4 1099.2,662.4 1099.2,662.4 1099.2,662.4 1099.2,662.4 1099.2,662.4 1099.2,662.4 1099.2,662.4 1099.1,662.4 1099.1,662.4 1099.1,662.4 1099.1,662.4 1099.1,662.4 1099.1,662.4 1099.1,662.4
1099.1,662.4 1099.0,662.4 1099.0,662.4 1099.0,662.4 1099.0,662.4 1099.0,662.4 1099.0,662.4 1099.0,662.4 1099.0,662.4 1098.9,662.4 1098.9,662.4 1098.9,662.4 1098.9,662.4 1098.9,662.4 1098.9,662.4 1098.9,662.4
1098.9,662.4 1098.9,662.4 1098.8,662.4 1098.8,662.4 1098.8,662.4 1098.8,662.4 1098.8,662.4 1098.8,662.4 1098.8,662.4 1098.8,662.4 1098.7,662.4 1098.7,662.4 1098.7,662.4 1098.7,662.4 1098.7,662.4 1098.7,662.4
1098.7,662.4 1098.7,662.4 1098.6,662.4 1098.6,662.4 1098.6,662.4 1098.6,662.4 1098.6,662.4 1098.6,662.4 1098.6,662.4 1098.6,662.4 1098.5,662.4 1098.5,662.4 1098.5,662.4 1098.5,662.4 1098.5,662.4 1098.5,662.4
1098.5,662.4 1098.5,662.4 1098.4,662.4 1098.4,662.4 1098.4,662.4 1098.4,662.4 1098.4,662.4 1098.4,662.4 1098.4,662.4 1098.4,662.4 1098.4,662.4 1098.3,662.4 1098.3,662.4 1098.3,662.4 1098.3,662.4 1098.3,662.4
1098.3,662.4 1098.3,662.4 1098.3,662.4 1098.2,662.4 1098.2,662.4 1098.2,662.4 1098.2,662.4 1098.2,662.4 1098.2,662.4 1098.2,662.4 1098.2,662.4 1098.1,662.4 1098.1,662.4 1098.1,662.4 1098.1,662.4 1098.1,662.4
1098.1,662.4 1098.1,662.4 1098.1,662.4 1098.0,662.4 1098.0,662.4 1098.0,662.4 1098.0,662.4 1098.0,662.4 1098.0,662.4 1098.0,662.4 1098.0,662.4 1097.9,662.4 1097.9,662.4 1097.9,662.4 1097.9,662.4 1097.9,662.4
1097.9,662.4 1097.9,662.4 1097.9,662.4 1097.9,662.4 1097.8,662.4 1097.8,662.4 1097.8,662.4 1097.8,662.4 1097.8,662.4 1097.8,662.4 1097.8,662.4 1097.8,662.4 1097.7,662.4 1097.7,662.4 1097.7,662.4 1097.7,662.4
1097.7,662.4 1097.7,662.4 1097.7,662.4 1097.7,662.4 1097.6,662.4 1097.6,662.4 1097.6,662.4 1097.6,662.4 1097.6,662.4 1097.6,662.4 1097.6,662.4 1097.6,662.4 1097.5,662.4 1097.5,662.4 1097.5,662.4 1097.5,662.4
1097.5,662.4 1097.5,662.4 1097.5,662.4 1097.5,662.4 1097.4,662.4 1097.4,662.4 1097.4,662.4 1097.4,662.4 1097.4,662.4 1097.4,662.4 1097.4,662.4 1097.4,662.4 1097.4,662.4 1097.3,662.4 1097.3,662.4 1097.3,662.4
1097.3,662.4 1097.3,662.4 1097.3,662.4 1097.3,662.4 1097.3,662.4 1097.2,662.4 1097.2,662.4 1097.2,662.4 1097.2,662.4 1097.2,662.4 1097.2,662.4 1097.2,662.4 1097.2,662.4 1097.1,662.4 1097.1,662.4 1097.1,662.4
1097.1,662.4 1097.1,662.4 1097.1,662.4 1097.1,662.4 1097.1,662.4 1097.0,662.4 1097.0,662.4 1097.0,662.4 1097.0,662.4 1097.0,662.4 1097.0,662.4 1097.0,662.4 1097.0,662.4 1097.0,662.4 1096.9,662.4 1096.9,662.4
1096.9,662.4 1096.9,662.4 1096.9,662.4 1096.9,662.4 1096.9,662.4 1096.9,662.4 1096.8,662.4 1096.8,662.4 '/>
	</g>
</g>
	</g>
	<g id="gnuplot_plot_2" ><title>Base Mean</title>
<g fill="none" color="white" stroke="rgb(227,  26,  28)" stroke-width="2.00" stroke-linecap="butt" stroke-linejoin="miter">
</g>
<g fill="none" color="black" stroke="currentColor" stroke-width="2.00" stroke-linecap="butt" stroke-linejoin="miter">
	<g transform="translate(1196.9,85.0)" stroke="none" fill="black" font-family="Helvetica" font-size="12.00"  text-anchor="start">
		<text><tspan font-family="Helvetica" >Base Mean</tspan></text>
	</g>
</g>
<g fill="none" color="black" stroke="currentColor" stroke-width="2.00" stroke-linecap="butt" stroke-linejoin="miter">
	<path stroke='rgb(227,  26,  28)'  d='M1146.4,81.1 L1188.6,81.1 M1098.5,662.4 L1098.5,206.9  '/></g>
	</g>
	<g id="gnuplot_plot_3" ><title>New PDF</title>
<g fill="none" color="white" stroke="rgb(227,  26,  28)" stroke-width="1.00" stroke-linecap="butt" stroke-linejoin="miter">
</g>
<g fill="none" color="black" stroke="currentColor" stroke-width="1.00" stroke-linecap="butt" stroke-linejoin="miter">
	<g transform="translate(1196.9,103.0)" stroke="none" fill="black" font-family="Helvetica" font-size="12.00"  text-anchor="start">
		<text><tspan font-family="Helvetica" >New PDF</tspan></text>
	</g>
</g>
<g fill="none" color="black" stroke="currentColor" stroke-width="1.00" stroke-linecap="butt" stroke-linejoin="miter">
	<g stroke='none' shape-rendering='crispEdges'>
		<polygon fill = 'rgb( 31, 120, 180)' fill-opacity = '0.500000' points = '1146.4,103.6 1188.6,103.6 1188.6,94.6 1146.4,94.6 '/>
		<polygon fill = 'rgb( 31, 120, 180)' fill-opacity = '0.500000' points = '193.1,662.3 193.1,662.3 193.1,662.3 193.1,662.2 193.1,662.2 193.1,662.2 193.2,662.2 193.2,662.1 193.2,662.1 193.2,662.0 193.2,662.0 193.2,661.9 193.2,661.8 193.3,661.8 193.3,661.7 193.3,661.6
193.3,661.5 193.3,661.4 193.3,661.2 193.3,661.1 193.3,660.9 193.4,660.8 193.4,660.6 193.4,660.4 193.4,660.2 193.4,659.9 193.4,659.7 193.4,659.4 193.5,659.1 193.5,658.8 193.5,658.5 193.5,658.1
193.5,657.8 193.5,657.4 193.5,657.0 193.5,656.5 193.6,656.1 193.6,655.6 193.6,655.1 193.6,654.6 193.6,654.1 193.6,653.5 193.6,653.0 193.7,652.4 193.7,651.8 193.7,651.2 193.7,650.6 193.7,649.9
193.7,649.3 193.7,648.7 193.7,648.0 193.8,647.4 193.8,646.8 193.8,646.1 193.8,645.5 193.8,644.9 193.8,644.3 193.8,643.7 193.9,643.1 193.9,642.6 193.9,642.0 193.9,641.5 193.9,641.0 193.9,640.6
193.9,640.1 193.9,639.7 194.0,639.3 194.0,639.0 194.0,638.7 194.0,638.4 194.0,638.1 194.0,637.9 194.0,637.7 194.1,637.5 194.1,637.4 194.1,637.3 194.1,637.2 194.1,637.1 194.1,637.1 194.1,637.0
194.1,637.0 194.2,637.0 194.2,637.1 194.2,637.1 194.2,637.1 194.2,637.2 194.2,637.3 194.2,637.3 194.3,637.4 194.3,637.4 194.3,637.5 194.3,637.5 194.3,637.6 194.3,637.6 194.3,637.7 194.3,637.7
194.4,637.7 194.4,637.7 194.4,637.6 194.4,637.6 194.4,637.5 194.4,637.5 194.4,637.4 194.5,637.2 194.5,637.1 194.5,636.9 194.5,636.7 194.5,636.5 194.5,636.3 194.5,636.0 194.5,635.6 194.6,635.3
194.6,634.9 194.6,634.5 194.6,634.0 194.6,633.4 194.6,632.9 194.6,632.2 194.7,631.6 194.7,630.8 194.7,630.0 194.7,629.1 194.7,628.2 194.7,627.2 194.7,626.2 194.7,625.0 194.8,623.8 194.8,622.5
194.8,621.2 194.8,619.7 194.8,618.2 194.8,616.7 194.8,615.0 194.8,613.3 194.9,611.5 194.9,609.6 194.9,607.7 194.9,605.7 194.9,603.6 194.9,601.5 194.9,599.4 195.0,597.1 195.0,594.8 195.0,592.5
195.0,590.1 195.0,587.7 195.0,585.2 195.0,582.6 195.0,580.0 195.1,577.4 195.1,574.7 195.1,572.0 195.1,569.2 195.1,566.3 195.1,563.4 195.1,560.4 195.2,557.3 195.2,554.1 195.2,550.9 195.2,547.5
195.2,544.0 195.2,540.4 195.2,536.7 195.2,532.8 195.3,528.7 195.3,524.4 195.3,520.0 195.3,515.3 195.3,510.5 195.3,505.3 195.3,500.0 195.4,494.4 195.4,488.5 195.4,482.3 195.4,475.8 195.4,469.1
195.4,462.0 195.4,454.6 195.4,446.9 195.5,438.8 195.5,430.5 195.5,421.8 195.5,412.9 195.5,403.6 195.5,394.1 195.5,384.3 195.6,374.2 195.6,364.0 195.6,353.5 195.6,342.9 195.6,332.2 195.6,321.3
195.6,310.4 195.6,299.5 195.7,288.6 195.7,277.8 195.7,267.2 195.7,256.7 195.7,246.4 195.7,236.4 195.7,226.7 195.8,217.4 195.8,208.6 195.8,200.2 195.8,192.4 195.8,185.1 195.8,178.5 195.8,172.5
195.8,167.2 195.9,162.7 195.9,158.9 195.9,155.9 195.9,153.7 195.9,152.4 195.9,151.8 195.9,152.2 196.0,153.3 196.0,155.3 196.0,158.1 196.0,161.8 196.0,166.2 196.0,171.4 196.0,177.3 196.0,183.9
196.1,191.2 196.1,199.1 196.1,207.6 196.1,216.6 196.1,226.1 196.1,236.1 196.1,246.4 196.2,257.1 196.2,268.0 196.2,279.2 196.2,290.6 196.2,302.1 196.2,313.6 196.2,325.3 196.2,336.9 196.3,348.4
196.3,359.9 196.3,371.2 196.3,382.4 196.3,393.4 196.3,404.1 196.3,414.7 196.4,424.9 196.4,434.9 196.4,444.6 196.4,453.9 196.4,463.0 196.4,471.7 196.4,480.1 196.4,488.2 196.5,495.9 196.5,503.3
196.5,510.3 196.5,517.0 196.5,523.5 196.5,529.6 196.5,535.4 196.6,540.9 196.6,546.1 196.6,551.1 196.6,555.8 196.6,560.3 196.6,564.5 196.6,568.5 196.6,572.3 196.7,575.9 196.7,579.3 196.7,582.6
196.7,585.7 196.7,588.6 196.7,591.4 196.7,594.0 196.8,596.5 196.8,598.9 196.8,601.2 196.8,603.4 196.8,605.5 196.8,607.6 196.8,609.5 196.8,611.4 196.9,613.2 196.9,614.9 196.9,616.6 196.9,618.2
196.9,619.8 196.9,621.3 196.9,622.8 197.0,624.3 197.0,625.7 197.0,627.1 197.0,628.4 197.0,629.7 197.0,631.0 197.0,632.3 197.0,633.5 197.1,634.8 197.1,635.9 197.1,637.1 197.1,638.3 197.1,639.4
197.1,640.5 197.1,641.5 197.2,642.6 197.2,643.6 197.2,644.6 197.2,645.5 197.2,646.4 197.2,647.4 197.2,648.2 197.2,649.1 197.3,649.9 197.3,650.7 197.3,651.4 197.3,652.2 197.3,652.9 197.3,653.5
197.3,654.2 197.3,654.8 197.4,655.3 197.4,655.9 197.4,656.4 197.4,656.9 197.4,657.3 197.4,657.8 197.4,658.2 197.5,658.5 197.5,658.9 197.5,659.2 197.5,659.5 197.5,659.8 197.5,660.1 197.5,660.3
197.5,660.5 197.6,660.7 197.6,660.9 197.6,661.0 197.6,661.2 197.6,661.3 197.6,661.5 197.6,661.6 197.7,661.7 197.7,661.8 197.7,661.8 197.7,661.9 197.7,662.0 197.7,662.0 197.7,662.1 197.7,662.1
197.8,662.2 197.8,662.2 197.8,662.2 197.8,662.2 197.8,662.3 197.8,662.3 197.8,662.3 197.9,662.3 197.9,662.3 197.9,662.3 197.9,662.3 197.9,662.4 197.9,662.4 197.9,662.4 197.9,662.4 198.0,662.4
198.0,662.4 198.0,662.4 198.0,662.4 198.0,662.4 198.0,662.4 198.0,662.4 198.1,662.4 198.1,662.4 198.1,662.4 198.1,662.4 198.1,662.4 198.1,662.3 198.1,662.3 198.1,662.3 198.2,662.3 198.2,662.3
198.2,662.3 198.2,662.3 198.2,662.3 198.2,662.2 198.2,662.2 198.3,662.2 198.3,662.1 198.3,662.1 198.3,662.1 198.3,662.0 198.3,662.0 198.3,661.9 198.3,661.8 198.4,661.8 198.4,661.7 198.4,661.6
198.4,661.5 198.4,661.4 198.4,661.3 198.4,661.2 198.5,661.1 198.5,660.9 198.5,660.8 198.5,660.6 198.5,660.5 198.5,660.3 198.5,660.1 198.5,659.9 198.6,659.7 198.6,659.5 198.6,659.3 198.6,659.0
198.6,658.8 198.6,658.5 198.6,658.3 198.7,658.0 198.7,657.8 198.7,657.5 198.7,657.3 198.7,657.0 198.7,656.8 198.7,656.5 198.7,656.3 198.8,656.0 198.8,655.8 198.8,655.6 198.8,655.4 198.8,655.2
198.8,655.0 198.8,654.8 198.9,654.7 198.9,654.5 198.9,654.4 198.9,654.3 198.9,654.3 198.9,654.2 198.9,654.2 198.9,654.2 199.0,654.2 199.0,654.2 199.0,654.3 199.0,654.3 199.0,654.4 199.0,654.6
199.0,654.7 199.1,654.9 199.1,655.0 199.1,655.2 199.1,655.4 199.1,655.6 199.1,655.8 199.1,656.1 199.1,656.3 199.2,656.6 199.2,656.8 199.2,657.1 199.2,657.3 199.2,657.6 199.2,657.8 199.2,658.1
199.3,658.4 199.3,658.6 199.3,658.8 199.3,659.1 199.3,659.3 199.3,659.5 199.3,659.7 199.3,659.9 199.4,660.1 199.4,660.3 199.4,660.5 199.4,660.7 199.4,660.8 199.4,661.0 199.4,661.1 199.5,661.2
199.5,661.3 199.5,661.4 199.5,661.5 199.5,661.6 199.5,661.7 199.5,661.8 199.5,661.9 199.6,661.9 199.6,662.0 199.6,662.0 199.6,662.1 199.6,662.1 199.6,662.1 199.6,662.2 199.7,662.2 199.7,662.2
199.7,662.3 199.7,662.3 199.7,662.3 199.7,662.3 199.7,662.4 199.7,662.4 199.7,662.4 199.7,662.4 199.7,662.4 199.7,662.4 199.6,662.4 199.6,662.4 199.6,662.4 199.6,662.4 199.6,662.4 199.6,662.4
199.6,662.4 199.5,662.4 199.5,662.4 199.5,662.4 199.5,662.4 199.5,662.4 199.5,662.4 199.5,662.4 199.5,662.4 199.4,662.4 199.4,662.4 199.4,662.4 199.4,662.4 199.4,662.4 199.4,662.4 199.4,662.4
199.3,662.4 199.3,662.4 199.3,662.4 199.3,662.4 199.3,662.4 199.3,662.4 199.3,662.4 199.3,662.4 199.2,662.4 199.2,662.4 199.2,662.4 199.2,662.4 199.2,662.4 199.2,662.4 199.2,662.4 199.1,662.4
199.1,662.4 199.1,662.4 199.1,662.4 199.1,662.4 199.1,662.4 199.1,662.4 199.1,662.4 199.0,662.4 199.0,662.4 199.0,662.4 199.0,662.4 199.0,662.4 199.0,662.4 199.0,662.4 198.9,662.4 198.9,662.4
198.9,662.4 198.9,662.4 198.9,662.4 198.9,662.4 198.9,662.4 198.9,662.4 198.8,662.4 198.8,662.4 198.8,662.4 198.8,662.4 198.8,662.4 198.8,662.4 198.8,662.4 198.7,662.4 198.7,662.4 198.7,662.4
198.7,662.4 198.7,662.4 198.7,662.4 198.7,662.4 198.7,662.4 198.6,662.4 198.6,662.4 198.6,662.4 198.6,662.4 198.6,662.4 198.6,662.4 198.6,662.4 198.5,662.4 198.5,662.4 198.5,662.4 198.5,662.4
198.5,662.4 198.5,662.4 198.5,662.4 198.5,662.4 198.4,662.4 198.4,662.4 198.4,662.4 198.4,662.4 198.4,662.4 198.4,662.4 198.4,662.4 198.3,662.4 198.3,662.4 198.3,662.4 198.3,662.4 198.3,662.4
198.3,662.4 198.3,662.4 198.3,662.4 198.2,662.4 198.2,662.4 198.2,662.4 198.2,662.4 198.2,662.4 198.2,662.4 198.2,662.4 198.1,662.4 198.1,662.4 198.1,662.4 198.1,662.4 198.1,662.4 198.1,662.4
198.1,662.4 198.1,662.4 198.0,662.4 198.0,662.4 198.0,662.4 198.0,662.4 198.0,662.4 198.0,662.4 198.0,662.4 197.9,662.4 197.9,662.4 197.9,662.4 197.9,662.4 197.9,662.4 197.9,662.4 197.9,662.4
197.9,662.4 197.8,662.4 197.8,662.4 197.8,662.4 197.8,662.4 197.8,662.4 197.8,662.4 197.8,662.4 197.7,662.4 197.7,662.4 197.7,662.4 197.7,662.4 197.7,662.4 197.7,662.4 197.7,662.4 197.7,662.4
197.6,662.4 197.6,662.4 197.6,662.4 197.6,662.4 197.6,662.4 197.6,662.4 197.6,662.4 197.5,662.4 197.5,662.4 197.5,662.4 197.5,662.4 197.5,662.4 197.5,662.4 197.5,662.4 197.5,662.4 197.4,662.4
197.4,662.4 197.4,662.4 197.4,662.4 197.4,662.4 197.4,662.4 197.4,662.4 197.3,662.4 197.3,662.4 197.3,662.4 197.3,662.4 197.3,662.4 197.3,662.4 197.3,662.4 197.3,662.4 197.2,662.4 197.2,662.4
197.2,662.4 197.2,662.4 197.2,662.4 197.2,662.4 197.2,662.4 197.2,662.4 197.1,662.4 197.1,662.4 197.1,662.4 197.1,662.4 197.1,662.4 197.1,662.4 197.1,662.4 197.0,662.4 197.0,662.4 197.0,662.4
197.0,662.4 197.0,662.4 197.0,662.4 197.0,662.4 197.0,662.4 196.9,662.4 196.9,662.4 196.9,662.4 196.9,662.4 196.9,662.4 196.9,662.4 196.9,662.4 196.8,662.4 196.8,662.4 196.8,662.4 196.8,662.4
196.8,662.4 196.8,662.4 196.8,662.4 196.8,662.4 196.7,662.4 196.7,662.4 196.7,662.4 196.7,662.4 196.7,662.4 196.7,662.4 196.7,662.4 196.6,662.4 196.6,662.4 196.6,662.4 196.6,662.4 196.6,662.4
196.6,662.4 196.6,662.4 196.6,662.4 196.5,662.4 196.5,662.4 196.5,662.4 196.5,662.4 196.5,662.4 196.5,662.4 196.5,662.4 196.4,662.4 196.4,662.4 196.4,662.4 196.4,662.4 196.4,662.4 196.4,662.4
196.4,662.4 196.4,662.4 196.3,662.4 196.3,662.4 196.3,662.4 196.3,662.4 196.3,662.4 196.3,662.4 196.3,662.4 196.2,662.4 196.2,662.4 196.2,662.4 196.2,662.4 196.2,662.4 196.2,662.4 196.2,662.4
196.2,662.4 196.1,662.4 196.1,662.4 196.1,662.4 196.1,662.4 196.1,662.4 196.1,662.4 196.1,662.4 196.0,662.4 196.0,662.4 196.0,662.4 196.0,662.4 196.0,662.4 196.0,662.4 196.0,662.4 196.0,662.4
195.9,662.4 195.9,662.4 195.9,662.4 195.9,662.4 195.9,662.4 195.9,662.4 195.9,662.4 195.8,662.4 195.8,662.4 195.8,662.4 195.8,662.4 195.8,662.4 195.8,662.4 195.8,662.4 195.8,662.4 195.7,662.4
195.7,662.4 195.7,662.4 195.7,662.4 195.7,662.4 195.7,662.4 195.7,662.4 195.6,662.4 195.6,662.4 195.6,662.4 195.6,662.4 195.6,662.4 195.6,662.4 195.6,662.4 195.6,662.4 195.5,662.4 195.5,662.4
195.5,662.4 195.5,662.4 195.5,662.4 195.5,662.4 195.5,662.4 195.4,662.4 195.4,662.4 195.4,662.4 195.4,662.4 195.4,662.4 195.4,662.4 195.4,662.4 195.4,662.4 195.3,662.4 195.3,662.4 195.3,662.4
195.3,662.4 195.3,662.4 195.3,662.4 195.3,662.4 195.2,662.4 195.2,662.4 195.2,662.4 195.2,662.4 195.2,662.4 195.2,662.4 195.2,662.4 195.2,662.4 195.1,662.4 195.1,662.4 195.1,662.4 195.1,662.4
195.1,662.4 195.1,662.4 195.1,662.4 195.0,662.4 195.0,662.4 195.0,662.4 195.0,662.4 195.0,662.4 195.0,662.4 195.0,662.4 195.0,662.4 194.9,662.4 194.9,662.4 194.9,662.4 194.9,662.4 194.9,662.4
194.9,662.4 194.9,662.4 194.8,662.4 194.8,662.4 194.8,662.4 194.8,662.4 194.8,662.4 194.8,662.4 194.8,662.4 194.8,662.4 194.7,662.4 194.7,662.4 194.7,662.4 194.7,662.4 194.7,662.4 194.7,662.4
194.7,662.4 194.7,662.4 194.6,662.4 194.6,662.4 194.6,662.4 194.6,662.4 194.6,662.4 194.6,662.4 194.6,662.4 194.5,662.4 194.5,662.4 194.5,662.4 194.5,662.4 194.5,662.4 194.5,662.4 194.5,662.4
194.5,662.4 194.4,662.4 194.4,662.4 194.4,662.4 194.4,662.4 194.4,662.4 194.4,662.4 194.4,662.4 194.3,662.4 194.3,662.4 194.3,662.4 194.3,662.4 194.3,662.4 194.3,662.4 194.3,662.4 194.3,662.4
194.2,662.4 194.2,662.4 194.2,662.4 194.2,662.4 194.2,662.4 194.2,662.4 194.2,662.4 194.1,662.4 194.1,662.4 194.1,662.4 194.1,662.4 194.1,662.4 194.1,662.4 194.1,662.4 194.1,662.4 194.0,662.4
194.0,662.4 194.0,662.4 194.0,662.4 194.0,662.4 194.0,662.4 194.0,662.4 193.9,662.4 193.9,662.4 193.9,662.4 193.9,662.4 193.9,662.4 193.9,662.4 193.9,662.4 193.9,662.4 193.8,662.4 193.8,662.4
193.8,662.4 193.8,662.4 193.8,662.4 193.8,662.4 193.8,662.4 193.7,662.4 193.7,662.4 193.7,662.4 193.7,662.4 193.7,662.4 193.7,662.4 193.7,662.4 193.7,662.4 193.6,662.4 193.6,662.4 193.6,662.4
193.6,662.4 193.6,662.4 193.6,662.4 193.6,662.4 193.5,662.4 193.5,662.4 193.5,662.4 193.5,662.4 193.5,662.4 193.5,662.4 193.5,662.4 193.5,662.4 193.4,662.4 193.4,662.4 193.4,662.4 193.4,662.4
193.4,662.4 193.4,662.4 193.4,662.4 193.3,662.4 193.3,662.4 193.3,662.4 193.3,662.4 193.3,662.4 193.3,662.4 193.3,662.4 193.3,662.4 193.2,662.4 193.2,662.4 193.2,662.4 193.2,662.4 193.2,662.4
193.2,662.4 193.2,662.4 193.1,662.4 193.1,662.4 193.1,662.4 193.1,662.4 193.1,662.4 193.1,662.4 '/>
	</g>
</g>
	</g>
	<g id="gnuplot_plot_4" ><title>New Mean</title>
<g fill="none" color="white" stroke="rgb( 31, 120, 180)" stroke-width="2.00" stroke-linecap="butt" stroke-linejoin="miter">
</g>
<g fill="none" color="black" stroke="currentColor" stroke-width="2.00" stroke-linecap="butt" stroke-linejoin="miter">
	<g transform="translate(1196.9,121.0)" stroke="none" fill="black" font-family="Helvetica" font-size="12.00"  text-anchor="start">
		<text><tspan font-family="Helvetica" >New Mean</tspan></text>
	</g>
</g>
<g fill="none" color="black" stroke="currentColor" stroke-width="2.00" stroke-linecap="butt" stroke-linejoin="miter">
	<path stroke='rgb( 31, 120, 180)'  d='M1146.4,117.1 L1188.6,117.1 M195.9,662.4 L195.9,164.7  '/></g>
	</g>
<g fill="none" color="black" stroke="currentColor" stroke-width="2.00" stroke-linecap="butt" stroke-linejoin="miter">
</g>
<g fill="none" color="black" stroke="black" stroke-width="1.00" stroke-linecap="butt" stroke-linejoin="miter">
</g>
<g fill="none" color="black" stroke="currentColor" stroke-width="1.00" stroke-linecap="butt" stroke-linejoin="miter">
	<path stroke='black'  d='M71.9,54.1 L71.9,662.4 L1121.5,662.4 L1121.5,54.1 L71.9,54.1 Z  '/></g>
<g fill="none" color="black" stroke="currentColor" stroke-width="1.00" stroke-linecap="butt" stroke-linejoin="miter">
</g>
</g>
</svg>

