<?xml version="1.0" encoding="utf-8"  standalone="no"?>
<svg 
 viewBox="0 0 1280 720"
 xmlns="http://www.w3.org/2000/svg"
 xmlns:xlink="http://www.w3.org/1999/xlink"
>

<title>Gnuplot</title>
<desc>Produced by GNUPLOT 5.2 patchlevel 8 </desc>

<g id="gnuplot_canvas">

<rect x="0" y="0" width="1280" height="720" fill="none"/>
<defs>

	<circle id='gpDot' r='0.5' stroke-width='0.5' stroke='currentColor'/>
	<path id='gpPt0' stroke-width='0.222' stroke='currentColor' d='M-1,0 h2 M0,-1 v2'/>
	<path id='gpPt1' stroke-width='0.222' stroke='currentColor' d='M-1,-1 L1,1 M1,-1 L-1,1'/>
	<path id='gpPt2' stroke-width='0.222' stroke='currentColor' d='M-1,0 L1,0 M0,-1 L0,1 M-1,-1 L1,1 M-1,1 L1,-1'/>
	<rect id='gpPt3' stroke-width='0.222' stroke='currentColor' x='-1' y='-1' width='2' height='2'/>
	<rect id='gpPt4' stroke-width='0.222' stroke='currentColor' fill='currentColor' x='-1' y='-1' width='2' height='2'/>
	<circle id='gpPt5' stroke-width='0.222' stroke='currentColor' cx='0' cy='0' r='1'/>
	<use xlink:href='#gpPt5' id='gpPt6' fill='currentColor' stroke='none'/>
	<path id='gpPt7' stroke-width='0.222' stroke='currentColor' d='M0,-1.33 L-1.33,0.67 L1.33,0.67 z'/>
	<use xlink:href='#gpPt7' id='gpPt8' fill='currentColor' stroke='none'/>
	<use xlink:href='#gpPt7' id='gpPt9' stroke='currentColor' transform='rotate(180)'/>
	<use xlink:href='#gpPt9' id='gpPt10' fill='currentColor' stroke='none'/>
	<use xlink:href='#gpPt3' id='gpPt11' stroke='currentColor' transform='rotate(45)'/>
	<use xlink:href='#gpPt11' id='gpPt12' fill='currentColor' stroke='none'/>
	<path id='gpPt13' stroke-width='0.222' stroke='currentColor' d='M0,1.330 L1.265,0.411 L0.782,-1.067 L-0.782,-1.076 L-1.265,0.411 z'/>
	<use xlink:href='#gpPt13' id='gpPt14' fill='currentColor' stroke='none'/>
	<filter id='textbox' filterUnits='objectBoundingBox' x='0' y='0' height='1' width='1'>
	  <feFlood flood-color='white' flood-opacity='1' result='bgnd'/>
	  <feComposite in='SourceGraphic' in2='bgnd' operator='atop'/>
	</filter>
	<filter id='greybox' filterUnits='objectBoundingBox' x='0' y='0' height='1' width='1'>
	  <feFlood flood-color='lightgrey' flood-opacity='1' result='grey'/>
	  <feComposite in='SourceGraphic' in2='grey' operator='atop'/>
	</filter>
</defs>
<g fill="none" color="white" stroke="currentColor" stroke-width="1.00" stroke-linecap="butt" stroke-linejoin="miter">
</g>
<g fill="none" color="black" stroke="currentColor" stroke-width="1.00" stroke-linecap="butt" stroke-linejoin="miter">
	<path stroke='black'  d='M71.9,662.4 L80.9,662.4  '/>	<g transform="translate(63.6,666.3)" stroke="none" fill="black" font-family="Helvetica" font-size="12.00"  text-anchor="end">
		<text><tspan font-family="Helvetica" > 0</tspan></text>
	</g>
</g>
<g fill="none" color="black" stroke="currentColor" stroke-width="1.00" stroke-linecap="butt" stroke-linejoin="miter">
	<path stroke='black'  d='M71.9,561.0 L80.9,561.0  '/>	<g transform="translate(63.6,564.9)" stroke="none" fill="black" font-family="Helvetica" font-size="12.00"  text-anchor="end">
		<text><tspan font-family="Helvetica" > 0.5</tspan></text>
	</g>
</g>
<g fill="none" color="black" stroke="currentColor" stroke-width="1.00" stroke-linecap="butt" stroke-linejoin="miter">
	<path stroke='black'  d='M71.9,459.6 L80.9,459.6  '/>	<g transform="translate(63.6,463.5)" stroke="none" fill="black" font-family="Helvetica" font-size="12.00"  text-anchor="end">
		<text><tspan font-family="Helvetica" > 1</tspan></text>
	</g>
</g>
<g fill="none" color="black" stroke="currentColor" stroke-width="1.00" stroke-linecap="butt" stroke-linejoin="miter">
	<path stroke='black'  d='M71.9,358.2 L80.9,358.2  '/>	<g transform="translate(63.6,362.1)" stroke="none" fill="black" font-family="Helvetica" font-size="12.00"  text-anchor="end">
		<text><tspan font-family="Helvetica" > 1.5</tspan></text>
	</g>
</g>
<g fill="none" color="black" stroke="currentColor" stroke-width="1.00" stroke-linecap="butt" stroke-linejoin="miter">
	<path stroke='black'  d='M71.9,256.9 L80.9,256.9  '/>	<g transform="translate(63.6,260.8)" stroke="none" fill="black" font-family="Helvetica" font-size="12.00"  text-anchor="end">
		<text><tspan font-family="Helvetica" > 2</tspan></text>
	</g>
</g>
<g fill="none" color="black" stroke="currentColor" stroke-width="1.00" stroke-linecap="butt" stroke-linejoin="miter">
	<path stroke='black'  d='M71.9,155.5 L80.9,155.5  '/>	<g transform="translate(63.6,159.4)" stroke="none" fill="black" font-family="Helvetica" font-size="12.00"  text-anchor="end">
		<text><tspan font-family="Helvetica" > 2.5</tspan></text>
	</g>
</g>
<g fill="none" color="black" stroke="currentColor" stroke-width="1.00" stroke-linecap="butt" stroke-linejoin="miter">
	<path stroke='black'  d='M71.9,54.1 L80.9,54.1  '/>	<g transform="translate(63.6,58.0)" stroke="none" fill="black" font-family="Helvetica" font-size="12.00"  text-anchor="end">
		<text><tspan font-family="Helvetica" > 3</tspan></text>
	</g>
</g>
<g fill="none" color="black" stroke="currentColor" stroke-width="1.00" stroke-linecap="butt" stroke-linejoin="miter">
	<path stroke='black'  d='M71.9,662.4 L71.9,653.4  '/>	<g transform="translate(71.9,684.3)" stroke="none" fill="black" font-family="Helvetica" font-size="12.00"  text-anchor="middle">
		<text><tspan font-family="Helvetica" > 360</tspan></text>
	</g>
</g>
<g fill="none" color="black" stroke="currentColor" stroke-width="1.00" stroke-linecap="butt" stroke-linejoin="miter">
	<path stroke='black'  d='M221.8,662.4 L221.8,653.4  '/>	<g transform="translate(221.8,684.3)" stroke="none" fill="black" font-family="Helvetica" font-size="12.00"  text-anchor="middle">
		<text><tspan font-family="Helvetica" > 380</tspan></text>
	</g>
</g>
<g fill="none" color="black" stroke="currentColor" stroke-width="1.00" stroke-linecap="butt" stroke-linejoin="miter">
	<path stroke='black'  d='M371.8,662.4 L371.8,653.4  '/>	<g transform="translate(371.8,684.3)" stroke="none" fill="black" font-family="Helvetica" font-size="12.00"  text-anchor="middle">
		<text><tspan font-family="Helvetica" > 400</tspan></text>
	</g>
</g>
<g fill="none" color="black" stroke="currentColor" stroke-width="1.00" stroke-linecap="butt" stroke-linejoin="miter">
	<path stroke='black'  d='M521.7,662.4 L521.7,653.4  '/>	<g transform="translate(521.7,684.3)" stroke="none" fill="black" font-family="Helvetica" font-size="12.00"  text-anchor="middle">
		<text><tspan font-family="Helvetica" > 420</tspan></text>
	</g>
</g>
<g fill="none" color="black" stroke="currentColor" stroke-width="1.00" stroke-linecap="butt" stroke-linejoin="miter">
	<path stroke='black'  d='M671.7,662.4 L671.7,653.4  '/>	<g transform="translate(671.7,684.3)" stroke="none" fill="black" font-family="Helvetica" font-size="12.00"  text-anchor="middle">
		<text><tspan font-family="Helvetica" > 440</tspan></text>
	</g>
</g>
<g fill="none" color="black" stroke="currentColor" stroke-width="1.00" stroke-linecap="butt" stroke-linejoin="miter">
	<path stroke='black'  d='M821.6,662.4 L821.6,653.4  '/>	<g transform="translate(821.6,684.3)" stroke="none" fill="black" font-family="Helvetica" font-size="12.00"  text-anchor="middle">
		<text><tspan font-family="Helvetica" > 460</tspan></text>
	</g>
</g>
<g fill="none" color="black" stroke="currentColor" stroke-width="1.00" stroke-linecap="butt" stroke-linejoin="miter">
	<path stroke='black'  d='M971.6,662.4 L971.6,653.4  '/>	<g transform="translate(971.6,684.3)" stroke="none" fill="black" font-family="Helvetica" font-size="12.00"  text-anchor="middle">
		<text><tspan font-family="Helvetica" > 480</tspan></text>
	</g>
</g>
<g fill="none" color="black" stroke="currentColor" stroke-width="1.00" stroke-linecap="butt" stroke-linejoin="miter">
	<path stroke='black'  d='M1121.5,662.4 L1121.5,653.4  '/>	<g transform="translate(1121.5,684.3)" stroke="none" fill="black" font-family="Helvetica" font-size="12.00"  text-anchor="middle">
		<text><tspan font-family="Helvetica" > 500</tspan></text>
	</g>
</g>
<g fill="none" color="black" stroke="currentColor" stroke-width="1.00" stroke-linecap="butt" stroke-linejoin="miter">
</g>
<g fill="none" color="black" stroke="currentColor" stroke-width="1.00" stroke-linecap="butt" stroke-linejoin="miter">
	<path stroke='black'  d='M71.9,54.1 L71.9,662.4 L1121.5,662.4 L1121.5,54.1 L71.9,54.1 Z  '/></g>
<g fill="none" color="black" stroke="currentColor" stroke-width="1.00" stroke-linecap="butt" stroke-linejoin="miter">
	<g transform="translate(19.0,358.3) rotate(270)" stroke="none" fill="black" font-family="Helvetica" font-size="12.00"  text-anchor="middle">
		<text><tspan font-family="Helvetica" >Density (a.u.)</tspan></text>
	</g>
</g>
<g fill="none" color="black" stroke="currentColor" stroke-width="1.00" stroke-linecap="butt" stroke-linejoin="miter">
	<g transform="translate(596.7,711.3)" stroke="none" fill="black" font-family="Helvetica" font-size="12.00"  text-anchor="middle">
		<text><tspan font-family="Helvetica" >Average time (ns)</tspan></text>
	</g>
</g>
<g fill="none" color="black" stroke="currentColor" stroke-width="1.00" stroke-linecap="butt" stroke-linejoin="miter">
	<g transform="translate(596.7,31.0)" stroke="none" fill="black" font-family="Helvetica" font-size="12.00"  text-anchor="middle">
		<text><tspan font-family="Helvetica" >bench_group/blake3/80</tspan></text>
	</g>
</g>
<g fill="none" color="black" stroke="currentColor" stroke-width="1.00" stroke-linecap="butt" stroke-linejoin="miter">
</g>
	<g id="gnuplot_plot_1" ><title>Base PDF</title>
<g fill="none" color="black" stroke="currentColor" stroke-width="1.00" stroke-linecap="butt" stroke-linejoin="miter">
	<g transform="translate(1196.9,67.0)" stroke="none" fill="black" font-family="Helvetica" font-size="12.00"  text-anchor="start">
		<text><tspan font-family="Helvetica" >Base PDF</tspan></text>
	</g>
</g>
<g fill="none" color="black" stroke="currentColor" stroke-width="1.00" stroke-linecap="butt" stroke-linejoin="miter">
	<g stroke='none' shape-rendering='crispEdges'>
		<polygon fill = 'rgb(227,  26,  28)' fill-opacity = '0.500000' points = '1146.4,67.6 1188.6,67.6 1188.6,58.6 1146.4,58.6 '/>
		<polygon fill = 'rgb(227,  26,  28)' fill-opacity = '0.500000' points = '201.3,662.4 203.0,662.4 204.6,662.3 206.3,662.3 208.0,662.3 209.6,662.3 211.3,662.3 213.0,662.3 214.6,662.3 216.3,662.3 218.0,662.3 219.6,662.3 221.3,662.2 223.0,662.2 224.6,662.2 226.3,662.2
228.0,662.2 229.6,662.1 231.3,662.1 232.9,662.1 234.6,662.1 236.3,662.0 237.9,662.0 239.6,661.9 241.3,661.9 242.9,661.9 244.6,661.8 246.3,661.8 247.9,661.7 249.6,661.6 251.3,661.6 252.9,661.5
254.6,661.4 256.3,661.3 257.9,661.3 259.6,661.2 261.3,661.1 262.9,661.0 264.6,660.9 266.3,660.7 267.9,660.6 269.6,660.5 271.3,660.4 272.9,660.2 274.6,660.1 276.2,659.9 277.9,659.8 279.6,659.6
281.2,659.4 282.9,659.2 284.6,659.0 286.2,658.8 287.9,658.6 289.6,658.4 291.2,658.2 292.9,658.0 294.6,657.8 296.2,657.5 297.9,657.3 299.6,657.1 301.2,656.8 302.9,656.6 304.6,656.3 306.2,656.1
307.9,655.8 309.6,655.5 311.2,655.3 312.9,655.0 314.6,654.8 316.2,654.5 317.9,654.2 319.6,654.0 321.2,653.7 322.9,653.5 324.5,653.2 326.2,653.0 327.9,652.7 329.5,652.5 331.2,652.3 332.9,652.1
334.5,651.9 336.2,651.7 337.9,651.5 339.5,651.3 341.2,651.2 342.9,651.0 344.5,650.9 346.2,650.7 347.9,650.6 349.5,650.5 351.2,650.4 352.9,650.4 354.5,650.3 356.2,650.3 357.9,650.2 359.5,650.2
361.2,650.2 362.9,650.3 364.5,650.3 366.2,650.4 367.8,650.4 369.5,650.5 371.2,650.6 372.8,650.7 374.5,650.8 376.2,651.0 377.8,651.1 379.5,651.3 381.2,651.4 382.8,651.6 384.5,651.8 386.2,652.0
387.8,652.2 389.5,652.5 391.2,652.7 392.8,652.9 394.5,653.2 396.2,653.4 397.8,653.7 399.5,653.9 401.2,654.2 402.8,654.4 404.5,654.7 406.2,655.0 407.8,655.2 409.5,655.5 411.1,655.7 412.8,656.0
414.5,656.3 416.1,656.5 417.8,656.8 419.5,657.0 421.1,657.2 422.8,657.5 424.5,657.7 426.1,657.9 427.8,658.2 429.5,658.4 431.1,658.6 432.8,658.8 434.5,659.0 436.1,659.2 437.8,659.4 439.5,659.5
441.1,659.7 442.8,659.9 444.5,660.0 446.1,660.2 447.8,660.3 449.5,660.4 451.1,660.6 452.8,660.7 454.4,660.8 456.1,660.9 457.8,661.0 459.4,661.1 461.1,661.2 462.8,661.3 464.4,661.4 466.1,661.5
467.8,661.5 469.4,661.6 471.1,661.7 472.8,661.7 474.4,661.8 476.1,661.8 477.8,661.9 479.4,661.9 481.1,662.0 482.8,662.0 484.4,662.0 486.1,662.1 487.8,662.1 489.4,662.1 491.1,662.2 492.8,662.2
494.4,662.2 496.1,662.2 497.7,662.2 499.4,662.3 501.1,662.3 502.7,662.3 504.4,662.3 506.1,662.3 507.7,662.3 509.4,662.3 511.1,662.3 512.7,662.3 514.4,662.3 516.1,662.3 517.7,662.4 519.4,662.4
521.1,662.4 522.7,662.4 524.4,662.4 526.1,662.4 527.7,662.4 529.4,662.4 531.1,662.4 532.7,662.4 534.4,662.4 536.1,662.4 537.7,662.4 539.4,662.4 541.0,662.4 542.7,662.4 544.4,662.4 546.0,662.4
547.7,662.4 549.4,662.4 551.0,662.4 552.7,662.4 554.4,662.4 556.0,662.4 557.7,662.4 559.4,662.4 561.0,662.4 562.7,662.4 564.4,662.4 566.0,662.4 567.7,662.4 569.4,662.4 571.0,662.4 572.7,662.4
574.4,662.4 576.0,662.3 577.7,662.3 579.4,662.3 581.0,662.3 582.7,662.3 584.3,662.3 586.0,662.3 587.7,662.3 589.3,662.3 591.0,662.3 592.7,662.3 594.3,662.3 596.0,662.3 597.7,662.3 599.3,662.3
601.0,662.3 602.7,662.3 604.3,662.3 606.0,662.3 607.7,662.3 609.3,662.3 611.0,662.3 612.7,662.3 614.3,662.3 616.0,662.3 617.7,662.3 619.3,662.3 621.0,662.3 622.7,662.3 624.3,662.3 626.0,662.3
627.7,662.3 629.3,662.3 631.0,662.2 632.6,662.2 634.3,662.2 636.0,662.2 637.6,662.2 639.3,662.2 641.0,662.2 642.6,662.2 644.3,662.2 646.0,662.2 647.6,662.2 649.3,662.2 651.0,662.2 652.6,662.2
654.3,662.2 656.0,662.2 657.6,662.2 659.3,662.2 661.0,662.2 662.6,662.2 664.3,662.2 666.0,662.2 667.6,662.2 669.3,662.2 671.0,662.2 672.6,662.2 674.3,662.2 675.9,662.2 677.6,662.2 679.3,662.2
680.9,662.2 682.6,662.2 684.3,662.2 685.9,662.2 687.6,662.2 689.3,662.2 690.9,662.2 692.6,662.2 694.3,662.2 695.9,662.2 697.6,662.2 699.3,662.2 700.9,662.2 702.6,662.2 704.3,662.2 705.9,662.2
707.6,662.2 709.3,662.2 710.9,662.2 712.6,662.2 714.3,662.2 715.9,662.2 717.6,662.2 719.2,662.2 720.9,662.2 722.6,662.2 724.2,662.2 725.9,662.2 727.6,662.2 729.2,662.2 730.9,662.2 732.6,662.3
734.2,662.3 735.9,662.3 737.6,662.3 739.2,662.3 740.9,662.3 742.6,662.3 744.2,662.3 745.9,662.3 747.6,662.3 749.2,662.3 750.9,662.3 752.6,662.3 754.2,662.3 755.9,662.3 757.6,662.3 759.2,662.3
760.9,662.3 762.5,662.3 764.2,662.3 765.9,662.3 767.5,662.3 769.2,662.3 770.9,662.3 772.5,662.3 774.2,662.3 775.9,662.3 777.5,662.3 779.2,662.3 780.9,662.3 782.5,662.3 784.2,662.3 785.9,662.3
787.5,662.3 789.2,662.3 790.9,662.3 792.5,662.2 794.2,662.2 795.9,662.2 797.5,662.2 799.2,662.2 800.9,662.2 802.5,662.2 804.2,662.2 805.8,662.2 807.5,662.2 809.2,662.2 810.8,662.2 812.5,662.2
814.2,662.2 815.8,662.2 817.5,662.1 819.2,662.1 820.8,662.1 822.5,662.1 824.2,662.1 825.8,662.1 827.5,662.1 829.2,662.1 830.8,662.1 832.5,662.1 834.2,662.1 835.8,662.1 837.5,662.0 839.2,662.0
840.8,662.0 842.5,662.0 844.2,662.0 845.8,662.0 847.5,662.0 849.1,662.0 850.8,662.0 852.5,662.0 854.1,662.0 855.8,662.0 857.5,662.0 859.1,661.9 860.8,661.9 862.5,661.9 864.1,661.9 865.8,661.9
867.5,661.9 869.1,661.9 870.8,661.9 872.5,661.9 874.1,661.9 875.8,661.9 877.5,661.9 879.1,661.9 880.8,661.9 882.5,661.9 884.1,661.9 885.8,661.9 887.5,661.9 889.1,661.9 890.8,661.9 892.4,661.9
894.1,661.9 895.8,661.9 897.4,662.0 899.1,662.0 900.8,662.0 902.4,662.0 904.1,662.0 905.8,662.0 907.4,662.0 909.1,662.0 910.8,662.0 912.4,662.0 914.1,662.0 915.8,662.0 917.4,662.0 919.1,662.1
920.8,662.1 922.4,662.1 924.1,662.1 925.8,662.1 927.4,662.1 929.1,662.1 930.8,662.1 932.4,662.1 934.1,662.1 935.8,662.2 937.4,662.2 939.1,662.2 940.7,662.2 942.4,662.2 944.1,662.2 945.7,662.2
947.4,662.2 949.1,662.2 950.7,662.2 952.4,662.2 954.1,662.3 955.7,662.3 957.4,662.3 959.1,662.3 960.7,662.3 962.4,662.3 964.1,662.3 965.7,662.3 967.4,662.3 969.1,662.3 970.7,662.3 972.4,662.3
974.1,662.3 975.7,662.3 977.4,662.3 979.1,662.3 980.7,662.3 982.4,662.3 984.0,662.4 985.7,662.4 987.4,662.4 989.0,662.4 990.7,662.4 992.4,662.4 994.0,662.4 995.7,662.4 997.4,662.4 999.0,662.4
1000.7,662.4 1002.4,662.4 1004.0,662.4 1005.7,662.4 1007.4,662.4 1009.0,662.4 1010.7,662.4 1012.4,662.4 1014.0,662.4 1015.7,662.4 1017.4,662.4 1019.0,662.4 1020.7,662.4 1022.4,662.4 1024.0,662.4 1025.7,662.4
1027.3,662.4 1029.0,662.4 1030.7,662.4 1032.3,662.4 1032.3,662.4 1030.7,662.4 1029.0,662.4 1027.3,662.4 1025.7,662.4 1024.0,662.4 1022.4,662.4 1020.7,662.4 1019.0,662.4 1017.4,662.4 1015.7,662.4 1014.0,662.4
1012.4,662.4 1010.7,662.4 1009.0,662.4 1007.4,662.4 1005.7,662.4 1004.0,662.4 1002.4,662.4 1000.7,662.4 999.0,662.4 997.4,662.4 995.7,662.4 994.0,662.4 992.4,662.4 990.7,662.4 989.0,662.4 987.4,662.4
985.7,662.4 984.0,662.4 982.4,662.4 980.7,662.4 979.1,662.4 977.4,662.4 975.7,662.4 974.1,662.4 972.4,662.4 970.7,662.4 969.1,662.4 967.4,662.4 965.7,662.4 964.1,662.4 962.4,662.4 960.7,662.4
959.1,662.4 957.4,662.4 955.7,662.4 954.1,662.4 952.4,662.4 950.7,662.4 949.1,662.4 947.4,662.4 945.7,662.4 944.1,662.4 942.4,662.4 940.7,662.4 939.1,662.4 937.4,662.4 935.8,662.4 934.1,662.4
932.4,662.4 930.8,662.4 929.1,662.4 927.4,662.4 925.8,662.4 924.1,662.4 922.4,662.4 920.8,662.4 919.1,662.4 917.4,662.4 915.8,662.4 914.1,662.4 912.4,662.4 910.8,662.4 909.1,662.4 907.4,662.4
905.8,662.4 904.1,662.4 902.4,662.4 900.8,662.4 899.1,662.4 897.4,662.4 895.8,662.4 894.1,662.4 892.4,662.4 890.8,662.4 889.1,662.4 887.5,662.4 885.8,662.4 884.1,662.4 882.5,662.4 880.8,662.4
879.1,662.4 877.5,662.4 875.8,662.4 874.1,662.4 872.5,662.4 870.8,662.4 869.1,662.4 867.5,662.4 865.8,662.4 864.1,662.4 862.5,662.4 860.8,662.4 859.1,662.4 857.5,662.4 855.8,662.4 854.1,662.4
852.5,662.4 850.8,662.4 849.1,662.4 847.5,662.4 845.8,662.4 844.2,662.4 842.5,662.4 840.8,662.4 839.2,662.4 837.5,662.4 835.8,662.4 834.2,662.4 832.5,662.4 830.8,662.4 829.2,662.4 827.5,662.4
825.8,662.4 824.2,662.4 822.5,662.4 820.8,662.4 819.2,662.4 817.5,662.4 815.8,662.4 814.2,662.4 812.5,662.4 810.8,662.4 809.2,662.4 807.5,662.4 805.8,662.4 804.2,662.4 802.5,662.4 800.9,662.4
799.2,662.4 797.5,662.4 795.9,662.4 794.2,662.4 792.5,662.4 790.9,662.4 789.2,662.4 787.5,662.4 785.9,662.4 784.2,662.4 782.5,662.4 780.9,662.4 779.2,662.4 777.5,662.4 775.9,662.4 774.2,662.4
772.5,662.4 770.9,662.4 769.2,662.4 767.5,662.4 765.9,662.4 764.2,662.4 762.5,662.4 760.9,662.4 759.2,662.4 757.6,662.4 755.9,662.4 754.2,662.4 752.6,662.4 750.9,662.4 749.2,662.4 747.6,662.4
745.9,662.4 744.2,662.4 742.6,662.4 740.9,662.4 739.2,662.4 737.6,662.4 735.9,662.4 734.2,662.4 732.6,662.4 730.9,662.4 729.2,662.4 727.6,662.4 725.9,662.4 724.2,662.4 722.6,662.4 720.9,662.4
719.2,662.4 717.6,662.4 715.9,662.4 714.3,662.4 712.6,662.4 710.9,662.4 709.3,662.4 707.6,662.4 705.9,662.4 704.3,662.4 702.6,662.4 700.9,662.4 699.3,662.4 697.6,662.4 695.9,662.4 694.3,662.4
692.6,662.4 690.9,662.4 689.3,662.4 687.6,662.4 685.9,662.4 684.3,662.4 682.6,662.4 680.9,662.4 679.3,662.4 677.6,662.4 675.9,662.4 674.3,662.4 672.6,662.4 671.0,662.4 669.3,662.4 667.6,662.4
666.0,662.4 664.3,662.4 662.6,662.4 661.0,662.4 659.3,662.4 657.6,662.4 656.0,662.4 654.3,662.4 652.6,662.4 651.0,662.4 649.3,662.4 647.6,662.4 646.0,662.4 644.3,662.4 642.6,662.4 641.0,662.4
639.3,662.4 637.6,662.4 636.0,662.4 634.3,662.4 632.6,662.4 631.0,662.4 629.3,662.4 627.7,662.4 626.0,662.4 624.3,662.4 622.7,662.4 621.0,662.4 619.3,662.4 617.7,662.4 616.0,662.4 614.3,662.4
612.7,662.4 611.0,662.4 609.3,662.4 607.7,662.4 606.0,662.4 604.3,662.4 602.7,662.4 601.0,662.4 599.3,662.4 597.7,662.4 596.0,662.4 594.3,662.4 592.7,662.4 591.0,662.4 589.3,662.4 587.7,662.4
586.0,662.4 584.3,662.4 582.7,662.4 581.0,662.4 579.4,662.4 577.7,662.4 576.0,662.4 574.4,662.4 572.7,662.4 571.0,662.4 569.4,662.4 567.7,662.4 566.0,662.4 564.4,662.4 562.7,662.4 561.0,662.4
559.4,662.4 557.7,662.4 556.0,662.4 554.4,662.4 552.7,662.4 551.0,662.4 549.4,662.4 547.7,662.4 546.0,662.4 544.4,662.4 542.7,662.4 541.0,662.4 539.4,662.4 537.7,662.4 536.1,662.4 534.4,662.4
532.7,662.4 531.1,662.4 529.4,662.4 527.7,662.4 526.1,662.4 524.4,662.4 522.7,662.4 521.1,662.4 519.4,662.4 517.7,662.4 516.1,662.4 514.4,662.4 512.7,662.4 511.1,662.4 509.4,662.4 507.7,662.4
506.1,662.4 504.4,662.4 502.7,662.4 501.1,662.4 499.4,662.4 497.7,662.4 496.1,662.4 494.4,662.4 492.8,662.4 491.1,662.4 489.4,662.4 487.8,662.4 486.1,662.4 484.4,662.4 482.8,662.4 481.1,662.4
479.4,662.4 477.8,662.4 476.1,662.4 474.4,662.4 472.8,662.4 471.1,662.4 469.4,662.4 467.8,662.4 466.1,662.4 464.4,662.4 462.8,662.4 461.1,662.4 459.4,662.4 457.8,662.4 456.1,662.4 454.4,662.4
452.8,662.4 451.1,662.4 449.5,662.4 447.8,662.4 446.1,662.4 444.5,662.4 442.8,662.4 441.1,662.4 439.5,662.4 437.8,662.4 436.1,662.4 434.5,662.4 432.8,662.4 431.1,662.4 429.5,662.4 427.8,662.4
426.1,662.4 424.5,662.4 422.8,662.4 421.1,662.4 419.5,662.4 417.8,662.4 416.1,662.4 414.5,662.4 412.8,662.4 411.1,662.4 409.5,662.4 407.8,662.4 406.2,662.4 404.5,662.4 402.8,662.4 401.2,662.4
399.5,662.4 397.8,662.4 396.2,662.4 394.5,662.4 392.8,662.4 391.2,662.4 389.5,662.4 387.8,662.4 386.2,662.4 384.5,662.4 382.8,662.4 381.2,662.4 379.5,662.4 377.8,662.4 376.2,662.4 374.5,662.4
372.8,662.4 371.2,662.4 369.5,662.4 367.8,662.4 366.2,662.4 364.5,662.4 362.9,662.4 361.2,662.4 359.5,662.4 357.9,662.4 356.2,662.4 354.5,662.4 352.9,662.4 351.2,662.4 349.5,662.4 347.9,662.4
346.2,662.4 344.5,662.4 342.9,662.4 341.2,662.4 339.5,662.4 337.9,662.4 336.2,662.4 334.5,662.4 332.9,662.4 331.2,662.4 329.5,662.4 327.9,662.4 326.2,662.4 324.5,662.4 322.9,662.4 321.2,662.4
319.6,662.4 317.9,662.4 316.2,662.4 314.6,662.4 312.9,662.4 311.2,662.4 309.6,662.4 307.9,662.4 306.2,662.4 304.6,662.4 302.9,662.4 301.2,662.4 299.6,662.4 297.9,662.4 296.2,662.4 294.6,662.4
292.9,662.4 291.2,662.4 289.6,662.4 287.9,662.4 286.2,662.4 284.6,662.4 282.9,662.4 281.2,662.4 279.6,662.4 277.9,662.4 276.2,662.4 274.6,662.4 272.9,662.4 271.3,662.4 269.6,662.4 267.9,662.4
266.3,662.4 264.6,662.4 262.9,662.4 261.3,662.4 259.6,662.4 257.9,662.4 256.3,662.4 254.6,662.4 252.9,662.4 251.3,662.4 249.6,662.4 247.9,662.4 246.3,662.4 244.6,662.4 242.9,662.4 241.3,662.4
239.6,662.4 237.9,662.4 236.3,662.4 234.6,662.4 232.9,662.4 231.3,662.4 229.6,662.4 228.0,662.4 226.3,662.4 224.6,662.4 223.0,662.4 221.3,662.4 219.6,662.4 218.0,662.4 216.3,662.4 214.6,662.4
213.0,662.4 211.3,662.4 209.6,662.4 208.0,662.4 206.3,662.4 204.6,662.4 203.0,662.4 201.3,662.4 '/>
	</g>
</g>
	</g>
	<g id="gnuplot_plot_2" ><title>Base Mean</title>
<g fill="none" color="white" stroke="rgb(227,  26,  28)" stroke-width="2.00" stroke-linecap="butt" stroke-linejoin="miter">
</g>
<g fill="none" color="black" stroke="currentColor" stroke-width="2.00" stroke-linecap="butt" stroke-linejoin="miter">
	<g transform="translate(1196.9,85.0)" stroke="none" fill="black" font-family="Helvetica" font-size="12.00"  text-anchor="start">
		<text><tspan font-family="Helvetica" >Base Mean</tspan></text>
	</g>
</g>
<g fill="none" color="black" stroke="currentColor" stroke-width="2.00" stroke-linecap="butt" stroke-linejoin="miter">
	<path stroke='rgb(227,  26,  28)'  d='M1146.4,81.1 L1188.6,81.1 M386.8,662.4 L386.8,652.1  '/></g>
	</g>
	<g id="gnuplot_plot_3" ><title>New PDF</title>
<g fill="none" color="white" stroke="rgb(227,  26,  28)" stroke-width="1.00" stroke-linecap="butt" stroke-linejoin="miter">
</g>
<g fill="none" color="black" stroke="currentColor" stroke-width="1.00" stroke-linecap="butt" stroke-linejoin="miter">
	<g transform="translate(1196.9,103.0)" stroke="none" fill="black" font-family="Helvetica" font-size="12.00"  text-anchor="start">
		<text><tspan font-family="Helvetica" >New PDF</tspan></text>
	</g>
</g>
<g fill="none" color="black" stroke="currentColor" stroke-width="1.00" stroke-linecap="butt" stroke-linejoin="miter">
	<g stroke='none' shape-rendering='crispEdges'>
		<polygon fill = 'rgb( 31, 120, 180)' fill-opacity = '0.500000' points = '1146.4,103.6 1188.6,103.6 1188.6,94.6 1146.4,94.6 '/>
		<polygon fill = 'rgb( 31, 120, 180)' fill-opacity = '0.500000' points = '380.8,662.3 380.9,662.3 380.9,662.3 380.9,662.2 381.0,662.2 381.0,662.2 381.0,662.2 381.1,662.1 381.1,662.1 381.1,662.1 381.2,662.0 381.2,662.0 381.2,661.9 381.3,661.8 381.3,661.8 381.3,661.7
381.3,661.6 381.4,661.5 381.4,661.4 381.4,661.3 381.5,661.2 381.5,661.1 381.5,661.0 381.6,660.8 381.6,660.7 381.6,660.5 381.7,660.4 381.7,660.2 381.7,660.0 381.8,659.8 381.8,659.6 381.8,659.4
381.9,659.2 381.9,658.9 381.9,658.7 382.0,658.4 382.0,658.2 382.0,657.9 382.1,657.7 382.1,657.4 382.1,657.1 382.2,656.8 382.2,656.6 382.2,656.3 382.2,656.0 382.3,655.7 382.3,655.5 382.3,655.2
382.4,654.9 382.4,654.7 382.4,654.5 382.5,654.2 382.5,654.0 382.5,653.8 382.6,653.6 382.6,653.4 382.6,653.2 382.7,653.0 382.7,652.8 382.7,652.7 382.8,652.5 382.8,652.4 382.8,652.2 382.9,652.1
382.9,651.9 382.9,651.7 383.0,651.6 383.0,651.4 383.0,651.2 383.1,650.9 383.1,650.7 383.1,650.3 383.1,650.0 383.2,649.5 383.2,649.1 383.2,648.5 383.3,647.8 383.3,647.1 383.3,646.2 383.4,645.2
383.4,644.1 383.4,642.8 383.5,641.3 383.5,639.7 383.5,637.8 383.6,635.8 383.6,633.5 383.6,630.9 383.7,628.1 383.7,625.0 383.7,621.5 383.8,617.8 383.8,613.6 383.8,609.2 383.9,604.3 383.9,599.0
383.9,593.3 384.0,587.2 384.0,580.6 384.0,573.5 384.0,566.0 384.1,557.9 384.1,549.4 384.1,540.4 384.2,530.8 384.2,520.8 384.2,510.2 384.3,499.1 384.3,487.6 384.3,475.5 384.4,463.0 384.4,450.0
384.4,436.6 384.5,422.8 384.5,408.6 384.5,394.1 384.6,379.3 384.6,364.2 384.6,348.9 384.7,333.5 384.7,317.9 384.7,302.3 384.8,286.6 384.8,271.0 384.8,255.5 384.9,240.2 384.9,225.2 384.9,210.4
384.9,196.0 385.0,182.0 385.0,168.5 385.0,155.5 385.1,143.1 385.1,131.4 385.1,120.4 385.2,110.2 385.2,100.7 385.2,92.1 385.3,84.4 385.3,77.6 385.3,71.7 385.4,66.8 385.4,62.9 385.4,60.0
385.5,58.0 385.5,57.1 385.5,57.1 385.6,58.1 385.6,60.1 385.6,63.0 385.7,66.8 385.7,71.6 385.7,77.1 385.8,83.5 385.8,90.7 385.8,98.6 385.8,107.1 385.9,116.3 385.9,126.1 385.9,136.3
386.0,147.1 386.0,158.3 386.0,169.8 386.1,181.6 386.1,193.7 386.1,206.0 386.2,218.4 386.2,230.9 386.2,243.4 386.3,256.0 386.3,268.5 386.3,280.9 386.4,293.1 386.4,305.2 386.4,317.1 386.5,328.8
386.5,340.2 386.5,351.3 386.6,362.1 386.6,372.6 386.6,382.8 386.7,392.5 386.7,402.0 386.7,411.1 386.7,419.7 386.8,428.1 386.8,436.0 386.8,443.6 386.9,450.8 386.9,457.7 386.9,464.2 387.0,470.3
387.0,476.2 387.0,481.7 387.1,486.9 387.1,491.8 387.1,496.4 387.2,500.8 387.2,504.9 387.2,508.8 387.3,512.5 387.3,516.0 387.3,519.3 387.4,522.4 387.4,525.3 387.4,528.1 387.5,530.8 387.5,533.3
387.5,535.7 387.5,538.0 387.6,540.2 387.6,542.4 387.6,544.4 387.7,546.3 387.7,548.2 387.7,550.0 387.8,551.8 387.8,553.4 387.8,555.1 387.9,556.7 387.9,558.2 387.9,559.7 388.0,561.1 388.0,562.5
388.0,563.8 388.1,565.1 388.1,566.4 388.1,567.6 388.2,568.8 388.2,570.0 388.2,571.1 388.3,572.2 388.3,573.2 388.3,574.2 388.4,575.3 388.4,576.2 388.4,577.2 388.4,578.1 388.5,579.0 388.5,579.9
388.5,580.8 388.6,581.7 388.6,582.6 388.6,583.5 388.7,584.3 388.7,585.2 388.7,586.1 388.8,587.0 388.8,587.8 388.8,588.7 388.9,589.6 388.9,590.5 388.9,591.4 389.0,592.4 389.0,593.3 389.0,594.3
389.1,595.2 389.1,596.2 389.1,597.2 389.2,598.2 389.2,599.2 389.2,600.2 389.3,601.3 389.3,602.3 389.3,603.3 389.3,604.4 389.4,605.4 389.4,606.5 389.4,607.5 389.5,608.6 389.5,609.6 389.5,610.6
389.6,611.7 389.6,612.7 389.6,613.7 389.7,614.7 389.7,615.7 389.7,616.7 389.8,617.7 389.8,618.6 389.8,619.6 389.9,620.5 389.9,621.4 389.9,622.4 390.0,623.3 390.0,624.2 390.0,625.0 390.1,625.9
390.1,626.8 390.1,627.6 390.2,628.5 390.2,629.3 390.2,630.2 390.2,631.0 390.3,631.8 390.3,632.7 390.3,633.5 390.4,634.3 390.4,635.1 390.4,635.9 390.5,636.7 390.5,637.5 390.5,638.3 390.6,639.1
390.6,639.9 390.6,640.7 390.7,641.5 390.7,642.2 390.7,643.0 390.8,643.8 390.8,644.5 390.8,645.3 390.9,646.0 390.9,646.8 390.9,647.5 391.0,648.2 391.0,648.9 391.0,649.6 391.1,650.3 391.1,650.9
391.1,651.5 391.1,652.2 391.2,652.8 391.2,653.3 391.2,653.9 391.3,654.4 391.3,655.0 391.3,655.5 391.4,655.9 391.4,656.4 391.4,656.8 391.5,657.2 391.5,657.6 391.5,658.0 391.6,658.4 391.6,658.7
391.6,659.0 391.7,659.3 391.7,659.6 391.7,659.8 391.8,660.1 391.8,660.3 391.8,660.5 391.9,660.7 391.9,660.8 391.9,661.0 392.0,661.1 392.0,661.3 392.0,661.4 392.0,661.5 392.1,661.6 392.1,661.7
392.1,661.8 392.2,661.8 392.2,661.9 392.2,662.0 392.3,662.0 392.3,662.1 392.3,662.1 392.4,662.1 392.4,662.2 392.4,662.2 392.5,662.2 392.5,662.2 392.5,662.3 392.6,662.3 392.6,662.3 392.6,662.3
392.7,662.3 392.7,662.3 392.7,662.3 392.8,662.3 392.8,662.3 392.8,662.3 392.9,662.3 392.9,662.3 392.9,662.3 392.9,662.3 393.0,662.2 393.0,662.2 393.0,662.2 393.1,662.2 393.1,662.1 393.1,662.1
393.2,662.1 393.2,662.0 393.2,662.0 393.3,661.9 393.3,661.9 393.3,661.8 393.4,661.7 393.4,661.7 393.4,661.6 393.5,661.5 393.5,661.4 393.5,661.3 393.6,661.2 393.6,661.1 393.6,660.9 393.7,660.8
393.7,660.6 393.7,660.5 393.8,660.3 393.8,660.1 393.8,659.9 393.8,659.7 393.9,659.5 393.9,659.3 393.9,659.1 394.0,658.8 394.0,658.6 394.0,658.4 394.1,658.1 394.1,657.8 394.1,657.6 394.2,657.3
394.2,657.0 394.2,656.8 394.3,656.5 394.3,656.2 394.3,656.0 394.4,655.7 394.4,655.4 394.4,655.2 394.5,655.0 394.5,654.7 394.5,654.5 394.6,654.3 394.6,654.1 394.6,653.9 394.7,653.8 394.7,653.6
394.7,653.5 394.7,653.4 394.8,653.3 394.8,653.3 394.8,653.2 394.9,653.2 394.9,653.2 394.9,653.3 395.0,653.3 395.0,653.4 395.0,653.5 395.1,653.6 395.1,653.7 395.1,653.8 395.2,654.0 395.2,654.2
395.2,654.4 395.3,654.6 395.3,654.8 395.3,655.0 395.4,655.3 395.4,655.5 395.4,655.8 395.5,656.1 395.5,656.3 395.5,656.6 395.5,656.9 395.6,657.1 395.6,657.4 395.6,657.7 395.7,657.9 395.7,658.2
395.7,658.4 395.8,658.7 395.8,658.9 395.8,659.2 395.9,659.4 395.9,659.6 395.9,659.8 396.0,660.0 396.0,660.2 396.0,660.4 396.1,660.5 396.1,660.7 396.1,660.8 396.2,661.0 396.2,661.1 396.2,661.2
396.3,661.3 396.3,661.4 396.3,661.5 396.4,661.6 396.4,661.7 396.4,661.8 396.4,661.8 396.5,661.9 396.5,662.0 396.5,662.0 396.6,662.1 396.6,662.1 396.6,662.1 396.7,662.2 396.7,662.2 396.7,662.2
396.8,662.2 396.8,662.3 396.8,662.3 396.9,662.3 396.9,662.4 396.8,662.4 396.8,662.4 396.8,662.4 396.7,662.4 396.7,662.4 396.7,662.4 396.6,662.4 396.6,662.4 396.6,662.4 396.5,662.4 396.5,662.4
396.5,662.4 396.4,662.4 396.4,662.4 396.4,662.4 396.4,662.4 396.3,662.4 396.3,662.4 396.3,662.4 396.2,662.4 396.2,662.4 396.2,662.4 396.1,662.4 396.1,662.4 396.1,662.4 396.0,662.4 396.0,662.4
396.0,662.4 395.9,662.4 395.9,662.4 395.9,662.4 395.8,662.4 395.8,662.4 395.8,662.4 395.7,662.4 395.7,662.4 395.7,662.4 395.6,662.4 395.6,662.4 395.6,662.4 395.5,662.4 395.5,662.4 395.5,662.4
395.5,662.4 395.4,662.4 395.4,662.4 395.4,662.4 395.3,662.4 395.3,662.4 395.3,662.4 395.2,662.4 395.2,662.4 395.2,662.4 395.1,662.4 395.1,662.4 395.1,662.4 395.0,662.4 395.0,662.4 395.0,662.4
394.9,662.4 394.9,662.4 394.9,662.4 394.8,662.4 394.8,662.4 394.8,662.4 394.7,662.4 394.7,662.4 394.7,662.4 394.7,662.4 394.6,662.4 394.6,662.4 394.6,662.4 394.5,662.4 394.5,662.4 394.5,662.4
394.4,662.4 394.4,662.4 394.4,662.4 394.3,662.4 394.3,662.4 394.3,662.4 394.2,662.4 394.2,662.4 394.2,662.4 394.1,662.4 394.1,662.4 394.1,662.4 394.0,662.4 394.0,662.4 394.0,662.4 393.9,662.4
393.9,662.4 393.9,662.4 393.8,662.4 393.8,662.4 393.8,662.4 393.8,662.4 393.7,662.4 393.7,662.4 393.7,662.4 393.6,662.4 393.6,662.4 393.6,662.4 393.5,662.4 393.5,662.4 393.5,662.4 393.4,662.4
393.4,662.4 393.4,662.4 393.3,662.4 393.3,662.4 393.3,662.4 393.2,662.4 393.2,662.4 393.2,662.4 393.1,662.4 393.1,662.4 393.1,662.4 393.0,662.4 393.0,662.4 393.0,662.4 392.9,662.4 392.9,662.4
392.9,662.4 392.9,662.4 392.8,662.4 392.8,662.4 392.8,662.4 392.7,662.4 392.7,662.4 392.7,662.4 392.6,662.4 392.6,662.4 392.6,662.4 392.5,662.4 392.5,662.4 392.5,662.4 392.4,662.4 392.4,662.4
392.4,662.4 392.3,662.4 392.3,662.4 392.3,662.4 392.2,662.4 392.2,662.4 392.2,662.4 392.1,662.4 392.1,662.4 392.1,662.4 392.0,662.4 392.0,662.4 392.0,662.4 392.0,662.4 391.9,662.4 391.9,662.4
391.9,662.4 391.8,662.4 391.8,662.4 391.8,662.4 391.7,662.4 391.7,662.4 391.7,662.4 391.6,662.4 391.6,662.4 391.6,662.4 391.5,662.4 391.5,662.4 391.5,662.4 391.4,662.4 391.4,662.4 391.4,662.4
391.3,662.4 391.3,662.4 391.3,662.4 391.2,662.4 391.2,662.4 391.2,662.4 391.1,662.4 391.1,662.4 391.1,662.4 391.1,662.4 391.0,662.4 391.0,662.4 391.0,662.4 390.9,662.4 390.9,662.4 390.9,662.4
390.8,662.4 390.8,662.4 390.8,662.4 390.7,662.4 390.7,662.4 390.7,662.4 390.6,662.4 390.6,662.4 390.6,662.4 390.5,662.4 390.5,662.4 390.5,662.4 390.4,662.4 390.4,662.4 390.4,662.4 390.3,662.4
390.3,662.4 390.3,662.4 390.2,662.4 390.2,662.4 390.2,662.4 390.2,662.4 390.1,662.4 390.1,662.4 390.1,662.4 390.0,662.4 390.0,662.4 390.0,662.4 389.9,662.4 389.9,662.4 389.9,662.4 389.8,662.4
389.8,662.4 389.8,662.4 389.7,662.4 389.7,662.4 389.7,662.4 389.6,662.4 389.6,662.4 389.6,662.4 389.5,662.4 389.5,662.4 389.5,662.4 389.4,662.4 389.4,662.4 389.4,662.4 389.3,662.4 389.3,662.4
389.3,662.4 389.3,662.4 389.2,662.4 389.2,662.4 389.2,662.4 389.1,662.4 389.1,662.4 389.1,662.4 389.0,662.4 389.0,662.4 389.0,662.4 388.9,662.4 388.9,662.4 388.9,662.4 388.8,662.4 388.8,662.4
388.8,662.4 388.7,662.4 388.7,662.4 388.7,662.4 388.6,662.4 388.6,662.4 388.6,662.4 388.5,662.4 388.5,662.4 388.5,662.4 388.4,662.4 388.4,662.4 388.4,662.4 388.4,662.4 388.3,662.4 388.3,662.4
388.3,662.4 388.2,662.4 388.2,662.4 388.2,662.4 388.1,662.4 388.1,662.4 388.1,662.4 388.0,662.4 388.0,662.4 388.0,662.4 387.9,662.4 387.9,662.4 387.9,662.4 387.8,662.4 387.8,662.4 387.8,662.4
387.7,662.4 387.7,662.4 387.7,662.4 387.6,662.4 387.6,662.4 387.6,662.4 387.5,662.4 387.5,662.4 387.5,662.4 387.5,662.4 387.4,662.4 387.4,662.4 387.4,662.4 387.3,662.4 387.3,662.4 387.3,662.4
387.2,662.4 387.2,662.4 387.2,662.4 387.1,662.4 387.1,662.4 387.1,662.4 387.0,662.4 387.0,662.4 387.0,662.4 386.9,662.4 386.9,662.4 386.9,662.4 386.8,662.4 386.8,662.4 386.8,662.4 386.7,662.4
386.7,662.4 386.7,662.4 386.7,662.4 386.6,662.4 386.6,662.4 386.6,662.4 386.5,662.4 386.5,662.4 386.5,662.4 386.4,662.4 386.4,662.4 386.4,662.4 386.3,662.4 386.3,662.4 386.3,662.4 386.2,662.4
386.2,662.4 386.2,662.4 386.1,662.4 386.1,662.4 386.1,662.4 386.0,662.4 386.0,662.4 386.0,662.4 385.9,662.4 385.9,662.4 385.9,662.4 385.8,662.4 385.8,662.4 385.8,662.4 385.8,662.4 385.7,662.4
385.7,662.4 385.7,662.4 385.6,662.4 385.6,662.4 385.6,662.4 385.5,662.4 385.5,662.4 385.5,662.4 385.4,662.4 385.4,662.4 385.4,662.4 385.3,662.4 385.3,662.4 385.3,662.4 385.2,662.4 385.2,662.4
385.2,662.4 385.1,662.4 385.1,662.4 385.1,662.4 385.0,662.4 385.0,662.4 385.0,662.4 384.9,662.4 384.9,662.4 384.9,662.4 384.9,662.4 384.8,662.4 384.8,662.4 384.8,662.4 384.7,662.4 384.7,662.4
384.7,662.4 384.6,662.4 384.6,662.4 384.6,662.4 384.5,662.4 384.5,662.4 384.5,662.4 384.4,662.4 384.4,662.4 384.4,662.4 384.3,662.4 384.3,662.4 384.3,662.4 384.2,662.4 384.2,662.4 384.2,662.4
384.1,662.4 384.1,662.4 384.1,662.4 384.0,662.4 384.0,662.4 384.0,662.4 384.0,662.4 383.9,662.4 383.9,662.4 383.9,662.4 383.8,662.4 383.8,662.4 383.8,662.4 383.7,662.4 383.7,662.4 383.7,662.4
383.6,662.4 383.6,662.4 383.6,662.4 383.5,662.4 383.5,662.4 383.5,662.4 383.4,662.4 383.4,662.4 383.4,662.4 383.3,662.4 383.3,662.4 383.3,662.4 383.2,662.4 383.2,662.4 383.2,662.4 383.1,662.4
383.1,662.4 383.1,662.4 383.1,662.4 383.0,662.4 383.0,662.4 383.0,662.4 382.9,662.4 382.9,662.4 382.9,662.4 382.8,662.4 382.8,662.4 382.8,662.4 382.7,662.4 382.7,662.4 382.7,662.4 382.6,662.4
382.6,662.4 382.6,662.4 382.5,662.4 382.5,662.4 382.5,662.4 382.4,662.4 382.4,662.4 382.4,662.4 382.3,662.4 382.3,662.4 382.3,662.4 382.2,662.4 382.2,662.4 382.2,662.4 382.2,662.4 382.1,662.4
382.1,662.4 382.1,662.4 382.0,662.4 382.0,662.4 382.0,662.4 381.9,662.4 381.9,662.4 381.9,662.4 381.8,662.4 381.8,662.4 381.8,662.4 381.7,662.4 381.7,662.4 381.7,662.4 381.6,662.4 381.6,662.4
381.6,662.4 381.5,662.4 381.5,662.4 381.5,662.4 381.4,662.4 381.4,662.4 381.4,662.4 381.3,662.4 381.3,662.4 381.3,662.4 381.3,662.4 381.2,662.4 381.2,662.4 381.2,662.4 381.1,662.4 381.1,662.4
381.1,662.4 381.0,662.4 381.0,662.4 381.0,662.4 380.9,662.4 380.9,662.4 380.9,662.4 380.8,662.4 '/>
	</g>
</g>
	</g>
	<g id="gnuplot_plot_4" ><title>New Mean</title>
<g fill="none" color="white" stroke="rgb( 31, 120, 180)" stroke-width="2.00" stroke-linecap="butt" stroke-linejoin="miter">
</g>
<g fill="none" color="black" stroke="currentColor" stroke-width="2.00" stroke-linecap="butt" stroke-linejoin="miter">
	<g transform="translate(1196.9,121.0)" stroke="none" fill="black" font-family="Helvetica" font-size="12.00"  text-anchor="start">
		<text><tspan font-family="Helvetica" >New Mean</tspan></text>
	</g>
</g>
<g fill="none" color="black" stroke="currentColor" stroke-width="2.00" stroke-linecap="butt" stroke-linejoin="miter">
	<path stroke='rgb( 31, 120, 180)'  d='M1146.4,117.1 L1188.6,117.1 M386.2,662.4 L386.2,214.9  '/></g>
	</g>
<g fill="none" color="black" stroke="currentColor" stroke-width="2.00" stroke-linecap="butt" stroke-linejoin="miter">
</g>
<g fill="none" color="black" stroke="black" stroke-width="1.00" stroke-linecap="butt" stroke-linejoin="miter">
</g>
<g fill="none" color="black" stroke="currentColor" stroke-width="1.00" stroke-linecap="butt" stroke-linejoin="miter">
	<path stroke='black'  d='M71.9,54.1 L71.9,662.4 L1121.5,662.4 L1121.5,54.1 L71.9,54.1 Z  '/></g>
<g fill="none" color="black" stroke="currentColor" stroke-width="1.00" stroke-linecap="butt" stroke-linejoin="miter">
</g>
</g>
</svg>

