<?xml version="1.0" encoding="utf-8"  standalone="no"?>
<svg 
 viewBox="0 0 1280 720"
 xmlns="http://www.w3.org/2000/svg"
 xmlns:xlink="http://www.w3.org/1999/xlink"
>

<title>Gnuplot</title>
<desc>Produced by GNUPLOT 5.2 patchlevel 8 </desc>

<g id="gnuplot_canvas">

<rect x="0" y="0" width="1280" height="720" fill="none"/>
<defs>

	<circle id='gpDot' r='0.5' stroke-width='0.5' stroke='currentColor'/>
	<path id='gpPt0' stroke-width='0.222' stroke='currentColor' d='M-1,0 h2 M0,-1 v2'/>
	<path id='gpPt1' stroke-width='0.222' stroke='currentColor' d='M-1,-1 L1,1 M1,-1 L-1,1'/>
	<path id='gpPt2' stroke-width='0.222' stroke='currentColor' d='M-1,0 L1,0 M0,-1 L0,1 M-1,-1 L1,1 M-1,1 L1,-1'/>
	<rect id='gpPt3' stroke-width='0.222' stroke='currentColor' x='-1' y='-1' width='2' height='2'/>
	<rect id='gpPt4' stroke-width='0.222' stroke='currentColor' fill='currentColor' x='-1' y='-1' width='2' height='2'/>
	<circle id='gpPt5' stroke-width='0.222' stroke='currentColor' cx='0' cy='0' r='1'/>
	<use xlink:href='#gpPt5' id='gpPt6' fill='currentColor' stroke='none'/>
	<path id='gpPt7' stroke-width='0.222' stroke='currentColor' d='M0,-1.33 L-1.33,0.67 L1.33,0.67 z'/>
	<use xlink:href='#gpPt7' id='gpPt8' fill='currentColor' stroke='none'/>
	<use xlink:href='#gpPt7' id='gpPt9' stroke='currentColor' transform='rotate(180)'/>
	<use xlink:href='#gpPt9' id='gpPt10' fill='currentColor' stroke='none'/>
	<use xlink:href='#gpPt3' id='gpPt11' stroke='currentColor' transform='rotate(45)'/>
	<use xlink:href='#gpPt11' id='gpPt12' fill='currentColor' stroke='none'/>
	<path id='gpPt13' stroke-width='0.222' stroke='currentColor' d='M0,1.330 L1.265,0.411 L0.782,-1.067 L-0.782,-1.076 L-1.265,0.411 z'/>
	<use xlink:href='#gpPt13' id='gpPt14' fill='currentColor' stroke='none'/>
	<filter id='textbox' filterUnits='objectBoundingBox' x='0' y='0' height='1' width='1'>
	  <feFlood flood-color='white' flood-opacity='1' result='bgnd'/>
	  <feComposite in='SourceGraphic' in2='bgnd' operator='atop'/>
	</filter>
	<filter id='greybox' filterUnits='objectBoundingBox' x='0' y='0' height='1' width='1'>
	  <feFlood flood-color='lightgrey' flood-opacity='1' result='grey'/>
	  <feComposite in='SourceGraphic' in2='grey' operator='atop'/>
	</filter>
</defs>
<g fill="none" color="white" stroke="currentColor" stroke-width="1.00" stroke-linecap="butt" stroke-linejoin="miter">
</g>
<g fill="none" color="black" stroke="currentColor" stroke-width="1.00" stroke-linecap="butt" stroke-linejoin="miter">
	<path stroke='black'  d='M80.2,662.4 L89.2,662.4  '/>	<g transform="translate(71.9,666.3)" stroke="none" fill="black" font-family="Helvetica" font-size="12.00"  text-anchor="end">
		<text><tspan font-family="Helvetica" > 0</tspan></text>
	</g>
</g>
<g fill="none" color="black" stroke="currentColor" stroke-width="1.00" stroke-linecap="butt" stroke-linejoin="miter">
	<path stroke='black'  d='M80.2,594.8 L89.2,594.8  '/>	<g transform="translate(71.9,598.7)" stroke="none" fill="black" font-family="Helvetica" font-size="12.00"  text-anchor="end">
		<text><tspan font-family="Helvetica" > 500</tspan></text>
	</g>
</g>
<g fill="none" color="black" stroke="currentColor" stroke-width="1.00" stroke-linecap="butt" stroke-linejoin="miter">
	<path stroke='black'  d='M80.2,527.2 L89.2,527.2  '/>	<g transform="translate(71.9,531.1)" stroke="none" fill="black" font-family="Helvetica" font-size="12.00"  text-anchor="end">
		<text><tspan font-family="Helvetica" > 1000</tspan></text>
	</g>
</g>
<g fill="none" color="black" stroke="currentColor" stroke-width="1.00" stroke-linecap="butt" stroke-linejoin="miter">
	<path stroke='black'  d='M80.2,459.6 L89.2,459.6  '/>	<g transform="translate(71.9,463.5)" stroke="none" fill="black" font-family="Helvetica" font-size="12.00"  text-anchor="end">
		<text><tspan font-family="Helvetica" > 1500</tspan></text>
	</g>
</g>
<g fill="none" color="black" stroke="currentColor" stroke-width="1.00" stroke-linecap="butt" stroke-linejoin="miter">
	<path stroke='black'  d='M80.2,392.0 L89.2,392.0  '/>	<g transform="translate(71.9,395.9)" stroke="none" fill="black" font-family="Helvetica" font-size="12.00"  text-anchor="end">
		<text><tspan font-family="Helvetica" > 2000</tspan></text>
	</g>
</g>
<g fill="none" color="black" stroke="currentColor" stroke-width="1.00" stroke-linecap="butt" stroke-linejoin="miter">
	<path stroke='black'  d='M80.2,324.5 L89.2,324.5  '/>	<g transform="translate(71.9,328.4)" stroke="none" fill="black" font-family="Helvetica" font-size="12.00"  text-anchor="end">
		<text><tspan font-family="Helvetica" > 2500</tspan></text>
	</g>
</g>
<g fill="none" color="black" stroke="currentColor" stroke-width="1.00" stroke-linecap="butt" stroke-linejoin="miter">
	<path stroke='black'  d='M80.2,256.9 L89.2,256.9  '/>	<g transform="translate(71.9,260.8)" stroke="none" fill="black" font-family="Helvetica" font-size="12.00"  text-anchor="end">
		<text><tspan font-family="Helvetica" > 3000</tspan></text>
	</g>
</g>
<g fill="none" color="black" stroke="currentColor" stroke-width="1.00" stroke-linecap="butt" stroke-linejoin="miter">
	<path stroke='black'  d='M80.2,189.3 L89.2,189.3  '/>	<g transform="translate(71.9,193.2)" stroke="none" fill="black" font-family="Helvetica" font-size="12.00"  text-anchor="end">
		<text><tspan font-family="Helvetica" > 3500</tspan></text>
	</g>
</g>
<g fill="none" color="black" stroke="currentColor" stroke-width="1.00" stroke-linecap="butt" stroke-linejoin="miter">
	<path stroke='black'  d='M80.2,121.7 L89.2,121.7  '/>	<g transform="translate(71.9,125.6)" stroke="none" fill="black" font-family="Helvetica" font-size="12.00"  text-anchor="end">
		<text><tspan font-family="Helvetica" > 4000</tspan></text>
	</g>
</g>
<g fill="none" color="black" stroke="currentColor" stroke-width="1.00" stroke-linecap="butt" stroke-linejoin="miter">
	<path stroke='black'  d='M80.2,54.1 L89.2,54.1  '/>	<g transform="translate(71.9,58.0)" stroke="none" fill="black" font-family="Helvetica" font-size="12.00"  text-anchor="end">
		<text><tspan font-family="Helvetica" > 4500</tspan></text>
	</g>
</g>
<g fill="none" color="black" stroke="currentColor" stroke-width="1.00" stroke-linecap="butt" stroke-linejoin="miter">
	<path stroke='black'  d='M98.9,662.4 L98.9,653.4  '/>	<g transform="translate(98.9,684.3)" stroke="none" fill="black" font-family="Helvetica" font-size="12.00"  text-anchor="middle">
		<text><tspan font-family="Helvetica" >-69.935</tspan></text>
	</g>
</g>
<g fill="none" color="black" stroke="currentColor" stroke-width="1.00" stroke-linecap="butt" stroke-linejoin="miter">
	<path stroke='black'  d='M193.7,662.4 L193.7,653.4  '/>	<g transform="translate(193.7,684.3)" stroke="none" fill="black" font-family="Helvetica" font-size="12.00"  text-anchor="middle">
		<text><tspan font-family="Helvetica" >-69.93</tspan></text>
	</g>
</g>
<g fill="none" color="black" stroke="currentColor" stroke-width="1.00" stroke-linecap="butt" stroke-linejoin="miter">
	<path stroke='black'  d='M288.6,662.4 L288.6,653.4  '/>	<g transform="translate(288.6,684.3)" stroke="none" fill="black" font-family="Helvetica" font-size="12.00"  text-anchor="middle">
		<text><tspan font-family="Helvetica" >-69.925</tspan></text>
	</g>
</g>
<g fill="none" color="black" stroke="currentColor" stroke-width="1.00" stroke-linecap="butt" stroke-linejoin="miter">
	<path stroke='black'  d='M383.4,662.4 L383.4,653.4  '/>	<g transform="translate(383.4,684.3)" stroke="none" fill="black" font-family="Helvetica" font-size="12.00"  text-anchor="middle">
		<text><tspan font-family="Helvetica" >-69.92</tspan></text>
	</g>
</g>
<g fill="none" color="black" stroke="currentColor" stroke-width="1.00" stroke-linecap="butt" stroke-linejoin="miter">
	<path stroke='black'  d='M478.3,662.4 L478.3,653.4  '/>	<g transform="translate(478.3,684.3)" stroke="none" fill="black" font-family="Helvetica" font-size="12.00"  text-anchor="middle">
		<text><tspan font-family="Helvetica" >-69.915</tspan></text>
	</g>
</g>
<g fill="none" color="black" stroke="currentColor" stroke-width="1.00" stroke-linecap="butt" stroke-linejoin="miter">
	<path stroke='black'  d='M573.1,662.4 L573.1,653.4  '/>	<g transform="translate(573.1,684.3)" stroke="none" fill="black" font-family="Helvetica" font-size="12.00"  text-anchor="middle">
		<text><tspan font-family="Helvetica" >-69.91</tspan></text>
	</g>
</g>
<g fill="none" color="black" stroke="currentColor" stroke-width="1.00" stroke-linecap="butt" stroke-linejoin="miter">
	<path stroke='black'  d='M668.0,662.4 L668.0,653.4  '/>	<g transform="translate(668.0,684.3)" stroke="none" fill="black" font-family="Helvetica" font-size="12.00"  text-anchor="middle">
		<text><tspan font-family="Helvetica" >-69.905</tspan></text>
	</g>
</g>
<g fill="none" color="black" stroke="currentColor" stroke-width="1.00" stroke-linecap="butt" stroke-linejoin="miter">
	<path stroke='black'  d='M762.8,662.4 L762.8,653.4  '/>	<g transform="translate(762.8,684.3)" stroke="none" fill="black" font-family="Helvetica" font-size="12.00"  text-anchor="middle">
		<text><tspan font-family="Helvetica" >-69.9</tspan></text>
	</g>
</g>
<g fill="none" color="black" stroke="currentColor" stroke-width="1.00" stroke-linecap="butt" stroke-linejoin="miter">
	<path stroke='black'  d='M857.7,662.4 L857.7,653.4  '/>	<g transform="translate(857.7,684.3)" stroke="none" fill="black" font-family="Helvetica" font-size="12.00"  text-anchor="middle">
		<text><tspan font-family="Helvetica" >-69.895</tspan></text>
	</g>
</g>
<g fill="none" color="black" stroke="currentColor" stroke-width="1.00" stroke-linecap="butt" stroke-linejoin="miter">
	<path stroke='black'  d='M952.5,662.4 L952.5,653.4  '/>	<g transform="translate(952.5,684.3)" stroke="none" fill="black" font-family="Helvetica" font-size="12.00"  text-anchor="middle">
		<text><tspan font-family="Helvetica" >-69.89</tspan></text>
	</g>
</g>
<g fill="none" color="black" stroke="currentColor" stroke-width="1.00" stroke-linecap="butt" stroke-linejoin="miter">
</g>
<g fill="none" color="black" stroke="currentColor" stroke-width="1.00" stroke-linecap="butt" stroke-linejoin="miter">
	<path stroke='black'  d='M80.2,54.1 L80.2,662.4 L1013.6,662.4 L1013.6,54.1 L80.2,54.1 Z  '/></g>
<g fill="none" color="black" stroke="currentColor" stroke-width="1.00" stroke-linecap="butt" stroke-linejoin="miter">
	<g transform="translate(19.0,358.3) rotate(270)" stroke="none" fill="black" font-family="Helvetica" font-size="12.00"  text-anchor="middle">
		<text><tspan font-family="Helvetica" >Density (a.u.)</tspan></text>
	</g>
</g>
<g fill="none" color="black" stroke="currentColor" stroke-width="1.00" stroke-linecap="butt" stroke-linejoin="miter">
	<g transform="translate(546.9,711.3)" stroke="none" fill="black" font-family="Helvetica" font-size="12.00"  text-anchor="middle">
		<text><tspan font-family="Helvetica" >Relative change (%)</tspan></text>
	</g>
</g>
<g fill="none" color="black" stroke="currentColor" stroke-width="1.00" stroke-linecap="butt" stroke-linejoin="miter">
	<g transform="translate(546.9,31.0)" stroke="none" fill="black" font-family="Helvetica" font-size="12.00"  text-anchor="middle">
		<text><tspan font-family="Helvetica" >bench_group/blake3/655360: mean</tspan></text>
	</g>
</g>
<g fill="none" color="black" stroke="currentColor" stroke-width="1.00" stroke-linecap="butt" stroke-linejoin="miter">
</g>
	<g id="gnuplot_plot_1" ><title>Bootstrap distribution</title>
<g fill="none" color="white" stroke="currentColor" stroke-width="2.00" stroke-linecap="butt" stroke-linejoin="miter">
</g>
<g fill="none" color="black" stroke="currentColor" stroke-width="2.00" stroke-linecap="butt" stroke-linejoin="miter">
	<g transform="translate(1089.0,67.0)" stroke="none" fill="black" font-family="Helvetica" font-size="12.00"  text-anchor="start">
		<text><tspan font-family="Helvetica" >Bootstrap distribution</tspan></text>
	</g>
</g>
<g fill="none" color="black" stroke="currentColor" stroke-width="2.00" stroke-linecap="butt" stroke-linejoin="miter">
	<path stroke='rgb( 31, 120, 180)'  d='M1038.5,63.1 L1080.7,63.1 M80.2,626.5 L82.1,625.5 L83.9,624.5 L85.8,623.5 L87.7,622.5 L89.6,621.5
		L91.4,620.5 L93.3,619.5 L95.2,618.6 L97.0,617.6 L98.9,616.7 L100.8,615.8 L102.6,614.9 L104.5,614.0
		L106.4,613.1 L108.3,612.2 L110.1,611.3 L112.0,610.4 L113.9,609.4 L115.7,608.5 L117.6,607.6 L119.5,606.7
		L121.4,605.7 L123.2,604.8 L125.1,603.8 L127.0,602.8 L128.8,601.8 L130.7,600.7 L132.6,599.6 L134.4,598.6
		L136.3,597.5 L138.2,596.3 L140.1,595.2 L141.9,594.0 L143.8,592.8 L145.7,591.6 L147.5,590.4 L149.4,589.2
		L151.3,587.9 L153.2,586.7 L155.0,585.4 L156.9,584.1 L158.8,582.8 L160.6,581.5 L162.5,580.3 L164.4,579.0
		L166.2,577.7 L168.1,576.4 L170.0,575.1 L171.9,573.9 L173.7,572.6 L175.6,571.4 L177.5,570.1 L179.3,568.8
		L181.2,567.6 L183.1,566.3 L185.0,565.0 L186.8,563.8 L188.7,562.4 L190.6,561.1 L192.4,559.7 L194.3,558.3
		L196.2,556.9 L198.0,555.4 L199.9,553.8 L201.8,552.2 L203.7,550.5 L205.5,548.8 L207.4,547.0 L209.3,545.1
		L211.1,543.1 L213.0,541.0 L214.9,538.9 L216.7,536.7 L218.6,534.4 L220.5,532.1 L222.4,529.6 L224.2,527.1
		L226.1,524.5 L228.0,521.8 L229.8,519.1 L231.7,516.3 L233.6,513.4 L235.5,510.5 L237.3,507.5 L239.2,504.5
		L241.1,501.4 L242.9,498.2 L244.8,494.9 L246.7,491.7 L248.5,488.3 L250.4,484.9 L252.3,481.4 L254.2,477.9
		L256.0,474.3 L257.9,470.7 L259.8,467.0 L261.6,463.2 L263.5,459.4 L265.4,455.5 L267.3,451.6 L269.1,447.6
		L271.0,443.5 L272.9,439.4 L274.7,435.2 L276.6,431.0 L278.5,426.7 L280.3,422.4 L282.2,418.0 L284.1,413.6
		L286.0,409.1 L287.8,404.6 L289.7,400.1 L291.6,395.5 L293.4,390.9 L295.3,386.2 L297.2,381.5 L299.1,376.8
		L300.9,372.0 L302.8,367.2 L304.7,362.4 L306.5,357.6 L308.4,352.7 L310.3,347.9 L312.1,343.0 L314.0,338.2
		L315.9,333.3 L317.8,328.4 L319.6,323.6 L321.5,318.7 L323.4,313.9 L325.2,309.1 L327.1,304.2 L329.0,299.4
		L330.9,294.6 L332.7,289.8 L334.6,285.0 L336.5,280.2 L338.3,275.4 L340.2,270.6 L342.1,265.8 L343.9,261.0
		L345.8,256.2 L347.7,251.3 L349.6,246.4 L351.4,241.5 L353.3,236.6 L355.2,231.6 L357.0,226.7 L358.9,221.7
		L360.8,216.7 L362.7,211.7 L364.5,206.7 L366.4,201.7 L368.3,196.8 L370.1,191.8 L372.0,186.9 L373.9,182.1
		L375.7,177.3 L377.6,172.6 L379.5,168.0 L381.4,163.4 L383.2,159.0 L385.1,154.6 L387.0,150.4 L388.8,146.3
		L390.7,142.4 L392.6,138.5 L394.5,134.9 L396.3,131.3 L398.2,128.0 L400.1,124.7 L401.9,121.7 L403.8,118.7
		L405.7,116.0 L407.5,113.4 L409.4,110.9 L411.3,108.6 L413.2,106.5 L415.0,104.4 L416.9,102.6 L418.8,100.8
		L420.6,99.2 L422.5,97.7 L424.4,96.2 L426.3,94.9 L428.1,93.8 L430.0,92.7 L431.9,91.7 L433.7,90.8
		L435.6,90.0 L437.5,89.3 L439.3,88.7 L441.2,88.2 L443.1,87.9 L445.0,87.6 L446.8,87.4 L448.7,87.3
		L450.6,87.3 L452.4,87.4 L454.3,87.6 L456.2,87.9 L458.0,88.3 L459.9,88.7 L461.8,89.2 L463.7,89.8
		L465.5,90.4 L467.4,91.1 L469.3,91.9 L471.1,92.7 L473.0,93.5 L474.9,94.4 L476.8,95.3 L478.6,96.3
		L480.5,97.3 L482.4,98.3 L484.2,99.4 L486.1,100.5 L488.0,101.7 L489.8,102.9 L491.7,104.1 L493.6,105.4
		L495.5,106.7 L497.3,108.0 L499.2,109.4 L501.1,110.8 L502.9,112.2 L504.8,113.7 L506.7,115.2 L508.6,116.7
		L510.4,118.2 L512.3,119.8 L514.2,121.4 L516.0,123.0 L517.9,124.6 L519.8,126.2 L521.6,127.9 L523.5,129.6
		L525.4,131.3 L527.3,133.1 L529.1,134.9 L531.0,136.7 L532.9,138.5 L534.7,140.3 L536.6,142.2 L538.5,144.0
		L540.4,145.9 L542.2,147.8 L544.1,149.7 L546.0,151.6 L547.8,153.5 L549.7,155.5 L551.6,157.4 L553.4,159.4
		L555.3,161.4 L557.2,163.4 L559.1,165.4 L560.9,167.5 L562.8,169.6 L564.7,171.8 L566.5,174.0 L568.4,176.3
		L570.3,178.7 L572.2,181.1 L574.0,183.6 L575.9,186.1 L577.8,188.8 L579.6,191.5 L581.5,194.2 L583.4,197.1
		L585.2,200.0 L587.1,202.9 L589.0,206.0 L590.9,209.0 L592.7,212.1 L594.6,215.2 L596.5,218.4 L598.3,221.6
		L600.2,224.8 L602.1,228.0 L604.0,231.2 L605.8,234.4 L607.7,237.7 L609.6,240.9 L611.4,244.2 L613.3,247.5
		L615.2,250.8 L617.0,254.1 L618.9,257.5 L620.8,260.8 L622.7,264.3 L624.5,267.7 L626.4,271.2 L628.3,274.7
		L630.1,278.2 L632.0,281.8 L633.9,285.5 L635.8,289.1 L637.6,292.8 L639.5,296.5 L641.4,300.2 L643.2,304.0
		L645.1,307.8 L647.0,311.5 L648.8,315.3 L650.7,319.0 L652.6,322.8 L654.5,326.5 L656.3,330.2 L658.2,333.8
		L660.1,337.5 L661.9,341.1 L663.8,344.6 L665.7,348.2 L667.5,351.6 L669.4,355.1 L671.3,358.5 L673.2,361.8
		L675.0,365.1 L676.9,368.4 L678.8,371.6 L680.6,374.7 L682.5,377.8 L684.4,380.9 L686.3,383.9 L688.1,386.8
		L690.0,389.7 L691.9,392.6 L693.7,395.4 L695.6,398.1 L697.5,400.8 L699.3,403.5 L701.2,406.1 L703.1,408.6
		L705.0,411.2 L706.8,413.6 L708.7,416.0 L710.6,418.4 L712.4,420.7 L714.3,423.0 L716.2,425.2 L718.1,427.4
		L719.9,429.6 L721.8,431.7 L723.7,433.8 L725.5,435.8 L727.4,437.8 L729.3,439.7 L731.1,441.6 L733.0,443.5
		L734.9,445.3 L736.8,447.1 L738.6,448.9 L740.5,450.6 L742.4,452.3 L744.2,453.9 L746.1,455.5 L748.0,457.1
		L749.9,458.6 L751.7,460.1 L753.6,461.6 L755.5,463.0 L757.3,464.4 L759.2,465.8 L761.1,467.1 L762.9,468.4
		L764.8,469.7 L766.7,471.0 L768.6,472.2 L770.4,473.4 L772.3,474.5 L774.2,475.7 L776.0,476.8 L777.9,477.8
		L779.8,478.9 L781.7,479.9 L783.5,480.9 L785.4,481.9 L787.3,482.8 L789.1,483.8 L791.0,484.7 L792.9,485.6
		L794.7,486.4 L796.6,487.3 L798.5,488.1 L800.4,488.9 L802.2,489.8 L804.1,490.6 L806.0,491.4 L807.8,492.2
		L809.7,493.0 L811.6,493.8 L813.5,494.6 L815.3,495.4 L817.2,496.2 L819.1,497.0 L820.9,497.8 L822.8,498.6
		L824.7,499.4 L826.5,500.2 L828.4,501.0 L830.3,501.8 L832.2,502.7 L834.0,503.5 L835.9,504.4 L837.8,505.3
		L839.6,506.2 L841.5,507.1 L843.4,508.1 L845.3,509.1 L847.1,510.1 L849.0,511.2 L850.9,512.2 L852.7,513.3
		L854.6,514.5 L856.5,515.7 L858.3,516.9 L860.2,518.1 L862.1,519.3 L864.0,520.6 L865.8,521.9 L867.7,523.3
		L869.6,524.6 L871.4,526.0 L873.3,527.4 L875.2,528.8 L877.1,530.2 L878.9,531.7 L880.8,533.1 L882.7,534.6
		L884.5,536.1 L886.4,537.7 L888.3,539.2 L890.1,540.7 L892.0,542.3 L893.9,543.9 L895.8,545.5 L897.6,547.1
		L899.5,548.7 L901.4,550.3 L903.2,551.9 L905.1,553.6 L907.0,555.2 L908.8,556.8 L910.7,558.5 L912.6,560.1
		L914.5,561.8 L916.3,563.4 L918.2,565.1 L920.1,566.7 L921.9,568.4 L923.8,570.0 L925.7,571.7 L927.6,573.4
		L929.4,575.0 L931.3,576.7 L933.2,578.3 L935.0,580.0 L936.9,581.7 L938.8,583.4 L940.6,585.0 L942.5,586.7
		L944.4,588.4 L946.3,590.1 L948.1,591.7 L950.0,593.4 L951.9,595.1 L953.7,596.7 L955.6,598.3 L957.5,599.9
		L959.4,601.5 L961.2,603.1 L963.1,604.7 L965.0,606.2 L966.8,607.7 L968.7,609.2 L970.6,610.6 L972.4,612.0
		L974.3,613.4 L976.2,614.7 L978.1,616.0 L979.9,617.3 L981.8,618.5 L983.7,619.7 L985.5,620.9 L987.4,622.0
		L989.3,623.1 L991.2,624.2 L993.0,625.2 L994.9,626.2 L996.8,627.2 L998.6,628.2 L1000.5,629.1 L1002.4,630.0
		L1004.2,630.9 L1006.1,631.8 L1008.0,632.6 L1009.9,633.5 L1011.7,634.3 L1013.6,635.1  '/></g>
	</g>
	<g id="gnuplot_plot_2" ><title>Confidence interval</title>
<g fill="none" color="white" stroke="rgb( 31, 120, 180)" stroke-width="1.00" stroke-linecap="butt" stroke-linejoin="miter">
</g>
<g fill="none" color="black" stroke="currentColor" stroke-width="1.00" stroke-linecap="butt" stroke-linejoin="miter">
	<g transform="translate(1089.0,85.0)" stroke="none" fill="black" font-family="Helvetica" font-size="12.00"  text-anchor="start">
		<text><tspan font-family="Helvetica" >Confidence interval</tspan></text>
	</g>
</g>
<g fill="none" color="black" stroke="currentColor" stroke-width="1.00" stroke-linecap="butt" stroke-linejoin="miter">
	<g stroke='none' shape-rendering='crispEdges'>
		<polygon fill = 'rgb( 31, 120, 180)' fill-opacity = '0.250000' points = '1038.5,85.6 1080.7,85.6 1080.7,76.6 1038.5,76.6 '/>
		<polygon fill = 'rgb( 31, 120, 180)' fill-opacity = '0.250000' points = '166.2,577.7 168.1,576.4 170.0,575.1 171.9,573.9 173.7,572.6 175.6,571.4 177.5,570.1 179.3,568.8 181.2,567.6 183.1,566.3 185.0,565.0 186.8,563.8 188.7,562.4 190.6,561.1 192.4,559.7 194.3,558.3
196.2,556.9 198.0,555.4 199.9,553.8 201.8,552.2 203.7,550.5 205.5,548.8 207.4,547.0 209.3,545.1 211.1,543.1 213.0,541.0 214.9,538.9 216.7,536.7 218.6,534.4 220.5,532.1 222.4,529.6 224.2,527.1
226.1,524.5 228.0,521.8 229.8,519.1 231.7,516.3 233.6,513.4 235.5,510.5 237.3,507.5 239.2,504.5 241.1,501.4 242.9,498.2 244.8,494.9 246.7,491.7 248.5,488.3 250.4,484.9 252.3,481.4 254.2,477.9
256.0,474.3 257.9,470.7 259.8,467.0 261.6,463.2 263.5,459.4 265.4,455.5 267.3,451.6 269.1,447.6 271.0,443.5 272.9,439.4 274.7,435.2 276.6,431.0 278.5,426.7 280.3,422.4 282.2,418.0 284.1,413.6
286.0,409.1 287.8,404.6 289.7,400.1 291.6,395.5 293.4,390.9 295.3,386.2 297.2,381.5 299.1,376.8 300.9,372.0 302.8,367.2 304.7,362.4 306.5,357.6 308.4,352.7 310.3,347.9 312.1,343.0 314.0,338.2
315.9,333.3 317.8,328.4 319.6,323.6 321.5,318.7 323.4,313.9 325.2,309.1 327.1,304.2 329.0,299.4 330.9,294.6 332.7,289.8 334.6,285.0 336.5,280.2 338.3,275.4 340.2,270.6 342.1,265.8 343.9,261.0
345.8,256.2 347.7,251.3 349.6,246.4 351.4,241.5 353.3,236.6 355.2,231.6 357.0,226.7 358.9,221.7 360.8,216.7 362.7,211.7 364.5,206.7 366.4,201.7 368.3,196.8 370.1,191.8 372.0,186.9 373.9,182.1
375.7,177.3 377.6,172.6 379.5,168.0 381.4,163.4 383.2,159.0 385.1,154.6 387.0,150.4 388.8,146.3 390.7,142.4 392.6,138.5 394.5,134.9 396.3,131.3 398.2,128.0 400.1,124.7 401.9,121.7 403.8,118.7
405.7,116.0 407.5,113.4 409.4,110.9 411.3,108.6 413.2,106.5 415.0,104.4 416.9,102.6 418.8,100.8 420.6,99.2 422.5,97.7 424.4,96.2 426.3,94.9 428.1,93.8 430.0,92.7 431.9,91.7 433.7,90.8
435.6,90.0 437.5,89.3 439.3,88.7 441.2,88.2 443.1,87.9 445.0,87.6 446.8,87.4 448.7,87.3 450.6,87.3 452.4,87.4 454.3,87.6 456.2,87.9 458.0,88.3 459.9,88.7 461.8,89.2 463.7,89.8
465.5,90.4 467.4,91.1 469.3,91.9 471.1,92.7 473.0,93.5 474.9,94.4 476.8,95.3 478.6,96.3 480.5,97.3 482.4,98.3 484.2,99.4 486.1,100.5 488.0,101.7 489.8,102.9 491.7,104.1 493.6,105.4
495.5,106.7 497.3,108.0 499.2,109.4 501.1,110.8 502.9,112.2 504.8,113.7 506.7,115.2 508.6,116.7 510.4,118.2 512.3,119.8 514.2,121.4 516.0,123.0 517.9,124.6 519.8,126.2 521.6,127.9 523.5,129.6
525.4,131.3 527.3,133.1 529.1,134.9 531.0,136.7 532.9,138.5 534.7,140.3 536.6,142.2 538.5,144.0 540.4,145.9 542.2,147.8 544.1,149.7 546.0,151.6 547.8,153.5 549.7,155.5 551.6,157.4 553.4,159.4
555.3,161.4 557.2,163.4 559.1,165.4 560.9,167.5 562.8,169.6 564.7,171.8 566.5,174.0 568.4,176.3 570.3,178.7 572.2,181.1 574.0,183.6 575.9,186.1 577.8,188.8 579.6,191.5 581.5,194.2 583.4,197.1
585.2,200.0 587.1,202.9 589.0,206.0 590.9,209.0 592.7,212.1 594.6,215.2 596.5,218.4 598.3,221.6 600.2,224.8 602.1,228.0 604.0,231.2 605.8,234.4 607.7,237.7 609.6,240.9 611.4,244.2 613.3,247.5
615.2,250.8 617.0,254.1 618.9,257.5 620.8,260.8 622.7,264.3 624.5,267.7 626.4,271.2 628.3,274.7 630.1,278.2 632.0,281.8 633.9,285.5 635.8,289.1 637.6,292.8 639.5,296.5 641.4,300.2 643.2,304.0
645.1,307.8 647.0,311.5 648.8,315.3 650.7,319.0 652.6,322.8 654.5,326.5 656.3,330.2 658.2,333.8 660.1,337.5 661.9,341.1 663.8,344.6 665.7,348.2 667.5,351.6 669.4,355.1 671.3,358.5 673.2,361.8
675.0,365.1 676.9,368.4 678.8,371.6 680.6,374.7 682.5,377.8 684.4,380.9 686.3,383.9 688.1,386.8 690.0,389.7 691.9,392.6 693.7,395.4 695.6,398.1 697.5,400.8 699.3,403.5 701.2,406.1 703.1,408.6
705.0,411.2 706.8,413.6 708.7,416.0 710.6,418.4 712.4,420.7 714.3,423.0 716.2,425.2 718.1,427.4 719.9,429.6 721.8,431.7 723.7,433.8 725.5,435.8 727.4,437.8 729.3,439.7 731.1,441.6 733.0,443.5
734.9,445.3 736.8,447.1 738.6,448.9 740.5,450.6 742.4,452.3 744.2,453.9 746.1,455.5 748.0,457.1 749.9,458.6 751.7,460.1 753.6,461.6 755.5,463.0 757.3,464.4 759.2,465.8 761.1,467.1 762.9,468.4
764.8,469.7 766.7,471.0 768.6,472.2 770.4,473.4 772.3,474.5 774.2,475.7 776.0,476.8 777.9,477.8 779.8,478.9 781.7,479.9 783.5,480.9 785.4,481.9 787.3,482.8 789.1,483.8 791.0,484.7 792.9,485.6
794.7,486.4 796.6,487.3 798.5,488.1 800.4,488.9 802.2,489.8 804.1,490.6 806.0,491.4 807.8,492.2 809.7,493.0 811.6,493.8 813.5,494.6 815.3,495.4 817.2,496.2 819.1,497.0 820.9,497.8 822.8,498.6
824.7,499.4 826.5,500.2 828.4,501.0 830.3,501.8 832.2,502.7 834.0,503.5 835.9,504.4 837.8,505.3 839.6,506.2 841.5,507.1 843.4,508.1 845.3,509.1 847.1,510.1 849.0,511.2 850.9,512.2 852.7,513.3
854.6,514.5 856.5,515.7 858.3,516.9 860.2,518.1 862.1,519.3 864.0,520.6 865.8,521.9 867.7,523.3 869.6,524.6 871.4,526.0 873.3,527.4 875.2,528.8 877.1,530.2 878.9,531.7 880.8,533.1 882.7,534.6
884.5,536.1 886.4,537.7 888.3,539.2 890.1,540.7 892.0,542.3 893.9,543.9 895.8,545.5 897.6,547.1 899.5,548.7 901.4,550.3 903.2,551.9 905.1,553.6 907.0,555.2 908.8,556.8 910.7,558.5 912.6,560.1
914.5,561.8 916.3,563.4 918.2,565.1 920.1,566.7 921.9,568.4 923.8,570.0 925.7,571.7 925.7,662.4 923.8,662.4 921.9,662.4 920.1,662.4 918.2,662.4 916.3,662.4 914.5,662.4 912.6,662.4 910.7,662.4
908.8,662.4 907.0,662.4 905.1,662.4 903.2,662.4 901.4,662.4 899.5,662.4 897.6,662.4 895.8,662.4 893.9,662.4 892.0,662.4 890.1,662.4 888.3,662.4 886.4,662.4 884.5,662.4 882.7,662.4 880.8,662.4
878.9,662.4 877.1,662.4 875.2,662.4 873.3,662.4 871.4,662.4 869.6,662.4 867.7,662.4 865.8,662.4 864.0,662.4 862.1,662.4 860.2,662.4 858.3,662.4 856.5,662.4 854.6,662.4 852.7,662.4 850.9,662.4
849.0,662.4 847.1,662.4 845.3,662.4 843.4,662.4 841.5,662.4 839.6,662.4 837.8,662.4 835.9,662.4 834.0,662.4 832.2,662.4 830.3,662.4 828.4,662.4 826.5,662.4 824.7,662.4 822.8,662.4 820.9,662.4
819.1,662.4 817.2,662.4 815.3,662.4 813.5,662.4 811.6,662.4 809.7,662.4 807.8,662.4 806.0,662.4 804.1,662.4 802.2,662.4 800.4,662.4 798.5,662.4 796.6,662.4 794.7,662.4 792.9,662.4 791.0,662.4
789.1,662.4 787.3,662.4 785.4,662.4 783.5,662.4 781.7,662.4 779.8,662.4 777.9,662.4 776.0,662.4 774.2,662.4 772.3,662.4 770.4,662.4 768.6,662.4 766.7,662.4 764.8,662.4 762.9,662.4 761.1,662.4
759.2,662.4 757.3,662.4 755.5,662.4 753.6,662.4 751.7,662.4 749.9,662.4 748.0,662.4 746.1,662.4 744.2,662.4 742.4,662.4 740.5,662.4 738.6,662.4 736.8,662.4 734.9,662.4 733.0,662.4 731.1,662.4
729.3,662.4 727.4,662.4 725.5,662.4 723.7,662.4 721.8,662.4 719.9,662.4 718.1,662.4 716.2,662.4 714.3,662.4 712.4,662.4 710.6,662.4 708.7,662.4 706.8,662.4 705.0,662.4 703.1,662.4 701.2,662.4
699.3,662.4 697.5,662.4 695.6,662.4 693.7,662.4 691.9,662.4 690.0,662.4 688.1,662.4 686.3,662.4 684.4,662.4 682.5,662.4 680.6,662.4 678.8,662.4 676.9,662.4 675.0,662.4 673.2,662.4 671.3,662.4
669.4,662.4 667.5,662.4 665.7,662.4 663.8,662.4 661.9,662.4 660.1,662.4 658.2,662.4 656.3,662.4 654.5,662.4 652.6,662.4 650.7,662.4 648.8,662.4 647.0,662.4 645.1,662.4 643.2,662.4 641.4,662.4
639.5,662.4 637.6,662.4 635.8,662.4 633.9,662.4 632.0,662.4 630.1,662.4 628.3,662.4 626.4,662.4 624.5,662.4 622.7,662.4 620.8,662.4 618.9,662.4 617.0,662.4 615.2,662.4 613.3,662.4 611.4,662.4
609.6,662.4 607.7,662.4 605.8,662.4 604.0,662.4 602.1,662.4 600.2,662.4 598.3,662.4 596.5,662.4 594.6,662.4 592.7,662.4 590.9,662.4 589.0,662.4 587.1,662.4 585.2,662.4 583.4,662.4 581.5,662.4
579.6,662.4 577.8,662.4 575.9,662.4 574.0,662.4 572.2,662.4 570.3,662.4 568.4,662.4 566.5,662.4 564.7,662.4 562.8,662.4 560.9,662.4 559.1,662.4 557.2,662.4 555.3,662.4 553.4,662.4 551.6,662.4
549.7,662.4 547.8,662.4 546.0,662.4 544.1,662.4 542.2,662.4 540.4,662.4 538.5,662.4 536.6,662.4 534.7,662.4 532.9,662.4 531.0,662.4 529.1,662.4 527.3,662.4 525.4,662.4 523.5,662.4 521.6,662.4
519.8,662.4 517.9,662.4 516.0,662.4 514.2,662.4 512.3,662.4 510.4,662.4 508.6,662.4 506.7,662.4 504.8,662.4 502.9,662.4 501.1,662.4 499.2,662.4 497.3,662.4 495.5,662.4 493.6,662.4 491.7,662.4
489.8,662.4 488.0,662.4 486.1,662.4 484.2,662.4 482.4,662.4 480.5,662.4 478.6,662.4 476.8,662.4 474.9,662.4 473.0,662.4 471.1,662.4 469.3,662.4 467.4,662.4 465.5,662.4 463.7,662.4 461.8,662.4
459.9,662.4 458.0,662.4 456.2,662.4 454.3,662.4 452.4,662.4 450.6,662.4 448.7,662.4 446.8,662.4 445.0,662.4 443.1,662.4 441.2,662.4 439.3,662.4 437.5,662.4 435.6,662.4 433.7,662.4 431.9,662.4
430.0,662.4 428.1,662.4 426.3,662.4 424.4,662.4 422.5,662.4 420.6,662.4 418.8,662.4 416.9,662.4 415.0,662.4 413.2,662.4 411.3,662.4 409.4,662.4 407.5,662.4 405.7,662.4 403.8,662.4 401.9,662.4
400.1,662.4 398.2,662.4 396.3,662.4 394.5,662.4 392.6,662.4 390.7,662.4 388.8,662.4 387.0,662.4 385.1,662.4 383.2,662.4 381.4,662.4 379.5,662.4 377.6,662.4 375.7,662.4 373.9,662.4 372.0,662.4
370.1,662.4 368.3,662.4 366.4,662.4 364.5,662.4 362.7,662.4 360.8,662.4 358.9,662.4 357.0,662.4 355.2,662.4 353.3,662.4 351.4,662.4 349.6,662.4 347.7,662.4 345.8,662.4 343.9,662.4 342.1,662.4
340.2,662.4 338.3,662.4 336.5,662.4 334.6,662.4 332.7,662.4 330.9,662.4 329.0,662.4 327.1,662.4 325.2,662.4 323.4,662.4 321.5,662.4 319.6,662.4 317.8,662.4 315.9,662.4 314.0,662.4 312.1,662.4
310.3,662.4 308.4,662.4 306.5,662.4 304.7,662.4 302.8,662.4 300.9,662.4 299.1,662.4 297.2,662.4 295.3,662.4 293.4,662.4 291.6,662.4 289.7,662.4 287.8,662.4 286.0,662.4 284.1,662.4 282.2,662.4
280.3,662.4 278.5,662.4 276.6,662.4 274.7,662.4 272.9,662.4 271.0,662.4 269.1,662.4 267.3,662.4 265.4,662.4 263.5,662.4 261.6,662.4 259.8,662.4 257.9,662.4 256.0,662.4 254.2,662.4 252.3,662.4
250.4,662.4 248.5,662.4 246.7,662.4 244.8,662.4 242.9,662.4 241.1,662.4 239.2,662.4 237.3,662.4 235.5,662.4 233.6,662.4 231.7,662.4 229.8,662.4 228.0,662.4 226.1,662.4 224.2,662.4 222.4,662.4
220.5,662.4 218.6,662.4 216.7,662.4 214.9,662.4 213.0,662.4 211.1,662.4 209.3,662.4 207.4,662.4 205.5,662.4 203.7,662.4 201.8,662.4 199.9,662.4 198.0,662.4 196.2,662.4 194.3,662.4 192.4,662.4
190.6,662.4 188.7,662.4 186.8,662.4 185.0,662.4 183.1,662.4 181.2,662.4 179.3,662.4 177.5,662.4 175.6,662.4 173.7,662.4 171.9,662.4 170.0,662.4 168.1,662.4 166.2,662.4 '/>
	</g>
</g>
	</g>
	<g id="gnuplot_plot_3" ><title>Point estimate</title>
<g fill="none" color="white" stroke="rgb( 31, 120, 180)" stroke-width="2.00" stroke-linecap="butt" stroke-linejoin="miter">
</g>
<g fill="none" color="black" stroke="currentColor" stroke-width="2.00" stroke-linecap="butt" stroke-linejoin="miter">
	<g transform="translate(1089.0,103.0)" stroke="none" fill="black" font-family="Helvetica" font-size="12.00"  text-anchor="start">
		<text><tspan font-family="Helvetica" >Point estimate</tspan></text>
	</g>
</g>
<g fill="none" color="black" stroke="currentColor" stroke-width="2.00" stroke-linecap="butt" stroke-linejoin="miter">
	<path stroke='rgb( 31, 120, 180)'  d='M1038.5,99.1 L1080.7,99.1 M521.5,662.4 L521.5,127.8  '/></g>
	</g>
	<g id="gnuplot_plot_4" ><title>Noise threshold</title>
<g fill="none" color="white" stroke="rgb( 31, 120, 180)" stroke-width="1.00" stroke-linecap="butt" stroke-linejoin="miter">
</g>
<g fill="none" color="black" stroke="currentColor" stroke-width="1.00" stroke-linecap="butt" stroke-linejoin="miter">
	<g transform="translate(1089.0,121.0)" stroke="none" fill="black" font-family="Helvetica" font-size="12.00"  text-anchor="start">
		<text><tspan font-family="Helvetica" >Noise threshold</tspan></text>
	</g>
</g>
<g fill="none" color="black" stroke="currentColor" stroke-width="1.00" stroke-linecap="butt" stroke-linejoin="miter">
	<g stroke='none' shape-rendering='crispEdges'>
		<polygon fill = 'rgb(227,  26,  28)' fill-opacity = '0.100000' points = '1038.5,121.6 1080.7,121.6 1080.7,112.6 1038.5,112.6 '/>
		<polygon fill = 'rgb(227,  26,  28)' fill-opacity = '0.100000' points = '546.9,54.1 546.9,54.1 546.9,662.4 546.9,662.4 '/>
	</g>
</g>
	</g>
<g fill="none" color="white" stroke="rgb(227,  26,  28)" stroke-width="2.00" stroke-linecap="butt" stroke-linejoin="miter">
</g>
<g fill="none" color="black" stroke="currentColor" stroke-width="2.00" stroke-linecap="butt" stroke-linejoin="miter">
</g>
<g fill="none" color="black" stroke="black" stroke-width="1.00" stroke-linecap="butt" stroke-linejoin="miter">
</g>
<g fill="none" color="black" stroke="currentColor" stroke-width="1.00" stroke-linecap="butt" stroke-linejoin="miter">
	<path stroke='black'  d='M80.2,54.1 L80.2,662.4 L1013.6,662.4 L1013.6,54.1 L80.2,54.1 Z  '/></g>
<g fill="none" color="black" stroke="currentColor" stroke-width="1.00" stroke-linecap="butt" stroke-linejoin="miter">
</g>
</g>
</svg>

