<?xml version="1.0" encoding="utf-8"  standalone="no"?>
<svg 
 viewBox="0 0 1280 720"
 xmlns="http://www.w3.org/2000/svg"
 xmlns:xlink="http://www.w3.org/1999/xlink"
>

<title>Gnuplot</title>
<desc>Produced by GNUPLOT 5.2 patchlevel 8 </desc>

<g id="gnuplot_canvas">

<rect x="0" y="0" width="1280" height="720" fill="none"/>
<defs>

	<circle id='gpDot' r='0.5' stroke-width='0.5' stroke='currentColor'/>
	<path id='gpPt0' stroke-width='0.222' stroke='currentColor' d='M-1,0 h2 M0,-1 v2'/>
	<path id='gpPt1' stroke-width='0.222' stroke='currentColor' d='M-1,-1 L1,1 M1,-1 L-1,1'/>
	<path id='gpPt2' stroke-width='0.222' stroke='currentColor' d='M-1,0 L1,0 M0,-1 L0,1 M-1,-1 L1,1 M-1,1 L1,-1'/>
	<rect id='gpPt3' stroke-width='0.222' stroke='currentColor' x='-1' y='-1' width='2' height='2'/>
	<rect id='gpPt4' stroke-width='0.222' stroke='currentColor' fill='currentColor' x='-1' y='-1' width='2' height='2'/>
	<circle id='gpPt5' stroke-width='0.222' stroke='currentColor' cx='0' cy='0' r='1'/>
	<use xlink:href='#gpPt5' id='gpPt6' fill='currentColor' stroke='none'/>
	<path id='gpPt7' stroke-width='0.222' stroke='currentColor' d='M0,-1.33 L-1.33,0.67 L1.33,0.67 z'/>
	<use xlink:href='#gpPt7' id='gpPt8' fill='currentColor' stroke='none'/>
	<use xlink:href='#gpPt7' id='gpPt9' stroke='currentColor' transform='rotate(180)'/>
	<use xlink:href='#gpPt9' id='gpPt10' fill='currentColor' stroke='none'/>
	<use xlink:href='#gpPt3' id='gpPt11' stroke='currentColor' transform='rotate(45)'/>
	<use xlink:href='#gpPt11' id='gpPt12' fill='currentColor' stroke='none'/>
	<path id='gpPt13' stroke-width='0.222' stroke='currentColor' d='M0,1.330 L1.265,0.411 L0.782,-1.067 L-0.782,-1.076 L-1.265,0.411 z'/>
	<use xlink:href='#gpPt13' id='gpPt14' fill='currentColor' stroke='none'/>
	<filter id='textbox' filterUnits='objectBoundingBox' x='0' y='0' height='1' width='1'>
	  <feFlood flood-color='white' flood-opacity='1' result='bgnd'/>
	  <feComposite in='SourceGraphic' in2='bgnd' operator='atop'/>
	</filter>
	<filter id='greybox' filterUnits='objectBoundingBox' x='0' y='0' height='1' width='1'>
	  <feFlood flood-color='lightgrey' flood-opacity='1' result='grey'/>
	  <feComposite in='SourceGraphic' in2='grey' operator='atop'/>
	</filter>
</defs>
<g fill="none" color="white" stroke="currentColor" stroke-width="1.00" stroke-linecap="butt" stroke-linejoin="miter">
</g>
<g fill="none" color="black" stroke="currentColor" stroke-width="1.00" stroke-linecap="butt" stroke-linejoin="miter">
	<path stroke='black'  d='M63.6,662.4 L72.6,662.4  '/>	<g transform="translate(55.3,666.3)" stroke="none" fill="black" font-family="Helvetica" font-size="12.00"  text-anchor="end">
		<text><tspan font-family="Helvetica" > 0</tspan></text>
	</g>
</g>
<g fill="none" color="black" stroke="currentColor" stroke-width="1.00" stroke-linecap="butt" stroke-linejoin="miter">
	<path stroke='black'  d='M63.6,594.8 L72.6,594.8  '/>	<g transform="translate(55.3,598.7)" stroke="none" fill="black" font-family="Helvetica" font-size="12.00"  text-anchor="end">
		<text><tspan font-family="Helvetica" > 10</tspan></text>
	</g>
</g>
<g fill="none" color="black" stroke="currentColor" stroke-width="1.00" stroke-linecap="butt" stroke-linejoin="miter">
	<path stroke='black'  d='M63.6,527.2 L72.6,527.2  '/>	<g transform="translate(55.3,531.1)" stroke="none" fill="black" font-family="Helvetica" font-size="12.00"  text-anchor="end">
		<text><tspan font-family="Helvetica" > 20</tspan></text>
	</g>
</g>
<g fill="none" color="black" stroke="currentColor" stroke-width="1.00" stroke-linecap="butt" stroke-linejoin="miter">
	<path stroke='black'  d='M63.6,459.6 L72.6,459.6  '/>	<g transform="translate(55.3,463.5)" stroke="none" fill="black" font-family="Helvetica" font-size="12.00"  text-anchor="end">
		<text><tspan font-family="Helvetica" > 30</tspan></text>
	</g>
</g>
<g fill="none" color="black" stroke="currentColor" stroke-width="1.00" stroke-linecap="butt" stroke-linejoin="miter">
	<path stroke='black'  d='M63.6,392.0 L72.6,392.0  '/>	<g transform="translate(55.3,395.9)" stroke="none" fill="black" font-family="Helvetica" font-size="12.00"  text-anchor="end">
		<text><tspan font-family="Helvetica" > 40</tspan></text>
	</g>
</g>
<g fill="none" color="black" stroke="currentColor" stroke-width="1.00" stroke-linecap="butt" stroke-linejoin="miter">
	<path stroke='black'  d='M63.6,324.5 L72.6,324.5  '/>	<g transform="translate(55.3,328.4)" stroke="none" fill="black" font-family="Helvetica" font-size="12.00"  text-anchor="end">
		<text><tspan font-family="Helvetica" > 50</tspan></text>
	</g>
</g>
<g fill="none" color="black" stroke="currentColor" stroke-width="1.00" stroke-linecap="butt" stroke-linejoin="miter">
	<path stroke='black'  d='M63.6,256.9 L72.6,256.9  '/>	<g transform="translate(55.3,260.8)" stroke="none" fill="black" font-family="Helvetica" font-size="12.00"  text-anchor="end">
		<text><tspan font-family="Helvetica" > 60</tspan></text>
	</g>
</g>
<g fill="none" color="black" stroke="currentColor" stroke-width="1.00" stroke-linecap="butt" stroke-linejoin="miter">
	<path stroke='black'  d='M63.6,189.3 L72.6,189.3  '/>	<g transform="translate(55.3,193.2)" stroke="none" fill="black" font-family="Helvetica" font-size="12.00"  text-anchor="end">
		<text><tspan font-family="Helvetica" > 70</tspan></text>
	</g>
</g>
<g fill="none" color="black" stroke="currentColor" stroke-width="1.00" stroke-linecap="butt" stroke-linejoin="miter">
	<path stroke='black'  d='M63.6,121.7 L72.6,121.7  '/>	<g transform="translate(55.3,125.6)" stroke="none" fill="black" font-family="Helvetica" font-size="12.00"  text-anchor="end">
		<text><tspan font-family="Helvetica" > 80</tspan></text>
	</g>
</g>
<g fill="none" color="black" stroke="currentColor" stroke-width="1.00" stroke-linecap="butt" stroke-linejoin="miter">
	<path stroke='black'  d='M63.6,54.1 L72.6,54.1  '/>	<g transform="translate(55.3,58.0)" stroke="none" fill="black" font-family="Helvetica" font-size="12.00"  text-anchor="end">
		<text><tspan font-family="Helvetica" > 90</tspan></text>
	</g>
</g>
<g fill="none" color="black" stroke="currentColor" stroke-width="1.00" stroke-linecap="butt" stroke-linejoin="miter">
	<path stroke='black'  d='M86.6,662.4 L86.6,653.4  '/>	<g transform="translate(86.6,684.3)" stroke="none" fill="black" font-family="Helvetica" font-size="12.00"  text-anchor="middle">
		<text><tspan font-family="Helvetica" > 103.49</tspan></text>
	</g>
</g>
<g fill="none" color="black" stroke="currentColor" stroke-width="1.00" stroke-linecap="butt" stroke-linejoin="miter">
	<path stroke='black'  d='M200.1,662.4 L200.1,653.4  '/>	<g transform="translate(200.1,684.3)" stroke="none" fill="black" font-family="Helvetica" font-size="12.00"  text-anchor="middle">
		<text><tspan font-family="Helvetica" > 103.495</tspan></text>
	</g>
</g>
<g fill="none" color="black" stroke="currentColor" stroke-width="1.00" stroke-linecap="butt" stroke-linejoin="miter">
	<path stroke='black'  d='M313.5,662.4 L313.5,653.4  '/>	<g transform="translate(313.5,684.3)" stroke="none" fill="black" font-family="Helvetica" font-size="12.00"  text-anchor="middle">
		<text><tspan font-family="Helvetica" > 103.5</tspan></text>
	</g>
</g>
<g fill="none" color="black" stroke="currentColor" stroke-width="1.00" stroke-linecap="butt" stroke-linejoin="miter">
	<path stroke='black'  d='M427.0,662.4 L427.0,653.4  '/>	<g transform="translate(427.0,684.3)" stroke="none" fill="black" font-family="Helvetica" font-size="12.00"  text-anchor="middle">
		<text><tspan font-family="Helvetica" > 103.505</tspan></text>
	</g>
</g>
<g fill="none" color="black" stroke="currentColor" stroke-width="1.00" stroke-linecap="butt" stroke-linejoin="miter">
	<path stroke='black'  d='M540.5,662.4 L540.5,653.4  '/>	<g transform="translate(540.5,684.3)" stroke="none" fill="black" font-family="Helvetica" font-size="12.00"  text-anchor="middle">
		<text><tspan font-family="Helvetica" > 103.51</tspan></text>
	</g>
</g>
<g fill="none" color="black" stroke="currentColor" stroke-width="1.00" stroke-linecap="butt" stroke-linejoin="miter">
	<path stroke='black'  d='M654.0,662.4 L654.0,653.4  '/>	<g transform="translate(654.0,684.3)" stroke="none" fill="black" font-family="Helvetica" font-size="12.00"  text-anchor="middle">
		<text><tspan font-family="Helvetica" > 103.515</tspan></text>
	</g>
</g>
<g fill="none" color="black" stroke="currentColor" stroke-width="1.00" stroke-linecap="butt" stroke-linejoin="miter">
	<path stroke='black'  d='M767.5,662.4 L767.5,653.4  '/>	<g transform="translate(767.5,684.3)" stroke="none" fill="black" font-family="Helvetica" font-size="12.00"  text-anchor="middle">
		<text><tspan font-family="Helvetica" > 103.52</tspan></text>
	</g>
</g>
<g fill="none" color="black" stroke="currentColor" stroke-width="1.00" stroke-linecap="butt" stroke-linejoin="miter">
	<path stroke='black'  d='M881.0,662.4 L881.0,653.4  '/>	<g transform="translate(881.0,684.3)" stroke="none" fill="black" font-family="Helvetica" font-size="12.00"  text-anchor="middle">
		<text><tspan font-family="Helvetica" > 103.525</tspan></text>
	</g>
</g>
<g fill="none" color="black" stroke="currentColor" stroke-width="1.00" stroke-linecap="butt" stroke-linejoin="miter">
	<path stroke='black'  d='M994.5,662.4 L994.5,653.4  '/>	<g transform="translate(994.5,684.3)" stroke="none" fill="black" font-family="Helvetica" font-size="12.00"  text-anchor="middle">
		<text><tspan font-family="Helvetica" > 103.53</tspan></text>
	</g>
</g>
<g fill="none" color="black" stroke="currentColor" stroke-width="1.00" stroke-linecap="butt" stroke-linejoin="miter">
</g>
<g fill="none" color="black" stroke="currentColor" stroke-width="1.00" stroke-linecap="butt" stroke-linejoin="miter">
	<path stroke='black'  d='M63.6,54.1 L63.6,662.4 L1013.6,662.4 L1013.6,54.1 L63.6,54.1 Z  '/></g>
<g fill="none" color="black" stroke="currentColor" stroke-width="1.00" stroke-linecap="butt" stroke-linejoin="miter">
	<g transform="translate(19.0,358.3) rotate(270)" stroke="none" fill="black" font-family="Helvetica" font-size="12.00"  text-anchor="middle">
		<text><tspan font-family="Helvetica" >Density (a.u.)</tspan></text>
	</g>
</g>
<g fill="none" color="black" stroke="currentColor" stroke-width="1.00" stroke-linecap="butt" stroke-linejoin="miter">
	<g transform="translate(538.6,711.3)" stroke="none" fill="black" font-family="Helvetica" font-size="12.00"  text-anchor="middle">
		<text><tspan font-family="Helvetica" >Average time (us)</tspan></text>
	</g>
</g>
<g fill="none" color="black" stroke="currentColor" stroke-width="1.00" stroke-linecap="butt" stroke-linejoin="miter">
	<g transform="translate(538.6,31.0)" stroke="none" fill="black" font-family="Helvetica" font-size="12.00"  text-anchor="middle">
		<text><tspan font-family="Helvetica" >bench_group/blake3/114688: median</tspan></text>
	</g>
</g>
<g fill="none" color="black" stroke="currentColor" stroke-width="1.00" stroke-linecap="butt" stroke-linejoin="miter">
</g>
	<g id="gnuplot_plot_1" ><title>Bootstrap distribution</title>
<g fill="none" color="white" stroke="currentColor" stroke-width="2.00" stroke-linecap="butt" stroke-linejoin="miter">
</g>
<g fill="none" color="black" stroke="currentColor" stroke-width="2.00" stroke-linecap="butt" stroke-linejoin="miter">
	<g transform="translate(1089.0,67.0)" stroke="none" fill="black" font-family="Helvetica" font-size="12.00"  text-anchor="start">
		<text><tspan font-family="Helvetica" >Bootstrap distribution</tspan></text>
	</g>
</g>
<g fill="none" color="black" stroke="currentColor" stroke-width="2.00" stroke-linecap="butt" stroke-linejoin="miter">
	<path stroke='rgb( 31, 120, 180)'  d='M1038.5,63.1 L1080.7,63.1 M63.6,642.2 L65.5,642.6 L67.4,642.9 L69.3,643.2 L71.2,643.4 L73.1,643.5
		L75.0,643.6 L76.9,643.6 L78.8,643.5 L80.7,643.4 L82.6,643.3 L84.5,643.1 L86.4,642.9 L88.3,642.7
		L90.3,642.4 L92.2,642.2 L94.1,641.9 L96.0,641.6 L97.9,641.4 L99.8,641.2 L101.7,641.0 L103.6,640.8
		L105.5,640.6 L107.4,640.5 L109.3,640.4 L111.2,640.2 L113.1,640.0 L115.0,639.8 L116.9,639.6 L118.8,639.3
		L120.7,638.9 L122.6,638.5 L124.5,637.9 L126.4,637.2 L128.3,636.4 L130.2,635.5 L132.1,634.4 L134.0,633.2
		L135.9,631.9 L137.8,630.5 L139.8,628.9 L141.7,627.2 L143.6,625.5 L145.5,623.8 L147.4,622.0 L149.3,620.2
		L151.2,618.5 L153.1,616.9 L155.0,615.3 L156.9,613.9 L158.8,612.7 L160.7,611.7 L162.6,610.8 L164.5,610.2
		L166.4,609.8 L168.3,609.7 L170.2,609.8 L172.1,610.0 L174.0,610.5 L175.9,611.2 L177.8,612.0 L179.7,612.9
		L181.6,614.0 L183.5,615.0 L185.4,616.1 L187.3,617.2 L189.3,618.2 L191.2,619.1 L193.1,619.8 L195.0,620.5
		L196.9,620.9 L198.8,621.2 L200.7,621.3 L202.6,621.2 L204.5,620.9 L206.4,620.5 L208.3,619.9 L210.2,619.1
		L212.1,618.3 L214.0,617.3 L215.9,616.4 L217.8,615.3 L219.7,614.3 L221.6,613.3 L223.5,612.4 L225.4,611.5
		L227.3,610.7 L229.2,609.9 L231.1,609.3 L233.0,608.7 L234.9,608.1 L236.8,607.6 L238.8,607.0 L240.7,606.3
		L242.6,605.5 L244.5,604.6 L246.4,603.4 L248.3,601.9 L250.2,600.1 L252.1,597.8 L254.0,595.0 L255.9,591.6
		L257.8,587.7 L259.7,583.0 L261.6,577.7 L263.5,571.6 L265.4,564.8 L267.3,557.3 L269.2,549.0 L271.1,539.9
		L273.0,530.2 L274.9,519.9 L276.8,509.1 L278.7,497.8 L280.6,486.1 L282.5,474.3 L284.4,462.3 L286.3,450.4
		L288.2,438.7 L290.2,427.3 L292.1,416.5 L294.0,406.2 L295.9,396.8 L297.8,388.3 L299.7,380.9 L301.6,374.6
		L303.5,369.5 L305.4,365.7 L307.3,363.2 L309.2,362.0 L311.1,362.1 L313.0,363.4 L314.9,365.9 L316.8,369.5
		L318.7,374.0 L320.6,379.3 L322.5,385.3 L324.4,391.8 L326.3,398.7 L328.2,405.8 L330.1,413.0 L332.0,420.1
		L333.9,427.0 L335.8,433.6 L337.7,439.9 L339.7,445.7 L341.6,451.1 L343.5,455.9 L345.4,460.1 L347.3,463.9
		L349.2,467.0 L351.1,469.7 L353.0,471.9 L354.9,473.6 L356.8,474.8 L358.7,475.7 L360.6,476.1 L362.5,476.2
		L364.4,475.9 L366.3,475.3 L368.2,474.4 L370.1,473.1 L372.0,471.5 L373.9,469.6 L375.8,467.3 L377.7,464.8
		L379.6,461.9 L381.5,458.7 L383.4,455.2 L385.3,451.5 L387.2,447.5 L389.2,443.4 L391.1,439.1 L393.0,434.7
		L394.9,430.2 L396.8,425.7 L398.7,421.2 L400.6,416.8 L402.5,412.5 L404.4,408.3 L406.3,404.2 L408.2,400.3
		L410.1,396.5 L412.0,392.9 L413.9,389.4 L415.8,386.0 L417.7,382.6 L419.6,379.3 L421.5,375.9 L423.4,372.4
		L425.3,368.7 L427.2,364.7 L429.1,360.4 L431.0,355.7 L432.9,350.4 L434.8,344.6 L436.7,338.1 L438.7,330.9
		L440.6,323.0 L442.5,314.2 L444.4,304.6 L446.3,294.3 L448.2,283.1 L450.1,271.2 L452.0,258.5 L453.9,245.3
		L455.8,231.6 L457.7,217.5 L459.6,203.3 L461.5,189.1 L463.4,175.0 L465.3,161.4 L467.2,148.5 L469.1,136.4
		L471.0,125.4 L472.9,115.7 L474.8,107.5 L476.7,101.0 L478.6,96.3 L480.5,93.6 L482.4,92.9 L484.3,94.3
		L486.2,97.8 L488.1,103.3 L490.1,110.9 L492.0,120.3 L493.9,131.6 L495.8,144.4 L497.7,158.7 L499.6,174.3
		L501.5,190.9 L503.4,208.4 L505.3,226.6 L507.2,245.2 L509.1,264.1 L511.0,283.2 L512.9,302.1 L514.8,320.9
		L516.7,339.4 L518.6,357.4 L520.5,374.9 L522.4,391.8 L524.3,408.0 L526.2,423.5 L528.1,438.3 L530.0,452.2
		L531.9,465.3 L533.8,477.5 L535.7,488.9 L537.6,499.4 L539.6,508.9 L541.5,517.6 L543.4,525.3 L545.3,532.1
		L547.2,538.0 L549.1,542.9 L551.0,547.0 L552.9,550.1 L554.8,552.4 L556.7,553.9 L558.6,554.5 L560.5,554.5
		L562.4,553.7 L564.3,552.3 L566.2,550.4 L568.1,548.0 L570.0,545.2 L571.9,542.1 L573.8,538.7 L575.7,535.3
		L577.6,531.7 L579.5,528.3 L581.4,524.9 L583.3,521.8 L585.2,519.0 L587.1,516.5 L589.1,514.4 L591.0,512.7
		L592.9,511.6 L594.8,511.0 L596.7,510.9 L598.6,511.4 L600.5,512.3 L602.4,513.8 L604.3,515.8 L606.2,518.2
		L608.1,521.0 L610.0,524.2 L611.9,527.6 L613.8,531.2 L615.7,534.9 L617.6,538.7 L619.5,542.5 L621.4,546.1
		L623.3,549.6 L625.2,552.8 L627.1,555.7 L629.0,558.3 L630.9,560.5 L632.8,562.2 L634.7,563.3 L636.6,564.0
		L638.5,564.2 L640.5,563.8 L642.4,562.8 L644.3,561.3 L646.2,559.3 L648.1,556.8 L650.0,553.9 L651.9,550.5
		L653.8,546.7 L655.7,542.5 L657.6,538.1 L659.5,533.4 L661.4,528.4 L663.3,523.3 L665.2,518.0 L667.1,512.6
		L669.0,507.2 L670.9,501.6 L672.8,496.1 L674.7,490.6 L676.6,485.1 L678.5,479.6 L680.4,474.2 L682.3,468.9
		L684.2,463.7 L686.1,458.6 L688.0,453.7 L690.0,449.0 L691.9,444.5 L693.8,440.3 L695.7,436.4 L697.6,432.9
		L699.5,429.7 L701.4,427.0 L703.3,424.9 L705.2,423.3 L707.1,422.3 L709.0,422.0 L710.9,422.4 L712.8,423.5
		L714.7,425.4 L716.6,428.1 L718.5,431.6 L720.4,435.8 L722.3,440.7 L724.2,446.4 L726.1,452.6 L728.0,459.4
		L729.9,466.6 L731.8,474.2 L733.7,482.0 L735.6,489.9 L737.5,497.8 L739.5,505.6 L741.4,513.2 L743.3,520.4
		L745.2,527.1 L747.1,533.3 L749.0,538.9 L750.9,543.9 L752.8,548.1 L754.7,551.6 L756.6,554.3 L758.5,556.3
		L760.4,557.6 L762.3,558.3 L764.2,558.4 L766.1,558.0 L768.0,557.2 L769.9,556.0 L771.8,554.6 L773.7,553.1
		L775.6,551.6 L777.5,550.1 L779.4,548.8 L781.3,547.8 L783.2,547.0 L785.1,546.6 L787.0,546.5 L789.0,546.9
		L790.9,547.7 L792.8,548.9 L794.7,550.4 L796.6,552.3 L798.5,554.4 L800.4,556.8 L802.3,559.2 L804.2,561.7
		L806.1,564.1 L808.0,566.4 L809.9,568.5 L811.8,570.1 L813.7,571.4 L815.6,572.2 L817.5,572.4 L819.4,572.1
		L821.3,571.0 L823.2,569.4 L825.1,567.0 L827.0,563.9 L828.9,560.2 L830.8,555.9 L832.7,551.0 L834.6,545.7
		L836.5,539.9 L838.4,533.7 L840.4,527.3 L842.3,520.7 L844.2,514.0 L846.1,507.4 L848.0,500.9 L849.9,494.5
		L851.8,488.5 L853.7,482.9 L855.6,477.7 L857.5,473.0 L859.4,468.8 L861.3,465.2 L863.2,462.3 L865.1,460.0
		L867.0,458.3 L868.9,457.2 L870.8,456.8 L872.7,457.0 L874.6,457.7 L876.5,459.0 L878.4,460.8 L880.3,463.1
		L882.2,465.8 L884.1,468.9 L886.0,472.3 L887.9,476.0 L889.9,480.0 L891.8,484.1 L893.7,488.4 L895.6,492.9
		L897.5,497.4 L899.4,502.0 L901.3,506.6 L903.2,511.2 L905.1,515.8 L907.0,520.3 L908.9,524.7 L910.8,529.1
		L912.7,533.5 L914.6,537.7 L916.5,541.8 L918.4,545.9 L920.3,549.9 L922.2,553.8 L924.1,557.7 L926.0,561.5
		L927.9,565.3 L929.8,569.0 L931.7,572.8 L933.6,576.5 L935.5,580.2 L937.4,583.9 L939.4,587.6 L941.3,591.4
		L943.2,595.1 L945.1,598.8 L947.0,602.5 L948.9,606.2 L950.8,609.9 L952.7,613.5 L954.6,617.0 L956.5,620.5
		L958.4,623.9 L960.3,627.1 L962.2,630.3 L964.1,633.3 L966.0,636.1 L967.9,638.8 L969.8,641.3 L971.7,643.7
		L973.6,645.9 L975.5,647.9 L977.4,649.7 L979.3,651.3 L981.2,652.8 L983.1,654.1 L985.0,655.2 L986.9,656.3
		L988.9,657.1 L990.8,657.9 L992.7,658.5 L994.6,659.0 L996.5,659.4 L998.4,659.7 L1000.3,660.0 L1002.2,660.2
		L1004.1,660.3 L1006.0,660.3 L1007.9,660.3 L1009.8,660.2 L1011.7,660.1 L1013.6,659.9  '/></g>
	</g>
	<g id="gnuplot_plot_2" ><title>Confidence interval</title>
<g fill="none" color="white" stroke="rgb( 31, 120, 180)" stroke-width="1.00" stroke-linecap="butt" stroke-linejoin="miter">
</g>
<g fill="none" color="black" stroke="currentColor" stroke-width="1.00" stroke-linecap="butt" stroke-linejoin="miter">
	<g transform="translate(1089.0,85.0)" stroke="none" fill="black" font-family="Helvetica" font-size="12.00"  text-anchor="start">
		<text><tspan font-family="Helvetica" >Confidence interval</tspan></text>
	</g>
</g>
<g fill="none" color="black" stroke="currentColor" stroke-width="1.00" stroke-linecap="butt" stroke-linejoin="miter">
	<g stroke='none' shape-rendering='crispEdges'>
		<polygon fill = 'rgb( 31, 120, 180)' fill-opacity = '0.250000' points = '1038.5,85.6 1080.7,85.6 1080.7,76.6 1038.5,76.6 '/>
		<polygon fill = 'rgb( 31, 120, 180)' fill-opacity = '0.250000' points = '151.2,618.5 153.1,616.9 155.0,615.3 156.9,613.9 158.8,612.7 160.7,611.7 162.6,610.8 164.5,610.2 166.4,609.8 168.3,609.7 170.2,609.8 172.1,610.0 174.0,610.5 175.9,611.2 177.8,612.0 179.7,612.9
181.6,614.0 183.5,615.0 185.4,616.1 187.3,617.2 189.3,618.2 191.2,619.1 193.1,619.8 195.0,620.5 196.9,620.9 198.8,621.2 200.7,621.3 202.6,621.2 204.5,620.9 206.4,620.5 208.3,619.9 210.2,619.1
212.1,618.3 214.0,617.3 215.9,616.4 217.8,615.3 219.7,614.3 221.6,613.3 223.5,612.4 225.4,611.5 227.3,610.7 229.2,609.9 231.1,609.3 233.0,608.7 234.9,608.1 236.8,607.6 238.8,607.0 240.7,606.3
242.6,605.5 244.5,604.6 246.4,603.4 248.3,601.9 250.2,600.1 252.1,597.8 254.0,595.0 255.9,591.6 257.8,587.7 259.7,583.0 261.6,577.7 263.5,571.6 265.4,564.8 267.3,557.3 269.2,549.0 271.1,539.9
273.0,530.2 274.9,519.9 276.8,509.1 278.7,497.8 280.6,486.1 282.5,474.3 284.4,462.3 286.3,450.4 288.2,438.7 290.2,427.3 292.1,416.5 294.0,406.2 295.9,396.8 297.8,388.3 299.7,380.9 301.6,374.6
303.5,369.5 305.4,365.7 307.3,363.2 309.2,362.0 311.1,362.1 313.0,363.4 314.9,365.9 316.8,369.5 318.7,374.0 320.6,379.3 322.5,385.3 324.4,391.8 326.3,398.7 328.2,405.8 330.1,413.0 332.0,420.1
333.9,427.0 335.8,433.6 337.7,439.9 339.7,445.7 341.6,451.1 343.5,455.9 345.4,460.1 347.3,463.9 349.2,467.0 351.1,469.7 353.0,471.9 354.9,473.6 356.8,474.8 358.7,475.7 360.6,476.1 362.5,476.2
364.4,475.9 366.3,475.3 368.2,474.4 370.1,473.1 372.0,471.5 373.9,469.6 375.8,467.3 377.7,464.8 379.6,461.9 381.5,458.7 383.4,455.2 385.3,451.5 387.2,447.5 389.2,443.4 391.1,439.1 393.0,434.7
394.9,430.2 396.8,425.7 398.7,421.2 400.6,416.8 402.5,412.5 404.4,408.3 406.3,404.2 408.2,400.3 410.1,396.5 412.0,392.9 413.9,389.4 415.8,386.0 417.7,382.6 419.6,379.3 421.5,375.9 423.4,372.4
425.3,368.7 427.2,364.7 429.1,360.4 431.0,355.7 432.9,350.4 434.8,344.6 436.7,338.1 438.7,330.9 440.6,323.0 442.5,314.2 444.4,304.6 446.3,294.3 448.2,283.1 450.1,271.2 452.0,258.5 453.9,245.3
455.8,231.6 457.7,217.5 459.6,203.3 461.5,189.1 463.4,175.0 465.3,161.4 467.2,148.5 469.1,136.4 471.0,125.4 472.9,115.7 474.8,107.5 476.7,101.0 478.6,96.3 480.5,93.6 482.4,92.9 484.3,94.3
486.2,97.8 488.1,103.3 490.1,110.9 492.0,120.3 493.9,131.6 495.8,144.4 497.7,158.7 499.6,174.3 501.5,190.9 503.4,208.4 505.3,226.6 507.2,245.2 509.1,264.1 511.0,283.2 512.9,302.1 514.8,320.9
516.7,339.4 518.6,357.4 520.5,374.9 522.4,391.8 524.3,408.0 526.2,423.5 528.1,438.3 530.0,452.2 531.9,465.3 533.8,477.5 535.7,488.9 537.6,499.4 539.6,508.9 541.5,517.6 543.4,525.3 545.3,532.1
547.2,538.0 549.1,542.9 551.0,547.0 552.9,550.1 554.8,552.4 556.7,553.9 558.6,554.5 560.5,554.5 562.4,553.7 564.3,552.3 566.2,550.4 568.1,548.0 570.0,545.2 571.9,542.1 573.8,538.7 575.7,535.3
577.6,531.7 579.5,528.3 581.4,524.9 583.3,521.8 585.2,519.0 587.1,516.5 589.1,514.4 591.0,512.7 592.9,511.6 594.8,511.0 596.7,510.9 598.6,511.4 600.5,512.3 602.4,513.8 604.3,515.8 606.2,518.2
608.1,521.0 610.0,524.2 611.9,527.6 613.8,531.2 615.7,534.9 617.6,538.7 619.5,542.5 621.4,546.1 623.3,549.6 625.2,552.8 627.1,555.7 629.0,558.3 630.9,560.5 632.8,562.2 634.7,563.3 636.6,564.0
638.5,564.2 640.5,563.8 642.4,562.8 644.3,561.3 646.2,559.3 648.1,556.8 650.0,553.9 651.9,550.5 653.8,546.7 655.7,542.5 657.6,538.1 659.5,533.4 661.4,528.4 663.3,523.3 665.2,518.0 667.1,512.6
669.0,507.2 670.9,501.6 672.8,496.1 674.7,490.6 676.6,485.1 678.5,479.6 680.4,474.2 682.3,468.9 684.2,463.7 686.1,458.6 688.0,453.7 690.0,449.0 691.9,444.5 693.8,440.3 695.7,436.4 697.6,432.9
699.5,429.7 701.4,427.0 703.3,424.9 705.2,423.3 707.1,422.3 709.0,422.0 710.9,422.4 712.8,423.5 714.7,425.4 716.6,428.1 718.5,431.6 720.4,435.8 722.3,440.7 724.2,446.4 726.1,452.6 728.0,459.4
729.9,466.6 731.8,474.2 733.7,482.0 735.6,489.9 737.5,497.8 739.5,505.6 741.4,513.2 743.3,520.4 745.2,527.1 747.1,533.3 749.0,538.9 750.9,543.9 752.8,548.1 754.7,551.6 756.6,554.3 758.5,556.3
760.4,557.6 762.3,558.3 764.2,558.4 766.1,558.0 768.0,557.2 769.9,556.0 771.8,554.6 773.7,553.1 775.6,551.6 777.5,550.1 779.4,548.8 781.3,547.8 783.2,547.0 785.1,546.6 787.0,546.5 789.0,546.9
790.9,547.7 792.8,548.9 794.7,550.4 796.6,552.3 798.5,554.4 800.4,556.8 802.3,559.2 804.2,561.7 806.1,564.1 808.0,566.4 809.9,568.5 811.8,570.1 813.7,571.4 815.6,572.2 817.5,572.4 819.4,572.1
821.3,571.0 823.2,569.4 825.1,567.0 827.0,563.9 828.9,560.2 830.8,555.9 832.7,551.0 834.6,545.7 836.5,539.9 838.4,533.7 840.4,527.3 842.3,520.7 844.2,514.0 846.1,507.4 848.0,500.9 849.9,494.5
851.8,488.5 853.7,482.9 855.6,477.7 857.5,473.0 859.4,468.8 861.3,465.2 863.2,462.3 865.1,460.0 867.0,458.3 868.9,457.2 870.8,456.8 872.7,457.0 874.6,457.7 876.5,459.0 878.4,460.8 880.3,463.1
882.2,465.8 884.1,468.9 886.0,472.3 887.9,476.0 889.9,480.0 891.8,484.1 893.7,488.4 895.6,492.9 897.5,497.4 899.4,502.0 901.3,506.6 903.2,511.2 905.1,515.8 907.0,520.3 908.9,524.7 910.8,529.1
912.7,533.5 914.6,537.7 916.5,541.8 918.4,545.9 920.3,549.9 922.2,553.8 924.1,557.7 924.1,662.4 922.2,662.4 920.3,662.4 918.4,662.4 916.5,662.4 914.6,662.4 912.7,662.4 910.8,662.4 908.9,662.4
907.0,662.4 905.1,662.4 903.2,662.4 901.3,662.4 899.4,662.4 897.5,662.4 895.6,662.4 893.7,662.4 891.8,662.4 889.9,662.4 887.9,662.4 886.0,662.4 884.1,662.4 882.2,662.4 880.3,662.4 878.4,662.4
876.5,662.4 874.6,662.4 872.7,662.4 870.8,662.4 868.9,662.4 867.0,662.4 865.1,662.4 863.2,662.4 861.3,662.4 859.4,662.4 857.5,662.4 855.6,662.4 853.7,662.4 851.8,662.4 849.9,662.4 848.0,662.4
846.1,662.4 844.2,662.4 842.3,662.4 840.4,662.4 838.4,662.4 836.5,662.4 834.6,662.4 832.7,662.4 830.8,662.4 828.9,662.4 827.0,662.4 825.1,662.4 823.2,662.4 821.3,662.4 819.4,662.4 817.5,662.4
815.6,662.4 813.7,662.4 811.8,662.4 809.9,662.4 808.0,662.4 806.1,662.4 804.2,662.4 802.3,662.4 800.4,662.4 798.5,662.4 796.6,662.4 794.7,662.4 792.8,662.4 790.9,662.4 789.0,662.4 787.0,662.4
785.1,662.4 783.2,662.4 781.3,662.4 779.4,662.4 777.5,662.4 775.6,662.4 773.7,662.4 771.8,662.4 769.9,662.4 768.0,662.4 766.1,662.4 764.2,662.4 762.3,662.4 760.4,662.4 758.5,662.4 756.6,662.4
754.7,662.4 752.8,662.4 750.9,662.4 749.0,662.4 747.1,662.4 745.2,662.4 743.3,662.4 741.4,662.4 739.5,662.4 737.5,662.4 735.6,662.4 733.7,662.4 731.8,662.4 729.9,662.4 728.0,662.4 726.1,662.4
724.2,662.4 722.3,662.4 720.4,662.4 718.5,662.4 716.6,662.4 714.7,662.4 712.8,662.4 710.9,662.4 709.0,662.4 707.1,662.4 705.2,662.4 703.3,662.4 701.4,662.4 699.5,662.4 697.6,662.4 695.7,662.4
693.8,662.4 691.9,662.4 690.0,662.4 688.0,662.4 686.1,662.4 684.2,662.4 682.3,662.4 680.4,662.4 678.5,662.4 676.6,662.4 674.7,662.4 672.8,662.4 670.9,662.4 669.0,662.4 667.1,662.4 665.2,662.4
663.3,662.4 661.4,662.4 659.5,662.4 657.6,662.4 655.7,662.4 653.8,662.4 651.9,662.4 650.0,662.4 648.1,662.4 646.2,662.4 644.3,662.4 642.4,662.4 640.5,662.4 638.5,662.4 636.6,662.4 634.7,662.4
632.8,662.4 630.9,662.4 629.0,662.4 627.1,662.4 625.2,662.4 623.3,662.4 621.4,662.4 619.5,662.4 617.6,662.4 615.7,662.4 613.8,662.4 611.9,662.4 610.0,662.4 608.1,662.4 606.2,662.4 604.3,662.4
602.4,662.4 600.5,662.4 598.6,662.4 596.7,662.4 594.8,662.4 592.9,662.4 591.0,662.4 589.1,662.4 587.1,662.4 585.2,662.4 583.3,662.4 581.4,662.4 579.5,662.4 577.6,662.4 575.7,662.4 573.8,662.4
571.9,662.4 570.0,662.4 568.1,662.4 566.2,662.4 564.3,662.4 562.4,662.4 560.5,662.4 558.6,662.4 556.7,662.4 554.8,662.4 552.9,662.4 551.0,662.4 549.1,662.4 547.2,662.4 545.3,662.4 543.4,662.4
541.5,662.4 539.6,662.4 537.6,662.4 535.7,662.4 533.8,662.4 531.9,662.4 530.0,662.4 528.1,662.4 526.2,662.4 524.3,662.4 522.4,662.4 520.5,662.4 518.6,662.4 516.7,662.4 514.8,662.4 512.9,662.4
511.0,662.4 509.1,662.4 507.2,662.4 505.3,662.4 503.4,662.4 501.5,662.4 499.6,662.4 497.7,662.4 495.8,662.4 493.9,662.4 492.0,662.4 490.1,662.4 488.1,662.4 486.2,662.4 484.3,662.4 482.4,662.4
480.5,662.4 478.6,662.4 476.7,662.4 474.8,662.4 472.9,662.4 471.0,662.4 469.1,662.4 467.2,662.4 465.3,662.4 463.4,662.4 461.5,662.4 459.6,662.4 457.7,662.4 455.8,662.4 453.9,662.4 452.0,662.4
450.1,662.4 448.2,662.4 446.3,662.4 444.4,662.4 442.5,662.4 440.6,662.4 438.7,662.4 436.7,662.4 434.8,662.4 432.9,662.4 431.0,662.4 429.1,662.4 427.2,662.4 425.3,662.4 423.4,662.4 421.5,662.4
419.6,662.4 417.7,662.4 415.8,662.4 413.9,662.4 412.0,662.4 410.1,662.4 408.2,662.4 406.3,662.4 404.4,662.4 402.5,662.4 400.6,662.4 398.7,662.4 396.8,662.4 394.9,662.4 393.0,662.4 391.1,662.4
389.2,662.4 387.2,662.4 385.3,662.4 383.4,662.4 381.5,662.4 379.6,662.4 377.7,662.4 375.8,662.4 373.9,662.4 372.0,662.4 370.1,662.4 368.2,662.4 366.3,662.4 364.4,662.4 362.5,662.4 360.6,662.4
358.7,662.4 356.8,662.4 354.9,662.4 353.0,662.4 351.1,662.4 349.2,662.4 347.3,662.4 345.4,662.4 343.5,662.4 341.6,662.4 339.7,662.4 337.7,662.4 335.8,662.4 333.9,662.4 332.0,662.4 330.1,662.4
328.2,662.4 326.3,662.4 324.4,662.4 322.5,662.4 320.6,662.4 318.7,662.4 316.8,662.4 314.9,662.4 313.0,662.4 311.1,662.4 309.2,662.4 307.3,662.4 305.4,662.4 303.5,662.4 301.6,662.4 299.7,662.4
297.8,662.4 295.9,662.4 294.0,662.4 292.1,662.4 290.2,662.4 288.2,662.4 286.3,662.4 284.4,662.4 282.5,662.4 280.6,662.4 278.7,662.4 276.8,662.4 274.9,662.4 273.0,662.4 271.1,662.4 269.2,662.4
267.3,662.4 265.4,662.4 263.5,662.4 261.6,662.4 259.7,662.4 257.8,662.4 255.9,662.4 254.0,662.4 252.1,662.4 250.2,662.4 248.3,662.4 246.4,662.4 244.5,662.4 242.6,662.4 240.7,662.4 238.8,662.4
236.8,662.4 234.9,662.4 233.0,662.4 231.1,662.4 229.2,662.4 227.3,662.4 225.4,662.4 223.5,662.4 221.6,662.4 219.7,662.4 217.8,662.4 215.9,662.4 214.0,662.4 212.1,662.4 210.2,662.4 208.3,662.4
206.4,662.4 204.5,662.4 202.6,662.4 200.7,662.4 198.8,662.4 196.9,662.4 195.0,662.4 193.1,662.4 191.2,662.4 189.3,662.4 187.3,662.4 185.4,662.4 183.5,662.4 181.6,662.4 179.7,662.4 177.8,662.4
175.9,662.4 174.0,662.4 172.1,662.4 170.2,662.4 168.3,662.4 166.4,662.4 164.5,662.4 162.6,662.4 160.7,662.4 158.8,662.4 156.9,662.4 155.0,662.4 153.1,662.4 151.2,662.4 '/>
	</g>
</g>
	</g>
	<g id="gnuplot_plot_3" ><title>Point estimate</title>
<g fill="none" color="white" stroke="rgb( 31, 120, 180)" stroke-width="2.00" stroke-linecap="butt" stroke-linejoin="miter">
</g>
<g fill="none" color="black" stroke="currentColor" stroke-width="2.00" stroke-linecap="butt" stroke-linejoin="miter">
	<g transform="translate(1089.0,103.0)" stroke="none" fill="black" font-family="Helvetica" font-size="12.00"  text-anchor="start">
		<text><tspan font-family="Helvetica" >Point estimate</tspan></text>
	</g>
</g>
<g fill="none" color="black" stroke="currentColor" stroke-width="2.00" stroke-linecap="butt" stroke-linejoin="miter">
	<path stroke='rgb( 31, 120, 180)'  d='M1038.5,99.1 L1080.7,99.1 M484.1,662.4 L484.1,94.2  '/></g>
	</g>
<g fill="none" color="black" stroke="currentColor" stroke-width="2.00" stroke-linecap="butt" stroke-linejoin="miter">
</g>
<g fill="none" color="black" stroke="black" stroke-width="1.00" stroke-linecap="butt" stroke-linejoin="miter">
</g>
<g fill="none" color="black" stroke="currentColor" stroke-width="1.00" stroke-linecap="butt" stroke-linejoin="miter">
	<path stroke='black'  d='M63.6,54.1 L63.6,662.4 L1013.6,662.4 L1013.6,54.1 L63.6,54.1 Z  '/></g>
<g fill="none" color="black" stroke="currentColor" stroke-width="1.00" stroke-linecap="butt" stroke-linejoin="miter">
</g>
</g>
</svg>

