<?xml version="1.0" encoding="utf-8"  standalone="no"?>
<svg 
 viewBox="0 0 450 300"
 xmlns="http://www.w3.org/2000/svg"
 xmlns:xlink="http://www.w3.org/1999/xlink"
>

<title>Gnuplot</title>
<desc>Produced by GNUPLOT 5.2 patchlevel 8 </desc>

<g id="gnuplot_canvas">

<rect x="0" y="0" width="450" height="300" fill="none"/>
<defs>

	<circle id='gpDot' r='0.5' stroke-width='0.5' stroke='currentColor'/>
	<path id='gpPt0' stroke-width='0.222' stroke='currentColor' d='M-1,0 h2 M0,-1 v2'/>
	<path id='gpPt1' stroke-width='0.222' stroke='currentColor' d='M-1,-1 L1,1 M1,-1 L-1,1'/>
	<path id='gpPt2' stroke-width='0.222' stroke='currentColor' d='M-1,0 L1,0 M0,-1 L0,1 M-1,-1 L1,1 M-1,1 L1,-1'/>
	<rect id='gpPt3' stroke-width='0.222' stroke='currentColor' x='-1' y='-1' width='2' height='2'/>
	<rect id='gpPt4' stroke-width='0.222' stroke='currentColor' fill='currentColor' x='-1' y='-1' width='2' height='2'/>
	<circle id='gpPt5' stroke-width='0.222' stroke='currentColor' cx='0' cy='0' r='1'/>
	<use xlink:href='#gpPt5' id='gpPt6' fill='currentColor' stroke='none'/>
	<path id='gpPt7' stroke-width='0.222' stroke='currentColor' d='M0,-1.33 L-1.33,0.67 L1.33,0.67 z'/>
	<use xlink:href='#gpPt7' id='gpPt8' fill='currentColor' stroke='none'/>
	<use xlink:href='#gpPt7' id='gpPt9' stroke='currentColor' transform='rotate(180)'/>
	<use xlink:href='#gpPt9' id='gpPt10' fill='currentColor' stroke='none'/>
	<use xlink:href='#gpPt3' id='gpPt11' stroke='currentColor' transform='rotate(45)'/>
	<use xlink:href='#gpPt11' id='gpPt12' fill='currentColor' stroke='none'/>
	<path id='gpPt13' stroke-width='0.222' stroke='currentColor' d='M0,1.330 L1.265,0.411 L0.782,-1.067 L-0.782,-1.076 L-1.265,0.411 z'/>
	<use xlink:href='#gpPt13' id='gpPt14' fill='currentColor' stroke='none'/>
	<filter id='textbox' filterUnits='objectBoundingBox' x='0' y='0' height='1' width='1'>
	  <feFlood flood-color='white' flood-opacity='1' result='bgnd'/>
	  <feComposite in='SourceGraphic' in2='bgnd' operator='atop'/>
	</filter>
	<filter id='greybox' filterUnits='objectBoundingBox' x='0' y='0' height='1' width='1'>
	  <feFlood flood-color='lightgrey' flood-opacity='1' result='grey'/>
	  <feComposite in='SourceGraphic' in2='grey' operator='atop'/>
	</filter>
</defs>
<g fill="none" color="white" stroke="currentColor" stroke-width="1.00" stroke-linecap="butt" stroke-linejoin="miter">
</g>
<g fill="none" color="black" stroke="currentColor" stroke-width="1.00" stroke-linecap="butt" stroke-linejoin="miter">
	<path stroke='black'  d='M71.9,242.4 L80.9,242.4  '/>	<g transform="translate(63.6,246.3)" stroke="none" fill="black" font-family="Helvetica" font-size="12.00"  text-anchor="end">
		<text><tspan font-family="Helvetica" > 0</tspan></text>
	</g>
</g>
<g fill="none" color="black" stroke="currentColor" stroke-width="1.00" stroke-linecap="butt" stroke-linejoin="miter">
	<path stroke='black'  d='M71.9,205.0 L80.9,205.0  '/>	<g transform="translate(63.6,208.9)" stroke="none" fill="black" font-family="Helvetica" font-size="12.00"  text-anchor="end">
		<text><tspan font-family="Helvetica" > 0.5</tspan></text>
	</g>
</g>
<g fill="none" color="black" stroke="currentColor" stroke-width="1.00" stroke-linecap="butt" stroke-linejoin="miter">
	<path stroke='black'  d='M71.9,167.6 L80.9,167.6  '/>	<g transform="translate(63.6,171.5)" stroke="none" fill="black" font-family="Helvetica" font-size="12.00"  text-anchor="end">
		<text><tspan font-family="Helvetica" > 1</tspan></text>
	</g>
</g>
<g fill="none" color="black" stroke="currentColor" stroke-width="1.00" stroke-linecap="butt" stroke-linejoin="miter">
	<path stroke='black'  d='M71.9,130.2 L80.9,130.2  '/>	<g transform="translate(63.6,134.1)" stroke="none" fill="black" font-family="Helvetica" font-size="12.00"  text-anchor="end">
		<text><tspan font-family="Helvetica" > 1.5</tspan></text>
	</g>
</g>
<g fill="none" color="black" stroke="currentColor" stroke-width="1.00" stroke-linecap="butt" stroke-linejoin="miter">
	<path stroke='black'  d='M71.9,92.9 L80.9,92.9  '/>	<g transform="translate(63.6,96.8)" stroke="none" fill="black" font-family="Helvetica" font-size="12.00"  text-anchor="end">
		<text><tspan font-family="Helvetica" > 2</tspan></text>
	</g>
</g>
<g fill="none" color="black" stroke="currentColor" stroke-width="1.00" stroke-linecap="butt" stroke-linejoin="miter">
	<path stroke='black'  d='M71.9,55.5 L80.9,55.5  '/>	<g transform="translate(63.6,59.4)" stroke="none" fill="black" font-family="Helvetica" font-size="12.00"  text-anchor="end">
		<text><tspan font-family="Helvetica" > 2.5</tspan></text>
	</g>
</g>
<g fill="none" color="black" stroke="currentColor" stroke-width="1.00" stroke-linecap="butt" stroke-linejoin="miter">
	<path stroke='black'  d='M71.9,18.1 L80.9,18.1  '/>	<g transform="translate(63.6,22.0)" stroke="none" fill="black" font-family="Helvetica" font-size="12.00"  text-anchor="end">
		<text><tspan font-family="Helvetica" > 3</tspan></text>
	</g>
</g>
<g fill="none" color="black" stroke="currentColor" stroke-width="1.00" stroke-linecap="butt" stroke-linejoin="miter">
	<path stroke='black'  d='M71.9,242.4 L71.9,233.4  '/>	<g transform="translate(71.9,264.3)" stroke="none" fill="black" font-family="Helvetica" font-size="12.00"  text-anchor="middle">
		<text><tspan font-family="Helvetica" > 398.5</tspan></text>
	</g>
</g>
<g fill="none" color="black" stroke="currentColor" stroke-width="1.00" stroke-linecap="butt" stroke-linejoin="miter">
	<path stroke='black'  d='M116.0,242.4 L116.0,233.4  '/>	<g transform="translate(116.0,264.3)" stroke="none" fill="black" font-family="Helvetica" font-size="12.00"  text-anchor="middle">
		<text><tspan font-family="Helvetica" > 399</tspan></text>
	</g>
</g>
<g fill="none" color="black" stroke="currentColor" stroke-width="1.00" stroke-linecap="butt" stroke-linejoin="miter">
	<path stroke='black'  d='M160.2,242.4 L160.2,233.4  '/>	<g transform="translate(160.2,264.3)" stroke="none" fill="black" font-family="Helvetica" font-size="12.00"  text-anchor="middle">
		<text><tspan font-family="Helvetica" > 399.5</tspan></text>
	</g>
</g>
<g fill="none" color="black" stroke="currentColor" stroke-width="1.00" stroke-linecap="butt" stroke-linejoin="miter">
	<path stroke='black'  d='M204.3,242.4 L204.3,233.4  '/>	<g transform="translate(204.3,264.3)" stroke="none" fill="black" font-family="Helvetica" font-size="12.00"  text-anchor="middle">
		<text><tspan font-family="Helvetica" > 400</tspan></text>
	</g>
</g>
<g fill="none" color="black" stroke="currentColor" stroke-width="1.00" stroke-linecap="butt" stroke-linejoin="miter">
	<path stroke='black'  d='M248.5,242.4 L248.5,233.4  '/>	<g transform="translate(248.5,264.3)" stroke="none" fill="black" font-family="Helvetica" font-size="12.00"  text-anchor="middle">
		<text><tspan font-family="Helvetica" > 400.5</tspan></text>
	</g>
</g>
<g fill="none" color="black" stroke="currentColor" stroke-width="1.00" stroke-linecap="butt" stroke-linejoin="miter">
	<path stroke='black'  d='M292.6,242.4 L292.6,233.4  '/>	<g transform="translate(292.6,264.3)" stroke="none" fill="black" font-family="Helvetica" font-size="12.00"  text-anchor="middle">
		<text><tspan font-family="Helvetica" > 401</tspan></text>
	</g>
</g>
<g fill="none" color="black" stroke="currentColor" stroke-width="1.00" stroke-linecap="butt" stroke-linejoin="miter">
	<path stroke='black'  d='M336.7,242.4 L336.7,233.4  '/>	<g transform="translate(336.7,264.3)" stroke="none" fill="black" font-family="Helvetica" font-size="12.00"  text-anchor="middle">
		<text><tspan font-family="Helvetica" > 401.5</tspan></text>
	</g>
</g>
<g fill="none" color="black" stroke="currentColor" stroke-width="1.00" stroke-linecap="butt" stroke-linejoin="miter">
	<path stroke='black'  d='M380.9,242.4 L380.9,233.4  '/>	<g transform="translate(380.9,264.3)" stroke="none" fill="black" font-family="Helvetica" font-size="12.00"  text-anchor="middle">
		<text><tspan font-family="Helvetica" > 402</tspan></text>
	</g>
</g>
<g fill="none" color="black" stroke="currentColor" stroke-width="1.00" stroke-linecap="butt" stroke-linejoin="miter">
	<path stroke='black'  d='M425.0,242.4 L425.0,233.4  '/>	<g transform="translate(425.0,264.3)" stroke="none" fill="black" font-family="Helvetica" font-size="12.00"  text-anchor="middle">
		<text><tspan font-family="Helvetica" > 402.5</tspan></text>
	</g>
</g>
<g fill="none" color="black" stroke="currentColor" stroke-width="1.00" stroke-linecap="butt" stroke-linejoin="miter">
</g>
<g fill="none" color="black" stroke="currentColor" stroke-width="1.00" stroke-linecap="butt" stroke-linejoin="miter">
	<path stroke='black'  d='M71.9,18.1 L71.9,242.4 L425.0,242.4 L425.0,18.1 L71.9,18.1 Z  '/></g>
<g fill="none" color="black" stroke="currentColor" stroke-width="1.00" stroke-linecap="butt" stroke-linejoin="miter">
	<g transform="translate(19.0,130.3) rotate(270)" stroke="none" fill="black" font-family="Helvetica" font-size="12.00"  text-anchor="middle">
		<text><tspan font-family="Helvetica" >Density (a.u.)</tspan></text>
	</g>
</g>
<g fill="none" color="black" stroke="currentColor" stroke-width="1.00" stroke-linecap="butt" stroke-linejoin="miter">
	<g transform="translate(248.4,291.3)" stroke="none" fill="black" font-family="Helvetica" font-size="12.00"  text-anchor="middle">
		<text><tspan font-family="Helvetica" >Average time (ns)</tspan></text>
	</g>
</g>
<g fill="none" color="black" stroke="currentColor" stroke-width="1.00" stroke-linecap="butt" stroke-linejoin="miter">
</g>
	<g id="gnuplot_plot_1" ><title>Base PDF</title>
<g fill="none" color="black" stroke="currentColor" stroke-width="1.00" stroke-linecap="butt" stroke-linejoin="miter">
	<g stroke='none' shape-rendering='crispEdges'>
		<polygon fill = 'rgb(227,  26,  28)' fill-opacity = '0.500000' points = '99.1,242.3 99.5,242.3 100.0,242.3 100.4,242.3 100.9,242.3 101.4,242.3 101.8,242.3 102.3,242.2 102.8,242.2 103.2,242.2 103.7,242.2 104.2,242.1 104.6,242.1 105.1,242.1 105.5,242.0 106.0,242.0
106.5,242.0 106.9,241.9 107.4,241.9 107.9,241.8 108.3,241.7 108.8,241.7 109.2,241.6 109.7,241.5 110.2,241.4 110.6,241.3 111.1,241.2 111.6,241.1 112.0,241.0 112.5,240.9 112.9,240.8 113.4,240.6
113.9,240.5 114.3,240.3 114.8,240.1 115.3,240.0 115.7,239.8 116.2,239.6 116.6,239.4 117.1,239.1 117.6,238.9 118.0,238.6 118.5,238.4 119.0,238.1 119.4,237.8 119.9,237.5 120.3,237.1 120.8,236.8
121.3,236.4 121.7,236.0 122.2,235.6 122.7,235.2 123.1,234.7 123.6,234.2 124.1,233.7 124.5,233.2 125.0,232.6 125.4,232.0 125.9,231.3 126.4,230.6 126.8,229.9 127.3,229.2 127.8,228.3 128.2,227.5
128.7,226.6 129.1,225.6 129.6,224.6 130.1,223.5 130.5,222.3 131.0,221.1 131.5,219.8 131.9,218.4 132.4,216.9 132.8,215.4 133.3,213.8 133.8,212.0 134.2,210.2 134.7,208.3 135.2,206.3 135.6,204.2
136.1,202.0 136.5,199.7 137.0,197.2 137.5,194.7 137.9,192.1 138.4,189.3 138.9,186.5 139.3,183.5 139.8,180.5 140.3,177.3 140.7,174.1 141.2,170.8 141.6,167.3 142.1,163.8 142.6,160.3 143.0,156.6
143.5,153.0 144.0,149.2 144.4,145.5 144.9,141.7 145.3,137.9 145.8,134.1 146.3,130.2 146.7,126.5 147.2,122.7 147.7,119.0 148.1,115.3 148.6,111.8 149.0,108.3 149.5,104.9 150.0,101.6 150.4,98.4
150.9,95.4 151.4,92.5 151.8,89.8 152.3,87.3 152.7,84.9 153.2,82.7 153.7,80.7 154.1,79.0 154.6,77.4 155.1,76.0 155.5,74.9 156.0,74.0 156.4,73.4 156.9,72.9 157.4,72.7 157.8,72.7
158.3,73.0 158.8,73.4 159.2,74.1 159.7,75.0 160.2,76.1 160.6,77.5 161.1,79.0 161.5,80.7 162.0,82.5 162.5,84.5 162.9,86.7 163.4,89.1 163.9,91.5 164.3,94.1 164.8,96.8 165.2,99.6
165.7,102.4 166.2,105.4 166.6,108.4 167.1,111.4 167.6,114.5 168.0,117.6 168.5,120.7 168.9,123.9 169.4,127.0 169.9,130.1 170.3,133.2 170.8,136.3 171.3,139.3 171.7,142.3 172.2,145.2 172.6,148.1
173.1,150.9 173.6,153.6 174.0,156.3 174.5,158.9 175.0,161.5 175.4,163.9 175.9,166.3 176.3,168.6 176.8,170.9 177.3,173.0 177.7,175.1 178.2,177.1 178.7,179.0 179.1,180.9 179.6,182.7 180.1,184.4
180.5,186.1 181.0,187.6 181.4,189.2 181.9,190.7 182.4,192.1 182.8,193.4 183.3,194.7 183.8,196.0 184.2,197.2 184.7,198.4 185.1,199.5 185.6,200.6 186.1,201.7 186.5,202.7 187.0,203.7 187.5,204.7
187.9,205.6 188.4,206.5 188.8,207.4 189.3,208.3 189.8,209.1 190.2,209.9 190.7,210.7 191.2,211.5 191.6,212.3 192.1,213.0 192.5,213.7 193.0,214.5 193.5,215.2 193.9,215.9 194.4,216.5 194.9,217.2
195.3,217.9 195.8,218.5 196.3,219.2 196.7,219.8 197.2,220.4 197.6,221.0 198.1,221.6 198.6,222.2 199.0,222.8 199.5,223.4 200.0,224.0 200.4,224.5 200.9,225.1 201.3,225.6 201.8,226.2 202.3,226.7
202.7,227.2 203.2,227.8 203.7,228.3 204.1,228.8 204.6,229.3 205.0,229.7 205.5,230.2 206.0,230.7 206.4,231.2 206.9,231.6 207.4,232.1 207.8,232.5 208.3,232.9 208.7,233.3 209.2,233.7 209.7,234.1
210.1,234.5 210.6,234.9 211.1,235.2 211.5,235.6 212.0,235.9 212.4,236.2 212.9,236.5 213.4,236.8 213.8,237.1 214.3,237.4 214.8,237.7 215.2,237.9 215.7,238.1 216.2,238.4 216.6,238.6 217.1,238.7
217.5,238.9 218.0,239.1 218.5,239.2 218.9,239.4 219.4,239.5 219.9,239.6 220.3,239.7 220.8,239.8 221.2,239.8 221.7,239.9 222.2,239.9 222.6,239.9 223.1,239.9 223.6,239.9 224.0,239.9 224.5,239.9
224.9,239.9 225.4,239.8 225.9,239.7 226.3,239.7 226.8,239.6 227.3,239.5 227.7,239.4 228.2,239.3 228.6,239.1 229.1,239.0 229.6,238.9 230.0,238.7 230.5,238.6 231.0,238.4 231.4,238.2 231.9,238.1
232.3,237.9 232.8,237.7 233.3,237.5 233.7,237.3 234.2,237.1 234.7,237.0 235.1,236.8 235.6,236.6 236.1,236.4 236.5,236.2 237.0,236.0 237.4,235.9 237.9,235.7 238.4,235.5 238.8,235.4 239.3,235.2
239.8,235.1 240.2,234.9 240.7,234.8 241.1,234.7 241.6,234.6 242.1,234.5 242.5,234.4 243.0,234.3 243.5,234.2 243.9,234.2 244.4,234.1 244.8,234.1 245.3,234.1 245.8,234.1 246.2,234.1 246.7,234.1
247.2,234.1 247.6,234.1 248.1,234.2 248.5,234.2 249.0,234.3 249.5,234.3 249.9,234.4 250.4,234.5 250.9,234.6 251.3,234.7 251.8,234.8 252.3,234.9 252.7,235.1 253.2,235.2 253.6,235.3 254.1,235.5
254.6,235.6 255.0,235.8 255.5,235.9 256.0,236.1 256.4,236.3 256.9,236.4 257.3,236.6 257.8,236.8 258.3,236.9 258.7,237.1 259.2,237.3 259.7,237.4 260.1,237.6 260.6,237.8 261.0,237.9 261.5,238.1
262.0,238.3 262.4,238.4 262.9,238.6 263.4,238.8 263.8,238.9 264.3,239.1 264.7,239.2 265.2,239.4 265.7,239.5 266.1,239.6 266.6,239.8 267.1,239.9 267.5,240.0 268.0,240.2 268.4,240.3 268.9,240.4
269.4,240.5 269.8,240.6 270.3,240.7 270.8,240.8 271.2,240.9 271.7,240.9 272.2,241.0 272.6,241.1 273.1,241.2 273.5,241.2 274.0,241.3 274.5,241.3 274.9,241.4 275.4,241.4 275.9,241.4 276.3,241.5
276.8,241.5 277.2,241.5 277.7,241.5 278.2,241.5 278.6,241.5 279.1,241.5 279.6,241.5 280.0,241.5 280.5,241.5 280.9,241.5 281.4,241.4 281.9,241.4 282.3,241.4 282.8,241.3 283.3,241.3 283.7,241.3
284.2,241.2 284.6,241.2 285.1,241.1 285.6,241.1 286.0,241.0 286.5,241.0 287.0,240.9 287.4,240.8 287.9,240.8 288.3,240.7 288.8,240.7 289.3,240.6 289.7,240.5 290.2,240.5 290.7,240.4 291.1,240.4
291.6,240.3 292.1,240.3 292.5,240.2 293.0,240.2 293.4,240.1 293.9,240.1 294.4,240.1 294.8,240.0 295.3,240.0 295.8,240.0 296.2,240.0 296.7,239.9 297.1,239.9 297.6,239.9 298.1,239.9 298.5,239.9
299.0,239.9 299.5,240.0 299.9,240.0 300.4,240.0 300.8,240.0 301.3,240.0 301.8,240.1 302.2,240.1 302.7,240.2 303.2,240.2 303.6,240.3 304.1,240.3 304.5,240.4 305.0,240.4 305.5,240.5 305.9,240.5
306.4,240.6 306.9,240.7 307.3,240.7 307.8,240.8 308.3,240.8 308.7,240.9 309.2,241.0 309.6,241.0 310.1,241.1 310.6,241.2 311.0,241.2 311.5,241.3 312.0,241.4 312.4,241.4 312.9,241.5 313.3,241.5
313.8,241.6 314.3,241.6 314.7,241.7 315.2,241.7 315.7,241.8 316.1,241.8 316.6,241.9 317.0,241.9 317.5,241.9 318.0,242.0 318.4,242.0 318.9,242.0 319.4,242.1 319.8,242.1 320.3,242.1 320.7,242.1
321.2,242.2 321.7,242.2 322.1,242.2 322.6,242.2 323.1,242.2 323.5,242.3 324.0,242.3 324.4,242.3 324.9,242.3 325.4,242.3 325.8,242.3 326.3,242.3 326.8,242.3 327.2,242.3 327.7,242.3 328.2,242.4
328.6,242.4 329.1,242.4 329.5,242.4 330.0,242.4 330.0,242.4 329.5,242.4 329.1,242.4 328.6,242.4 328.2,242.4 327.7,242.4 327.2,242.4 326.8,242.4 326.3,242.4 325.8,242.4 325.4,242.4 324.9,242.4
324.4,242.4 324.0,242.4 323.5,242.4 323.1,242.4 322.6,242.4 322.1,242.4 321.7,242.4 321.2,242.4 320.7,242.4 320.3,242.4 319.8,242.4 319.4,242.4 318.9,242.4 318.4,242.4 318.0,242.4 317.5,242.4
317.0,242.4 316.6,242.4 316.1,242.4 315.7,242.4 315.2,242.4 314.7,242.4 314.3,242.4 313.8,242.4 313.3,242.4 312.9,242.4 312.4,242.4 312.0,242.4 311.5,242.4 311.0,242.4 310.6,242.4 310.1,242.4
309.6,242.4 309.2,242.4 308.7,242.4 308.3,242.4 307.8,242.4 307.3,242.4 306.9,242.4 306.4,242.4 305.9,242.4 305.5,242.4 305.0,242.4 304.5,242.4 304.1,242.4 303.6,242.4 303.2,242.4 302.7,242.4
302.2,242.4 301.8,242.4 301.3,242.4 300.8,242.4 300.4,242.4 299.9,242.4 299.5,242.4 299.0,242.4 298.5,242.4 298.1,242.4 297.6,242.4 297.1,242.4 296.7,242.4 296.2,242.4 295.8,242.4 295.3,242.4
294.8,242.4 294.4,242.4 293.9,242.4 293.4,242.4 293.0,242.4 292.5,242.4 292.1,242.4 291.6,242.4 291.1,242.4 290.7,242.4 290.2,242.4 289.7,242.4 289.3,242.4 288.8,242.4 288.3,242.4 287.9,242.4
287.4,242.4 287.0,242.4 286.5,242.4 286.0,242.4 285.6,242.4 285.1,242.4 284.6,242.4 284.2,242.4 283.7,242.4 283.3,242.4 282.8,242.4 282.3,242.4 281.9,242.4 281.4,242.4 280.9,242.4 280.5,242.4
280.0,242.4 279.6,242.4 279.1,242.4 278.6,242.4 278.2,242.4 277.7,242.4 277.2,242.4 276.8,242.4 276.3,242.4 275.9,242.4 275.4,242.4 274.9,242.4 274.5,242.4 274.0,242.4 273.5,242.4 273.1,242.4
272.6,242.4 272.2,242.4 271.7,242.4 271.2,242.4 270.8,242.4 270.3,242.4 269.8,242.4 269.4,242.4 268.9,242.4 268.4,242.4 268.0,242.4 267.5,242.4 267.1,242.4 266.6,242.4 266.1,242.4 265.7,242.4
265.2,242.4 264.7,242.4 264.3,242.4 263.8,242.4 263.4,242.4 262.9,242.4 262.4,242.4 262.0,242.4 261.5,242.4 261.0,242.4 260.6,242.4 260.1,242.4 259.7,242.4 259.2,242.4 258.7,242.4 258.3,242.4
257.8,242.4 257.3,242.4 256.9,242.4 256.4,242.4 256.0,242.4 255.5,242.4 255.0,242.4 254.6,242.4 254.1,242.4 253.6,242.4 253.2,242.4 252.7,242.4 252.3,242.4 251.8,242.4 251.3,242.4 250.9,242.4
250.4,242.4 249.9,242.4 249.5,242.4 249.0,242.4 248.5,242.4 248.1,242.4 247.6,242.4 247.2,242.4 246.7,242.4 246.2,242.4 245.8,242.4 245.3,242.4 244.8,242.4 244.4,242.4 243.9,242.4 243.5,242.4
243.0,242.4 242.5,242.4 242.1,242.4 241.6,242.4 241.1,242.4 240.7,242.4 240.2,242.4 239.8,242.4 239.3,242.4 238.8,242.4 238.4,242.4 237.9,242.4 237.4,242.4 237.0,242.4 236.5,242.4 236.1,242.4
235.6,242.4 235.1,242.4 234.7,242.4 234.2,242.4 233.7,242.4 233.3,242.4 232.8,242.4 232.3,242.4 231.9,242.4 231.4,242.4 231.0,242.4 230.5,242.4 230.0,242.4 229.6,242.4 229.1,242.4 228.6,242.4
228.2,242.4 227.7,242.4 227.3,242.4 226.8,242.4 226.3,242.4 225.9,242.4 225.4,242.4 224.9,242.4 224.5,242.4 224.0,242.4 223.6,242.4 223.1,242.4 222.6,242.4 222.2,242.4 221.7,242.4 221.2,242.4
220.8,242.4 220.3,242.4 219.9,242.4 219.4,242.4 218.9,242.4 218.5,242.4 218.0,242.4 217.5,242.4 217.1,242.4 216.6,242.4 216.2,242.4 215.7,242.4 215.2,242.4 214.8,242.4 214.3,242.4 213.8,242.4
213.4,242.4 212.9,242.4 212.4,242.4 212.0,242.4 211.5,242.4 211.1,242.4 210.6,242.4 210.1,242.4 209.7,242.4 209.2,242.4 208.7,242.4 208.3,242.4 207.8,242.4 207.4,242.4 206.9,242.4 206.4,242.4
206.0,242.4 205.5,242.4 205.0,242.4 204.6,242.4 204.1,242.4 203.7,242.4 203.2,242.4 202.7,242.4 202.3,242.4 201.8,242.4 201.3,242.4 200.9,242.4 200.4,242.4 200.0,242.4 199.5,242.4 199.0,242.4
198.6,242.4 198.1,242.4 197.6,242.4 197.2,242.4 196.7,242.4 196.3,242.4 195.8,242.4 195.3,242.4 194.9,242.4 194.4,242.4 193.9,242.4 193.5,242.4 193.0,242.4 192.5,242.4 192.1,242.4 191.6,242.4
191.2,242.4 190.7,242.4 190.2,242.4 189.8,242.4 189.3,242.4 188.8,242.4 188.4,242.4 187.9,242.4 187.5,242.4 187.0,242.4 186.5,242.4 186.1,242.4 185.6,242.4 185.1,242.4 184.7,242.4 184.2,242.4
183.8,242.4 183.3,242.4 182.8,242.4 182.4,242.4 181.9,242.4 181.4,242.4 181.0,242.4 180.5,242.4 180.1,242.4 179.6,242.4 179.1,242.4 178.7,242.4 178.2,242.4 177.7,242.4 177.3,242.4 176.8,242.4
176.3,242.4 175.9,242.4 175.4,242.4 175.0,242.4 174.5,242.4 174.0,242.4 173.6,242.4 173.1,242.4 172.6,242.4 172.2,242.4 171.7,242.4 171.3,242.4 170.8,242.4 170.3,242.4 169.9,242.4 169.4,242.4
168.9,242.4 168.5,242.4 168.0,242.4 167.6,242.4 167.1,242.4 166.6,242.4 166.2,242.4 165.7,242.4 165.2,242.4 164.8,242.4 164.3,242.4 163.9,242.4 163.4,242.4 162.9,242.4 162.5,242.4 162.0,242.4
161.5,242.4 161.1,242.4 160.6,242.4 160.2,242.4 159.7,242.4 159.2,242.4 158.8,242.4 158.3,242.4 157.8,242.4 157.4,242.4 156.9,242.4 156.4,242.4 156.0,242.4 155.5,242.4 155.1,242.4 154.6,242.4
154.1,242.4 153.7,242.4 153.2,242.4 152.7,242.4 152.3,242.4 151.8,242.4 151.4,242.4 150.9,242.4 150.4,242.4 150.0,242.4 149.5,242.4 149.0,242.4 148.6,242.4 148.1,242.4 147.7,242.4 147.2,242.4
146.7,242.4 146.3,242.4 145.8,242.4 145.3,242.4 144.9,242.4 144.4,242.4 144.0,242.4 143.5,242.4 143.0,242.4 142.6,242.4 142.1,242.4 141.6,242.4 141.2,242.4 140.7,242.4 140.3,242.4 139.8,242.4
139.3,242.4 138.9,242.4 138.4,242.4 137.9,242.4 137.5,242.4 137.0,242.4 136.5,242.4 136.1,242.4 135.6,242.4 135.2,242.4 134.7,242.4 134.2,242.4 133.8,242.4 133.3,242.4 132.8,242.4 132.4,242.4
131.9,242.4 131.5,242.4 131.0,242.4 130.5,242.4 130.1,242.4 129.6,242.4 129.1,242.4 128.7,242.4 128.2,242.4 127.8,242.4 127.3,242.4 126.8,242.4 126.4,242.4 125.9,242.4 125.4,242.4 125.0,242.4
124.5,242.4 124.1,242.4 123.6,242.4 123.1,242.4 122.7,242.4 122.2,242.4 121.7,242.4 121.3,242.4 120.8,242.4 120.3,242.4 119.9,242.4 119.4,242.4 119.0,242.4 118.5,242.4 118.0,242.4 117.6,242.4
117.1,242.4 116.6,242.4 116.2,242.4 115.7,242.4 115.3,242.4 114.8,242.4 114.3,242.4 113.9,242.4 113.4,242.4 112.9,242.4 112.5,242.4 112.0,242.4 111.6,242.4 111.1,242.4 110.6,242.4 110.2,242.4
109.7,242.4 109.2,242.4 108.8,242.4 108.3,242.4 107.9,242.4 107.4,242.4 106.9,242.4 106.5,242.4 106.0,242.4 105.5,242.4 105.1,242.4 104.6,242.4 104.2,242.4 103.7,242.4 103.2,242.4 102.8,242.4
102.3,242.4 101.8,242.4 101.4,242.4 100.9,242.4 100.4,242.4 100.0,242.4 99.5,242.4 99.1,242.4 '/>
	</g>
</g>
	</g>
	<g id="gnuplot_plot_2" ><title>Base Mean</title>
<g fill="none" color="white" stroke="rgb(227,  26,  28)" stroke-width="2.00" stroke-linecap="butt" stroke-linejoin="miter">
</g>
<g fill="none" color="black" stroke="currentColor" stroke-width="2.00" stroke-linecap="butt" stroke-linejoin="miter">
	<path stroke='rgb(227,  26,  28)'  d='M166.5,242.4 L166.5,107.2  '/></g>
	</g>
	<g id="gnuplot_plot_3" ><title>New PDF</title>
<g fill="none" color="white" stroke="rgb(227,  26,  28)" stroke-width="1.00" stroke-linecap="butt" stroke-linejoin="miter">
</g>
<g fill="none" color="black" stroke="currentColor" stroke-width="1.00" stroke-linecap="butt" stroke-linejoin="miter">
	<g stroke='none' shape-rendering='crispEdges'>
		<polygon fill = 'rgb( 31, 120, 180)' fill-opacity = '0.500000' points = '177.4,242.3 177.9,242.3 178.4,242.3 178.8,242.3 179.3,242.3 179.8,242.3 180.2,242.3 180.7,242.3 181.2,242.2 181.6,242.2 182.1,242.2 182.5,242.2 183.0,242.1 183.5,242.1 183.9,242.1 184.4,242.0
184.9,242.0 185.3,241.9 185.8,241.9 186.2,241.8 186.7,241.7 187.2,241.7 187.6,241.6 188.1,241.5 188.6,241.4 189.0,241.3 189.5,241.2 189.9,241.1 190.4,241.0 190.9,240.9 191.3,240.8 191.8,240.6
192.3,240.5 192.7,240.3 193.2,240.2 193.6,240.0 194.1,239.8 194.6,239.6 195.0,239.4 195.5,239.2 196.0,239.0 196.4,238.8 196.9,238.6 197.4,238.3 197.8,238.1 198.3,237.8 198.7,237.5 199.2,237.3
199.7,237.0 200.1,236.6 200.6,236.3 201.1,236.0 201.5,235.6 202.0,235.2 202.4,234.8 202.9,234.3 203.4,233.8 203.8,233.3 204.3,232.8 204.8,232.1 205.2,231.5 205.7,230.8 206.1,230.0 206.6,229.2
207.1,228.3 207.5,227.4 208.0,226.3 208.5,225.2 208.9,223.9 209.4,222.6 209.8,221.1 210.3,219.6 210.8,217.9 211.2,216.1 211.7,214.1 212.2,212.0 212.6,209.8 213.1,207.4 213.6,204.8 214.0,202.1
214.5,199.3 214.9,196.2 215.4,193.0 215.9,189.6 216.3,186.1 216.8,182.4 217.3,178.5 217.7,174.5 218.2,170.3 218.6,166.0 219.1,161.6 219.6,157.0 220.0,152.3 220.5,147.6 221.0,142.7 221.4,137.8
221.9,132.8 222.3,127.8 222.8,122.8 223.3,117.8 223.7,112.8 224.2,107.8 224.7,103.0 225.1,98.2 225.6,93.5 226.0,89.0 226.5,84.6 227.0,80.4 227.4,76.4 227.9,72.7 228.4,69.1 228.8,65.8
229.3,62.8 229.7,60.1 230.2,57.6 230.7,55.5 231.1,53.7 231.6,52.2 232.1,51.0 232.5,50.1 233.0,49.6 233.5,49.4 233.9,49.5 234.4,50.0 234.8,50.7 235.3,51.8 235.8,53.1 236.2,54.8
236.7,56.7 237.2,58.8 237.6,61.2 238.1,63.8 238.5,66.7 239.0,69.7 239.5,72.8 239.9,76.2 240.4,79.6 240.9,83.2 241.3,86.9 241.8,90.6 242.2,94.4 242.7,98.3 243.2,102.2 243.6,106.1
244.1,110.0 244.6,113.9 245.0,117.7 245.5,121.5 245.9,125.3 246.4,129.1 246.9,132.7 247.3,136.3 247.8,139.8 248.3,143.3 248.7,146.6 249.2,149.9 249.7,153.1 250.1,156.2 250.6,159.2 251.0,162.1
251.5,164.9 252.0,167.6 252.4,170.2 252.9,172.8 253.4,175.2 253.8,177.6 254.3,179.8 254.7,182.0 255.2,184.1 255.7,186.2 256.1,188.1 256.6,190.0 257.1,191.8 257.5,193.5 258.0,195.2 258.4,196.8
258.9,198.3 259.4,199.8 259.8,201.2 260.3,202.6 260.8,203.9 261.2,205.1 261.7,206.3 262.1,207.4 262.6,208.5 263.1,209.6 263.5,210.5 264.0,211.5 264.5,212.4 264.9,213.2 265.4,214.0 265.8,214.8
266.3,215.5 266.8,216.2 267.2,216.9 267.7,217.5 268.2,218.1 268.6,218.7 269.1,219.2 269.6,219.7 270.0,220.2 270.5,220.7 270.9,221.1 271.4,221.5 271.9,222.0 272.3,222.4 272.8,222.7 273.3,223.1
273.7,223.5 274.2,223.8 274.6,224.2 275.1,224.5 275.6,224.9 276.0,225.2 276.5,225.5 277.0,225.9 277.4,226.2 277.9,226.5 278.3,226.9 278.8,227.2 279.3,227.6 279.7,227.9 280.2,228.3 280.7,228.6
281.1,229.0 281.6,229.3 282.0,229.7 282.5,230.1 283.0,230.4 283.4,230.8 283.9,231.2 284.4,231.5 284.8,231.9 285.3,232.2 285.8,232.6 286.2,233.0 286.7,233.3 287.1,233.7 287.6,234.0 288.1,234.3
288.5,234.7 289.0,235.0 289.5,235.3 289.9,235.6 290.4,235.9 290.8,236.2 291.3,236.4 291.8,236.7 292.2,237.0 292.7,237.2 293.2,237.4 293.6,237.6 294.1,237.8 294.5,238.0 295.0,238.2 295.5,238.3
295.9,238.5 296.4,238.6 296.9,238.7 297.3,238.8 297.8,238.9 298.2,239.0 298.7,239.1 299.2,239.2 299.6,239.2 300.1,239.3 300.6,239.3 301.0,239.3 301.5,239.3 302.0,239.4 302.4,239.4 302.9,239.4
303.3,239.4 303.8,239.3 304.3,239.3 304.7,239.3 305.2,239.3 305.7,239.3 306.1,239.3 306.6,239.2 307.0,239.2 307.5,239.2 308.0,239.2 308.4,239.2 308.9,239.1 309.4,239.1 309.8,239.1 310.3,239.1
310.7,239.1 311.2,239.1 311.7,239.1 312.1,239.1 312.6,239.1 313.1,239.1 313.5,239.1 314.0,239.1 314.4,239.1 314.9,239.1 315.4,239.1 315.8,239.1 316.3,239.1 316.8,239.1 317.2,239.1 317.7,239.1
318.1,239.1 318.6,239.1 319.1,239.1 319.5,239.1 320.0,239.1 320.5,239.1 320.9,239.1 321.4,239.1 321.9,239.1 322.3,239.1 322.8,239.1 323.2,239.1 323.7,239.1 324.2,239.1 324.6,239.1 325.1,239.1
325.6,239.1 326.0,239.1 326.5,239.1 326.9,239.2 327.4,239.2 327.9,239.2 328.3,239.2 328.8,239.3 329.3,239.3 329.7,239.3 330.2,239.4 330.6,239.4 331.1,239.5 331.6,239.5 332.0,239.6 332.5,239.6
333.0,239.7 333.4,239.8 333.9,239.9 334.3,239.9 334.8,240.0 335.3,240.1 335.7,240.2 336.2,240.2 336.7,240.3 337.1,240.4 337.6,240.5 338.1,240.6 338.5,240.7 339.0,240.8 339.4,240.8 339.9,240.9
340.4,241.0 340.8,241.1 341.3,241.2 341.8,241.2 342.2,241.3 342.7,241.4 343.1,241.5 343.6,241.5 344.1,241.6 344.5,241.7 345.0,241.7 345.5,241.8 345.9,241.8 346.4,241.9 346.8,241.9 347.3,242.0
347.8,242.0 348.2,242.0 348.7,242.1 349.2,242.1 349.6,242.1 350.1,242.1 350.5,242.2 351.0,242.2 351.5,242.2 351.9,242.2 352.4,242.2 352.9,242.2 353.3,242.2 353.8,242.2 354.2,242.2 354.7,242.2
355.2,242.2 355.6,242.2 356.1,242.2 356.6,242.2 357.0,242.2 357.5,242.2 358.0,242.2 358.4,242.2 358.9,242.1 359.3,242.1 359.8,242.1 360.3,242.1 360.7,242.0 361.2,242.0 361.7,242.0 362.1,241.9
362.6,241.9 363.0,241.8 363.5,241.8 364.0,241.7 364.4,241.7 364.9,241.6 365.4,241.5 365.8,241.5 366.3,241.4 366.7,241.3 367.2,241.3 367.7,241.2 368.1,241.1 368.6,241.0 369.1,241.0 369.5,240.9
370.0,240.8 370.4,240.7 370.9,240.6 371.4,240.5 371.8,240.5 372.3,240.4 372.8,240.3 373.2,240.2 373.7,240.2 374.2,240.1 374.6,240.0 375.1,240.0 375.5,239.9 376.0,239.9 376.5,239.8 376.9,239.8
377.4,239.7 377.9,239.7 378.3,239.7 378.8,239.6 379.2,239.6 379.7,239.6 380.2,239.6 380.6,239.6 381.1,239.6 381.6,239.7 382.0,239.7 382.5,239.7 382.9,239.8 383.4,239.8 383.9,239.9 384.3,239.9
384.8,240.0 385.3,240.0 385.7,240.1 386.2,240.2 386.6,240.2 387.1,240.3 387.6,240.4 388.0,240.5 388.5,240.6 389.0,240.6 389.4,240.7 389.9,240.8 390.4,240.9 390.8,241.0 391.3,241.0 391.7,241.1
392.2,241.2 392.7,241.3 393.1,241.3 393.6,241.4 394.1,241.5 394.5,241.6 395.0,241.6 395.4,241.7 395.9,241.7 396.4,241.8 396.8,241.8 397.3,241.9 397.8,241.9 398.2,242.0 398.7,242.0 399.1,242.0
399.6,242.1 400.1,242.1 400.5,242.1 401.0,242.2 401.5,242.2 401.9,242.2 402.4,242.2 402.8,242.3 403.3,242.3 403.8,242.3 404.2,242.3 404.7,242.3 405.2,242.3 405.6,242.3 406.1,242.3 406.5,242.3
407.0,242.4 407.5,242.4 407.9,242.4 408.4,242.4 408.4,242.4 407.9,242.4 407.5,242.4 407.0,242.4 406.5,242.4 406.1,242.4 405.6,242.4 405.2,242.4 404.7,242.4 404.2,242.4 403.8,242.4 403.3,242.4
402.8,242.4 402.4,242.4 401.9,242.4 401.5,242.4 401.0,242.4 400.5,242.4 400.1,242.4 399.6,242.4 399.1,242.4 398.7,242.4 398.2,242.4 397.8,242.4 397.3,242.4 396.8,242.4 396.4,242.4 395.9,242.4
395.4,242.4 395.0,242.4 394.5,242.4 394.1,242.4 393.6,242.4 393.1,242.4 392.7,242.4 392.2,242.4 391.7,242.4 391.3,242.4 390.8,242.4 390.4,242.4 389.9,242.4 389.4,242.4 389.0,242.4 388.5,242.4
388.0,242.4 387.6,242.4 387.1,242.4 386.6,242.4 386.2,242.4 385.7,242.4 385.3,242.4 384.8,242.4 384.3,242.4 383.9,242.4 383.4,242.4 382.9,242.4 382.5,242.4 382.0,242.4 381.6,242.4 381.1,242.4
380.6,242.4 380.2,242.4 379.7,242.4 379.2,242.4 378.8,242.4 378.3,242.4 377.9,242.4 377.4,242.4 376.9,242.4 376.5,242.4 376.0,242.4 375.5,242.4 375.1,242.4 374.6,242.4 374.2,242.4 373.7,242.4
373.2,242.4 372.8,242.4 372.3,242.4 371.8,242.4 371.4,242.4 370.9,242.4 370.4,242.4 370.0,242.4 369.5,242.4 369.1,242.4 368.6,242.4 368.1,242.4 367.7,242.4 367.2,242.4 366.7,242.4 366.3,242.4
365.8,242.4 365.4,242.4 364.9,242.4 364.4,242.4 364.0,242.4 363.5,242.4 363.0,242.4 362.6,242.4 362.1,242.4 361.7,242.4 361.2,242.4 360.7,242.4 360.3,242.4 359.8,242.4 359.3,242.4 358.9,242.4
358.4,242.4 358.0,242.4 357.5,242.4 357.0,242.4 356.6,242.4 356.1,242.4 355.6,242.4 355.2,242.4 354.7,242.4 354.2,242.4 353.8,242.4 353.3,242.4 352.9,242.4 352.4,242.4 351.9,242.4 351.5,242.4
351.0,242.4 350.5,242.4 350.1,242.4 349.6,242.4 349.2,242.4 348.7,242.4 348.2,242.4 347.8,242.4 347.3,242.4 346.8,242.4 346.4,242.4 345.9,242.4 345.5,242.4 345.0,242.4 344.5,242.4 344.1,242.4
343.6,242.4 343.1,242.4 342.7,242.4 342.2,242.4 341.8,242.4 341.3,242.4 340.8,242.4 340.4,242.4 339.9,242.4 339.4,242.4 339.0,242.4 338.5,242.4 338.1,242.4 337.6,242.4 337.1,242.4 336.7,242.4
336.2,242.4 335.7,242.4 335.3,242.4 334.8,242.4 334.3,242.4 333.9,242.4 333.4,242.4 333.0,242.4 332.5,242.4 332.0,242.4 331.6,242.4 331.1,242.4 330.6,242.4 330.2,242.4 329.7,242.4 329.3,242.4
328.8,242.4 328.3,242.4 327.9,242.4 327.4,242.4 326.9,242.4 326.5,242.4 326.0,242.4 325.6,242.4 325.1,242.4 324.6,242.4 324.2,242.4 323.7,242.4 323.2,242.4 322.8,242.4 322.3,242.4 321.9,242.4
321.4,242.4 320.9,242.4 320.5,242.4 320.0,242.4 319.5,242.4 319.1,242.4 318.6,242.4 318.1,242.4 317.7,242.4 317.2,242.4 316.8,242.4 316.3,242.4 315.8,242.4 315.4,242.4 314.9,242.4 314.4,242.4
314.0,242.4 313.5,242.4 313.1,242.4 312.6,242.4 312.1,242.4 311.7,242.4 311.2,242.4 310.7,242.4 310.3,242.4 309.8,242.4 309.4,242.4 308.9,242.4 308.4,242.4 308.0,242.4 307.5,242.4 307.0,242.4
306.6,242.4 306.1,242.4 305.7,242.4 305.2,242.4 304.7,242.4 304.3,242.4 303.8,242.4 303.3,242.4 302.9,242.4 302.4,242.4 302.0,242.4 301.5,242.4 301.0,242.4 300.6,242.4 300.1,242.4 299.6,242.4
299.2,242.4 298.7,242.4 298.2,242.4 297.8,242.4 297.3,242.4 296.9,242.4 296.4,242.4 295.9,242.4 295.5,242.4 295.0,242.4 294.5,242.4 294.1,242.4 293.6,242.4 293.2,242.4 292.7,242.4 292.2,242.4
291.8,242.4 291.3,242.4 290.8,242.4 290.4,242.4 289.9,242.4 289.5,242.4 289.0,242.4 288.5,242.4 288.1,242.4 287.6,242.4 287.1,242.4 286.7,242.4 286.2,242.4 285.8,242.4 285.3,242.4 284.8,242.4
284.4,242.4 283.9,242.4 283.4,242.4 283.0,242.4 282.5,242.4 282.0,242.4 281.6,242.4 281.1,242.4 280.7,242.4 280.2,242.4 279.7,242.4 279.3,242.4 278.8,242.4 278.3,242.4 277.9,242.4 277.4,242.4
277.0,242.4 276.5,242.4 276.0,242.4 275.6,242.4 275.1,242.4 274.6,242.4 274.2,242.4 273.7,242.4 273.3,242.4 272.8,242.4 272.3,242.4 271.9,242.4 271.4,242.4 270.9,242.4 270.5,242.4 270.0,242.4
269.6,242.4 269.1,242.4 268.6,242.4 268.2,242.4 267.7,242.4 267.2,242.4 266.8,242.4 266.3,242.4 265.8,242.4 265.4,242.4 264.9,242.4 264.5,242.4 264.0,242.4 263.5,242.4 263.1,242.4 262.6,242.4
262.1,242.4 261.7,242.4 261.2,242.4 260.8,242.4 260.3,242.4 259.8,242.4 259.4,242.4 258.9,242.4 258.4,242.4 258.0,242.4 257.5,242.4 257.1,242.4 256.6,242.4 256.1,242.4 255.7,242.4 255.2,242.4
254.7,242.4 254.3,242.4 253.8,242.4 253.4,242.4 252.9,242.4 252.4,242.4 252.0,242.4 251.5,242.4 251.0,242.4 250.6,242.4 250.1,242.4 249.7,242.4 249.2,242.4 248.7,242.4 248.3,242.4 247.8,242.4
247.3,242.4 246.9,242.4 246.4,242.4 245.9,242.4 245.5,242.4 245.0,242.4 244.6,242.4 244.1,242.4 243.6,242.4 243.2,242.4 242.7,242.4 242.2,242.4 241.8,242.4 241.3,242.4 240.9,242.4 240.4,242.4
239.9,242.4 239.5,242.4 239.0,242.4 238.5,242.4 238.1,242.4 237.6,242.4 237.2,242.4 236.7,242.4 236.2,242.4 235.8,242.4 235.3,242.4 234.8,242.4 234.4,242.4 233.9,242.4 233.5,242.4 233.0,242.4
232.5,242.4 232.1,242.4 231.6,242.4 231.1,242.4 230.7,242.4 230.2,242.4 229.7,242.4 229.3,242.4 228.8,242.4 228.4,242.4 227.9,242.4 227.4,242.4 227.0,242.4 226.5,242.4 226.0,242.4 225.6,242.4
225.1,242.4 224.7,242.4 224.2,242.4 223.7,242.4 223.3,242.4 222.8,242.4 222.3,242.4 221.9,242.4 221.4,242.4 221.0,242.4 220.5,242.4 220.0,242.4 219.6,242.4 219.1,242.4 218.6,242.4 218.2,242.4
217.7,242.4 217.3,242.4 216.8,242.4 216.3,242.4 215.9,242.4 215.4,242.4 214.9,242.4 214.5,242.4 214.0,242.4 213.6,242.4 213.1,242.4 212.6,242.4 212.2,242.4 211.7,242.4 211.2,242.4 210.8,242.4
210.3,242.4 209.8,242.4 209.4,242.4 208.9,242.4 208.5,242.4 208.0,242.4 207.5,242.4 207.1,242.4 206.6,242.4 206.1,242.4 205.7,242.4 205.2,242.4 204.8,242.4 204.3,242.4 203.8,242.4 203.4,242.4
202.9,242.4 202.4,242.4 202.0,242.4 201.5,242.4 201.1,242.4 200.6,242.4 200.1,242.4 199.7,242.4 199.2,242.4 198.7,242.4 198.3,242.4 197.8,242.4 197.4,242.4 196.9,242.4 196.4,242.4 196.0,242.4
195.5,242.4 195.0,242.4 194.6,242.4 194.1,242.4 193.6,242.4 193.2,242.4 192.7,242.4 192.3,242.4 191.8,242.4 191.3,242.4 190.9,242.4 190.4,242.4 189.9,242.4 189.5,242.4 189.0,242.4 188.6,242.4
188.1,242.4 187.6,242.4 187.2,242.4 186.7,242.4 186.2,242.4 185.8,242.4 185.3,242.4 184.9,242.4 184.4,242.4 183.9,242.4 183.5,242.4 183.0,242.4 182.5,242.4 182.1,242.4 181.6,242.4 181.2,242.4
180.7,242.4 180.2,242.4 179.8,242.4 179.3,242.4 178.8,242.4 178.4,242.4 177.9,242.4 177.4,242.4 '/>
	</g>
</g>
	</g>
	<g id="gnuplot_plot_4" ><title>New Mean</title>
<g fill="none" color="white" stroke="rgb( 31, 120, 180)" stroke-width="2.00" stroke-linecap="butt" stroke-linejoin="miter">
</g>
<g fill="none" color="black" stroke="currentColor" stroke-width="2.00" stroke-linecap="butt" stroke-linejoin="miter">
	<path stroke='rgb( 31, 120, 180)'  d='M241.1,242.4 L241.1,85.1  '/></g>
	</g>
<g fill="none" color="black" stroke="currentColor" stroke-width="2.00" stroke-linecap="butt" stroke-linejoin="miter">
</g>
<g fill="none" color="black" stroke="black" stroke-width="1.00" stroke-linecap="butt" stroke-linejoin="miter">
</g>
<g fill="none" color="black" stroke="currentColor" stroke-width="1.00" stroke-linecap="butt" stroke-linejoin="miter">
	<path stroke='black'  d='M71.9,18.1 L71.9,242.4 L425.0,242.4 L425.0,18.1 L71.9,18.1 Z  '/></g>
<g fill="none" color="black" stroke="currentColor" stroke-width="1.00" stroke-linecap="butt" stroke-linejoin="miter">
</g>
</g>
</svg>

