<?xml version="1.0" encoding="utf-8"  standalone="no"?>
<svg 
 viewBox="0 0 1280 720"
 xmlns="http://www.w3.org/2000/svg"
 xmlns:xlink="http://www.w3.org/1999/xlink"
>

<title>Gnuplot</title>
<desc>Produced by GNUPLOT 5.2 patchlevel 8 </desc>

<g id="gnuplot_canvas">

<rect x="0" y="0" width="1280" height="720" fill="none"/>
<defs>

	<circle id='gpDot' r='0.5' stroke-width='0.5' stroke='currentColor'/>
	<path id='gpPt0' stroke-width='0.222' stroke='currentColor' d='M-1,0 h2 M0,-1 v2'/>
	<path id='gpPt1' stroke-width='0.222' stroke='currentColor' d='M-1,-1 L1,1 M1,-1 L-1,1'/>
	<path id='gpPt2' stroke-width='0.222' stroke='currentColor' d='M-1,0 L1,0 M0,-1 L0,1 M-1,-1 L1,1 M-1,1 L1,-1'/>
	<rect id='gpPt3' stroke-width='0.222' stroke='currentColor' x='-1' y='-1' width='2' height='2'/>
	<rect id='gpPt4' stroke-width='0.222' stroke='currentColor' fill='currentColor' x='-1' y='-1' width='2' height='2'/>
	<circle id='gpPt5' stroke-width='0.222' stroke='currentColor' cx='0' cy='0' r='1'/>
	<use xlink:href='#gpPt5' id='gpPt6' fill='currentColor' stroke='none'/>
	<path id='gpPt7' stroke-width='0.222' stroke='currentColor' d='M0,-1.33 L-1.33,0.67 L1.33,0.67 z'/>
	<use xlink:href='#gpPt7' id='gpPt8' fill='currentColor' stroke='none'/>
	<use xlink:href='#gpPt7' id='gpPt9' stroke='currentColor' transform='rotate(180)'/>
	<use xlink:href='#gpPt9' id='gpPt10' fill='currentColor' stroke='none'/>
	<use xlink:href='#gpPt3' id='gpPt11' stroke='currentColor' transform='rotate(45)'/>
	<use xlink:href='#gpPt11' id='gpPt12' fill='currentColor' stroke='none'/>
	<path id='gpPt13' stroke-width='0.222' stroke='currentColor' d='M0,1.330 L1.265,0.411 L0.782,-1.067 L-0.782,-1.076 L-1.265,0.411 z'/>
	<use xlink:href='#gpPt13' id='gpPt14' fill='currentColor' stroke='none'/>
	<filter id='textbox' filterUnits='objectBoundingBox' x='0' y='0' height='1' width='1'>
	  <feFlood flood-color='white' flood-opacity='1' result='bgnd'/>
	  <feComposite in='SourceGraphic' in2='bgnd' operator='atop'/>
	</filter>
	<filter id='greybox' filterUnits='objectBoundingBox' x='0' y='0' height='1' width='1'>
	  <feFlood flood-color='lightgrey' flood-opacity='1' result='grey'/>
	  <feComposite in='SourceGraphic' in2='grey' operator='atop'/>
	</filter>
</defs>
<g fill="none" color="white" stroke="currentColor" stroke-width="1.00" stroke-linecap="butt" stroke-linejoin="miter">
</g>
<g fill="none" color="black" stroke="currentColor" stroke-width="1.00" stroke-linecap="butt" stroke-linejoin="miter">
	<path stroke='black'  d='M71.9,662.4 L80.9,662.4  '/>	<g transform="translate(63.6,666.3)" stroke="none" fill="black" font-family="Helvetica" font-size="12.00"  text-anchor="end">
		<text><tspan font-family="Helvetica" > 0</tspan></text>
	</g>
</g>
<g fill="none" color="black" stroke="currentColor" stroke-width="1.00" stroke-linecap="butt" stroke-linejoin="miter">
	<path stroke='black'  d='M71.9,586.4 L80.9,586.4  '/>	<g transform="translate(63.6,590.3)" stroke="none" fill="black" font-family="Helvetica" font-size="12.00"  text-anchor="end">
		<text><tspan font-family="Helvetica" > 50</tspan></text>
	</g>
</g>
<g fill="none" color="black" stroke="currentColor" stroke-width="1.00" stroke-linecap="butt" stroke-linejoin="miter">
	<path stroke='black'  d='M71.9,510.3 L80.9,510.3  '/>	<g transform="translate(63.6,514.2)" stroke="none" fill="black" font-family="Helvetica" font-size="12.00"  text-anchor="end">
		<text><tspan font-family="Helvetica" > 100</tspan></text>
	</g>
</g>
<g fill="none" color="black" stroke="currentColor" stroke-width="1.00" stroke-linecap="butt" stroke-linejoin="miter">
	<path stroke='black'  d='M71.9,434.3 L80.9,434.3  '/>	<g transform="translate(63.6,438.2)" stroke="none" fill="black" font-family="Helvetica" font-size="12.00"  text-anchor="end">
		<text><tspan font-family="Helvetica" > 150</tspan></text>
	</g>
</g>
<g fill="none" color="black" stroke="currentColor" stroke-width="1.00" stroke-linecap="butt" stroke-linejoin="miter">
	<path stroke='black'  d='M71.9,358.2 L80.9,358.2  '/>	<g transform="translate(63.6,362.1)" stroke="none" fill="black" font-family="Helvetica" font-size="12.00"  text-anchor="end">
		<text><tspan font-family="Helvetica" > 200</tspan></text>
	</g>
</g>
<g fill="none" color="black" stroke="currentColor" stroke-width="1.00" stroke-linecap="butt" stroke-linejoin="miter">
	<path stroke='black'  d='M71.9,282.2 L80.9,282.2  '/>	<g transform="translate(63.6,286.1)" stroke="none" fill="black" font-family="Helvetica" font-size="12.00"  text-anchor="end">
		<text><tspan font-family="Helvetica" > 250</tspan></text>
	</g>
</g>
<g fill="none" color="black" stroke="currentColor" stroke-width="1.00" stroke-linecap="butt" stroke-linejoin="miter">
	<path stroke='black'  d='M71.9,206.2 L80.9,206.2  '/>	<g transform="translate(63.6,210.1)" stroke="none" fill="black" font-family="Helvetica" font-size="12.00"  text-anchor="end">
		<text><tspan font-family="Helvetica" > 300</tspan></text>
	</g>
</g>
<g fill="none" color="black" stroke="currentColor" stroke-width="1.00" stroke-linecap="butt" stroke-linejoin="miter">
	<path stroke='black'  d='M71.9,130.1 L80.9,130.1  '/>	<g transform="translate(63.6,134.0)" stroke="none" fill="black" font-family="Helvetica" font-size="12.00"  text-anchor="end">
		<text><tspan font-family="Helvetica" > 350</tspan></text>
	</g>
</g>
<g fill="none" color="black" stroke="currentColor" stroke-width="1.00" stroke-linecap="butt" stroke-linejoin="miter">
	<path stroke='black'  d='M71.9,54.1 L80.9,54.1  '/>	<g transform="translate(63.6,58.0)" stroke="none" fill="black" font-family="Helvetica" font-size="12.00"  text-anchor="end">
		<text><tspan font-family="Helvetica" > 400</tspan></text>
	</g>
</g>
<g fill="none" color="black" stroke="currentColor" stroke-width="1.00" stroke-linecap="butt" stroke-linejoin="miter">
	<path stroke='black'  d='M71.9,662.4 L71.9,653.4  '/>	<g transform="translate(71.9,684.3)" stroke="none" fill="black" font-family="Helvetica" font-size="12.00"  text-anchor="middle">
		<text><tspan font-family="Helvetica" > 0.6</tspan></text>
	</g>
</g>
<g fill="none" color="black" stroke="currentColor" stroke-width="1.00" stroke-linecap="butt" stroke-linejoin="miter">
	<path stroke='black'  d='M188.5,662.4 L188.5,653.4  '/>	<g transform="translate(188.5,684.3)" stroke="none" fill="black" font-family="Helvetica" font-size="12.00"  text-anchor="middle">
		<text><tspan font-family="Helvetica" > 0.8</tspan></text>
	</g>
</g>
<g fill="none" color="black" stroke="currentColor" stroke-width="1.00" stroke-linecap="butt" stroke-linejoin="miter">
	<path stroke='black'  d='M305.1,662.4 L305.1,653.4  '/>	<g transform="translate(305.1,684.3)" stroke="none" fill="black" font-family="Helvetica" font-size="12.00"  text-anchor="middle">
		<text><tspan font-family="Helvetica" > 1</tspan></text>
	</g>
</g>
<g fill="none" color="black" stroke="currentColor" stroke-width="1.00" stroke-linecap="butt" stroke-linejoin="miter">
	<path stroke='black'  d='M421.8,662.4 L421.8,653.4  '/>	<g transform="translate(421.8,684.3)" stroke="none" fill="black" font-family="Helvetica" font-size="12.00"  text-anchor="middle">
		<text><tspan font-family="Helvetica" > 1.2</tspan></text>
	</g>
</g>
<g fill="none" color="black" stroke="currentColor" stroke-width="1.00" stroke-linecap="butt" stroke-linejoin="miter">
	<path stroke='black'  d='M538.4,662.4 L538.4,653.4  '/>	<g transform="translate(538.4,684.3)" stroke="none" fill="black" font-family="Helvetica" font-size="12.00"  text-anchor="middle">
		<text><tspan font-family="Helvetica" > 1.4</tspan></text>
	</g>
</g>
<g fill="none" color="black" stroke="currentColor" stroke-width="1.00" stroke-linecap="butt" stroke-linejoin="miter">
	<path stroke='black'  d='M655.0,662.4 L655.0,653.4  '/>	<g transform="translate(655.0,684.3)" stroke="none" fill="black" font-family="Helvetica" font-size="12.00"  text-anchor="middle">
		<text><tspan font-family="Helvetica" > 1.6</tspan></text>
	</g>
</g>
<g fill="none" color="black" stroke="currentColor" stroke-width="1.00" stroke-linecap="butt" stroke-linejoin="miter">
	<path stroke='black'  d='M771.6,662.4 L771.6,653.4  '/>	<g transform="translate(771.6,684.3)" stroke="none" fill="black" font-family="Helvetica" font-size="12.00"  text-anchor="middle">
		<text><tspan font-family="Helvetica" > 1.8</tspan></text>
	</g>
</g>
<g fill="none" color="black" stroke="currentColor" stroke-width="1.00" stroke-linecap="butt" stroke-linejoin="miter">
	<path stroke='black'  d='M888.3,662.4 L888.3,653.4  '/>	<g transform="translate(888.3,684.3)" stroke="none" fill="black" font-family="Helvetica" font-size="12.00"  text-anchor="middle">
		<text><tspan font-family="Helvetica" > 2</tspan></text>
	</g>
</g>
<g fill="none" color="black" stroke="currentColor" stroke-width="1.00" stroke-linecap="butt" stroke-linejoin="miter">
	<path stroke='black'  d='M1004.9,662.4 L1004.9,653.4  '/>	<g transform="translate(1004.9,684.3)" stroke="none" fill="black" font-family="Helvetica" font-size="12.00"  text-anchor="middle">
		<text><tspan font-family="Helvetica" > 2.2</tspan></text>
	</g>
</g>
<g fill="none" color="black" stroke="currentColor" stroke-width="1.00" stroke-linecap="butt" stroke-linejoin="miter">
	<path stroke='black'  d='M1121.5,662.4 L1121.5,653.4  '/>	<g transform="translate(1121.5,684.3)" stroke="none" fill="black" font-family="Helvetica" font-size="12.00"  text-anchor="middle">
		<text><tspan font-family="Helvetica" > 2.4</tspan></text>
	</g>
</g>
<g fill="none" color="black" stroke="currentColor" stroke-width="1.00" stroke-linecap="butt" stroke-linejoin="miter">
</g>
<g fill="none" color="black" stroke="currentColor" stroke-width="1.00" stroke-linecap="butt" stroke-linejoin="miter">
	<path stroke='black'  d='M71.9,54.1 L71.9,662.4 L1121.5,662.4 L1121.5,54.1 L71.9,54.1 Z  '/></g>
<g fill="none" color="black" stroke="currentColor" stroke-width="1.00" stroke-linecap="butt" stroke-linejoin="miter">
	<g transform="translate(19.0,358.3) rotate(270)" stroke="none" fill="black" font-family="Helvetica" font-size="12.00"  text-anchor="middle">
		<text><tspan font-family="Helvetica" >Density (a.u.)</tspan></text>
	</g>
</g>
<g fill="none" color="black" stroke="currentColor" stroke-width="1.00" stroke-linecap="butt" stroke-linejoin="miter">
	<g transform="translate(596.7,711.3)" stroke="none" fill="black" font-family="Helvetica" font-size="12.00"  text-anchor="middle">
		<text><tspan font-family="Helvetica" >Average time (ms)</tspan></text>
	</g>
</g>
<g fill="none" color="black" stroke="currentColor" stroke-width="1.00" stroke-linecap="butt" stroke-linejoin="miter">
	<g transform="translate(596.7,31.0)" stroke="none" fill="black" font-family="Helvetica" font-size="12.00"  text-anchor="middle">
		<text><tspan font-family="Helvetica" >bench_group/blake3/786432</tspan></text>
	</g>
</g>
<g fill="none" color="black" stroke="currentColor" stroke-width="1.00" stroke-linecap="butt" stroke-linejoin="miter">
</g>
	<g id="gnuplot_plot_1" ><title>Base PDF</title>
<g fill="none" color="black" stroke="currentColor" stroke-width="1.00" stroke-linecap="butt" stroke-linejoin="miter">
	<g transform="translate(1196.9,67.0)" stroke="none" fill="black" font-family="Helvetica" font-size="12.00"  text-anchor="start">
		<text><tspan font-family="Helvetica" >Base PDF</tspan></text>
	</g>
</g>
<g fill="none" color="black" stroke="currentColor" stroke-width="1.00" stroke-linecap="butt" stroke-linejoin="miter">
	<g stroke='none' shape-rendering='crispEdges'>
		<polygon fill = 'rgb(227,  26,  28)' fill-opacity = '0.500000' points = '1146.4,67.6 1188.6,67.6 1188.6,58.6 1146.4,58.6 '/>
		<polygon fill = 'rgb(227,  26,  28)' fill-opacity = '0.500000' points = '1097.9,662.3 1098.0,662.3 1098.0,662.3 1098.0,662.2 1098.0,662.2 1098.0,662.2 1098.1,662.1 1098.1,662.1 1098.1,662.1 1098.1,662.0 1098.1,662.0 1098.2,661.9 1098.2,661.8 1098.2,661.7 1098.2,661.7 1098.2,661.6
1098.3,661.5 1098.3,661.4 1098.3,661.2 1098.3,661.1 1098.3,661.0 1098.3,660.8 1098.4,660.6 1098.4,660.5 1098.4,660.3 1098.4,660.1 1098.4,659.8 1098.5,659.6 1098.5,659.4 1098.5,659.1 1098.5,658.8 1098.5,658.6
1098.6,658.3 1098.6,658.0 1098.6,657.6 1098.6,657.3 1098.6,657.0 1098.7,656.6 1098.7,656.3 1098.7,655.9 1098.7,655.5 1098.7,655.1 1098.8,654.8 1098.8,654.4 1098.8,654.0 1098.8,653.6 1098.8,653.3 1098.8,652.9
1098.9,652.5 1098.9,652.1 1098.9,651.8 1098.9,651.4 1098.9,651.1 1099.0,650.8 1099.0,650.4 1099.0,650.1 1099.0,649.8 1099.0,649.5 1099.1,649.3 1099.1,649.0 1099.1,648.8 1099.1,648.5 1099.1,648.3 1099.2,648.1
1099.2,647.9 1099.2,647.7 1099.2,647.5 1099.2,647.3 1099.2,647.2 1099.3,647.0 1099.3,646.8 1099.3,646.6 1099.3,646.5 1099.3,646.3 1099.4,646.1 1099.4,645.9 1099.4,645.7 1099.4,645.5 1099.4,645.3 1099.5,645.0
1099.5,644.7 1099.5,644.4 1099.5,644.0 1099.5,643.6 1099.6,643.2 1099.6,642.6 1099.6,642.1 1099.6,641.4 1099.6,640.7 1099.7,639.9 1099.7,638.9 1099.7,637.9 1099.7,636.8 1099.7,635.5 1099.7,634.2 1099.8,632.6
1099.8,631.0 1099.8,629.1 1099.8,627.1 1099.8,624.9 1099.9,622.5 1099.9,619.9 1099.9,617.1 1099.9,614.0 1099.9,610.7 1100.0,607.2 1100.0,603.4 1100.0,599.3 1100.0,594.9 1100.0,590.2 1100.1,585.3 1100.1,580.0
1100.1,574.4 1100.1,568.4 1100.1,562.2 1100.2,555.5 1100.2,548.6 1100.2,541.3 1100.2,533.6 1100.2,525.6 1100.2,517.2 1100.3,508.5 1100.3,499.5 1100.3,490.1 1100.3,480.4 1100.3,470.3 1100.4,460.0 1100.4,449.3
1100.4,438.4 1100.4,427.2 1100.4,415.7 1100.5,404.0 1100.5,392.2 1100.5,380.1 1100.5,367.9 1100.5,355.5 1100.6,343.1 1100.6,330.5 1100.6,318.0 1100.6,305.5 1100.6,292.9 1100.7,280.5 1100.7,268.2 1100.7,256.0
1100.7,244.1 1100.7,232.3 1100.7,220.8 1100.8,209.7 1100.8,198.9 1100.8,188.4 1100.8,178.5 1100.8,168.9 1100.9,159.9 1100.9,151.4 1100.9,143.5 1100.9,136.2 1100.9,129.5 1101.0,123.4 1101.0,118.0 1101.0,113.3
1101.0,109.3 1101.0,106.0 1101.1,103.5 1101.1,101.7 1101.1,100.6 1101.1,100.2 1101.1,100.6 1101.1,101.7 1101.2,103.5 1101.2,105.9 1101.2,109.1 1101.2,112.8 1101.2,117.2 1101.3,122.2 1101.3,127.7 1101.3,133.8
1101.3,140.3 1101.3,147.3 1101.4,154.7 1101.4,162.4 1101.4,170.5 1101.4,178.8 1101.4,187.5 1101.5,196.3 1101.5,205.3 1101.5,214.4 1101.5,223.6 1101.5,232.9 1101.6,242.3 1101.6,251.6 1101.6,260.9 1101.6,270.1
1101.6,279.3 1101.6,288.4 1101.7,297.4 1101.7,306.3 1101.7,315.0 1101.7,323.6 1101.7,332.0 1101.8,340.3 1101.8,348.4 1101.8,356.4 1101.8,364.2 1101.8,371.8 1101.9,379.4 1101.9,386.7 1101.9,393.9 1101.9,401.0
1101.9,408.0 1102.0,414.9 1102.0,421.6 1102.0,428.3 1102.0,434.8 1102.0,441.3 1102.1,447.6 1102.1,453.9 1102.1,460.1 1102.1,466.3 1102.1,472.3 1102.1,478.3 1102.2,484.2 1102.2,490.1 1102.2,495.8 1102.2,501.5
1102.2,507.1 1102.3,512.7 1102.3,518.1 1102.3,523.4 1102.3,528.7 1102.3,533.8 1102.4,538.9 1102.4,543.8 1102.4,548.6 1102.4,553.3 1102.4,557.9 1102.5,562.3 1102.5,566.6 1102.5,570.8 1102.5,574.8 1102.5,578.7
1102.6,582.4 1102.6,586.0 1102.6,589.5 1102.6,592.8 1102.6,595.9 1102.6,599.0 1102.7,601.8 1102.7,604.6 1102.7,607.2 1102.7,609.7 1102.7,612.0 1102.8,614.2 1102.8,616.4 1102.8,618.4 1102.8,620.2 1102.8,622.0
1102.9,623.7 1102.9,625.3 1102.9,626.8 1102.9,628.3 1102.9,629.6 1103.0,630.9 1103.0,632.1 1103.0,633.3 1103.0,634.4 1103.0,635.5 1103.0,636.5 1103.1,637.5 1103.1,638.4 1103.1,639.3 1103.1,640.2 1103.1,641.0
1103.2,641.8 1103.2,642.6 1103.2,643.4 1103.2,644.2 1103.2,644.9 1103.3,645.6 1103.3,646.3 1103.3,647.0 1103.3,647.7 1103.3,648.3 1103.4,649.0 1103.4,649.6 1103.4,650.2 1103.4,650.9 1103.4,651.5 1103.5,652.0
1103.5,652.6 1103.5,653.1 1103.5,653.7 1103.5,654.2 1103.5,654.7 1103.6,655.2 1103.6,655.6 1103.6,656.1 1103.6,656.5 1103.6,656.9 1103.7,657.3 1103.7,657.7 1103.7,658.0 1103.7,658.4 1103.7,658.7 1103.8,659.0
1103.8,659.2 1103.8,659.5 1103.8,659.7 1103.8,659.9 1103.9,660.1 1103.9,660.3 1103.9,660.5 1103.9,660.6 1103.9,660.7 1104.0,660.8 1104.0,660.9 1104.0,660.9 1104.0,661.0 1104.0,661.0 1104.0,661.0 1104.1,661.0
1104.1,661.0 1104.1,661.0 1104.1,660.9 1104.1,660.9 1104.2,660.8 1104.2,660.7 1104.2,660.5 1104.2,660.4 1104.2,660.3 1104.3,660.1 1104.3,659.9 1104.3,659.7 1104.3,659.5 1104.3,659.3 1104.4,659.1 1104.4,658.8
1104.4,658.6 1104.4,658.3 1104.4,658.0 1104.5,657.8 1104.5,657.5 1104.5,657.2 1104.5,656.9 1104.5,656.6 1104.5,656.3 1104.6,656.0 1104.6,655.7 1104.6,655.4 1104.6,655.1 1104.6,654.8 1104.7,654.6 1104.7,654.3
1104.7,654.1 1104.7,653.8 1104.7,653.6 1104.8,653.5 1104.8,653.3 1104.8,653.1 1104.8,653.0 1104.8,652.9 1104.9,652.9 1104.9,652.8 1104.9,652.8 1104.9,652.8 1104.9,652.8 1105.0,652.9 1105.0,653.0 1105.0,653.1
1105.0,653.2 1105.0,653.4 1105.0,653.5 1105.1,653.7 1105.1,654.0 1105.1,654.2 1105.1,654.4 1105.1,654.7 1105.2,655.0 1105.2,655.2 1105.2,655.5 1105.2,655.8 1105.2,656.1 1105.3,656.4 1105.3,656.7 1105.3,657.0
1105.3,657.2 1105.3,657.5 1105.4,657.8 1105.4,658.1 1105.4,658.3 1105.4,658.5 1105.4,658.8 1105.4,659.0 1105.5,659.2 1105.5,659.3 1105.5,659.5 1105.5,659.6 1105.5,659.8 1105.6,659.9 1105.6,660.0 1105.6,660.0
1105.6,660.1 1105.6,660.1 1105.7,660.1 1105.7,660.1 1105.7,660.1 1105.7,660.0 1105.7,659.9 1105.8,659.8 1105.8,659.7 1105.8,659.6 1105.8,659.4 1105.8,659.3 1105.9,659.1 1105.9,658.9 1105.9,658.7 1105.9,658.5
1105.9,658.2 1105.9,658.0 1106.0,657.7 1106.0,657.4 1106.0,657.1 1106.0,656.9 1106.0,656.6 1106.1,656.3 1106.1,656.0 1106.1,655.7 1106.1,655.4 1106.1,655.1 1106.2,654.8 1106.2,654.6 1106.2,654.3 1106.2,654.1
1106.2,653.9 1106.3,653.7 1106.3,653.5 1106.3,653.3 1106.3,653.2 1106.3,653.0 1106.4,652.9 1106.4,652.9 1106.4,652.8 1106.4,652.8 1106.4,652.8 1106.4,652.8 1106.5,652.9 1106.5,653.0 1106.5,653.1 1106.5,653.2
1106.5,653.4 1106.6,653.5 1106.6,653.7 1106.6,653.9 1106.6,654.2 1106.6,654.4 1106.7,654.7 1106.7,654.9 1106.7,655.2 1106.7,655.5 1106.7,655.8 1106.8,656.1 1106.8,656.4 1106.8,656.7 1106.8,657.0 1106.8,657.3
1106.9,657.6 1106.9,657.9 1106.9,658.2 1106.9,658.5 1106.9,658.7 1106.9,659.0 1107.0,659.2 1107.0,659.5 1107.0,659.7 1107.0,659.9 1107.0,660.1 1107.1,660.3 1107.1,660.5 1107.1,660.7 1107.1,660.8 1107.1,661.0
1107.2,661.1 1107.2,661.3 1107.2,661.4 1107.2,661.5 1107.2,661.6 1107.3,661.7 1107.3,661.8 1107.3,661.8 1107.3,661.9 1107.3,662.0 1107.3,662.0 1107.4,662.1 1107.4,662.1 1107.4,662.1 1107.4,662.2 1107.4,662.2
1107.5,662.2 1107.5,662.3 1107.5,662.3 1107.5,662.3 1107.5,662.4 1107.5,662.4 1107.5,662.4 1107.5,662.4 1107.4,662.4 1107.4,662.4 1107.4,662.4 1107.4,662.4 1107.4,662.4 1107.3,662.4 1107.3,662.4 1107.3,662.4
1107.3,662.4 1107.3,662.4 1107.3,662.4 1107.2,662.4 1107.2,662.4 1107.2,662.4 1107.2,662.4 1107.2,662.4 1107.1,662.4 1107.1,662.4 1107.1,662.4 1107.1,662.4 1107.1,662.4 1107.0,662.4 1107.0,662.4 1107.0,662.4
1107.0,662.4 1107.0,662.4 1106.9,662.4 1106.9,662.4 1106.9,662.4 1106.9,662.4 1106.9,662.4 1106.9,662.4 1106.8,662.4 1106.8,662.4 1106.8,662.4 1106.8,662.4 1106.8,662.4 1106.7,662.4 1106.7,662.4 1106.7,662.4
1106.7,662.4 1106.7,662.4 1106.6,662.4 1106.6,662.4 1106.6,662.4 1106.6,662.4 1106.6,662.4 1106.5,662.4 1106.5,662.4 1106.5,662.4 1106.5,662.4 1106.5,662.4 1106.4,662.4 1106.4,662.4 1106.4,662.4 1106.4,662.4
1106.4,662.4 1106.4,662.4 1106.3,662.4 1106.3,662.4 1106.3,662.4 1106.3,662.4 1106.3,662.4 1106.2,662.4 1106.2,662.4 1106.2,662.4 1106.2,662.4 1106.2,662.4 1106.1,662.4 1106.1,662.4 1106.1,662.4 1106.1,662.4
1106.1,662.4 1106.0,662.4 1106.0,662.4 1106.0,662.4 1106.0,662.4 1106.0,662.4 1105.9,662.4 1105.9,662.4 1105.9,662.4 1105.9,662.4 1105.9,662.4 1105.9,662.4 1105.8,662.4 1105.8,662.4 1105.8,662.4 1105.8,662.4
1105.8,662.4 1105.7,662.4 1105.7,662.4 1105.7,662.4 1105.7,662.4 1105.7,662.4 1105.6,662.4 1105.6,662.4 1105.6,662.4 1105.6,662.4 1105.6,662.4 1105.5,662.4 1105.5,662.4 1105.5,662.4 1105.5,662.4 1105.5,662.4
1105.4,662.4 1105.4,662.4 1105.4,662.4 1105.4,662.4 1105.4,662.4 1105.4,662.4 1105.3,662.4 1105.3,662.4 1105.3,662.4 1105.3,662.4 1105.3,662.4 1105.2,662.4 1105.2,662.4 1105.2,662.4 1105.2,662.4 1105.2,662.4
1105.1,662.4 1105.1,662.4 1105.1,662.4 1105.1,662.4 1105.1,662.4 1105.0,662.4 1105.0,662.4 1105.0,662.4 1105.0,662.4 1105.0,662.4 1105.0,662.4 1104.9,662.4 1104.9,662.4 1104.9,662.4 1104.9,662.4 1104.9,662.4
1104.8,662.4 1104.8,662.4 1104.8,662.4 1104.8,662.4 1104.8,662.4 1104.7,662.4 1104.7,662.4 1104.7,662.4 1104.7,662.4 1104.7,662.4 1104.6,662.4 1104.6,662.4 1104.6,662.4 1104.6,662.4 1104.6,662.4 1104.5,662.4
1104.5,662.4 1104.5,662.4 1104.5,662.4 1104.5,662.4 1104.5,662.4 1104.4,662.4 1104.4,662.4 1104.4,662.4 1104.4,662.4 1104.4,662.4 1104.3,662.4 1104.3,662.4 1104.3,662.4 1104.3,662.4 1104.3,662.4 1104.2,662.4
1104.2,662.4 1104.2,662.4 1104.2,662.4 1104.2,662.4 1104.1,662.4 1104.1,662.4 1104.1,662.4 1104.1,662.4 1104.1,662.4 1104.0,662.4 1104.0,662.4 1104.0,662.4 1104.0,662.4 1104.0,662.4 1104.0,662.4 1103.9,662.4
1103.9,662.4 1103.9,662.4 1103.9,662.4 1103.9,662.4 1103.8,662.4 1103.8,662.4 1103.8,662.4 1103.8,662.4 1103.8,662.4 1103.7,662.4 1103.7,662.4 1103.7,662.4 1103.7,662.4 1103.7,662.4 1103.6,662.4 1103.6,662.4
1103.6,662.4 1103.6,662.4 1103.6,662.4 1103.5,662.4 1103.5,662.4 1103.5,662.4 1103.5,662.4 1103.5,662.4 1103.5,662.4 1103.4,662.4 1103.4,662.4 1103.4,662.4 1103.4,662.4 1103.4,662.4 1103.3,662.4 1103.3,662.4
1103.3,662.4 1103.3,662.4 1103.3,662.4 1103.2,662.4 1103.2,662.4 1103.2,662.4 1103.2,662.4 1103.2,662.4 1103.1,662.4 1103.1,662.4 1103.1,662.4 1103.1,662.4 1103.1,662.4 1103.0,662.4 1103.0,662.4 1103.0,662.4
1103.0,662.4 1103.0,662.4 1103.0,662.4 1102.9,662.4 1102.9,662.4 1102.9,662.4 1102.9,662.4 1102.9,662.4 1102.8,662.4 1102.8,662.4 1102.8,662.4 1102.8,662.4 1102.8,662.4 1102.7,662.4 1102.7,662.4 1102.7,662.4
1102.7,662.4 1102.7,662.4 1102.6,662.4 1102.6,662.4 1102.6,662.4 1102.6,662.4 1102.6,662.4 1102.6,662.4 1102.5,662.4 1102.5,662.4 1102.5,662.4 1102.5,662.4 1102.5,662.4 1102.4,662.4 1102.4,662.4 1102.4,662.4
1102.4,662.4 1102.4,662.4 1102.3,662.4 1102.3,662.4 1102.3,662.4 1102.3,662.4 1102.3,662.4 1102.2,662.4 1102.2,662.4 1102.2,662.4 1102.2,662.4 1102.2,662.4 1102.1,662.4 1102.1,662.4 1102.1,662.4 1102.1,662.4
1102.1,662.4 1102.1,662.4 1102.0,662.4 1102.0,662.4 1102.0,662.4 1102.0,662.4 1102.0,662.4 1101.9,662.4 1101.9,662.4 1101.9,662.4 1101.9,662.4 1101.9,662.4 1101.8,662.4 1101.8,662.4 1101.8,662.4 1101.8,662.4
1101.8,662.4 1101.7,662.4 1101.7,662.4 1101.7,662.4 1101.7,662.4 1101.7,662.4 1101.6,662.4 1101.6,662.4 1101.6,662.4 1101.6,662.4 1101.6,662.4 1101.6,662.4 1101.5,662.4 1101.5,662.4 1101.5,662.4 1101.5,662.4
1101.5,662.4 1101.4,662.4 1101.4,662.4 1101.4,662.4 1101.4,662.4 1101.4,662.4 1101.3,662.4 1101.3,662.4 1101.3,662.4 1101.3,662.4 1101.3,662.4 1101.2,662.4 1101.2,662.4 1101.2,662.4 1101.2,662.4 1101.2,662.4
1101.1,662.4 1101.1,662.4 1101.1,662.4 1101.1,662.4 1101.1,662.4 1101.1,662.4 1101.0,662.4 1101.0,662.4 1101.0,662.4 1101.0,662.4 1101.0,662.4 1100.9,662.4 1100.9,662.4 1100.9,662.4 1100.9,662.4 1100.9,662.4
1100.8,662.4 1100.8,662.4 1100.8,662.4 1100.8,662.4 1100.8,662.4 1100.7,662.4 1100.7,662.4 1100.7,662.4 1100.7,662.4 1100.7,662.4 1100.7,662.4 1100.6,662.4 1100.6,662.4 1100.6,662.4 1100.6,662.4 1100.6,662.4
1100.5,662.4 1100.5,662.4 1100.5,662.4 1100.5,662.4 1100.5,662.4 1100.4,662.4 1100.4,662.4 1100.4,662.4 1100.4,662.4 1100.4,662.4 1100.3,662.4 1100.3,662.4 1100.3,662.4 1100.3,662.4 1100.3,662.4 1100.2,662.4
1100.2,662.4 1100.2,662.4 1100.2,662.4 1100.2,662.4 1100.2,662.4 1100.1,662.4 1100.1,662.4 1100.1,662.4 1100.1,662.4 1100.1,662.4 1100.0,662.4 1100.0,662.4 1100.0,662.4 1100.0,662.4 1100.0,662.4 1099.9,662.4
1099.9,662.4 1099.9,662.4 1099.9,662.4 1099.9,662.4 1099.8,662.4 1099.8,662.4 1099.8,662.4 1099.8,662.4 1099.8,662.4 1099.7,662.4 1099.7,662.4 1099.7,662.4 1099.7,662.4 1099.7,662.4 1099.7,662.4 1099.6,662.4
1099.6,662.4 1099.6,662.4 1099.6,662.4 1099.6,662.4 1099.5,662.4 1099.5,662.4 1099.5,662.4 1099.5,662.4 1099.5,662.4 1099.4,662.4 1099.4,662.4 1099.4,662.4 1099.4,662.4 1099.4,662.4 1099.3,662.4 1099.3,662.4
1099.3,662.4 1099.3,662.4 1099.3,662.4 1099.2,662.4 1099.2,662.4 1099.2,662.4 1099.2,662.4 1099.2,662.4 1099.2,662.4 1099.1,662.4 1099.1,662.4 1099.1,662.4 1099.1,662.4 1099.1,662.4 1099.0,662.4 1099.0,662.4
1099.0,662.4 1099.0,662.4 1099.0,662.4 1098.9,662.4 1098.9,662.4 1098.9,662.4 1098.9,662.4 1098.9,662.4 1098.8,662.4 1098.8,662.4 1098.8,662.4 1098.8,662.4 1098.8,662.4 1098.8,662.4 1098.7,662.4 1098.7,662.4
1098.7,662.4 1098.7,662.4 1098.7,662.4 1098.6,662.4 1098.6,662.4 1098.6,662.4 1098.6,662.4 1098.6,662.4 1098.5,662.4 1098.5,662.4 1098.5,662.4 1098.5,662.4 1098.5,662.4 1098.4,662.4 1098.4,662.4 1098.4,662.4
1098.4,662.4 1098.4,662.4 1098.3,662.4 1098.3,662.4 1098.3,662.4 1098.3,662.4 1098.3,662.4 1098.3,662.4 1098.2,662.4 1098.2,662.4 1098.2,662.4 1098.2,662.4 1098.2,662.4 1098.1,662.4 1098.1,662.4 1098.1,662.4
1098.1,662.4 1098.1,662.4 1098.0,662.4 1098.0,662.4 1098.0,662.4 1098.0,662.4 1098.0,662.4 1097.9,662.4 '/>
	</g>
</g>
	</g>
	<g id="gnuplot_plot_2" ><title>Base Mean</title>
<g fill="none" color="white" stroke="rgb(227,  26,  28)" stroke-width="2.00" stroke-linecap="butt" stroke-linejoin="miter">
</g>
<g fill="none" color="black" stroke="currentColor" stroke-width="2.00" stroke-linecap="butt" stroke-linejoin="miter">
	<g transform="translate(1196.9,85.0)" stroke="none" fill="black" font-family="Helvetica" font-size="12.00"  text-anchor="start">
		<text><tspan font-family="Helvetica" >Base Mean</tspan></text>
	</g>
</g>
<g fill="none" color="black" stroke="currentColor" stroke-width="2.00" stroke-linecap="butt" stroke-linejoin="miter">
	<path stroke='rgb(227,  26,  28)'  d='M1146.4,81.1 L1188.6,81.1 M1101.3,662.4 L1101.3,140.4  '/></g>
	</g>
	<g id="gnuplot_plot_3" ><title>New PDF</title>
<g fill="none" color="white" stroke="rgb(227,  26,  28)" stroke-width="1.00" stroke-linecap="butt" stroke-linejoin="miter">
</g>
<g fill="none" color="black" stroke="currentColor" stroke-width="1.00" stroke-linecap="butt" stroke-linejoin="miter">
	<g transform="translate(1196.9,103.0)" stroke="none" fill="black" font-family="Helvetica" font-size="12.00"  text-anchor="start">
		<text><tspan font-family="Helvetica" >New PDF</tspan></text>
	</g>
</g>
<g fill="none" color="black" stroke="currentColor" stroke-width="1.00" stroke-linecap="butt" stroke-linejoin="miter">
	<g stroke='none' shape-rendering='crispEdges'>
		<polygon fill = 'rgb( 31, 120, 180)' fill-opacity = '0.500000' points = '1146.4,103.6 1188.6,103.6 1188.6,94.6 1146.4,94.6 '/>
		<polygon fill = 'rgb( 31, 120, 180)' fill-opacity = '0.500000' points = '135.4,662.2 135.4,662.2 135.4,662.2 135.4,662.1 135.4,662.1 135.4,662.1 135.4,662.0 135.4,662.0 135.5,661.9 135.5,661.8 135.5,661.8 135.5,661.7 135.5,661.6 135.5,661.5 135.5,661.4 135.5,661.3
135.6,661.2 135.6,661.1 135.6,660.9 135.6,660.8 135.6,660.6 135.6,660.4 135.6,660.2 135.6,659.9 135.7,659.7 135.7,659.4 135.7,659.1 135.7,658.8 135.7,658.5 135.7,658.1 135.7,657.7 135.8,657.2
135.8,656.8 135.8,656.3 135.8,655.7 135.8,655.1 135.8,654.5 135.8,653.8 135.8,653.1 135.9,652.3 135.9,651.5 135.9,650.6 135.9,649.6 135.9,648.6 135.9,647.6 135.9,646.4 135.9,645.2 136.0,644.0
136.0,642.6 136.0,641.2 136.0,639.7 136.0,638.1 136.0,636.4 136.0,634.7 136.0,632.8 136.1,630.9 136.1,628.9 136.1,626.8 136.1,624.5 136.1,622.2 136.1,619.8 136.1,617.2 136.1,614.6 136.2,611.8
136.2,609.0 136.2,606.0 136.2,602.9 136.2,599.7 136.2,596.4 136.2,593.0 136.2,589.4 136.3,585.7 136.3,581.9 136.3,578.0 136.3,574.0 136.3,569.8 136.3,565.5 136.3,561.1 136.3,556.6 136.4,551.9
136.4,547.2 136.4,542.3 136.4,537.3 136.4,532.2 136.4,526.9 136.4,521.6 136.5,516.1 136.5,510.5 136.5,504.8 136.5,499.0 136.5,493.1 136.5,487.1 136.5,481.0 136.5,474.8 136.6,468.5 136.6,462.1
136.6,455.7 136.6,449.1 136.6,442.5 136.6,435.8 136.6,429.0 136.6,422.1 136.7,415.2 136.7,408.3 136.7,401.3 136.7,394.2 136.7,387.1 136.7,380.0 136.7,372.9 136.7,365.7 136.8,358.6 136.8,351.4
136.8,344.3 136.8,337.2 136.8,330.1 136.8,323.0 136.8,316.0 136.8,309.1 136.9,302.2 136.9,295.3 136.9,288.6 136.9,281.9 136.9,275.4 136.9,268.9 136.9,262.6 136.9,256.4 137.0,250.3 137.0,244.4
137.0,238.6 137.0,233.0 137.0,227.6 137.0,222.3 137.0,217.2 137.0,212.3 137.1,207.6 137.1,203.1 137.1,198.8 137.1,194.7 137.1,190.8 137.1,187.1 137.1,183.7 137.2,180.4 137.2,177.4 137.2,174.5
137.2,171.9 137.2,169.5 137.2,167.3 137.2,165.3 137.2,163.5 137.3,161.9 137.3,160.5 137.3,159.3 137.3,158.3 137.3,157.4 137.3,156.7 137.3,156.1 137.3,155.7 137.4,155.5 137.4,155.4 137.4,155.4
137.4,155.5 137.4,155.8 137.4,156.1 137.4,156.6 137.4,157.1 137.5,157.7 137.5,158.5 137.5,159.2 137.5,160.1 137.5,161.0 137.5,162.0 137.5,163.0 137.5,164.1 137.6,165.2 137.6,166.4 137.6,167.7
137.6,169.0 137.6,170.3 137.6,171.7 137.6,173.1 137.6,174.6 137.7,176.2 137.7,177.8 137.7,179.5 137.7,181.3 137.7,183.1 137.7,185.1 137.7,187.1 137.8,189.2 137.8,191.4 137.8,193.7 137.8,196.1
137.8,198.7 137.8,201.4 137.8,204.2 137.8,207.2 137.9,210.3 137.9,213.5 137.9,216.9 137.9,220.5 137.9,224.2 137.9,228.1 137.9,232.2 137.9,236.4 138.0,240.9 138.0,245.5 138.0,250.3 138.0,255.2
138.0,260.4 138.0,265.7 138.0,271.1 138.0,276.8 138.1,282.6 138.1,288.6 138.1,294.7 138.1,301.0 138.1,307.4 138.1,313.9 138.1,320.6 138.1,327.4 138.2,334.3 138.2,341.3 138.2,348.4 138.2,355.5
138.2,362.8 138.2,370.1 138.2,377.4 138.2,384.8 138.3,392.1 138.3,399.5 138.3,406.9 138.3,414.3 138.3,421.7 138.3,429.0 138.3,436.3 138.3,443.6 138.4,450.7 138.4,457.9 138.4,464.9 138.4,471.8
138.4,478.6 138.4,485.4 138.4,492.0 138.5,498.5 138.5,504.8 138.5,511.0 138.5,517.1 138.5,523.1 138.5,528.9 138.5,534.5 138.5,540.0 138.6,545.3 138.6,550.5 138.6,555.5 138.6,560.3 138.6,565.0
138.6,569.5 138.6,573.9 138.6,578.1 138.7,582.1 138.7,586.0 138.7,589.7 138.7,593.2 138.7,596.6 138.7,599.9 138.7,603.0 138.7,605.9 138.8,608.7 138.8,611.4 138.8,614.0 138.8,616.4 138.8,618.6
138.8,620.8 138.8,622.8 138.8,624.7 138.9,626.5 138.9,628.2 138.9,629.8 138.9,631.3 138.9,632.7 138.9,634.0 138.9,635.2 138.9,636.4 139.0,637.4 139.0,638.4 139.0,639.3 139.0,640.1 139.0,640.9
139.0,641.6 139.0,642.2 139.0,642.8 139.1,643.4 139.1,643.9 139.1,644.3 139.1,644.7 139.1,645.1 139.1,645.4 139.1,645.7 139.2,645.9 139.2,646.1 139.2,646.3 139.2,646.5 139.2,646.7 139.2,646.8
139.2,646.9 139.2,647.0 139.3,647.1 139.3,647.1 139.3,647.2 139.3,647.2 139.3,647.2 139.3,647.2 139.3,647.3 139.3,647.3 139.4,647.2 139.4,647.2 139.4,647.2 139.4,647.2 139.4,647.2 139.4,647.1
139.4,647.1 139.4,647.0 139.5,647.0 139.5,647.0 139.5,646.9 139.5,646.8 139.5,646.8 139.5,646.7 139.5,646.6 139.5,646.6 139.6,646.5 139.6,646.4 139.6,646.3 139.6,646.2 139.6,646.1 139.6,646.0
139.6,645.9 139.6,645.7 139.7,645.6 139.7,645.5 139.7,645.3 139.7,645.1 139.7,645.0 139.7,644.8 139.7,644.6 139.7,644.4 139.8,644.2 139.8,644.0 139.8,643.8 139.8,643.5 139.8,643.3 139.8,643.1
139.8,642.8 139.9,642.5 139.9,642.3 139.9,642.0 139.9,641.7 139.9,641.4 139.9,641.1 139.9,640.8 139.9,640.5 140.0,640.2 140.0,639.9 140.0,639.6 140.0,639.2 140.0,638.9 140.0,638.6 140.0,638.2
140.0,637.9 140.1,637.6 140.1,637.2 140.1,636.9 140.1,636.6 140.1,636.2 140.1,635.9 140.1,635.6 140.1,635.3 140.2,635.0 140.2,634.6 140.2,634.3 140.2,634.1 140.2,633.8 140.2,633.5 140.2,633.2
140.2,633.0 140.3,632.7 140.3,632.5 140.3,632.3 140.3,632.1 140.3,631.9 140.3,631.8 140.3,631.6 140.3,631.5 140.4,631.4 140.4,631.3 140.4,631.2 140.4,631.2 140.4,631.2 140.4,631.2 140.4,631.2
140.5,631.2 140.5,631.3 140.5,631.4 140.5,631.5 140.5,631.6 140.5,631.8 140.5,632.0 140.5,632.2 140.6,632.4 140.6,632.7 140.6,633.0 140.6,633.3 140.6,633.6 140.6,634.0 140.6,634.3 140.6,634.7
140.7,635.1 140.7,635.6 140.7,636.0 140.7,636.5 140.7,637.0 140.7,637.5 140.7,638.0 140.7,638.5 140.8,639.1 140.8,639.6 140.8,640.2 140.8,640.8 140.8,641.4 140.8,642.0 140.8,642.5 140.8,643.1
140.9,643.7 140.9,644.3 140.9,644.9 140.9,645.5 140.9,646.1 140.9,646.7 140.9,647.3 140.9,647.9 141.0,648.5 141.0,649.1 141.0,649.6 141.0,650.2 141.0,650.7 141.0,651.2 141.0,651.8 141.0,652.3
141.1,652.8 141.1,653.2 141.1,653.7 141.1,654.2 141.1,654.6 141.1,655.0 141.1,655.5 141.2,655.8 141.2,656.2 141.2,656.6 141.2,656.9 141.2,657.3 141.2,657.6 141.2,657.9 141.2,658.2 141.3,658.5
141.3,658.8 141.3,659.0 141.3,659.2 141.3,659.5 141.3,659.7 141.3,659.9 141.3,660.1 141.4,660.3 141.4,660.4 141.4,660.6 141.4,660.7 141.4,660.9 141.4,661.0 141.4,661.1 141.4,661.2 141.5,661.3
141.5,661.4 141.5,661.5 141.5,661.6 141.5,661.7 141.5,661.7 141.5,661.8 141.5,661.8 141.6,661.9 141.6,662.0 141.6,662.0 141.6,662.0 141.6,662.1 141.6,662.1 141.6,662.1 141.6,662.2 141.7,662.2
141.7,662.2 141.7,662.2 141.7,662.3 141.7,662.3 141.7,662.4 141.7,662.4 141.7,662.4 141.7,662.4 141.7,662.4 141.6,662.4 141.6,662.4 141.6,662.4 141.6,662.4 141.6,662.4 141.6,662.4 141.6,662.4
141.6,662.4 141.5,662.4 141.5,662.4 141.5,662.4 141.5,662.4 141.5,662.4 141.5,662.4 141.5,662.4 141.5,662.4 141.4,662.4 141.4,662.4 141.4,662.4 141.4,662.4 141.4,662.4 141.4,662.4 141.4,662.4
141.4,662.4 141.3,662.4 141.3,662.4 141.3,662.4 141.3,662.4 141.3,662.4 141.3,662.4 141.3,662.4 141.3,662.4 141.2,662.4 141.2,662.4 141.2,662.4 141.2,662.4 141.2,662.4 141.2,662.4 141.2,662.4
141.2,662.4 141.1,662.4 141.1,662.4 141.1,662.4 141.1,662.4 141.1,662.4 141.1,662.4 141.1,662.4 141.0,662.4 141.0,662.4 141.0,662.4 141.0,662.4 141.0,662.4 141.0,662.4 141.0,662.4 141.0,662.4
140.9,662.4 140.9,662.4 140.9,662.4 140.9,662.4 140.9,662.4 140.9,662.4 140.9,662.4 140.9,662.4 140.8,662.4 140.8,662.4 140.8,662.4 140.8,662.4 140.8,662.4 140.8,662.4 140.8,662.4 140.8,662.4
140.7,662.4 140.7,662.4 140.7,662.4 140.7,662.4 140.7,662.4 140.7,662.4 140.7,662.4 140.7,662.4 140.6,662.4 140.6,662.4 140.6,662.4 140.6,662.4 140.6,662.4 140.6,662.4 140.6,662.4 140.6,662.4
140.5,662.4 140.5,662.4 140.5,662.4 140.5,662.4 140.5,662.4 140.5,662.4 140.5,662.4 140.5,662.4 140.4,662.4 140.4,662.4 140.4,662.4 140.4,662.4 140.4,662.4 140.4,662.4 140.4,662.4 140.3,662.4
140.3,662.4 140.3,662.4 140.3,662.4 140.3,662.4 140.3,662.4 140.3,662.4 140.3,662.4 140.2,662.4 140.2,662.4 140.2,662.4 140.2,662.4 140.2,662.4 140.2,662.4 140.2,662.4 140.2,662.4 140.1,662.4
140.1,662.4 140.1,662.4 140.1,662.4 140.1,662.4 140.1,662.4 140.1,662.4 140.1,662.4 140.0,662.4 140.0,662.4 140.0,662.4 140.0,662.4 140.0,662.4 140.0,662.4 140.0,662.4 140.0,662.4 139.9,662.4
139.9,662.4 139.9,662.4 139.9,662.4 139.9,662.4 139.9,662.4 139.9,662.4 139.9,662.4 139.8,662.4 139.8,662.4 139.8,662.4 139.8,662.4 139.8,662.4 139.8,662.4 139.8,662.4 139.7,662.4 139.7,662.4
139.7,662.4 139.7,662.4 139.7,662.4 139.7,662.4 139.7,662.4 139.7,662.4 139.6,662.4 139.6,662.4 139.6,662.4 139.6,662.4 139.6,662.4 139.6,662.4 139.6,662.4 139.6,662.4 139.5,662.4 139.5,662.4
139.5,662.4 139.5,662.4 139.5,662.4 139.5,662.4 139.5,662.4 139.5,662.4 139.4,662.4 139.4,662.4 139.4,662.4 139.4,662.4 139.4,662.4 139.4,662.4 139.4,662.4 139.4,662.4 139.3,662.4 139.3,662.4
139.3,662.4 139.3,662.4 139.3,662.4 139.3,662.4 139.3,662.4 139.3,662.4 139.2,662.4 139.2,662.4 139.2,662.4 139.2,662.4 139.2,662.4 139.2,662.4 139.2,662.4 139.2,662.4 139.1,662.4 139.1,662.4
139.1,662.4 139.1,662.4 139.1,662.4 139.1,662.4 139.1,662.4 139.0,662.4 139.0,662.4 139.0,662.4 139.0,662.4 139.0,662.4 139.0,662.4 139.0,662.4 139.0,662.4 138.9,662.4 138.9,662.4 138.9,662.4
138.9,662.4 138.9,662.4 138.9,662.4 138.9,662.4 138.9,662.4 138.8,662.4 138.8,662.4 138.8,662.4 138.8,662.4 138.8,662.4 138.8,662.4 138.8,662.4 138.8,662.4 138.7,662.4 138.7,662.4 138.7,662.4
138.7,662.4 138.7,662.4 138.7,662.4 138.7,662.4 138.7,662.4 138.6,662.4 138.6,662.4 138.6,662.4 138.6,662.4 138.6,662.4 138.6,662.4 138.6,662.4 138.6,662.4 138.5,662.4 138.5,662.4 138.5,662.4
138.5,662.4 138.5,662.4 138.5,662.4 138.5,662.4 138.5,662.4 138.4,662.4 138.4,662.4 138.4,662.4 138.4,662.4 138.4,662.4 138.4,662.4 138.4,662.4 138.3,662.4 138.3,662.4 138.3,662.4 138.3,662.4
138.3,662.4 138.3,662.4 138.3,662.4 138.3,662.4 138.2,662.4 138.2,662.4 138.2,662.4 138.2,662.4 138.2,662.4 138.2,662.4 138.2,662.4 138.2,662.4 138.1,662.4 138.1,662.4 138.1,662.4 138.1,662.4
138.1,662.4 138.1,662.4 138.1,662.4 138.1,662.4 138.0,662.4 138.0,662.4 138.0,662.4 138.0,662.4 138.0,662.4 138.0,662.4 138.0,662.4 138.0,662.4 137.9,662.4 137.9,662.4 137.9,662.4 137.9,662.4
137.9,662.4 137.9,662.4 137.9,662.4 137.9,662.4 137.8,662.4 137.8,662.4 137.8,662.4 137.8,662.4 137.8,662.4 137.8,662.4 137.8,662.4 137.8,662.4 137.7,662.4 137.7,662.4 137.7,662.4 137.7,662.4
137.7,662.4 137.7,662.4 137.7,662.4 137.6,662.4 137.6,662.4 137.6,662.4 137.6,662.4 137.6,662.4 137.6,662.4 137.6,662.4 137.6,662.4 137.5,662.4 137.5,662.4 137.5,662.4 137.5,662.4 137.5,662.4
137.5,662.4 137.5,662.4 137.5,662.4 137.4,662.4 137.4,662.4 137.4,662.4 137.4,662.4 137.4,662.4 137.4,662.4 137.4,662.4 137.4,662.4 137.3,662.4 137.3,662.4 137.3,662.4 137.3,662.4 137.3,662.4
137.3,662.4 137.3,662.4 137.3,662.4 137.2,662.4 137.2,662.4 137.2,662.4 137.2,662.4 137.2,662.4 137.2,662.4 137.2,662.4 137.2,662.4 137.1,662.4 137.1,662.4 137.1,662.4 137.1,662.4 137.1,662.4
137.1,662.4 137.1,662.4 137.0,662.4 137.0,662.4 137.0,662.4 137.0,662.4 137.0,662.4 137.0,662.4 137.0,662.4 137.0,662.4 136.9,662.4 136.9,662.4 136.9,662.4 136.9,662.4 136.9,662.4 136.9,662.4
136.9,662.4 136.9,662.4 136.8,662.4 136.8,662.4 136.8,662.4 136.8,662.4 136.8,662.4 136.8,662.4 136.8,662.4 136.8,662.4 136.7,662.4 136.7,662.4 136.7,662.4 136.7,662.4 136.7,662.4 136.7,662.4
136.7,662.4 136.7,662.4 136.6,662.4 136.6,662.4 136.6,662.4 136.6,662.4 136.6,662.4 136.6,662.4 136.6,662.4 136.6,662.4 136.5,662.4 136.5,662.4 136.5,662.4 136.5,662.4 136.5,662.4 136.5,662.4
136.5,662.4 136.5,662.4 136.4,662.4 136.4,662.4 136.4,662.4 136.4,662.4 136.4,662.4 136.4,662.4 136.4,662.4 136.3,662.4 136.3,662.4 136.3,662.4 136.3,662.4 136.3,662.4 136.3,662.4 136.3,662.4
136.3,662.4 136.2,662.4 136.2,662.4 136.2,662.4 136.2,662.4 136.2,662.4 136.2,662.4 136.2,662.4 136.2,662.4 136.1,662.4 136.1,662.4 136.1,662.4 136.1,662.4 136.1,662.4 136.1,662.4 136.1,662.4
136.1,662.4 136.0,662.4 136.0,662.4 136.0,662.4 136.0,662.4 136.0,662.4 136.0,662.4 136.0,662.4 136.0,662.4 135.9,662.4 135.9,662.4 135.9,662.4 135.9,662.4 135.9,662.4 135.9,662.4 135.9,662.4
135.9,662.4 135.8,662.4 135.8,662.4 135.8,662.4 135.8,662.4 135.8,662.4 135.8,662.4 135.8,662.4 135.8,662.4 135.7,662.4 135.7,662.4 135.7,662.4 135.7,662.4 135.7,662.4 135.7,662.4 135.7,662.4
135.6,662.4 135.6,662.4 135.6,662.4 135.6,662.4 135.6,662.4 135.6,662.4 135.6,662.4 135.6,662.4 135.5,662.4 135.5,662.4 135.5,662.4 135.5,662.4 135.5,662.4 135.5,662.4 135.5,662.4 135.5,662.4
135.4,662.4 135.4,662.4 135.4,662.4 135.4,662.4 135.4,662.4 135.4,662.4 135.4,662.4 135.4,662.4 '/>
	</g>
</g>
	</g>
	<g id="gnuplot_plot_4" ><title>New Mean</title>
<g fill="none" color="white" stroke="rgb( 31, 120, 180)" stroke-width="2.00" stroke-linecap="butt" stroke-linejoin="miter">
</g>
<g fill="none" color="black" stroke="currentColor" stroke-width="2.00" stroke-linecap="butt" stroke-linejoin="miter">
	<g transform="translate(1196.9,121.0)" stroke="none" fill="black" font-family="Helvetica" font-size="12.00"  text-anchor="start">
		<text><tspan font-family="Helvetica" >New Mean</tspan></text>
	</g>
</g>
<g fill="none" color="black" stroke="currentColor" stroke-width="2.00" stroke-linecap="butt" stroke-linejoin="miter">
	<path stroke='rgb( 31, 120, 180)'  d='M1146.4,117.1 L1188.6,117.1 M137.6,662.4 L137.6,169.6  '/></g>
	</g>
<g fill="none" color="black" stroke="currentColor" stroke-width="2.00" stroke-linecap="butt" stroke-linejoin="miter">
</g>
<g fill="none" color="black" stroke="black" stroke-width="1.00" stroke-linecap="butt" stroke-linejoin="miter">
</g>
<g fill="none" color="black" stroke="currentColor" stroke-width="1.00" stroke-linecap="butt" stroke-linejoin="miter">
	<path stroke='black'  d='M71.9,54.1 L71.9,662.4 L1121.5,662.4 L1121.5,54.1 L71.9,54.1 Z  '/></g>
<g fill="none" color="black" stroke="currentColor" stroke-width="1.00" stroke-linecap="butt" stroke-linejoin="miter">
</g>
</g>
</svg>

