group,function,value,throughput_num,throughput_type,sample_measured_value,unit,iteration_count
bench_group,blake3,448,448,bytes,990751.0,ns,772
bench_group,blake3,448,448,bytes,1978083.0,ns,1544
bench_group,blake3,448,448,bytes,2972484.0,ns,2316
bench_group,blake3,448,448,bytes,3960515.0,ns,3088
bench_group,blake3,448,448,bytes,4951724.0,ns,3860
bench_group,blake3,448,448,bytes,5943258.0,ns,4632
bench_group,blake3,448,448,bytes,6937341.0,ns,5404
bench_group,blake3,448,448,bytes,7934535.0,ns,6176
bench_group,blake3,448,448,bytes,8924951.0,ns,6948
bench_group,blake3,448,448,bytes,9920899.0,ns,7720
bench_group,blake3,448,448,bytes,10897748.0,ns,8492
bench_group,blake3,448,448,bytes,11882934.0,ns,9264
bench_group,blake3,448,448,bytes,12875182.0,ns,10036
bench_group,blake3,448,448,bytes,13865700.0,ns,10808
bench_group,blake3,448,448,bytes,14853292.0,ns,11580
bench_group,blake3,448,448,bytes,15850904.0,ns,12352
bench_group,blake3,448,448,bytes,16841399.0,ns,13124
bench_group,blake3,448,448,bytes,17843720.0,ns,13896
bench_group,blake3,448,448,bytes,18828212.0,ns,14668
bench_group,blake3,448,448,bytes,19826398.0,ns,15440
bench_group,blake3,448,448,bytes,20830732.0,ns,16212
bench_group,blake3,448,448,bytes,21779712.0,ns,16984
bench_group,blake3,448,448,bytes,22768200.0,ns,17756
bench_group,blake3,448,448,bytes,23761941.0,ns,18528
bench_group,blake3,448,448,bytes,24753085.0,ns,19300
bench_group,blake3,448,448,bytes,25741174.0,ns,20072
bench_group,blake3,448,448,bytes,26743727.0,ns,20844
bench_group,blake3,448,448,bytes,27726343.0,ns,21616
bench_group,blake3,448,448,bytes,28721425.0,ns,22388
bench_group,blake3,448,448,bytes,29704797.0,ns,23160
bench_group,blake3,448,448,bytes,30688475.0,ns,23932
bench_group,blake3,448,448,bytes,31702609.0,ns,24704
bench_group,blake3,448,448,bytes,32665752.0,ns,25476
bench_group,blake3,448,448,bytes,33659339.0,ns,26248
bench_group,blake3,448,448,bytes,34643234.0,ns,27020
bench_group,blake3,448,448,bytes,35651530.0,ns,27792
bench_group,blake3,448,448,bytes,36645823.0,ns,28564
bench_group,blake3,448,448,bytes,37625866.0,ns,29336
bench_group,blake3,448,448,bytes,38609511.0,ns,30108
bench_group,blake3,448,448,bytes,39604800.0,ns,30880
bench_group,blake3,448,448,bytes,40588183.0,ns,31652
bench_group,blake3,448,448,bytes,41577959.0,ns,32424
bench_group,blake3,448,448,bytes,42579948.0,ns,33196
bench_group,blake3,448,448,bytes,43567951.0,ns,33968
bench_group,blake3,448,448,bytes,44550595.0,ns,34740
bench_group,blake3,448,448,bytes,45551427.0,ns,35512
bench_group,blake3,448,448,bytes,46521010.0,ns,36284
bench_group,blake3,448,448,bytes,47523710.0,ns,37056
bench_group,blake3,448,448,bytes,48512754.0,ns,37828
bench_group,blake3,448,448,bytes,49511992.0,ns,38600
bench_group,blake3,448,448,bytes,50510418.0,ns,39372
bench_group,blake3,448,448,bytes,51485727.0,ns,40144
bench_group,blake3,448,448,bytes,52468198.0,ns,40916
bench_group,blake3,448,448,bytes,53460770.0,ns,41688
bench_group,blake3,448,448,bytes,54448671.0,ns,42460
bench_group,blake3,448,448,bytes,55436850.0,ns,43232
bench_group,blake3,448,448,bytes,56422537.0,ns,44004
bench_group,blake3,448,448,bytes,57413604.0,ns,44776
bench_group,blake3,448,448,bytes,58477425.0,ns,45548
bench_group,blake3,448,448,bytes,59418033.0,ns,46320
bench_group,blake3,448,448,bytes,60411138.0,ns,47092
bench_group,blake3,448,448,bytes,61392747.0,ns,47864
bench_group,blake3,448,448,bytes,62376516.0,ns,48636
bench_group,blake3,448,448,bytes,63374680.0,ns,49408
bench_group,blake3,448,448,bytes,64356110.0,ns,50180
bench_group,blake3,448,448,bytes,65335140.0,ns,50952
bench_group,blake3,448,448,bytes,66353225.0,ns,51724
bench_group,blake3,448,448,bytes,67361168.0,ns,52496
bench_group,blake3,448,448,bytes,68318888.0,ns,53268
bench_group,blake3,448,448,bytes,69325347.0,ns,54040
bench_group,blake3,448,448,bytes,70345081.0,ns,54812
bench_group,blake3,448,448,bytes,71279508.0,ns,55584
bench_group,blake3,448,448,bytes,72268169.0,ns,56356
bench_group,blake3,448,448,bytes,73259153.0,ns,57128
bench_group,blake3,448,448,bytes,74260639.0,ns,57900
bench_group,blake3,448,448,bytes,75247067.0,ns,58672
bench_group,blake3,448,448,bytes,76236855.0,ns,59444
bench_group,blake3,448,448,bytes,77243580.0,ns,60216
bench_group,blake3,448,448,bytes,78242472.0,ns,60988
bench_group,blake3,448,448,bytes,79200812.0,ns,61760
bench_group,blake3,448,448,bytes,80266409.0,ns,62532
bench_group,blake3,448,448,bytes,81223960.0,ns,63304
bench_group,blake3,448,448,bytes,82170254.0,ns,64076
bench_group,blake3,448,448,bytes,83157692.0,ns,64848
bench_group,blake3,448,448,bytes,84144751.0,ns,65620
bench_group,blake3,448,448,bytes,85174023.0,ns,66392
bench_group,blake3,448,448,bytes,86146904.0,ns,67164
bench_group,blake3,448,448,bytes,87120069.0,ns,67936
bench_group,blake3,448,448,bytes,88139448.0,ns,68708
bench_group,blake3,448,448,bytes,89110244.0,ns,69480
bench_group,blake3,448,448,bytes,90086315.0,ns,70252
bench_group,blake3,448,448,bytes,91074775.0,ns,71024
bench_group,blake3,448,448,bytes,92104417.0,ns,71796
bench_group,blake3,448,448,bytes,93072066.0,ns,72568
bench_group,blake3,448,448,bytes,94063079.0,ns,73340
bench_group,blake3,448,448,bytes,95041822.0,ns,74112
bench_group,blake3,448,448,bytes,96024157.0,ns,74884
bench_group,blake3,448,448,bytes,97083045.0,ns,75656
bench_group,blake3,448,448,bytes,98037467.0,ns,76428
bench_group,blake3,448,448,bytes,98999683.0,ns,77200
