<?xml version="1.0" encoding="utf-8"  standalone="no"?>
<svg 
 viewBox="0 0 1280 720"
 xmlns="http://www.w3.org/2000/svg"
 xmlns:xlink="http://www.w3.org/1999/xlink"
>

<title>Gnuplot</title>
<desc>Produced by GNUPLOT 5.2 patchlevel 8 </desc>

<g id="gnuplot_canvas">

<rect x="0" y="0" width="1280" height="720" fill="none"/>
<defs>

	<circle id='gpDot' r='0.5' stroke-width='0.5' stroke='currentColor'/>
	<path id='gpPt0' stroke-width='0.222' stroke='currentColor' d='M-1,0 h2 M0,-1 v2'/>
	<path id='gpPt1' stroke-width='0.222' stroke='currentColor' d='M-1,-1 L1,1 M1,-1 L-1,1'/>
	<path id='gpPt2' stroke-width='0.222' stroke='currentColor' d='M-1,0 L1,0 M0,-1 L0,1 M-1,-1 L1,1 M-1,1 L1,-1'/>
	<rect id='gpPt3' stroke-width='0.222' stroke='currentColor' x='-1' y='-1' width='2' height='2'/>
	<rect id='gpPt4' stroke-width='0.222' stroke='currentColor' fill='currentColor' x='-1' y='-1' width='2' height='2'/>
	<circle id='gpPt5' stroke-width='0.222' stroke='currentColor' cx='0' cy='0' r='1'/>
	<use xlink:href='#gpPt5' id='gpPt6' fill='currentColor' stroke='none'/>
	<path id='gpPt7' stroke-width='0.222' stroke='currentColor' d='M0,-1.33 L-1.33,0.67 L1.33,0.67 z'/>
	<use xlink:href='#gpPt7' id='gpPt8' fill='currentColor' stroke='none'/>
	<use xlink:href='#gpPt7' id='gpPt9' stroke='currentColor' transform='rotate(180)'/>
	<use xlink:href='#gpPt9' id='gpPt10' fill='currentColor' stroke='none'/>
	<use xlink:href='#gpPt3' id='gpPt11' stroke='currentColor' transform='rotate(45)'/>
	<use xlink:href='#gpPt11' id='gpPt12' fill='currentColor' stroke='none'/>
	<path id='gpPt13' stroke-width='0.222' stroke='currentColor' d='M0,1.330 L1.265,0.411 L0.782,-1.067 L-0.782,-1.076 L-1.265,0.411 z'/>
	<use xlink:href='#gpPt13' id='gpPt14' fill='currentColor' stroke='none'/>
	<filter id='textbox' filterUnits='objectBoundingBox' x='0' y='0' height='1' width='1'>
	  <feFlood flood-color='white' flood-opacity='1' result='bgnd'/>
	  <feComposite in='SourceGraphic' in2='bgnd' operator='atop'/>
	</filter>
	<filter id='greybox' filterUnits='objectBoundingBox' x='0' y='0' height='1' width='1'>
	  <feFlood flood-color='lightgrey' flood-opacity='1' result='grey'/>
	  <feComposite in='SourceGraphic' in2='grey' operator='atop'/>
	</filter>
</defs>
<g fill="none" color="white" stroke="currentColor" stroke-width="1.00" stroke-linecap="butt" stroke-linejoin="miter">
</g>
<g fill="none" color="black" stroke="currentColor" stroke-width="1.00" stroke-linecap="butt" stroke-linejoin="miter">
	<path stroke='black'  d='M80.2,662.4 L89.2,662.4  '/>	<g transform="translate(71.9,666.3)" stroke="none" fill="black" font-family="Helvetica" font-size="12.00"  text-anchor="end">
		<text><tspan font-family="Helvetica" > 0</tspan></text>
	</g>
</g>
<g fill="none" color="black" stroke="currentColor" stroke-width="1.00" stroke-linecap="butt" stroke-linejoin="miter">
	<path stroke='black'  d='M80.2,594.8 L89.2,594.8  '/>	<g transform="translate(71.9,598.7)" stroke="none" fill="black" font-family="Helvetica" font-size="12.00"  text-anchor="end">
		<text><tspan font-family="Helvetica" > 500</tspan></text>
	</g>
</g>
<g fill="none" color="black" stroke="currentColor" stroke-width="1.00" stroke-linecap="butt" stroke-linejoin="miter">
	<path stroke='black'  d='M80.2,527.2 L89.2,527.2  '/>	<g transform="translate(71.9,531.1)" stroke="none" fill="black" font-family="Helvetica" font-size="12.00"  text-anchor="end">
		<text><tspan font-family="Helvetica" > 1000</tspan></text>
	</g>
</g>
<g fill="none" color="black" stroke="currentColor" stroke-width="1.00" stroke-linecap="butt" stroke-linejoin="miter">
	<path stroke='black'  d='M80.2,459.6 L89.2,459.6  '/>	<g transform="translate(71.9,463.5)" stroke="none" fill="black" font-family="Helvetica" font-size="12.00"  text-anchor="end">
		<text><tspan font-family="Helvetica" > 1500</tspan></text>
	</g>
</g>
<g fill="none" color="black" stroke="currentColor" stroke-width="1.00" stroke-linecap="butt" stroke-linejoin="miter">
	<path stroke='black'  d='M80.2,392.0 L89.2,392.0  '/>	<g transform="translate(71.9,395.9)" stroke="none" fill="black" font-family="Helvetica" font-size="12.00"  text-anchor="end">
		<text><tspan font-family="Helvetica" > 2000</tspan></text>
	</g>
</g>
<g fill="none" color="black" stroke="currentColor" stroke-width="1.00" stroke-linecap="butt" stroke-linejoin="miter">
	<path stroke='black'  d='M80.2,324.5 L89.2,324.5  '/>	<g transform="translate(71.9,328.4)" stroke="none" fill="black" font-family="Helvetica" font-size="12.00"  text-anchor="end">
		<text><tspan font-family="Helvetica" > 2500</tspan></text>
	</g>
</g>
<g fill="none" color="black" stroke="currentColor" stroke-width="1.00" stroke-linecap="butt" stroke-linejoin="miter">
	<path stroke='black'  d='M80.2,256.9 L89.2,256.9  '/>	<g transform="translate(71.9,260.8)" stroke="none" fill="black" font-family="Helvetica" font-size="12.00"  text-anchor="end">
		<text><tspan font-family="Helvetica" > 3000</tspan></text>
	</g>
</g>
<g fill="none" color="black" stroke="currentColor" stroke-width="1.00" stroke-linecap="butt" stroke-linejoin="miter">
	<path stroke='black'  d='M80.2,189.3 L89.2,189.3  '/>	<g transform="translate(71.9,193.2)" stroke="none" fill="black" font-family="Helvetica" font-size="12.00"  text-anchor="end">
		<text><tspan font-family="Helvetica" > 3500</tspan></text>
	</g>
</g>
<g fill="none" color="black" stroke="currentColor" stroke-width="1.00" stroke-linecap="butt" stroke-linejoin="miter">
	<path stroke='black'  d='M80.2,121.7 L89.2,121.7  '/>	<g transform="translate(71.9,125.6)" stroke="none" fill="black" font-family="Helvetica" font-size="12.00"  text-anchor="end">
		<text><tspan font-family="Helvetica" > 4000</tspan></text>
	</g>
</g>
<g fill="none" color="black" stroke="currentColor" stroke-width="1.00" stroke-linecap="butt" stroke-linejoin="miter">
	<path stroke='black'  d='M80.2,54.1 L89.2,54.1  '/>	<g transform="translate(71.9,58.0)" stroke="none" fill="black" font-family="Helvetica" font-size="12.00"  text-anchor="end">
		<text><tspan font-family="Helvetica" > 4500</tspan></text>
	</g>
</g>
<g fill="none" color="black" stroke="currentColor" stroke-width="1.00" stroke-linecap="butt" stroke-linejoin="miter">
	<path stroke='black'  d='M181.3,662.4 L181.3,653.4  '/>	<g transform="translate(181.3,684.3)" stroke="none" fill="black" font-family="Helvetica" font-size="12.00"  text-anchor="middle">
		<text><tspan font-family="Helvetica" >-58.22</tspan></text>
	</g>
</g>
<g fill="none" color="black" stroke="currentColor" stroke-width="1.00" stroke-linecap="butt" stroke-linejoin="miter">
	<path stroke='black'  d='M283.5,662.4 L283.5,653.4  '/>	<g transform="translate(283.5,684.3)" stroke="none" fill="black" font-family="Helvetica" font-size="12.00"  text-anchor="middle">
		<text><tspan font-family="Helvetica" >-58.215</tspan></text>
	</g>
</g>
<g fill="none" color="black" stroke="currentColor" stroke-width="1.00" stroke-linecap="butt" stroke-linejoin="miter">
	<path stroke='black'  d='M385.8,662.4 L385.8,653.4  '/>	<g transform="translate(385.8,684.3)" stroke="none" fill="black" font-family="Helvetica" font-size="12.00"  text-anchor="middle">
		<text><tspan font-family="Helvetica" >-58.21</tspan></text>
	</g>
</g>
<g fill="none" color="black" stroke="currentColor" stroke-width="1.00" stroke-linecap="butt" stroke-linejoin="miter">
	<path stroke='black'  d='M488.0,662.4 L488.0,653.4  '/>	<g transform="translate(488.0,684.3)" stroke="none" fill="black" font-family="Helvetica" font-size="12.00"  text-anchor="middle">
		<text><tspan font-family="Helvetica" >-58.205</tspan></text>
	</g>
</g>
<g fill="none" color="black" stroke="currentColor" stroke-width="1.00" stroke-linecap="butt" stroke-linejoin="miter">
	<path stroke='black'  d='M590.2,662.4 L590.2,653.4  '/>	<g transform="translate(590.2,684.3)" stroke="none" fill="black" font-family="Helvetica" font-size="12.00"  text-anchor="middle">
		<text><tspan font-family="Helvetica" >-58.2</tspan></text>
	</g>
</g>
<g fill="none" color="black" stroke="currentColor" stroke-width="1.00" stroke-linecap="butt" stroke-linejoin="miter">
	<path stroke='black'  d='M692.5,662.4 L692.5,653.4  '/>	<g transform="translate(692.5,684.3)" stroke="none" fill="black" font-family="Helvetica" font-size="12.00"  text-anchor="middle">
		<text><tspan font-family="Helvetica" >-58.195</tspan></text>
	</g>
</g>
<g fill="none" color="black" stroke="currentColor" stroke-width="1.00" stroke-linecap="butt" stroke-linejoin="miter">
	<path stroke='black'  d='M794.7,662.4 L794.7,653.4  '/>	<g transform="translate(794.7,684.3)" stroke="none" fill="black" font-family="Helvetica" font-size="12.00"  text-anchor="middle">
		<text><tspan font-family="Helvetica" >-58.19</tspan></text>
	</g>
</g>
<g fill="none" color="black" stroke="currentColor" stroke-width="1.00" stroke-linecap="butt" stroke-linejoin="miter">
	<path stroke='black'  d='M897.0,662.4 L897.0,653.4  '/>	<g transform="translate(897.0,684.3)" stroke="none" fill="black" font-family="Helvetica" font-size="12.00"  text-anchor="middle">
		<text><tspan font-family="Helvetica" >-58.185</tspan></text>
	</g>
</g>
<g fill="none" color="black" stroke="currentColor" stroke-width="1.00" stroke-linecap="butt" stroke-linejoin="miter">
	<path stroke='black'  d='M999.2,662.4 L999.2,653.4  '/>	<g transform="translate(999.2,684.3)" stroke="none" fill="black" font-family="Helvetica" font-size="12.00"  text-anchor="middle">
		<text><tspan font-family="Helvetica" >-58.18</tspan></text>
	</g>
</g>
<g fill="none" color="black" stroke="currentColor" stroke-width="1.00" stroke-linecap="butt" stroke-linejoin="miter">
</g>
<g fill="none" color="black" stroke="currentColor" stroke-width="1.00" stroke-linecap="butt" stroke-linejoin="miter">
	<path stroke='black'  d='M80.2,54.1 L80.2,662.4 L1013.6,662.4 L1013.6,54.1 L80.2,54.1 Z  '/></g>
<g fill="none" color="black" stroke="currentColor" stroke-width="1.00" stroke-linecap="butt" stroke-linejoin="miter">
	<g transform="translate(19.0,358.3) rotate(270)" stroke="none" fill="black" font-family="Helvetica" font-size="12.00"  text-anchor="middle">
		<text><tspan font-family="Helvetica" >Density (a.u.)</tspan></text>
	</g>
</g>
<g fill="none" color="black" stroke="currentColor" stroke-width="1.00" stroke-linecap="butt" stroke-linejoin="miter">
	<g transform="translate(546.9,711.3)" stroke="none" fill="black" font-family="Helvetica" font-size="12.00"  text-anchor="middle">
		<text><tspan font-family="Helvetica" >Relative change (%)</tspan></text>
	</g>
</g>
<g fill="none" color="black" stroke="currentColor" stroke-width="1.00" stroke-linecap="butt" stroke-linejoin="miter">
	<g transform="translate(546.9,31.0)" stroke="none" fill="black" font-family="Helvetica" font-size="12.00"  text-anchor="middle">
		<text><tspan font-family="Helvetica" >bench_group/blake3/6144: mean</tspan></text>
	</g>
</g>
<g fill="none" color="black" stroke="currentColor" stroke-width="1.00" stroke-linecap="butt" stroke-linejoin="miter">
</g>
	<g id="gnuplot_plot_1" ><title>Bootstrap distribution</title>
<g fill="none" color="white" stroke="currentColor" stroke-width="2.00" stroke-linecap="butt" stroke-linejoin="miter">
</g>
<g fill="none" color="black" stroke="currentColor" stroke-width="2.00" stroke-linecap="butt" stroke-linejoin="miter">
	<g transform="translate(1089.0,67.0)" stroke="none" fill="black" font-family="Helvetica" font-size="12.00"  text-anchor="start">
		<text><tspan font-family="Helvetica" >Bootstrap distribution</tspan></text>
	</g>
</g>
<g fill="none" color="black" stroke="currentColor" stroke-width="2.00" stroke-linecap="butt" stroke-linejoin="miter">
	<path stroke='rgb( 31, 120, 180)'  d='M1038.5,63.1 L1080.7,63.1 M80.2,628.7 L82.1,628.1 L83.9,627.6 L85.8,627.0 L87.7,626.5 L89.6,626.0
		L91.4,625.4 L93.3,624.9 L95.2,624.4 L97.0,623.8 L98.9,623.3 L100.8,622.8 L102.6,622.3 L104.5,621.7
		L106.4,621.2 L108.3,620.7 L110.1,620.1 L112.0,619.6 L113.9,619.0 L115.7,618.5 L117.6,617.9 L119.5,617.3
		L121.4,616.7 L123.2,616.1 L125.1,615.4 L127.0,614.7 L128.8,614.0 L130.7,613.3 L132.6,612.6 L134.4,611.8
		L136.3,611.0 L138.2,610.2 L140.1,609.3 L141.9,608.4 L143.8,607.5 L145.7,606.6 L147.5,605.7 L149.4,604.7
		L151.3,603.7 L153.2,602.7 L155.0,601.6 L156.9,600.5 L158.8,599.4 L160.6,598.3 L162.5,597.2 L164.4,596.0
		L166.2,594.8 L168.1,593.6 L170.0,592.4 L171.9,591.2 L173.7,589.9 L175.6,588.6 L177.5,587.3 L179.3,585.9
		L181.2,584.6 L183.1,583.2 L185.0,581.8 L186.8,580.3 L188.7,578.9 L190.6,577.4 L192.4,575.9 L194.3,574.4
		L196.2,572.9 L198.0,571.3 L199.9,569.7 L201.8,568.1 L203.7,566.5 L205.5,564.8 L207.4,563.1 L209.3,561.4
		L211.1,559.7 L213.0,557.9 L214.9,556.1 L216.7,554.3 L218.6,552.4 L220.5,550.6 L222.4,548.7 L224.2,546.8
		L226.1,544.9 L228.0,543.0 L229.8,541.0 L231.7,539.1 L233.6,537.1 L235.5,535.2 L237.3,533.2 L239.2,531.3
		L241.1,529.3 L242.9,527.3 L244.8,525.4 L246.7,523.4 L248.5,521.5 L250.4,519.6 L252.3,517.7 L254.2,515.8
		L256.0,513.9 L257.9,512.1 L259.8,510.3 L261.6,508.4 L263.5,506.7 L265.4,504.9 L267.3,503.2 L269.1,501.5
		L271.0,499.8 L272.9,498.1 L274.7,496.4 L276.6,494.7 L278.5,493.0 L280.3,491.4 L282.2,489.7 L284.1,487.9
		L286.0,486.2 L287.8,484.4 L289.7,482.6 L291.6,480.7 L293.4,478.7 L295.3,476.7 L297.2,474.7 L299.1,472.5
		L300.9,470.3 L302.8,468.0 L304.7,465.7 L306.5,463.2 L308.4,460.7 L310.3,458.1 L312.1,455.5 L314.0,452.8
		L315.9,450.0 L317.8,447.1 L319.6,444.2 L321.5,441.3 L323.4,438.3 L325.2,435.2 L327.1,432.2 L329.0,429.1
		L330.9,425.9 L332.7,422.8 L334.6,419.6 L336.5,416.4 L338.3,413.2 L340.2,410.0 L342.1,406.8 L343.9,403.6
		L345.8,400.4 L347.7,397.3 L349.6,394.1 L351.4,390.9 L353.3,387.7 L355.2,384.6 L357.0,381.4 L358.9,378.3
		L360.8,375.1 L362.7,372.0 L364.5,368.8 L366.4,365.7 L368.3,362.6 L370.1,359.5 L372.0,356.4 L373.9,353.4
		L375.7,350.3 L377.6,347.3 L379.5,344.2 L381.4,341.2 L383.2,338.2 L385.1,335.2 L387.0,332.3 L388.8,329.3
		L390.7,326.4 L392.6,323.4 L394.5,320.5 L396.3,317.6 L398.2,314.7 L400.1,311.8 L401.9,308.9 L403.8,306.0
		L405.7,303.1 L407.5,300.2 L409.4,297.2 L411.3,294.3 L413.2,291.4 L415.0,288.4 L416.9,285.5 L418.8,282.5
		L420.6,279.5 L422.5,276.5 L424.4,273.5 L426.3,270.5 L428.1,267.4 L430.0,264.3 L431.9,261.2 L433.7,258.1
		L435.6,255.0 L437.5,251.9 L439.3,248.7 L441.2,245.5 L443.1,242.2 L445.0,239.0 L446.8,235.7 L448.7,232.4
		L450.6,229.1 L452.4,225.8 L454.3,222.5 L456.2,219.2 L458.0,215.9 L459.9,212.6 L461.8,209.4 L463.7,206.2
		L465.5,203.0 L467.4,199.9 L469.3,196.8 L471.1,193.8 L473.0,190.9 L474.9,188.0 L476.8,185.1 L478.6,182.3
		L480.5,179.5 L482.4,176.8 L484.2,174.1 L486.1,171.4 L488.0,168.7 L489.8,166.0 L491.7,163.3 L493.6,160.5
		L495.5,157.8 L497.3,155.0 L499.2,152.1 L501.1,149.2 L502.9,146.3 L504.8,143.3 L506.7,140.3 L508.6,137.3
		L510.4,134.2 L512.3,131.1 L514.2,128.0 L516.0,124.9 L517.9,121.9 L519.8,118.8 L521.6,115.8 L523.5,112.8
		L525.4,109.9 L527.3,107.1 L529.1,104.4 L531.0,101.7 L532.9,99.2 L534.7,96.7 L536.6,94.4 L538.5,92.2
		L540.4,90.1 L542.2,88.1 L544.1,86.3 L546.0,84.6 L547.8,83.0 L549.7,81.5 L551.6,80.1 L553.4,78.9
		L555.3,77.8 L557.2,76.8 L559.1,75.9 L560.9,75.1 L562.8,74.4 L564.7,73.8 L566.5,73.3 L568.4,72.8
		L570.3,72.4 L572.2,72.1 L574.0,71.9 L575.9,71.7 L577.8,71.5 L579.6,71.4 L581.5,71.4 L583.4,71.3
		L585.2,71.4 L587.1,71.4 L589.0,71.5 L590.9,71.6 L592.7,71.7 L594.6,71.9 L596.5,72.1 L598.3,72.4
		L600.2,72.7 L602.1,73.1 L604.0,73.6 L605.8,74.1 L607.7,74.7 L609.6,75.4 L611.4,76.2 L613.3,77.1
		L615.2,78.1 L617.0,79.2 L618.9,80.4 L620.8,81.7 L622.7,83.1 L624.5,84.6 L626.4,86.2 L628.3,87.9
		L630.1,89.7 L632.0,91.6 L633.9,93.5 L635.8,95.4 L637.6,97.4 L639.5,99.5 L641.4,101.6 L643.2,103.6
		L645.1,105.7 L647.0,107.7 L648.8,109.8 L650.7,111.8 L652.6,113.8 L654.5,115.7 L656.3,117.6 L658.2,119.5
		L660.1,121.3 L661.9,123.1 L663.8,124.9 L665.7,126.7 L667.5,128.4 L669.4,130.1 L671.3,131.8 L673.2,133.5
		L675.0,135.3 L676.9,137.0 L678.8,138.8 L680.6,140.7 L682.5,142.6 L684.4,144.5 L686.3,146.5 L688.1,148.6
		L690.0,150.8 L691.9,153.1 L693.7,155.4 L695.6,157.9 L697.5,160.4 L699.3,163.0 L701.2,165.7 L703.1,168.5
		L705.0,171.3 L706.8,174.2 L708.7,177.2 L710.6,180.3 L712.4,183.4 L714.3,186.6 L716.2,189.8 L718.1,193.1
		L719.9,196.5 L721.8,199.9 L723.7,203.3 L725.5,206.8 L727.4,210.4 L729.3,214.0 L731.1,217.7 L733.0,221.5
		L734.9,225.3 L736.8,229.2 L738.6,233.2 L740.5,237.3 L742.4,241.4 L744.2,245.6 L746.1,249.8 L748.0,254.2
		L749.9,258.6 L751.7,263.0 L753.6,267.6 L755.5,272.1 L757.3,276.7 L759.2,281.4 L761.1,286.1 L762.9,290.8
		L764.8,295.5 L766.7,300.2 L768.6,304.9 L770.4,309.6 L772.3,314.3 L774.2,319.0 L776.0,323.6 L777.9,328.2
		L779.8,332.8 L781.7,337.3 L783.5,341.8 L785.4,346.2 L787.3,350.6 L789.1,354.9 L791.0,359.1 L792.9,363.3
		L794.7,367.4 L796.6,371.4 L798.5,375.4 L800.4,379.2 L802.2,383.0 L804.1,386.7 L806.0,390.4 L807.8,394.0
		L809.7,397.5 L811.6,400.9 L813.5,404.2 L815.3,407.5 L817.2,410.7 L819.1,413.8 L820.9,416.9 L822.8,419.9
		L824.7,422.9 L826.5,425.8 L828.4,428.6 L830.3,431.4 L832.2,434.2 L834.0,436.9 L835.9,439.6 L837.8,442.2
		L839.6,444.9 L841.5,447.5 L843.4,450.1 L845.3,452.7 L847.1,455.3 L849.0,457.8 L850.9,460.4 L852.7,463.0
		L854.6,465.7 L856.5,468.3 L858.3,471.0 L860.2,473.7 L862.1,476.5 L864.0,479.3 L865.8,482.1 L867.7,484.9
		L869.6,487.8 L871.4,490.8 L873.3,493.7 L875.2,496.7 L877.1,499.7 L878.9,502.8 L880.8,505.8 L882.7,508.9
		L884.5,511.9 L886.4,514.9 L888.3,518.0 L890.1,521.0 L892.0,524.0 L893.9,526.9 L895.8,529.8 L897.6,532.7
		L899.5,535.5 L901.4,538.3 L903.2,541.0 L905.1,543.7 L907.0,546.4 L908.8,548.9 L910.7,551.5 L912.6,553.9
		L914.5,556.4 L916.3,558.7 L918.2,561.1 L920.1,563.3 L921.9,565.6 L923.8,567.8 L925.7,569.9 L927.6,572.0
		L929.4,574.1 L931.3,576.2 L933.2,578.2 L935.0,580.1 L936.9,582.0 L938.8,583.9 L940.6,585.8 L942.5,587.6
		L944.4,589.3 L946.3,591.0 L948.1,592.7 L950.0,594.3 L951.9,595.9 L953.7,597.4 L955.6,598.9 L957.5,600.3
		L959.4,601.7 L961.2,603.1 L963.1,604.3 L965.0,605.6 L966.8,606.8 L968.7,607.9 L970.6,609.1 L972.4,610.2
		L974.3,611.2 L976.2,612.3 L978.1,613.3 L979.9,614.3 L981.8,615.3 L983.7,616.3 L985.5,617.3 L987.4,618.2
		L989.3,619.2 L991.2,620.2 L993.0,621.1 L994.9,622.1 L996.8,623.1 L998.6,624.0 L1000.5,625.0 L1002.4,625.9
		L1004.2,626.9 L1006.1,627.8 L1008.0,628.7 L1009.9,629.6 L1011.7,630.5 L1013.6,631.4  '/></g>
	</g>
	<g id="gnuplot_plot_2" ><title>Confidence interval</title>
<g fill="none" color="white" stroke="rgb( 31, 120, 180)" stroke-width="1.00" stroke-linecap="butt" stroke-linejoin="miter">
</g>
<g fill="none" color="black" stroke="currentColor" stroke-width="1.00" stroke-linecap="butt" stroke-linejoin="miter">
	<g transform="translate(1089.0,85.0)" stroke="none" fill="black" font-family="Helvetica" font-size="12.00"  text-anchor="start">
		<text><tspan font-family="Helvetica" >Confidence interval</tspan></text>
	</g>
</g>
<g fill="none" color="black" stroke="currentColor" stroke-width="1.00" stroke-linecap="butt" stroke-linejoin="miter">
	<g stroke='none' shape-rendering='crispEdges'>
		<polygon fill = 'rgb( 31, 120, 180)' fill-opacity = '0.250000' points = '1038.5,85.6 1080.7,85.6 1080.7,76.6 1038.5,76.6 '/>
		<polygon fill = 'rgb( 31, 120, 180)' fill-opacity = '0.250000' points = '166.2,594.8 168.1,593.6 170.0,592.4 171.9,591.2 173.7,589.9 175.6,588.6 177.5,587.3 179.3,585.9 181.2,584.6 183.1,583.2 185.0,581.8 186.8,580.3 188.7,578.9 190.6,577.4 192.4,575.9 194.3,574.4
196.2,572.9 198.0,571.3 199.9,569.7 201.8,568.1 203.7,566.5 205.5,564.8 207.4,563.1 209.3,561.4 211.1,559.7 213.0,557.9 214.9,556.1 216.7,554.3 218.6,552.4 220.5,550.6 222.4,548.7 224.2,546.8
226.1,544.9 228.0,543.0 229.8,541.0 231.7,539.1 233.6,537.1 235.5,535.2 237.3,533.2 239.2,531.3 241.1,529.3 242.9,527.3 244.8,525.4 246.7,523.4 248.5,521.5 250.4,519.6 252.3,517.7 254.2,515.8
256.0,513.9 257.9,512.1 259.8,510.3 261.6,508.4 263.5,506.7 265.4,504.9 267.3,503.2 269.1,501.5 271.0,499.8 272.9,498.1 274.7,496.4 276.6,494.7 278.5,493.0 280.3,491.4 282.2,489.7 284.1,487.9
286.0,486.2 287.8,484.4 289.7,482.6 291.6,480.7 293.4,478.7 295.3,476.7 297.2,474.7 299.1,472.5 300.9,470.3 302.8,468.0 304.7,465.7 306.5,463.2 308.4,460.7 310.3,458.1 312.1,455.5 314.0,452.8
315.9,450.0 317.8,447.1 319.6,444.2 321.5,441.3 323.4,438.3 325.2,435.2 327.1,432.2 329.0,429.1 330.9,425.9 332.7,422.8 334.6,419.6 336.5,416.4 338.3,413.2 340.2,410.0 342.1,406.8 343.9,403.6
345.8,400.4 347.7,397.3 349.6,394.1 351.4,390.9 353.3,387.7 355.2,384.6 357.0,381.4 358.9,378.3 360.8,375.1 362.7,372.0 364.5,368.8 366.4,365.7 368.3,362.6 370.1,359.5 372.0,356.4 373.9,353.4
375.7,350.3 377.6,347.3 379.5,344.2 381.4,341.2 383.2,338.2 385.1,335.2 387.0,332.3 388.8,329.3 390.7,326.4 392.6,323.4 394.5,320.5 396.3,317.6 398.2,314.7 400.1,311.8 401.9,308.9 403.8,306.0
405.7,303.1 407.5,300.2 409.4,297.2 411.3,294.3 413.2,291.4 415.0,288.4 416.9,285.5 418.8,282.5 420.6,279.5 422.5,276.5 424.4,273.5 426.3,270.5 428.1,267.4 430.0,264.3 431.9,261.2 433.7,258.1
435.6,255.0 437.5,251.9 439.3,248.7 441.2,245.5 443.1,242.2 445.0,239.0 446.8,235.7 448.7,232.4 450.6,229.1 452.4,225.8 454.3,222.5 456.2,219.2 458.0,215.9 459.9,212.6 461.8,209.4 463.7,206.2
465.5,203.0 467.4,199.9 469.3,196.8 471.1,193.8 473.0,190.9 474.9,188.0 476.8,185.1 478.6,182.3 480.5,179.5 482.4,176.8 484.2,174.1 486.1,171.4 488.0,168.7 489.8,166.0 491.7,163.3 493.6,160.5
495.5,157.8 497.3,155.0 499.2,152.1 501.1,149.2 502.9,146.3 504.8,143.3 506.7,140.3 508.6,137.3 510.4,134.2 512.3,131.1 514.2,128.0 516.0,124.9 517.9,121.9 519.8,118.8 521.6,115.8 523.5,112.8
525.4,109.9 527.3,107.1 529.1,104.4 531.0,101.7 532.9,99.2 534.7,96.7 536.6,94.4 538.5,92.2 540.4,90.1 542.2,88.1 544.1,86.3 546.0,84.6 547.8,83.0 549.7,81.5 551.6,80.1 553.4,78.9
555.3,77.8 557.2,76.8 559.1,75.9 560.9,75.1 562.8,74.4 564.7,73.8 566.5,73.3 568.4,72.8 570.3,72.4 572.2,72.1 574.0,71.9 575.9,71.7 577.8,71.5 579.6,71.4 581.5,71.4 583.4,71.3
585.2,71.4 587.1,71.4 589.0,71.5 590.9,71.6 592.7,71.7 594.6,71.9 596.5,72.1 598.3,72.4 600.2,72.7 602.1,73.1 604.0,73.6 605.8,74.1 607.7,74.7 609.6,75.4 611.4,76.2 613.3,77.1
615.2,78.1 617.0,79.2 618.9,80.4 620.8,81.7 622.7,83.1 624.5,84.6 626.4,86.2 628.3,87.9 630.1,89.7 632.0,91.6 633.9,93.5 635.8,95.4 637.6,97.4 639.5,99.5 641.4,101.6 643.2,103.6
645.1,105.7 647.0,107.7 648.8,109.8 650.7,111.8 652.6,113.8 654.5,115.7 656.3,117.6 658.2,119.5 660.1,121.3 661.9,123.1 663.8,124.9 665.7,126.7 667.5,128.4 669.4,130.1 671.3,131.8 673.2,133.5
675.0,135.3 676.9,137.0 678.8,138.8 680.6,140.7 682.5,142.6 684.4,144.5 686.3,146.5 688.1,148.6 690.0,150.8 691.9,153.1 693.7,155.4 695.6,157.9 697.5,160.4 699.3,163.0 701.2,165.7 703.1,168.5
705.0,171.3 706.8,174.2 708.7,177.2 710.6,180.3 712.4,183.4 714.3,186.6 716.2,189.8 718.1,193.1 719.9,196.5 721.8,199.9 723.7,203.3 725.5,206.8 727.4,210.4 729.3,214.0 731.1,217.7 733.0,221.5
734.9,225.3 736.8,229.2 738.6,233.2 740.5,237.3 742.4,241.4 744.2,245.6 746.1,249.8 748.0,254.2 749.9,258.6 751.7,263.0 753.6,267.6 755.5,272.1 757.3,276.7 759.2,281.4 761.1,286.1 762.9,290.8
764.8,295.5 766.7,300.2 768.6,304.9 770.4,309.6 772.3,314.3 774.2,319.0 776.0,323.6 777.9,328.2 779.8,332.8 781.7,337.3 783.5,341.8 785.4,346.2 787.3,350.6 789.1,354.9 791.0,359.1 792.9,363.3
794.7,367.4 796.6,371.4 798.5,375.4 800.4,379.2 802.2,383.0 804.1,386.7 806.0,390.4 807.8,394.0 809.7,397.5 811.6,400.9 813.5,404.2 815.3,407.5 817.2,410.7 819.1,413.8 820.9,416.9 822.8,419.9
824.7,422.9 826.5,425.8 828.4,428.6 830.3,431.4 832.2,434.2 834.0,436.9 835.9,439.6 837.8,442.2 839.6,444.9 841.5,447.5 843.4,450.1 845.3,452.7 847.1,455.3 849.0,457.8 850.9,460.4 852.7,463.0
854.6,465.7 856.5,468.3 858.3,471.0 860.2,473.7 862.1,476.5 864.0,479.3 865.8,482.1 867.7,484.9 869.6,487.8 871.4,490.8 873.3,493.7 875.2,496.7 877.1,499.7 878.9,502.8 880.8,505.8 882.7,508.9
884.5,511.9 886.4,514.9 888.3,518.0 890.1,521.0 892.0,524.0 893.9,526.9 895.8,529.8 897.6,532.7 899.5,535.5 901.4,538.3 903.2,541.0 905.1,543.7 907.0,546.4 908.8,548.9 910.7,551.5 912.6,553.9
914.5,556.4 916.3,558.7 918.2,561.1 920.1,563.3 921.9,565.6 923.8,567.8 925.7,569.9 925.7,662.4 923.8,662.4 921.9,662.4 920.1,662.4 918.2,662.4 916.3,662.4 914.5,662.4 912.6,662.4 910.7,662.4
908.8,662.4 907.0,662.4 905.1,662.4 903.2,662.4 901.4,662.4 899.5,662.4 897.6,662.4 895.8,662.4 893.9,662.4 892.0,662.4 890.1,662.4 888.3,662.4 886.4,662.4 884.5,662.4 882.7,662.4 880.8,662.4
878.9,662.4 877.1,662.4 875.2,662.4 873.3,662.4 871.4,662.4 869.6,662.4 867.7,662.4 865.8,662.4 864.0,662.4 862.1,662.4 860.2,662.4 858.3,662.4 856.5,662.4 854.6,662.4 852.7,662.4 850.9,662.4
849.0,662.4 847.1,662.4 845.3,662.4 843.4,662.4 841.5,662.4 839.6,662.4 837.8,662.4 835.9,662.4 834.0,662.4 832.2,662.4 830.3,662.4 828.4,662.4 826.5,662.4 824.7,662.4 822.8,662.4 820.9,662.4
819.1,662.4 817.2,662.4 815.3,662.4 813.5,662.4 811.6,662.4 809.7,662.4 807.8,662.4 806.0,662.4 804.1,662.4 802.2,662.4 800.4,662.4 798.5,662.4 796.6,662.4 794.7,662.4 792.9,662.4 791.0,662.4
789.1,662.4 787.3,662.4 785.4,662.4 783.5,662.4 781.7,662.4 779.8,662.4 777.9,662.4 776.0,662.4 774.2,662.4 772.3,662.4 770.4,662.4 768.6,662.4 766.7,662.4 764.8,662.4 762.9,662.4 761.1,662.4
759.2,662.4 757.3,662.4 755.5,662.4 753.6,662.4 751.7,662.4 749.9,662.4 748.0,662.4 746.1,662.4 744.2,662.4 742.4,662.4 740.5,662.4 738.6,662.4 736.8,662.4 734.9,662.4 733.0,662.4 731.1,662.4
729.3,662.4 727.4,662.4 725.5,662.4 723.7,662.4 721.8,662.4 719.9,662.4 718.1,662.4 716.2,662.4 714.3,662.4 712.4,662.4 710.6,662.4 708.7,662.4 706.8,662.4 705.0,662.4 703.1,662.4 701.2,662.4
699.3,662.4 697.5,662.4 695.6,662.4 693.7,662.4 691.9,662.4 690.0,662.4 688.1,662.4 686.3,662.4 684.4,662.4 682.5,662.4 680.6,662.4 678.8,662.4 676.9,662.4 675.0,662.4 673.2,662.4 671.3,662.4
669.4,662.4 667.5,662.4 665.7,662.4 663.8,662.4 661.9,662.4 660.1,662.4 658.2,662.4 656.3,662.4 654.5,662.4 652.6,662.4 650.7,662.4 648.8,662.4 647.0,662.4 645.1,662.4 643.2,662.4 641.4,662.4
639.5,662.4 637.6,662.4 635.8,662.4 633.9,662.4 632.0,662.4 630.1,662.4 628.3,662.4 626.4,662.4 624.5,662.4 622.7,662.4 620.8,662.4 618.9,662.4 617.0,662.4 615.2,662.4 613.3,662.4 611.4,662.4
609.6,662.4 607.7,662.4 605.8,662.4 604.0,662.4 602.1,662.4 600.2,662.4 598.3,662.4 596.5,662.4 594.6,662.4 592.7,662.4 590.9,662.4 589.0,662.4 587.1,662.4 585.2,662.4 583.4,662.4 581.5,662.4
579.6,662.4 577.8,662.4 575.9,662.4 574.0,662.4 572.2,662.4 570.3,662.4 568.4,662.4 566.5,662.4 564.7,662.4 562.8,662.4 560.9,662.4 559.1,662.4 557.2,662.4 555.3,662.4 553.4,662.4 551.6,662.4
549.7,662.4 547.8,662.4 546.0,662.4 544.1,662.4 542.2,662.4 540.4,662.4 538.5,662.4 536.6,662.4 534.7,662.4 532.9,662.4 531.0,662.4 529.1,662.4 527.3,662.4 525.4,662.4 523.5,662.4 521.6,662.4
519.8,662.4 517.9,662.4 516.0,662.4 514.2,662.4 512.3,662.4 510.4,662.4 508.6,662.4 506.7,662.4 504.8,662.4 502.9,662.4 501.1,662.4 499.2,662.4 497.3,662.4 495.5,662.4 493.6,662.4 491.7,662.4
489.8,662.4 488.0,662.4 486.1,662.4 484.2,662.4 482.4,662.4 480.5,662.4 478.6,662.4 476.8,662.4 474.9,662.4 473.0,662.4 471.1,662.4 469.3,662.4 467.4,662.4 465.5,662.4 463.7,662.4 461.8,662.4
459.9,662.4 458.0,662.4 456.2,662.4 454.3,662.4 452.4,662.4 450.6,662.4 448.7,662.4 446.8,662.4 445.0,662.4 443.1,662.4 441.2,662.4 439.3,662.4 437.5,662.4 435.6,662.4 433.7,662.4 431.9,662.4
430.0,662.4 428.1,662.4 426.3,662.4 424.4,662.4 422.5,662.4 420.6,662.4 418.8,662.4 416.9,662.4 415.0,662.4 413.2,662.4 411.3,662.4 409.4,662.4 407.5,662.4 405.7,662.4 403.8,662.4 401.9,662.4
400.1,662.4 398.2,662.4 396.3,662.4 394.5,662.4 392.6,662.4 390.7,662.4 388.8,662.4 387.0,662.4 385.1,662.4 383.2,662.4 381.4,662.4 379.5,662.4 377.6,662.4 375.7,662.4 373.9,662.4 372.0,662.4
370.1,662.4 368.3,662.4 366.4,662.4 364.5,662.4 362.7,662.4 360.8,662.4 358.9,662.4 357.0,662.4 355.2,662.4 353.3,662.4 351.4,662.4 349.6,662.4 347.7,662.4 345.8,662.4 343.9,662.4 342.1,662.4
340.2,662.4 338.3,662.4 336.5,662.4 334.6,662.4 332.7,662.4 330.9,662.4 329.0,662.4 327.1,662.4 325.2,662.4 323.4,662.4 321.5,662.4 319.6,662.4 317.8,662.4 315.9,662.4 314.0,662.4 312.1,662.4
310.3,662.4 308.4,662.4 306.5,662.4 304.7,662.4 302.8,662.4 300.9,662.4 299.1,662.4 297.2,662.4 295.3,662.4 293.4,662.4 291.6,662.4 289.7,662.4 287.8,662.4 286.0,662.4 284.1,662.4 282.2,662.4
280.3,662.4 278.5,662.4 276.6,662.4 274.7,662.4 272.9,662.4 271.0,662.4 269.1,662.4 267.3,662.4 265.4,662.4 263.5,662.4 261.6,662.4 259.8,662.4 257.9,662.4 256.0,662.4 254.2,662.4 252.3,662.4
250.4,662.4 248.5,662.4 246.7,662.4 244.8,662.4 242.9,662.4 241.1,662.4 239.2,662.4 237.3,662.4 235.5,662.4 233.6,662.4 231.7,662.4 229.8,662.4 228.0,662.4 226.1,662.4 224.2,662.4 222.4,662.4
220.5,662.4 218.6,662.4 216.7,662.4 214.9,662.4 213.0,662.4 211.1,662.4 209.3,662.4 207.4,662.4 205.5,662.4 203.7,662.4 201.8,662.4 199.9,662.4 198.0,662.4 196.2,662.4 194.3,662.4 192.4,662.4
190.6,662.4 188.7,662.4 186.8,662.4 185.0,662.4 183.1,662.4 181.2,662.4 179.3,662.4 177.5,662.4 175.6,662.4 173.7,662.4 171.9,662.4 170.0,662.4 168.1,662.4 166.2,662.4 '/>
	</g>
</g>
	</g>
	<g id="gnuplot_plot_3" ><title>Point estimate</title>
<g fill="none" color="white" stroke="rgb( 31, 120, 180)" stroke-width="2.00" stroke-linecap="butt" stroke-linejoin="miter">
</g>
<g fill="none" color="black" stroke="currentColor" stroke-width="2.00" stroke-linecap="butt" stroke-linejoin="miter">
	<g transform="translate(1089.0,103.0)" stroke="none" fill="black" font-family="Helvetica" font-size="12.00"  text-anchor="start">
		<text><tspan font-family="Helvetica" >Point estimate</tspan></text>
	</g>
</g>
<g fill="none" color="black" stroke="currentColor" stroke-width="2.00" stroke-linecap="butt" stroke-linejoin="miter">
	<path stroke='rgb( 31, 120, 180)'  d='M1038.5,99.1 L1080.7,99.1 M568.4,662.4 L568.4,72.8  '/></g>
	</g>
	<g id="gnuplot_plot_4" ><title>Noise threshold</title>
<g fill="none" color="white" stroke="rgb( 31, 120, 180)" stroke-width="1.00" stroke-linecap="butt" stroke-linejoin="miter">
</g>
<g fill="none" color="black" stroke="currentColor" stroke-width="1.00" stroke-linecap="butt" stroke-linejoin="miter">
	<g transform="translate(1089.0,121.0)" stroke="none" fill="black" font-family="Helvetica" font-size="12.00"  text-anchor="start">
		<text><tspan font-family="Helvetica" >Noise threshold</tspan></text>
	</g>
</g>
<g fill="none" color="black" stroke="currentColor" stroke-width="1.00" stroke-linecap="butt" stroke-linejoin="miter">
	<g stroke='none' shape-rendering='crispEdges'>
		<polygon fill = 'rgb(227,  26,  28)' fill-opacity = '0.100000' points = '1038.5,121.6 1080.7,121.6 1080.7,112.6 1038.5,112.6 '/>
		<polygon fill = 'rgb(227,  26,  28)' fill-opacity = '0.100000' points = '546.9,54.1 546.9,54.1 546.9,662.4 546.9,662.4 '/>
	</g>
</g>
	</g>
<g fill="none" color="white" stroke="rgb(227,  26,  28)" stroke-width="2.00" stroke-linecap="butt" stroke-linejoin="miter">
</g>
<g fill="none" color="black" stroke="currentColor" stroke-width="2.00" stroke-linecap="butt" stroke-linejoin="miter">
</g>
<g fill="none" color="black" stroke="black" stroke-width="1.00" stroke-linecap="butt" stroke-linejoin="miter">
</g>
<g fill="none" color="black" stroke="currentColor" stroke-width="1.00" stroke-linecap="butt" stroke-linejoin="miter">
	<path stroke='black'  d='M80.2,54.1 L80.2,662.4 L1013.6,662.4 L1013.6,54.1 L80.2,54.1 Z  '/></g>
<g fill="none" color="black" stroke="currentColor" stroke-width="1.00" stroke-linecap="butt" stroke-linejoin="miter">
</g>
</g>
</svg>

