<?xml version="1.0" encoding="utf-8"  standalone="no"?>
<svg 
 viewBox="0 0 450 300"
 xmlns="http://www.w3.org/2000/svg"
 xmlns:xlink="http://www.w3.org/1999/xlink"
>

<title>Gnuplot</title>
<desc>Produced by GNUPLOT 5.2 patchlevel 8 </desc>

<g id="gnuplot_canvas">

<rect x="0" y="0" width="450" height="300" fill="none"/>
<defs>

	<circle id='gpDot' r='0.5' stroke-width='0.5' stroke='currentColor'/>
	<path id='gpPt0' stroke-width='0.222' stroke='currentColor' d='M-1,0 h2 M0,-1 v2'/>
	<path id='gpPt1' stroke-width='0.222' stroke='currentColor' d='M-1,-1 L1,1 M1,-1 L-1,1'/>
	<path id='gpPt2' stroke-width='0.222' stroke='currentColor' d='M-1,0 L1,0 M0,-1 L0,1 M-1,-1 L1,1 M-1,1 L1,-1'/>
	<rect id='gpPt3' stroke-width='0.222' stroke='currentColor' x='-1' y='-1' width='2' height='2'/>
	<rect id='gpPt4' stroke-width='0.222' stroke='currentColor' fill='currentColor' x='-1' y='-1' width='2' height='2'/>
	<circle id='gpPt5' stroke-width='0.222' stroke='currentColor' cx='0' cy='0' r='1'/>
	<use xlink:href='#gpPt5' id='gpPt6' fill='currentColor' stroke='none'/>
	<path id='gpPt7' stroke-width='0.222' stroke='currentColor' d='M0,-1.33 L-1.33,0.67 L1.33,0.67 z'/>
	<use xlink:href='#gpPt7' id='gpPt8' fill='currentColor' stroke='none'/>
	<use xlink:href='#gpPt7' id='gpPt9' stroke='currentColor' transform='rotate(180)'/>
	<use xlink:href='#gpPt9' id='gpPt10' fill='currentColor' stroke='none'/>
	<use xlink:href='#gpPt3' id='gpPt11' stroke='currentColor' transform='rotate(45)'/>
	<use xlink:href='#gpPt11' id='gpPt12' fill='currentColor' stroke='none'/>
	<path id='gpPt13' stroke-width='0.222' stroke='currentColor' d='M0,1.330 L1.265,0.411 L0.782,-1.067 L-0.782,-1.076 L-1.265,0.411 z'/>
	<use xlink:href='#gpPt13' id='gpPt14' fill='currentColor' stroke='none'/>
	<filter id='textbox' filterUnits='objectBoundingBox' x='0' y='0' height='1' width='1'>
	  <feFlood flood-color='white' flood-opacity='1' result='bgnd'/>
	  <feComposite in='SourceGraphic' in2='bgnd' operator='atop'/>
	</filter>
	<filter id='greybox' filterUnits='objectBoundingBox' x='0' y='0' height='1' width='1'>
	  <feFlood flood-color='lightgrey' flood-opacity='1' result='grey'/>
	  <feComposite in='SourceGraphic' in2='grey' operator='atop'/>
	</filter>
</defs>
<g fill="none" color="white" stroke="currentColor" stroke-width="1.00" stroke-linecap="butt" stroke-linejoin="miter">
</g>
<g fill="none" color="black" stroke="currentColor" stroke-width="1.00" stroke-linecap="butt" stroke-linejoin="miter">
	<path stroke='black'  d='M63.6,242.4 L72.6,242.4  '/>	<g transform="translate(55.3,246.3)" stroke="none" fill="black" font-family="Helvetica" font-size="12.00"  text-anchor="end">
		<text><tspan font-family="Helvetica" > 0</tspan></text>
	</g>
</g>
<g fill="none" color="black" stroke="currentColor" stroke-width="1.00" stroke-linecap="butt" stroke-linejoin="miter">
	<path stroke='black'  d='M63.6,206.4 L72.6,206.4  '/>	<g transform="translate(55.3,210.3)" stroke="none" fill="black" font-family="Helvetica" font-size="12.00"  text-anchor="end">
		<text><tspan font-family="Helvetica" > 5</tspan></text>
	</g>
</g>
<g fill="none" color="black" stroke="currentColor" stroke-width="1.00" stroke-linecap="butt" stroke-linejoin="miter">
	<path stroke='black'  d='M63.6,170.4 L72.6,170.4  '/>	<g transform="translate(55.3,174.3)" stroke="none" fill="black" font-family="Helvetica" font-size="12.00"  text-anchor="end">
		<text><tspan font-family="Helvetica" > 10</tspan></text>
	</g>
</g>
<g fill="none" color="black" stroke="currentColor" stroke-width="1.00" stroke-linecap="butt" stroke-linejoin="miter">
	<path stroke='black'  d='M63.6,134.4 L72.6,134.4  '/>	<g transform="translate(55.3,138.3)" stroke="none" fill="black" font-family="Helvetica" font-size="12.00"  text-anchor="end">
		<text><tspan font-family="Helvetica" > 15</tspan></text>
	</g>
</g>
<g fill="none" color="black" stroke="currentColor" stroke-width="1.00" stroke-linecap="butt" stroke-linejoin="miter">
	<path stroke='black'  d='M63.6,98.4 L72.6,98.4  '/>	<g transform="translate(55.3,102.3)" stroke="none" fill="black" font-family="Helvetica" font-size="12.00"  text-anchor="end">
		<text><tspan font-family="Helvetica" > 20</tspan></text>
	</g>
</g>
<g fill="none" color="black" stroke="currentColor" stroke-width="1.00" stroke-linecap="butt" stroke-linejoin="miter">
	<path stroke='black'  d='M63.6,62.4 L72.6,62.4  '/>	<g transform="translate(55.3,66.3)" stroke="none" fill="black" font-family="Helvetica" font-size="12.00"  text-anchor="end">
		<text><tspan font-family="Helvetica" > 25</tspan></text>
	</g>
</g>
<g fill="none" color="black" stroke="currentColor" stroke-width="1.00" stroke-linecap="butt" stroke-linejoin="miter">
	<path stroke='black'  d='M63.6,26.4 L72.6,26.4  '/>	<g transform="translate(55.3,30.3)" stroke="none" fill="black" font-family="Helvetica" font-size="12.00"  text-anchor="end">
		<text><tspan font-family="Helvetica" > 30</tspan></text>
	</g>
</g>
<g fill="none" color="black" stroke="currentColor" stroke-width="1.00" stroke-linecap="butt" stroke-linejoin="miter">
	<path stroke='black'  d='M116.0,242.4 L116.0,233.4  '/>	<g transform="translate(116.0,264.3)" stroke="none" fill="black" font-family="Helvetica" font-size="12.00"  text-anchor="middle">
		<text><tspan font-family="Helvetica" > 6.85</tspan></text>
	</g>
</g>
<g fill="none" color="black" stroke="currentColor" stroke-width="1.00" stroke-linecap="butt" stroke-linejoin="miter">
	<path stroke='black'  d='M173.2,242.4 L173.2,233.4  '/>	<g transform="translate(173.2,264.3)" stroke="none" fill="black" font-family="Helvetica" font-size="12.00"  text-anchor="middle">
		<text><tspan font-family="Helvetica" > 6.9</tspan></text>
	</g>
</g>
<g fill="none" color="black" stroke="currentColor" stroke-width="1.00" stroke-linecap="butt" stroke-linejoin="miter">
	<path stroke='black'  d='M230.4,242.4 L230.4,233.4  '/>	<g transform="translate(230.4,264.3)" stroke="none" fill="black" font-family="Helvetica" font-size="12.00"  text-anchor="middle">
		<text><tspan font-family="Helvetica" > 6.95</tspan></text>
	</g>
</g>
<g fill="none" color="black" stroke="currentColor" stroke-width="1.00" stroke-linecap="butt" stroke-linejoin="miter">
	<path stroke='black'  d='M287.6,242.4 L287.6,233.4  '/>	<g transform="translate(287.6,264.3)" stroke="none" fill="black" font-family="Helvetica" font-size="12.00"  text-anchor="middle">
		<text><tspan font-family="Helvetica" > 7</tspan></text>
	</g>
</g>
<g fill="none" color="black" stroke="currentColor" stroke-width="1.00" stroke-linecap="butt" stroke-linejoin="miter">
	<path stroke='black'  d='M344.8,242.4 L344.8,233.4  '/>	<g transform="translate(344.8,264.3)" stroke="none" fill="black" font-family="Helvetica" font-size="12.00"  text-anchor="middle">
		<text><tspan font-family="Helvetica" > 7.05</tspan></text>
	</g>
</g>
<g fill="none" color="black" stroke="currentColor" stroke-width="1.00" stroke-linecap="butt" stroke-linejoin="miter">
	<path stroke='black'  d='M402.0,242.4 L402.0,233.4  '/>	<g transform="translate(402.0,264.3)" stroke="none" fill="black" font-family="Helvetica" font-size="12.00"  text-anchor="middle">
		<text><tspan font-family="Helvetica" > 7.1</tspan></text>
	</g>
</g>
<g fill="none" color="black" stroke="currentColor" stroke-width="1.00" stroke-linecap="butt" stroke-linejoin="miter">
</g>
<g fill="none" color="black" stroke="currentColor" stroke-width="1.00" stroke-linecap="butt" stroke-linejoin="miter">
	<path stroke='black'  d='M63.6,18.1 L63.6,242.4 L425.0,242.4 L425.0,18.1 L63.6,18.1 Z  '/></g>
<g fill="none" color="black" stroke="currentColor" stroke-width="1.00" stroke-linecap="butt" stroke-linejoin="miter">
	<g transform="translate(19.0,130.3) rotate(270)" stroke="none" fill="black" font-family="Helvetica" font-size="12.00"  text-anchor="middle">
		<text><tspan font-family="Helvetica" >Density (a.u.)</tspan></text>
	</g>
</g>
<g fill="none" color="black" stroke="currentColor" stroke-width="1.00" stroke-linecap="butt" stroke-linejoin="miter">
	<g transform="translate(244.3,291.3)" stroke="none" fill="black" font-family="Helvetica" font-size="12.00"  text-anchor="middle">
		<text><tspan font-family="Helvetica" >Average time (us)</tspan></text>
	</g>
</g>
<g fill="none" color="black" stroke="currentColor" stroke-width="1.00" stroke-linecap="butt" stroke-linejoin="miter">
</g>
	<g id="gnuplot_plot_1" ><title>PDF</title>
<g fill="none" color="black" stroke="currentColor" stroke-width="1.00" stroke-linecap="butt" stroke-linejoin="miter">
	<g stroke='none' shape-rendering='crispEdges'>
		<polygon fill = 'rgb( 31, 120, 180)' fill-opacity = '0.250000' points = '63.6,242.4 64.3,242.4 65.0,242.3 65.8,242.3 66.5,242.3 67.2,242.3 67.9,242.3 68.7,242.3 69.4,242.3 70.1,242.2 70.8,242.2 71.6,242.2 72.3,242.1 73.0,242.1 73.7,242.0 74.5,242.0
75.2,241.9 75.9,241.9 76.6,241.8 77.4,241.7 78.1,241.6 78.8,241.5 79.5,241.4 80.3,241.3 81.0,241.2 81.7,241.0 82.4,240.9 83.2,240.7 83.9,240.6 84.6,240.4 85.3,240.2 86.1,240.0
86.8,239.8 87.5,239.5 88.2,239.3 88.9,239.0 89.7,238.8 90.4,238.5 91.1,238.2 91.8,237.9 92.6,237.6 93.3,237.3 94.0,237.0 94.7,236.7 95.5,236.4 96.2,236.1 96.9,235.8 97.6,235.4
98.4,235.1 99.1,234.8 99.8,234.5 100.5,234.2 101.3,233.9 102.0,233.7 102.7,233.4 103.4,233.2 104.2,232.9 104.9,232.7 105.6,232.5 106.3,232.3 107.1,232.2 107.8,232.0 108.5,231.9 109.2,231.8
110.0,231.7 110.7,231.7 111.4,231.6 112.1,231.6 112.8,231.6 113.6,231.6 114.3,231.6 115.0,231.6 115.7,231.7 116.5,231.7 117.2,231.7 117.9,231.7 118.6,231.8 119.4,231.7 120.1,231.7 120.8,231.6
121.5,231.5 122.3,231.4 123.0,231.2 123.7,230.9 124.4,230.6 125.2,230.2 125.9,229.7 126.6,229.2 127.3,228.5 128.1,227.7 128.8,226.8 129.5,225.8 130.2,224.6 131.0,223.3 131.7,221.8 132.4,220.2
133.1,218.4 133.9,216.4 134.6,214.2 135.3,211.8 136.0,209.2 136.7,206.4 137.5,203.4 138.2,200.1 138.9,196.6 139.6,192.8 140.4,188.9 141.1,184.6 141.8,180.2 142.5,175.5 143.3,170.5 144.0,165.4
144.7,160.0 145.4,154.4 146.2,148.6 146.9,142.6 147.6,136.5 148.3,130.2 149.1,123.8 149.8,117.3 150.5,110.7 151.2,104.1 152.0,97.5 152.7,91.0 153.4,84.4 154.1,78.0 154.9,71.7 155.6,65.6
156.3,59.7 157.0,54.1 157.8,48.7 158.5,43.7 159.2,39.0 159.9,34.8 160.6,30.9 161.4,27.6 162.1,24.7 162.8,22.3 163.5,20.4 164.3,19.1 165.0,18.3 165.7,18.1 166.4,18.4 167.2,19.3
167.9,20.8 168.6,22.8 169.3,25.3 170.1,28.3 170.8,31.8 171.5,35.8 172.2,40.2 173.0,44.9 173.7,50.1 174.4,55.5 175.1,61.3 175.9,67.2 176.6,73.4 177.3,79.8 178.0,86.2 178.8,92.8
179.5,99.4 180.2,106.0 180.9,112.6 181.7,119.1 182.4,125.6 183.1,131.9 183.8,138.1 184.5,144.1 185.3,150.0 186.0,155.6 186.7,161.1 187.4,166.3 188.2,171.3 188.9,176.1 189.6,180.6 190.3,184.9
191.1,189.0 191.8,192.8 192.5,196.4 193.2,199.7 194.0,202.9 194.7,205.8 195.4,208.5 196.1,211.0 196.9,213.4 197.6,215.5 198.3,217.5 199.0,219.4 199.8,221.1 200.5,222.6 201.2,224.0 201.9,225.4
202.7,226.6 203.4,227.7 204.1,228.7 204.8,229.6 205.6,230.4 206.3,231.2 207.0,231.9 207.7,232.5 208.4,233.1 209.2,233.6 209.9,234.0 210.6,234.5 211.3,234.8 212.1,235.2 212.8,235.5 213.5,235.8
214.2,236.0 215.0,236.2 215.7,236.4 216.4,236.6 217.1,236.8 217.9,236.9 218.6,237.0 219.3,237.1 220.0,237.2 220.8,237.3 221.5,237.4 222.2,237.4 222.9,237.5 223.7,237.5 224.4,237.6 225.1,237.6
225.8,237.7 226.6,237.7 227.3,237.7 228.0,237.8 228.7,237.8 229.5,237.8 230.2,237.8 230.9,237.9 231.6,237.9 232.3,237.9 233.1,238.0 233.8,238.0 234.5,238.0 235.2,238.1 236.0,238.1 236.7,238.1
237.4,238.2 238.1,238.3 238.9,238.3 239.6,238.4 240.3,238.4 241.0,238.5 241.8,238.6 242.5,238.7 243.2,238.8 243.9,238.9 244.7,239.0 245.4,239.1 246.1,239.2 246.8,239.3 247.6,239.4 248.3,239.5
249.0,239.7 249.7,239.8 250.5,239.9 251.2,240.0 251.9,240.2 252.6,240.3 253.4,240.4 254.1,240.6 254.8,240.7 255.5,240.8 256.3,240.9 257.0,241.0 257.7,241.1 258.4,241.2 259.1,241.3 259.9,241.4
260.6,241.5 261.3,241.6 262.0,241.7 262.8,241.8 263.5,241.8 264.2,241.9 264.9,241.9 265.7,242.0 266.4,242.0 267.1,242.1 267.8,242.1 268.6,242.2 269.3,242.2 270.0,242.2 270.7,242.2 271.5,242.3
272.2,242.3 272.9,242.3 273.6,242.3 274.4,242.3 275.1,242.3 275.8,242.3 276.5,242.4 277.3,242.4 278.0,242.4 278.7,242.4 279.4,242.4 280.2,242.4 280.9,242.4 281.6,242.4 282.3,242.4 283.0,242.4
283.8,242.4 284.5,242.4 285.2,242.4 285.9,242.4 286.7,242.4 287.4,242.4 288.1,242.4 288.8,242.4 289.6,242.4 290.3,242.4 291.0,242.4 291.7,242.4 292.5,242.4 293.2,242.4 293.9,242.4 294.6,242.4
295.4,242.4 296.1,242.4 296.8,242.4 297.5,242.4 298.3,242.4 299.0,242.4 299.7,242.4 300.4,242.4 301.2,242.4 301.9,242.4 302.6,242.4 303.3,242.4 304.1,242.4 304.8,242.4 305.5,242.4 306.2,242.4
306.9,242.4 307.7,242.4 308.4,242.4 309.1,242.4 309.8,242.4 310.6,242.4 311.3,242.4 312.0,242.4 312.7,242.4 313.5,242.4 314.2,242.4 314.9,242.4 315.6,242.4 316.4,242.4 317.1,242.4 317.8,242.4
318.5,242.4 319.3,242.4 320.0,242.4 320.7,242.4 321.4,242.4 322.2,242.4 322.9,242.4 323.6,242.4 324.3,242.4 325.1,242.4 325.8,242.4 326.5,242.4 327.2,242.4 328.0,242.4 328.7,242.4 329.4,242.4
330.1,242.4 330.8,242.4 331.6,242.4 332.3,242.4 333.0,242.4 333.7,242.4 334.5,242.4 335.2,242.4 335.9,242.4 336.6,242.4 337.4,242.4 338.1,242.4 338.8,242.4 339.5,242.4 340.3,242.4 341.0,242.4
341.7,242.4 342.4,242.4 343.2,242.4 343.9,242.4 344.6,242.4 345.3,242.4 346.1,242.4 346.8,242.4 347.5,242.4 348.2,242.4 349.0,242.4 349.7,242.4 350.4,242.4 351.1,242.4 351.9,242.4 352.6,242.4
353.3,242.4 354.0,242.4 354.7,242.3 355.5,242.3 356.2,242.3 356.9,242.3 357.6,242.3 358.4,242.3 359.1,242.3 359.8,242.2 360.5,242.2 361.3,242.2 362.0,242.2 362.7,242.1 363.4,242.1 364.2,242.0
364.9,242.0 365.6,241.9 366.3,241.9 367.1,241.8 367.8,241.8 368.5,241.7 369.2,241.6 370.0,241.5 370.7,241.5 371.4,241.4 372.1,241.3 372.9,241.2 373.6,241.1 374.3,241.0 375.0,240.9 375.8,240.8
376.5,240.6 377.2,240.5 377.9,240.4 378.6,240.3 379.4,240.2 380.1,240.1 380.8,240.0 381.5,239.9 382.3,239.8 383.0,239.7 383.7,239.7 384.4,239.6 385.2,239.5 385.9,239.5 386.6,239.4 387.3,239.4
388.1,239.4 388.8,239.4 389.5,239.4 390.2,239.4 391.0,239.4 391.7,239.5 392.4,239.5 393.1,239.6 393.9,239.6 394.6,239.7 395.3,239.8 396.0,239.9 396.8,240.0 397.5,240.1 398.2,240.2 398.9,240.3
399.7,240.4 400.4,240.5 401.1,240.6 401.8,240.7 402.5,240.8 403.3,240.9 404.0,241.0 404.7,241.1 405.4,241.2 406.2,241.3 406.9,241.4 407.6,241.5 408.3,241.6 409.1,241.7 409.8,241.7 410.5,241.8
411.2,241.9 412.0,241.9 412.7,242.0 413.4,242.0 414.1,242.1 414.9,242.1 415.6,242.1 416.3,242.2 417.0,242.2 417.8,242.2 418.5,242.3 419.2,242.3 419.9,242.3 420.7,242.3 421.4,242.3 422.1,242.3
422.8,242.3 423.6,242.4 424.3,242.4 425.0,242.4 425.0,242.4 424.3,242.4 423.6,242.4 422.8,242.4 422.1,242.4 421.4,242.4 420.7,242.4 419.9,242.4 419.2,242.4 418.5,242.4 417.8,242.4 417.0,242.4
416.3,242.4 415.6,242.4 414.9,242.4 414.1,242.4 413.4,242.4 412.7,242.4 412.0,242.4 411.2,242.4 410.5,242.4 409.8,242.4 409.1,242.4 408.3,242.4 407.6,242.4 406.9,242.4 406.2,242.4 405.4,242.4
404.7,242.4 404.0,242.4 403.3,242.4 402.5,242.4 401.8,242.4 401.1,242.4 400.4,242.4 399.7,242.4 398.9,242.4 398.2,242.4 397.5,242.4 396.8,242.4 396.0,242.4 395.3,242.4 394.6,242.4 393.9,242.4
393.1,242.4 392.4,242.4 391.7,242.4 391.0,242.4 390.2,242.4 389.5,242.4 388.8,242.4 388.1,242.4 387.3,242.4 386.6,242.4 385.9,242.4 385.2,242.4 384.4,242.4 383.7,242.4 383.0,242.4 382.3,242.4
381.5,242.4 380.8,242.4 380.1,242.4 379.4,242.4 378.6,242.4 377.9,242.4 377.2,242.4 376.5,242.4 375.8,242.4 375.0,242.4 374.3,242.4 373.6,242.4 372.9,242.4 372.1,242.4 371.4,242.4 370.7,242.4
370.0,242.4 369.2,242.4 368.5,242.4 367.8,242.4 367.1,242.4 366.3,242.4 365.6,242.4 364.9,242.4 364.2,242.4 363.4,242.4 362.7,242.4 362.0,242.4 361.3,242.4 360.5,242.4 359.8,242.4 359.1,242.4
358.4,242.4 357.6,242.4 356.9,242.4 356.2,242.4 355.5,242.4 354.7,242.4 354.0,242.4 353.3,242.4 352.6,242.4 351.9,242.4 351.1,242.4 350.4,242.4 349.7,242.4 349.0,242.4 348.2,242.4 347.5,242.4
346.8,242.4 346.1,242.4 345.3,242.4 344.6,242.4 343.9,242.4 343.2,242.4 342.4,242.4 341.7,242.4 341.0,242.4 340.3,242.4 339.5,242.4 338.8,242.4 338.1,242.4 337.4,242.4 336.6,242.4 335.9,242.4
335.2,242.4 334.5,242.4 333.7,242.4 333.0,242.4 332.3,242.4 331.6,242.4 330.8,242.4 330.1,242.4 329.4,242.4 328.7,242.4 328.0,242.4 327.2,242.4 326.5,242.4 325.8,242.4 325.1,242.4 324.3,242.4
323.6,242.4 322.9,242.4 322.2,242.4 321.4,242.4 320.7,242.4 320.0,242.4 319.3,242.4 318.5,242.4 317.8,242.4 317.1,242.4 316.4,242.4 315.6,242.4 314.9,242.4 314.2,242.4 313.5,242.4 312.7,242.4
312.0,242.4 311.3,242.4 310.6,242.4 309.8,242.4 309.1,242.4 308.4,242.4 307.7,242.4 306.9,242.4 306.2,242.4 305.5,242.4 304.8,242.4 304.1,242.4 303.3,242.4 302.6,242.4 301.9,242.4 301.2,242.4
300.4,242.4 299.7,242.4 299.0,242.4 298.3,242.4 297.5,242.4 296.8,242.4 296.1,242.4 295.4,242.4 294.6,242.4 293.9,242.4 293.2,242.4 292.5,242.4 291.7,242.4 291.0,242.4 290.3,242.4 289.6,242.4
288.8,242.4 288.1,242.4 287.4,242.4 286.7,242.4 285.9,242.4 285.2,242.4 284.5,242.4 283.8,242.4 283.0,242.4 282.3,242.4 281.6,242.4 280.9,242.4 280.2,242.4 279.4,242.4 278.7,242.4 278.0,242.4
277.3,242.4 276.5,242.4 275.8,242.4 275.1,242.4 274.4,242.4 273.6,242.4 272.9,242.4 272.2,242.4 271.5,242.4 270.7,242.4 270.0,242.4 269.3,242.4 268.6,242.4 267.8,242.4 267.1,242.4 266.4,242.4
265.7,242.4 264.9,242.4 264.2,242.4 263.5,242.4 262.8,242.4 262.0,242.4 261.3,242.4 260.6,242.4 259.9,242.4 259.1,242.4 258.4,242.4 257.7,242.4 257.0,242.4 256.3,242.4 255.5,242.4 254.8,242.4
254.1,242.4 253.4,242.4 252.6,242.4 251.9,242.4 251.2,242.4 250.5,242.4 249.7,242.4 249.0,242.4 248.3,242.4 247.6,242.4 246.8,242.4 246.1,242.4 245.4,242.4 244.7,242.4 243.9,242.4 243.2,242.4
242.5,242.4 241.8,242.4 241.0,242.4 240.3,242.4 239.6,242.4 238.9,242.4 238.1,242.4 237.4,242.4 236.7,242.4 236.0,242.4 235.2,242.4 234.5,242.4 233.8,242.4 233.1,242.4 232.3,242.4 231.6,242.4
230.9,242.4 230.2,242.4 229.5,242.4 228.7,242.4 228.0,242.4 227.3,242.4 226.6,242.4 225.8,242.4 225.1,242.4 224.4,242.4 223.7,242.4 222.9,242.4 222.2,242.4 221.5,242.4 220.8,242.4 220.0,242.4
219.3,242.4 218.6,242.4 217.9,242.4 217.1,242.4 216.4,242.4 215.7,242.4 215.0,242.4 214.2,242.4 213.5,242.4 212.8,242.4 212.1,242.4 211.3,242.4 210.6,242.4 209.9,242.4 209.2,242.4 208.4,242.4
207.7,242.4 207.0,242.4 206.3,242.4 205.6,242.4 204.8,242.4 204.1,242.4 203.4,242.4 202.7,242.4 201.9,242.4 201.2,242.4 200.5,242.4 199.8,242.4 199.0,242.4 198.3,242.4 197.6,242.4 196.9,242.4
196.1,242.4 195.4,242.4 194.7,242.4 194.0,242.4 193.2,242.4 192.5,242.4 191.8,242.4 191.1,242.4 190.3,242.4 189.6,242.4 188.9,242.4 188.2,242.4 187.4,242.4 186.7,242.4 186.0,242.4 185.3,242.4
184.5,242.4 183.8,242.4 183.1,242.4 182.4,242.4 181.7,242.4 180.9,242.4 180.2,242.4 179.5,242.4 178.8,242.4 178.0,242.4 177.3,242.4 176.6,242.4 175.9,242.4 175.1,242.4 174.4,242.4 173.7,242.4
173.0,242.4 172.2,242.4 171.5,242.4 170.8,242.4 170.1,242.4 169.3,242.4 168.6,242.4 167.9,242.4 167.2,242.4 166.4,242.4 165.7,242.4 165.0,242.4 164.3,242.4 163.5,242.4 162.8,242.4 162.1,242.4
161.4,242.4 160.6,242.4 159.9,242.4 159.2,242.4 158.5,242.4 157.8,242.4 157.0,242.4 156.3,242.4 155.6,242.4 154.9,242.4 154.1,242.4 153.4,242.4 152.7,242.4 152.0,242.4 151.2,242.4 150.5,242.4
149.8,242.4 149.1,242.4 148.3,242.4 147.6,242.4 146.9,242.4 146.2,242.4 145.4,242.4 144.7,242.4 144.0,242.4 143.3,242.4 142.5,242.4 141.8,242.4 141.1,242.4 140.4,242.4 139.6,242.4 138.9,242.4
138.2,242.4 137.5,242.4 136.7,242.4 136.0,242.4 135.3,242.4 134.6,242.4 133.9,242.4 133.1,242.4 132.4,242.4 131.7,242.4 131.0,242.4 130.2,242.4 129.5,242.4 128.8,242.4 128.1,242.4 127.3,242.4
126.6,242.4 125.9,242.4 125.2,242.4 124.4,242.4 123.7,242.4 123.0,242.4 122.3,242.4 121.5,242.4 120.8,242.4 120.1,242.4 119.4,242.4 118.6,242.4 117.9,242.4 117.2,242.4 116.5,242.4 115.7,242.4
115.0,242.4 114.3,242.4 113.6,242.4 112.8,242.4 112.1,242.4 111.4,242.4 110.7,242.4 110.0,242.4 109.2,242.4 108.5,242.4 107.8,242.4 107.1,242.4 106.3,242.4 105.6,242.4 104.9,242.4 104.2,242.4
103.4,242.4 102.7,242.4 102.0,242.4 101.3,242.4 100.5,242.4 99.8,242.4 99.1,242.4 98.4,242.4 97.6,242.4 96.9,242.4 96.2,242.4 95.5,242.4 94.7,242.4 94.0,242.4 93.3,242.4 92.6,242.4
91.8,242.4 91.1,242.4 90.4,242.4 89.7,242.4 88.9,242.4 88.2,242.4 87.5,242.4 86.8,242.4 86.1,242.4 85.3,242.4 84.6,242.4 83.9,242.4 83.2,242.4 82.4,242.4 81.7,242.4 81.0,242.4
80.3,242.4 79.5,242.4 78.8,242.4 78.1,242.4 77.4,242.4 76.6,242.4 75.9,242.4 75.2,242.4 74.5,242.4 73.7,242.4 73.0,242.4 72.3,242.4 71.6,242.4 70.8,242.4 70.1,242.4 69.4,242.4
68.7,242.4 67.9,242.4 67.2,242.4 66.5,242.4 65.8,242.4 65.0,242.4 64.3,242.4 63.6,242.4 '/>
	</g>
</g>
	</g>
	<g id="gnuplot_plot_2" ><title>Mean</title>
<g fill="none" color="white" stroke="rgb( 31, 120, 180)" stroke-width="2.00" stroke-linecap="butt" stroke-linejoin="miter">
</g>
<g fill="none" color="black" stroke="currentColor" stroke-width="2.00" stroke-linecap="butt" stroke-linejoin="miter">
	<path stroke='rgb( 31, 120, 180)'  d='M167.4,242.4 L167.4,40.0  '/></g>
	</g>
<g fill="none" color="black" stroke="currentColor" stroke-width="2.00" stroke-linecap="butt" stroke-linejoin="miter">
</g>
<g fill="none" color="black" stroke="black" stroke-width="1.00" stroke-linecap="butt" stroke-linejoin="miter">
</g>
<g fill="none" color="black" stroke="currentColor" stroke-width="1.00" stroke-linecap="butt" stroke-linejoin="miter">
	<path stroke='black'  d='M63.6,18.1 L63.6,242.4 L425.0,242.4 L425.0,18.1 L63.6,18.1 Z  '/></g>
<g fill="none" color="black" stroke="currentColor" stroke-width="1.00" stroke-linecap="butt" stroke-linejoin="miter">
</g>
</g>
</svg>

