<?xml version="1.0" encoding="utf-8"  standalone="no"?>
<svg 
 viewBox="0 0 1280 720"
 xmlns="http://www.w3.org/2000/svg"
 xmlns:xlink="http://www.w3.org/1999/xlink"
>

<title>Gnuplot</title>
<desc>Produced by GNUPLOT 5.2 patchlevel 8 </desc>

<g id="gnuplot_canvas">

<rect x="0" y="0" width="1280" height="720" fill="none"/>
<defs>

	<circle id='gpDot' r='0.5' stroke-width='0.5' stroke='currentColor'/>
	<path id='gpPt0' stroke-width='0.222' stroke='currentColor' d='M-1,0 h2 M0,-1 v2'/>
	<path id='gpPt1' stroke-width='0.222' stroke='currentColor' d='M-1,-1 L1,1 M1,-1 L-1,1'/>
	<path id='gpPt2' stroke-width='0.222' stroke='currentColor' d='M-1,0 L1,0 M0,-1 L0,1 M-1,-1 L1,1 M-1,1 L1,-1'/>
	<rect id='gpPt3' stroke-width='0.222' stroke='currentColor' x='-1' y='-1' width='2' height='2'/>
	<rect id='gpPt4' stroke-width='0.222' stroke='currentColor' fill='currentColor' x='-1' y='-1' width='2' height='2'/>
	<circle id='gpPt5' stroke-width='0.222' stroke='currentColor' cx='0' cy='0' r='1'/>
	<use xlink:href='#gpPt5' id='gpPt6' fill='currentColor' stroke='none'/>
	<path id='gpPt7' stroke-width='0.222' stroke='currentColor' d='M0,-1.33 L-1.33,0.67 L1.33,0.67 z'/>
	<use xlink:href='#gpPt7' id='gpPt8' fill='currentColor' stroke='none'/>
	<use xlink:href='#gpPt7' id='gpPt9' stroke='currentColor' transform='rotate(180)'/>
	<use xlink:href='#gpPt9' id='gpPt10' fill='currentColor' stroke='none'/>
	<use xlink:href='#gpPt3' id='gpPt11' stroke='currentColor' transform='rotate(45)'/>
	<use xlink:href='#gpPt11' id='gpPt12' fill='currentColor' stroke='none'/>
	<path id='gpPt13' stroke-width='0.222' stroke='currentColor' d='M0,1.330 L1.265,0.411 L0.782,-1.067 L-0.782,-1.076 L-1.265,0.411 z'/>
	<use xlink:href='#gpPt13' id='gpPt14' fill='currentColor' stroke='none'/>
	<filter id='textbox' filterUnits='objectBoundingBox' x='0' y='0' height='1' width='1'>
	  <feFlood flood-color='white' flood-opacity='1' result='bgnd'/>
	  <feComposite in='SourceGraphic' in2='bgnd' operator='atop'/>
	</filter>
	<filter id='greybox' filterUnits='objectBoundingBox' x='0' y='0' height='1' width='1'>
	  <feFlood flood-color='lightgrey' flood-opacity='1' result='grey'/>
	  <feComposite in='SourceGraphic' in2='grey' operator='atop'/>
	</filter>
</defs>
<g fill="none" color="white" stroke="currentColor" stroke-width="1.00" stroke-linecap="butt" stroke-linejoin="miter">
</g>
<g fill="none" color="black" stroke="currentColor" stroke-width="1.00" stroke-linecap="butt" stroke-linejoin="miter">
	<path stroke='black'  d='M80.2,662.4 L89.2,662.4  '/>	<g transform="translate(71.9,666.3)" stroke="none" fill="black" font-family="Helvetica" font-size="12.00"  text-anchor="end">
		<text><tspan font-family="Helvetica" > 0</tspan></text>
	</g>
</g>
<g fill="none" color="black" stroke="currentColor" stroke-width="1.00" stroke-linecap="butt" stroke-linejoin="miter">
	<path stroke='black'  d='M80.2,601.6 L89.2,601.6  '/>	<g transform="translate(71.9,605.5)" stroke="none" fill="black" font-family="Helvetica" font-size="12.00"  text-anchor="end">
		<text><tspan font-family="Helvetica" > 0.01</tspan></text>
	</g>
</g>
<g fill="none" color="black" stroke="currentColor" stroke-width="1.00" stroke-linecap="butt" stroke-linejoin="miter">
	<path stroke='black'  d='M80.2,540.7 L89.2,540.7  '/>	<g transform="translate(71.9,544.6)" stroke="none" fill="black" font-family="Helvetica" font-size="12.00"  text-anchor="end">
		<text><tspan font-family="Helvetica" > 0.02</tspan></text>
	</g>
</g>
<g fill="none" color="black" stroke="currentColor" stroke-width="1.00" stroke-linecap="butt" stroke-linejoin="miter">
	<path stroke='black'  d='M80.2,479.9 L89.2,479.9  '/>	<g transform="translate(71.9,483.8)" stroke="none" fill="black" font-family="Helvetica" font-size="12.00"  text-anchor="end">
		<text><tspan font-family="Helvetica" > 0.03</tspan></text>
	</g>
</g>
<g fill="none" color="black" stroke="currentColor" stroke-width="1.00" stroke-linecap="butt" stroke-linejoin="miter">
	<path stroke='black'  d='M80.2,419.1 L89.2,419.1  '/>	<g transform="translate(71.9,423.0)" stroke="none" fill="black" font-family="Helvetica" font-size="12.00"  text-anchor="end">
		<text><tspan font-family="Helvetica" > 0.04</tspan></text>
	</g>
</g>
<g fill="none" color="black" stroke="currentColor" stroke-width="1.00" stroke-linecap="butt" stroke-linejoin="miter">
	<path stroke='black'  d='M80.2,358.2 L89.2,358.2  '/>	<g transform="translate(71.9,362.1)" stroke="none" fill="black" font-family="Helvetica" font-size="12.00"  text-anchor="end">
		<text><tspan font-family="Helvetica" > 0.05</tspan></text>
	</g>
</g>
<g fill="none" color="black" stroke="currentColor" stroke-width="1.00" stroke-linecap="butt" stroke-linejoin="miter">
	<path stroke='black'  d='M80.2,297.4 L89.2,297.4  '/>	<g transform="translate(71.9,301.3)" stroke="none" fill="black" font-family="Helvetica" font-size="12.00"  text-anchor="end">
		<text><tspan font-family="Helvetica" > 0.06</tspan></text>
	</g>
</g>
<g fill="none" color="black" stroke="currentColor" stroke-width="1.00" stroke-linecap="butt" stroke-linejoin="miter">
	<path stroke='black'  d='M80.2,236.6 L89.2,236.6  '/>	<g transform="translate(71.9,240.5)" stroke="none" fill="black" font-family="Helvetica" font-size="12.00"  text-anchor="end">
		<text><tspan font-family="Helvetica" > 0.07</tspan></text>
	</g>
</g>
<g fill="none" color="black" stroke="currentColor" stroke-width="1.00" stroke-linecap="butt" stroke-linejoin="miter">
	<path stroke='black'  d='M80.2,175.8 L89.2,175.8  '/>	<g transform="translate(71.9,179.7)" stroke="none" fill="black" font-family="Helvetica" font-size="12.00"  text-anchor="end">
		<text><tspan font-family="Helvetica" > 0.08</tspan></text>
	</g>
</g>
<g fill="none" color="black" stroke="currentColor" stroke-width="1.00" stroke-linecap="butt" stroke-linejoin="miter">
	<path stroke='black'  d='M80.2,114.9 L89.2,114.9  '/>	<g transform="translate(71.9,118.8)" stroke="none" fill="black" font-family="Helvetica" font-size="12.00"  text-anchor="end">
		<text><tspan font-family="Helvetica" > 0.09</tspan></text>
	</g>
</g>
<g fill="none" color="black" stroke="currentColor" stroke-width="1.00" stroke-linecap="butt" stroke-linejoin="miter">
	<path stroke='black'  d='M80.2,54.1 L89.2,54.1  '/>	<g transform="translate(71.9,58.0)" stroke="none" fill="black" font-family="Helvetica" font-size="12.00"  text-anchor="end">
		<text><tspan font-family="Helvetica" > 0.1</tspan></text>
	</g>
</g>
<g fill="none" color="black" stroke="currentColor" stroke-width="1.00" stroke-linecap="butt" stroke-linejoin="miter">
	<path stroke='black'  d='M110.5,662.4 L110.5,653.4  '/>	<g transform="translate(110.5,684.3)" stroke="none" fill="black" font-family="Helvetica" font-size="12.00"  text-anchor="middle">
		<text><tspan font-family="Helvetica" > 10</tspan></text>
	</g>
</g>
<g fill="none" color="black" stroke="currentColor" stroke-width="1.00" stroke-linecap="butt" stroke-linejoin="miter">
	<path stroke='black'  d='M256.5,662.4 L256.5,653.4  '/>	<g transform="translate(256.5,684.3)" stroke="none" fill="black" font-family="Helvetica" font-size="12.00"  text-anchor="middle">
		<text><tspan font-family="Helvetica" > 15</tspan></text>
	</g>
</g>
<g fill="none" color="black" stroke="currentColor" stroke-width="1.00" stroke-linecap="butt" stroke-linejoin="miter">
	<path stroke='black'  d='M402.5,662.4 L402.5,653.4  '/>	<g transform="translate(402.5,684.3)" stroke="none" fill="black" font-family="Helvetica" font-size="12.00"  text-anchor="middle">
		<text><tspan font-family="Helvetica" > 20</tspan></text>
	</g>
</g>
<g fill="none" color="black" stroke="currentColor" stroke-width="1.00" stroke-linecap="butt" stroke-linejoin="miter">
	<path stroke='black'  d='M548.4,662.4 L548.4,653.4  '/>	<g transform="translate(548.4,684.3)" stroke="none" fill="black" font-family="Helvetica" font-size="12.00"  text-anchor="middle">
		<text><tspan font-family="Helvetica" > 25</tspan></text>
	</g>
</g>
<g fill="none" color="black" stroke="currentColor" stroke-width="1.00" stroke-linecap="butt" stroke-linejoin="miter">
	<path stroke='black'  d='M694.4,662.4 L694.4,653.4  '/>	<g transform="translate(694.4,684.3)" stroke="none" fill="black" font-family="Helvetica" font-size="12.00"  text-anchor="middle">
		<text><tspan font-family="Helvetica" > 30</tspan></text>
	</g>
</g>
<g fill="none" color="black" stroke="currentColor" stroke-width="1.00" stroke-linecap="butt" stroke-linejoin="miter">
	<path stroke='black'  d='M840.4,662.4 L840.4,653.4  '/>	<g transform="translate(840.4,684.3)" stroke="none" fill="black" font-family="Helvetica" font-size="12.00"  text-anchor="middle">
		<text><tspan font-family="Helvetica" > 35</tspan></text>
	</g>
</g>
<g fill="none" color="black" stroke="currentColor" stroke-width="1.00" stroke-linecap="butt" stroke-linejoin="miter">
	<path stroke='black'  d='M986.3,662.4 L986.3,653.4  '/>	<g transform="translate(986.3,684.3)" stroke="none" fill="black" font-family="Helvetica" font-size="12.00"  text-anchor="middle">
		<text><tspan font-family="Helvetica" > 40</tspan></text>
	</g>
</g>
<g fill="none" color="black" stroke="currentColor" stroke-width="1.00" stroke-linecap="butt" stroke-linejoin="miter">
</g>
<g fill="none" color="black" stroke="currentColor" stroke-width="1.00" stroke-linecap="butt" stroke-linejoin="miter">
	<path stroke='black'  d='M80.2,54.1 L80.2,662.4 L1013.6,662.4 L1013.6,54.1 L80.2,54.1 Z  '/></g>
<g fill="none" color="black" stroke="currentColor" stroke-width="1.00" stroke-linecap="butt" stroke-linejoin="miter">
	<g transform="translate(19.0,358.3) rotate(270)" stroke="none" fill="black" font-family="Helvetica" font-size="12.00"  text-anchor="middle">
		<text><tspan font-family="Helvetica" >Density (a.u.)</tspan></text>
	</g>
</g>
<g fill="none" color="black" stroke="currentColor" stroke-width="1.00" stroke-linecap="butt" stroke-linejoin="miter">
	<g transform="translate(546.9,711.3)" stroke="none" fill="black" font-family="Helvetica" font-size="12.00"  text-anchor="middle">
		<text><tspan font-family="Helvetica" >Average time (ns)</tspan></text>
	</g>
</g>
<g fill="none" color="black" stroke="currentColor" stroke-width="1.00" stroke-linecap="butt" stroke-linejoin="miter">
	<g transform="translate(546.9,31.0)" stroke="none" fill="black" font-family="Helvetica" font-size="12.00"  text-anchor="middle">
		<text><tspan font-family="Helvetica" >bench_group/blake3/5120: SD</tspan></text>
	</g>
</g>
<g fill="none" color="black" stroke="currentColor" stroke-width="1.00" stroke-linecap="butt" stroke-linejoin="miter">
</g>
	<g id="gnuplot_plot_1" ><title>Bootstrap distribution</title>
<g fill="none" color="white" stroke="currentColor" stroke-width="2.00" stroke-linecap="butt" stroke-linejoin="miter">
</g>
<g fill="none" color="black" stroke="currentColor" stroke-width="2.00" stroke-linecap="butt" stroke-linejoin="miter">
	<g transform="translate(1089.0,67.0)" stroke="none" fill="black" font-family="Helvetica" font-size="12.00"  text-anchor="start">
		<text><tspan font-family="Helvetica" >Bootstrap distribution</tspan></text>
	</g>
</g>
<g fill="none" color="black" stroke="currentColor" stroke-width="2.00" stroke-linecap="butt" stroke-linejoin="miter">
	<path stroke='rgb( 31, 120, 180)'  d='M1038.5,63.1 L1080.7,63.1 M80.2,649.7 L82.1,648.9 L83.9,648.0 L85.8,647.1 L87.7,646.1 L89.6,645.1
		L91.4,644.0 L93.3,642.8 L95.2,641.6 L97.0,640.3 L98.9,638.9 L100.8,637.5 L102.6,636.0 L104.5,634.4
		L106.4,632.7 L108.3,630.9 L110.1,629.0 L112.0,627.0 L113.9,624.9 L115.7,622.7 L117.6,620.4 L119.5,618.0
		L121.4,615.4 L123.2,612.8 L125.1,610.0 L127.0,607.2 L128.8,604.2 L130.7,601.1 L132.6,597.8 L134.4,594.5
		L136.3,591.0 L138.2,587.4 L140.1,583.7 L141.9,579.9 L143.8,576.0 L145.7,572.0 L147.5,567.8 L149.4,563.6
		L151.3,559.2 L153.2,554.8 L155.0,550.2 L156.9,545.6 L158.8,540.8 L160.6,536.0 L162.5,531.1 L164.4,526.1
		L166.2,521.0 L168.1,515.8 L170.0,510.6 L171.9,505.2 L173.7,499.8 L175.6,494.4 L177.5,488.8 L179.3,483.2
		L181.2,477.6 L183.1,471.9 L185.0,466.1 L186.8,460.3 L188.7,454.5 L190.6,448.6 L192.4,442.7 L194.3,436.8
		L196.2,430.9 L198.0,425.0 L199.9,419.1 L201.8,413.2 L203.7,407.4 L205.5,401.5 L207.4,395.8 L209.3,390.1
		L211.1,384.4 L213.0,378.9 L214.9,373.4 L216.7,368.1 L218.6,362.8 L220.5,357.7 L222.4,352.8 L224.2,347.9
		L226.1,343.3 L228.0,338.8 L229.8,334.5 L231.7,330.4 L233.6,326.5 L235.5,322.8 L237.3,319.3 L239.2,316.0
		L241.1,312.9 L242.9,310.1 L244.8,307.5 L246.7,305.2 L248.5,303.1 L250.4,301.3 L252.3,299.7 L254.2,298.3
		L256.0,297.3 L257.9,296.4 L259.8,295.9 L261.6,295.6 L263.5,295.6 L265.4,295.8 L267.3,296.3 L269.1,297.0
		L271.0,298.0 L272.9,299.3 L274.7,300.7 L276.6,302.5 L278.5,304.4 L280.3,306.6 L282.2,309.1 L284.1,311.7
		L286.0,314.6 L287.8,317.6 L289.7,320.9 L291.6,324.4 L293.4,328.0 L295.3,331.9 L297.2,335.9 L299.1,340.1
		L300.9,344.4 L302.8,348.9 L304.7,353.5 L306.5,358.3 L308.4,363.2 L310.3,368.2 L312.1,373.4 L314.0,378.6
		L315.9,384.0 L317.8,389.4 L319.6,395.0 L321.5,400.6 L323.4,406.3 L325.2,412.0 L327.1,417.8 L329.0,423.7
		L330.9,429.6 L332.7,435.5 L334.6,441.4 L336.5,447.4 L338.3,453.3 L340.2,459.3 L342.1,465.2 L343.9,471.1
		L345.8,477.0 L347.7,482.8 L349.6,488.6 L351.4,494.3 L353.3,499.9 L355.2,505.5 L357.0,510.9 L358.9,516.3
		L360.8,521.6 L362.7,526.8 L364.5,531.9 L366.4,536.9 L368.3,541.7 L370.1,546.5 L372.0,551.1 L373.9,555.6
		L375.7,560.0 L377.6,564.2 L379.5,568.4 L381.4,572.4 L383.2,576.2 L385.1,580.0 L387.0,583.6 L388.8,587.1
		L390.7,590.4 L392.6,593.6 L394.5,596.7 L396.3,599.6 L398.2,602.3 L400.1,604.9 L401.9,607.3 L403.8,609.6
		L405.7,611.7 L407.5,613.6 L409.4,615.3 L411.3,616.8 L413.2,618.1 L415.0,619.1 L416.9,619.9 L418.8,620.5
		L420.6,620.8 L422.5,620.9 L424.4,620.6 L426.3,620.1 L428.1,619.2 L430.0,618.0 L431.9,616.5 L433.7,614.5
		L435.6,612.2 L437.5,609.5 L439.3,606.4 L441.2,602.9 L443.1,598.9 L445.0,594.4 L446.8,589.5 L448.7,584.1
		L450.6,578.2 L452.4,571.9 L454.3,565.0 L456.2,557.6 L458.0,549.7 L459.9,541.3 L461.8,532.4 L463.7,523.0
		L465.5,513.1 L467.4,502.7 L469.3,491.8 L471.1,480.5 L473.0,468.7 L474.9,456.6 L476.8,444.0 L478.6,431.1
		L480.5,417.9 L482.4,404.4 L484.2,390.6 L486.1,376.6 L488.0,362.5 L489.8,348.2 L491.7,333.9 L493.6,319.5
		L495.5,305.1 L497.3,290.8 L499.2,276.7 L501.1,262.7 L502.9,249.0 L504.8,235.6 L506.7,222.6 L508.6,209.9
		L510.4,197.8 L512.3,186.1 L514.2,175.0 L516.0,164.5 L517.9,154.7 L519.8,145.6 L521.6,137.2 L523.5,129.6
		L525.4,122.8 L527.3,116.8 L529.1,111.7 L531.0,107.4 L532.9,104.1 L534.7,101.6 L536.6,100.0 L538.5,99.3
		L540.4,99.4 L542.2,100.5 L544.1,102.4 L546.0,105.2 L547.8,108.8 L549.7,113.2 L551.6,118.4 L553.4,124.3
		L555.3,131.0 L557.2,138.4 L559.1,146.4 L560.9,155.1 L562.8,164.4 L564.7,174.2 L566.5,184.5 L568.4,195.2
		L570.3,206.4 L572.2,218.0 L574.0,229.9 L575.9,242.1 L577.8,254.6 L579.6,267.2 L581.5,280.0 L583.4,293.0
		L585.2,306.0 L587.1,319.0 L589.0,332.0 L590.9,345.0 L592.7,357.9 L594.6,370.6 L596.5,383.2 L598.3,395.7
		L600.2,407.9 L602.1,419.8 L604.0,431.5 L605.8,442.9 L607.7,454.0 L609.6,464.8 L611.4,475.2 L613.3,485.2
		L615.2,494.9 L617.0,504.2 L618.9,513.0 L620.8,521.5 L622.7,529.5 L624.5,537.1 L626.4,544.2 L628.3,550.8
		L630.1,557.0 L632.0,562.8 L633.9,568.0 L635.8,572.8 L637.6,577.0 L639.5,580.8 L641.4,584.0 L643.2,586.7
		L645.1,588.9 L647.0,590.5 L648.8,591.6 L650.7,592.1 L652.6,592.1 L654.5,591.5 L656.3,590.4 L658.2,588.7
		L660.1,586.5 L661.9,583.7 L663.8,580.3 L665.7,576.4 L667.5,572.0 L669.4,567.0 L671.3,561.6 L673.2,555.6
		L675.0,549.1 L676.9,542.3 L678.8,534.9 L680.6,527.2 L682.5,519.1 L684.4,510.7 L686.3,502.0 L688.1,493.1
		L690.0,483.9 L691.9,474.6 L693.7,465.2 L695.6,455.7 L697.5,446.2 L699.3,436.7 L701.2,427.3 L703.1,418.1
		L705.0,409.1 L706.8,400.3 L708.7,391.9 L710.6,383.8 L712.4,376.1 L714.3,368.9 L716.2,362.2 L718.1,356.1
		L719.9,350.5 L721.8,345.6 L723.7,341.3 L725.5,337.7 L727.4,334.7 L729.3,332.5 L731.1,331.0 L733.0,330.3
		L734.9,330.2 L736.8,330.9 L738.6,332.3 L740.5,334.5 L742.4,337.3 L744.2,340.7 L746.1,344.8 L748.0,349.5
		L749.9,354.8 L751.7,360.6 L753.6,366.9 L755.5,373.7 L757.3,380.9 L759.2,388.5 L761.1,396.4 L762.9,404.6
		L764.8,413.0 L766.7,421.7 L768.6,430.5 L770.4,439.4 L772.3,448.4 L774.2,457.4 L776.0,466.4 L777.9,475.3
		L779.8,484.2 L781.7,492.9 L783.5,501.5 L785.4,509.9 L787.3,518.1 L789.1,526.1 L791.0,533.8 L792.9,541.2
		L794.7,548.3 L796.6,555.1 L798.5,561.6 L800.4,567.7 L802.2,573.4 L804.1,578.8 L806.0,583.8 L807.8,588.4
		L809.7,592.6 L811.6,596.4 L813.5,599.8 L815.3,602.8 L817.2,605.4 L819.1,607.6 L820.9,609.4 L822.8,610.8
		L824.7,611.9 L826.5,612.5 L828.4,612.8 L830.3,612.7 L832.2,612.3 L834.0,611.5 L835.9,610.4 L837.8,609.0
		L839.6,607.3 L841.5,605.3 L843.4,603.1 L845.3,600.6 L847.1,598.0 L849.0,595.1 L850.9,592.1 L852.7,588.9
		L854.6,585.7 L856.5,582.3 L858.3,579.0 L860.2,575.6 L862.1,572.2 L864.0,568.9 L865.8,565.6 L867.7,562.5
		L869.6,559.4 L871.4,556.6 L873.3,553.9 L875.2,551.5 L877.1,549.3 L878.9,547.3 L880.8,545.7 L882.7,544.3
		L884.5,543.2 L886.4,542.5 L888.3,542.0 L890.1,541.9 L892.0,542.1 L893.9,542.6 L895.8,543.4 L897.6,544.6
		L899.5,546.0 L901.4,547.7 L903.2,549.7 L905.1,551.9 L907.0,554.3 L908.8,557.0 L910.7,559.8 L912.6,562.9
		L914.5,566.0 L916.3,569.3 L918.2,572.6 L920.1,576.1 L921.9,579.6 L923.8,583.1 L925.7,586.6 L927.6,590.2
		L929.4,593.6 L931.3,597.1 L933.2,600.5 L935.0,603.8 L936.9,607.0 L938.8,610.1 L940.6,613.1 L942.5,616.0
		L944.4,618.7 L946.3,621.3 L948.1,623.8 L950.0,626.0 L951.9,628.2 L953.7,630.1 L955.6,631.9 L957.5,633.5
		L959.4,635.0 L961.2,636.3 L963.1,637.4 L965.0,638.4 L966.8,639.2 L968.7,639.8 L970.6,640.3 L972.4,640.7
		L974.3,640.9 L976.2,641.0 L978.1,641.0 L979.9,640.8 L981.8,640.6 L983.7,640.3 L985.5,639.9 L987.4,639.4
		L989.3,638.9 L991.2,638.3 L993.0,637.7 L994.9,637.1 L996.8,636.5 L998.6,635.8 L1000.5,635.2 L1002.4,634.6
		L1004.2,634.0 L1006.1,633.5 L1008.0,633.0 L1009.9,632.5 L1011.7,632.1 L1013.6,631.8  '/></g>
	</g>
	<g id="gnuplot_plot_2" ><title>Confidence interval</title>
<g fill="none" color="white" stroke="rgb( 31, 120, 180)" stroke-width="1.00" stroke-linecap="butt" stroke-linejoin="miter">
</g>
<g fill="none" color="black" stroke="currentColor" stroke-width="1.00" stroke-linecap="butt" stroke-linejoin="miter">
	<g transform="translate(1089.0,85.0)" stroke="none" fill="black" font-family="Helvetica" font-size="12.00"  text-anchor="start">
		<text><tspan font-family="Helvetica" >Confidence interval</tspan></text>
	</g>
</g>
<g fill="none" color="black" stroke="currentColor" stroke-width="1.00" stroke-linecap="butt" stroke-linejoin="miter">
	<g stroke='none' shape-rendering='crispEdges'>
		<polygon fill = 'rgb( 31, 120, 180)' fill-opacity = '0.250000' points = '1038.5,85.6 1080.7,85.6 1080.7,76.6 1038.5,76.6 '/>
		<polygon fill = 'rgb( 31, 120, 180)' fill-opacity = '0.250000' points = '166.2,521.0 168.1,515.8 170.0,510.6 171.9,505.2 173.7,499.8 175.6,494.4 177.5,488.8 179.3,483.2 181.2,477.6 183.1,471.9 185.0,466.1 186.8,460.3 188.7,454.5 190.6,448.6 192.4,442.7 194.3,436.8
196.2,430.9 198.0,425.0 199.9,419.1 201.8,413.2 203.7,407.4 205.5,401.5 207.4,395.8 209.3,390.1 211.1,384.4 213.0,378.9 214.9,373.4 216.7,368.1 218.6,362.8 220.5,357.7 222.4,352.8 224.2,347.9
226.1,343.3 228.0,338.8 229.8,334.5 231.7,330.4 233.6,326.5 235.5,322.8 237.3,319.3 239.2,316.0 241.1,312.9 242.9,310.1 244.8,307.5 246.7,305.2 248.5,303.1 250.4,301.3 252.3,299.7 254.2,298.3
256.0,297.3 257.9,296.4 259.8,295.9 261.6,295.6 263.5,295.6 265.4,295.8 267.3,296.3 269.1,297.0 271.0,298.0 272.9,299.3 274.7,300.7 276.6,302.5 278.5,304.4 280.3,306.6 282.2,309.1 284.1,311.7
286.0,314.6 287.8,317.6 289.7,320.9 291.6,324.4 293.4,328.0 295.3,331.9 297.2,335.9 299.1,340.1 300.9,344.4 302.8,348.9 304.7,353.5 306.5,358.3 308.4,363.2 310.3,368.2 312.1,373.4 314.0,378.6
315.9,384.0 317.8,389.4 319.6,395.0 321.5,400.6 323.4,406.3 325.2,412.0 327.1,417.8 329.0,423.7 330.9,429.6 332.7,435.5 334.6,441.4 336.5,447.4 338.3,453.3 340.2,459.3 342.1,465.2 343.9,471.1
345.8,477.0 347.7,482.8 349.6,488.6 351.4,494.3 353.3,499.9 355.2,505.5 357.0,510.9 358.9,516.3 360.8,521.6 362.7,526.8 364.5,531.9 366.4,536.9 368.3,541.7 370.1,546.5 372.0,551.1 373.9,555.6
375.7,560.0 377.6,564.2 379.5,568.4 381.4,572.4 383.2,576.2 385.1,580.0 387.0,583.6 388.8,587.1 390.7,590.4 392.6,593.6 394.5,596.7 396.3,599.6 398.2,602.3 400.1,604.9 401.9,607.3 403.8,609.6
405.7,611.7 407.5,613.6 409.4,615.3 411.3,616.8 413.2,618.1 415.0,619.1 416.9,619.9 418.8,620.5 420.6,620.8 422.5,620.9 424.4,620.6 426.3,620.1 428.1,619.2 430.0,618.0 431.9,616.5 433.7,614.5
435.6,612.2 437.5,609.5 439.3,606.4 441.2,602.9 443.1,598.9 445.0,594.4 446.8,589.5 448.7,584.1 450.6,578.2 452.4,571.9 454.3,565.0 456.2,557.6 458.0,549.7 459.9,541.3 461.8,532.4 463.7,523.0
465.5,513.1 467.4,502.7 469.3,491.8 471.1,480.5 473.0,468.7 474.9,456.6 476.8,444.0 478.6,431.1 480.5,417.9 482.4,404.4 484.2,390.6 486.1,376.6 488.0,362.5 489.8,348.2 491.7,333.9 493.6,319.5
495.5,305.1 497.3,290.8 499.2,276.7 501.1,262.7 502.9,249.0 504.8,235.6 506.7,222.6 508.6,209.9 510.4,197.8 512.3,186.1 514.2,175.0 516.0,164.5 517.9,154.7 519.8,145.6 521.6,137.2 523.5,129.6
525.4,122.8 527.3,116.8 529.1,111.7 531.0,107.4 532.9,104.1 534.7,101.6 536.6,100.0 538.5,99.3 540.4,99.4 542.2,100.5 544.1,102.4 546.0,105.2 547.8,108.8 549.7,113.2 551.6,118.4 553.4,124.3
555.3,131.0 557.2,138.4 559.1,146.4 560.9,155.1 562.8,164.4 564.7,174.2 566.5,184.5 568.4,195.2 570.3,206.4 572.2,218.0 574.0,229.9 575.9,242.1 577.8,254.6 579.6,267.2 581.5,280.0 583.4,293.0
585.2,306.0 587.1,319.0 589.0,332.0 590.9,345.0 592.7,357.9 594.6,370.6 596.5,383.2 598.3,395.7 600.2,407.9 602.1,419.8 604.0,431.5 605.8,442.9 607.7,454.0 609.6,464.8 611.4,475.2 613.3,485.2
615.2,494.9 617.0,504.2 618.9,513.0 620.8,521.5 622.7,529.5 624.5,537.1 626.4,544.2 628.3,550.8 630.1,557.0 632.0,562.8 633.9,568.0 635.8,572.8 637.6,577.0 639.5,580.8 641.4,584.0 643.2,586.7
645.1,588.9 647.0,590.5 648.8,591.6 650.7,592.1 652.6,592.1 654.5,591.5 656.3,590.4 658.2,588.7 660.1,586.5 661.9,583.7 663.8,580.3 665.7,576.4 667.5,572.0 669.4,567.0 671.3,561.6 673.2,555.6
675.0,549.1 676.9,542.3 678.8,534.9 680.6,527.2 682.5,519.1 684.4,510.7 686.3,502.0 688.1,493.1 690.0,483.9 691.9,474.6 693.7,465.2 695.6,455.7 697.5,446.2 699.3,436.7 701.2,427.3 703.1,418.1
705.0,409.1 706.8,400.3 708.7,391.9 710.6,383.8 712.4,376.1 714.3,368.9 716.2,362.2 718.1,356.1 719.9,350.5 721.8,345.6 723.7,341.3 725.5,337.7 727.4,334.7 729.3,332.5 731.1,331.0 733.0,330.3
734.9,330.2 736.8,330.9 738.6,332.3 740.5,334.5 742.4,337.3 744.2,340.7 746.1,344.8 748.0,349.5 749.9,354.8 751.7,360.6 753.6,366.9 755.5,373.7 757.3,380.9 759.2,388.5 761.1,396.4 762.9,404.6
764.8,413.0 766.7,421.7 768.6,430.5 770.4,439.4 772.3,448.4 774.2,457.4 776.0,466.4 777.9,475.3 779.8,484.2 781.7,492.9 783.5,501.5 785.4,509.9 787.3,518.1 789.1,526.1 791.0,533.8 792.9,541.2
794.7,548.3 796.6,555.1 798.5,561.6 800.4,567.7 802.2,573.4 804.1,578.8 806.0,583.8 807.8,588.4 809.7,592.6 811.6,596.4 813.5,599.8 815.3,602.8 817.2,605.4 819.1,607.6 820.9,609.4 822.8,610.8
824.7,611.9 826.5,612.5 828.4,612.8 830.3,612.7 832.2,612.3 834.0,611.5 835.9,610.4 837.8,609.0 839.6,607.3 841.5,605.3 843.4,603.1 845.3,600.6 847.1,598.0 849.0,595.1 850.9,592.1 852.7,588.9
854.6,585.7 856.5,582.3 858.3,579.0 860.2,575.6 862.1,572.2 864.0,568.9 865.8,565.6 867.7,562.5 869.6,559.4 871.4,556.6 873.3,553.9 875.2,551.5 877.1,549.3 878.9,547.3 880.8,545.7 882.7,544.3
884.5,543.2 886.4,542.5 888.3,542.0 890.1,541.9 892.0,542.1 893.9,542.6 895.8,543.4 897.6,544.6 899.5,546.0 901.4,547.7 903.2,549.7 905.1,551.9 907.0,554.3 908.8,557.0 910.7,559.8 912.6,562.9
914.5,566.0 916.3,569.3 918.2,572.6 920.1,576.1 921.9,579.6 923.8,583.1 925.7,586.6 925.7,662.4 923.8,662.4 921.9,662.4 920.1,662.4 918.2,662.4 916.3,662.4 914.5,662.4 912.6,662.4 910.7,662.4
908.8,662.4 907.0,662.4 905.1,662.4 903.2,662.4 901.4,662.4 899.5,662.4 897.6,662.4 895.8,662.4 893.9,662.4 892.0,662.4 890.1,662.4 888.3,662.4 886.4,662.4 884.5,662.4 882.7,662.4 880.8,662.4
878.9,662.4 877.1,662.4 875.2,662.4 873.3,662.4 871.4,662.4 869.6,662.4 867.7,662.4 865.8,662.4 864.0,662.4 862.1,662.4 860.2,662.4 858.3,662.4 856.5,662.4 854.6,662.4 852.7,662.4 850.9,662.4
849.0,662.4 847.1,662.4 845.3,662.4 843.4,662.4 841.5,662.4 839.6,662.4 837.8,662.4 835.9,662.4 834.0,662.4 832.2,662.4 830.3,662.4 828.4,662.4 826.5,662.4 824.7,662.4 822.8,662.4 820.9,662.4
819.1,662.4 817.2,662.4 815.3,662.4 813.5,662.4 811.6,662.4 809.7,662.4 807.8,662.4 806.0,662.4 804.1,662.4 802.2,662.4 800.4,662.4 798.5,662.4 796.6,662.4 794.7,662.4 792.9,662.4 791.0,662.4
789.1,662.4 787.3,662.4 785.4,662.4 783.5,662.4 781.7,662.4 779.8,662.4 777.9,662.4 776.0,662.4 774.2,662.4 772.3,662.4 770.4,662.4 768.6,662.4 766.7,662.4 764.8,662.4 762.9,662.4 761.1,662.4
759.2,662.4 757.3,662.4 755.5,662.4 753.6,662.4 751.7,662.4 749.9,662.4 748.0,662.4 746.1,662.4 744.2,662.4 742.4,662.4 740.5,662.4 738.6,662.4 736.8,662.4 734.9,662.4 733.0,662.4 731.1,662.4
729.3,662.4 727.4,662.4 725.5,662.4 723.7,662.4 721.8,662.4 719.9,662.4 718.1,662.4 716.2,662.4 714.3,662.4 712.4,662.4 710.6,662.4 708.7,662.4 706.8,662.4 705.0,662.4 703.1,662.4 701.2,662.4
699.3,662.4 697.5,662.4 695.6,662.4 693.7,662.4 691.9,662.4 690.0,662.4 688.1,662.4 686.3,662.4 684.4,662.4 682.5,662.4 680.6,662.4 678.8,662.4 676.9,662.4 675.0,662.4 673.2,662.4 671.3,662.4
669.4,662.4 667.5,662.4 665.7,662.4 663.8,662.4 661.9,662.4 660.1,662.4 658.2,662.4 656.3,662.4 654.5,662.4 652.6,662.4 650.7,662.4 648.8,662.4 647.0,662.4 645.1,662.4 643.2,662.4 641.4,662.4
639.5,662.4 637.6,662.4 635.8,662.4 633.9,662.4 632.0,662.4 630.1,662.4 628.3,662.4 626.4,662.4 624.5,662.4 622.7,662.4 620.8,662.4 618.9,662.4 617.0,662.4 615.2,662.4 613.3,662.4 611.4,662.4
609.6,662.4 607.7,662.4 605.8,662.4 604.0,662.4 602.1,662.4 600.2,662.4 598.3,662.4 596.5,662.4 594.6,662.4 592.7,662.4 590.9,662.4 589.0,662.4 587.1,662.4 585.2,662.4 583.4,662.4 581.5,662.4
579.6,662.4 577.8,662.4 575.9,662.4 574.0,662.4 572.2,662.4 570.3,662.4 568.4,662.4 566.5,662.4 564.7,662.4 562.8,662.4 560.9,662.4 559.1,662.4 557.2,662.4 555.3,662.4 553.4,662.4 551.6,662.4
549.7,662.4 547.8,662.4 546.0,662.4 544.1,662.4 542.2,662.4 540.4,662.4 538.5,662.4 536.6,662.4 534.7,662.4 532.9,662.4 531.0,662.4 529.1,662.4 527.3,662.4 525.4,662.4 523.5,662.4 521.6,662.4
519.8,662.4 517.9,662.4 516.0,662.4 514.2,662.4 512.3,662.4 510.4,662.4 508.6,662.4 506.7,662.4 504.8,662.4 502.9,662.4 501.1,662.4 499.2,662.4 497.3,662.4 495.5,662.4 493.6,662.4 491.7,662.4
489.8,662.4 488.0,662.4 486.1,662.4 484.2,662.4 482.4,662.4 480.5,662.4 478.6,662.4 476.8,662.4 474.9,662.4 473.0,662.4 471.1,662.4 469.3,662.4 467.4,662.4 465.5,662.4 463.7,662.4 461.8,662.4
459.9,662.4 458.0,662.4 456.2,662.4 454.3,662.4 452.4,662.4 450.6,662.4 448.7,662.4 446.8,662.4 445.0,662.4 443.1,662.4 441.2,662.4 439.3,662.4 437.5,662.4 435.6,662.4 433.7,662.4 431.9,662.4
430.0,662.4 428.1,662.4 426.3,662.4 424.4,662.4 422.5,662.4 420.6,662.4 418.8,662.4 416.9,662.4 415.0,662.4 413.2,662.4 411.3,662.4 409.4,662.4 407.5,662.4 405.7,662.4 403.8,662.4 401.9,662.4
400.1,662.4 398.2,662.4 396.3,662.4 394.5,662.4 392.6,662.4 390.7,662.4 388.8,662.4 387.0,662.4 385.1,662.4 383.2,662.4 381.4,662.4 379.5,662.4 377.6,662.4 375.7,662.4 373.9,662.4 372.0,662.4
370.1,662.4 368.3,662.4 366.4,662.4 364.5,662.4 362.7,662.4 360.8,662.4 358.9,662.4 357.0,662.4 355.2,662.4 353.3,662.4 351.4,662.4 349.6,662.4 347.7,662.4 345.8,662.4 343.9,662.4 342.1,662.4
340.2,662.4 338.3,662.4 336.5,662.4 334.6,662.4 332.7,662.4 330.9,662.4 329.0,662.4 327.1,662.4 325.2,662.4 323.4,662.4 321.5,662.4 319.6,662.4 317.8,662.4 315.9,662.4 314.0,662.4 312.1,662.4
310.3,662.4 308.4,662.4 306.5,662.4 304.7,662.4 302.8,662.4 300.9,662.4 299.1,662.4 297.2,662.4 295.3,662.4 293.4,662.4 291.6,662.4 289.7,662.4 287.8,662.4 286.0,662.4 284.1,662.4 282.2,662.4
280.3,662.4 278.5,662.4 276.6,662.4 274.7,662.4 272.9,662.4 271.0,662.4 269.1,662.4 267.3,662.4 265.4,662.4 263.5,662.4 261.6,662.4 259.8,662.4 257.9,662.4 256.0,662.4 254.2,662.4 252.3,662.4
250.4,662.4 248.5,662.4 246.7,662.4 244.8,662.4 242.9,662.4 241.1,662.4 239.2,662.4 237.3,662.4 235.5,662.4 233.6,662.4 231.7,662.4 229.8,662.4 228.0,662.4 226.1,662.4 224.2,662.4 222.4,662.4
220.5,662.4 218.6,662.4 216.7,662.4 214.9,662.4 213.0,662.4 211.1,662.4 209.3,662.4 207.4,662.4 205.5,662.4 203.7,662.4 201.8,662.4 199.9,662.4 198.0,662.4 196.2,662.4 194.3,662.4 192.4,662.4
190.6,662.4 188.7,662.4 186.8,662.4 185.0,662.4 183.1,662.4 181.2,662.4 179.3,662.4 177.5,662.4 175.6,662.4 173.7,662.4 171.9,662.4 170.0,662.4 168.1,662.4 166.2,662.4 '/>
	</g>
</g>
	</g>
	<g id="gnuplot_plot_3" ><title>Point estimate</title>
<g fill="none" color="white" stroke="rgb( 31, 120, 180)" stroke-width="2.00" stroke-linecap="butt" stroke-linejoin="miter">
</g>
<g fill="none" color="black" stroke="currentColor" stroke-width="2.00" stroke-linecap="butt" stroke-linejoin="miter">
	<g transform="translate(1089.0,103.0)" stroke="none" fill="black" font-family="Helvetica" font-size="12.00"  text-anchor="start">
		<text><tspan font-family="Helvetica" >Point estimate</tspan></text>
	</g>
</g>
<g fill="none" color="black" stroke="currentColor" stroke-width="2.00" stroke-linecap="butt" stroke-linejoin="miter">
	<path stroke='rgb( 31, 120, 180)'  d='M1038.5,99.1 L1080.7,99.1 M545.5,662.4 L545.5,104.4  '/></g>
	</g>
<g fill="none" color="black" stroke="currentColor" stroke-width="2.00" stroke-linecap="butt" stroke-linejoin="miter">
</g>
<g fill="none" color="black" stroke="black" stroke-width="1.00" stroke-linecap="butt" stroke-linejoin="miter">
</g>
<g fill="none" color="black" stroke="currentColor" stroke-width="1.00" stroke-linecap="butt" stroke-linejoin="miter">
	<path stroke='black'  d='M80.2,54.1 L80.2,662.4 L1013.6,662.4 L1013.6,54.1 L80.2,54.1 Z  '/></g>
<g fill="none" color="black" stroke="currentColor" stroke-width="1.00" stroke-linecap="butt" stroke-linejoin="miter">
</g>
</g>
</svg>

