<?xml version="1.0" encoding="utf-8"  standalone="no"?>
<svg 
 viewBox="0 0 1280 720"
 xmlns="http://www.w3.org/2000/svg"
 xmlns:xlink="http://www.w3.org/1999/xlink"
>

<title>Gnuplot</title>
<desc>Produced by GNUPLOT 5.2 patchlevel 8 </desc>

<g id="gnuplot_canvas">

<rect x="0" y="0" width="1280" height="720" fill="none"/>
<defs>

	<circle id='gpDot' r='0.5' stroke-width='0.5' stroke='currentColor'/>
	<path id='gpPt0' stroke-width='0.222' stroke='currentColor' d='M-1,0 h2 M0,-1 v2'/>
	<path id='gpPt1' stroke-width='0.222' stroke='currentColor' d='M-1,-1 L1,1 M1,-1 L-1,1'/>
	<path id='gpPt2' stroke-width='0.222' stroke='currentColor' d='M-1,0 L1,0 M0,-1 L0,1 M-1,-1 L1,1 M-1,1 L1,-1'/>
	<rect id='gpPt3' stroke-width='0.222' stroke='currentColor' x='-1' y='-1' width='2' height='2'/>
	<rect id='gpPt4' stroke-width='0.222' stroke='currentColor' fill='currentColor' x='-1' y='-1' width='2' height='2'/>
	<circle id='gpPt5' stroke-width='0.222' stroke='currentColor' cx='0' cy='0' r='1'/>
	<use xlink:href='#gpPt5' id='gpPt6' fill='currentColor' stroke='none'/>
	<path id='gpPt7' stroke-width='0.222' stroke='currentColor' d='M0,-1.33 L-1.33,0.67 L1.33,0.67 z'/>
	<use xlink:href='#gpPt7' id='gpPt8' fill='currentColor' stroke='none'/>
	<use xlink:href='#gpPt7' id='gpPt9' stroke='currentColor' transform='rotate(180)'/>
	<use xlink:href='#gpPt9' id='gpPt10' fill='currentColor' stroke='none'/>
	<use xlink:href='#gpPt3' id='gpPt11' stroke='currentColor' transform='rotate(45)'/>
	<use xlink:href='#gpPt11' id='gpPt12' fill='currentColor' stroke='none'/>
	<path id='gpPt13' stroke-width='0.222' stroke='currentColor' d='M0,1.330 L1.265,0.411 L0.782,-1.067 L-0.782,-1.076 L-1.265,0.411 z'/>
	<use xlink:href='#gpPt13' id='gpPt14' fill='currentColor' stroke='none'/>
	<filter id='textbox' filterUnits='objectBoundingBox' x='0' y='0' height='1' width='1'>
	  <feFlood flood-color='white' flood-opacity='1' result='bgnd'/>
	  <feComposite in='SourceGraphic' in2='bgnd' operator='atop'/>
	</filter>
	<filter id='greybox' filterUnits='objectBoundingBox' x='0' y='0' height='1' width='1'>
	  <feFlood flood-color='lightgrey' flood-opacity='1' result='grey'/>
	  <feComposite in='SourceGraphic' in2='grey' operator='atop'/>
	</filter>
</defs>
<g fill="none" color="white" stroke="currentColor" stroke-width="1.00" stroke-linecap="butt" stroke-linejoin="miter">
</g>
<g fill="none" color="black" stroke="currentColor" stroke-width="1.00" stroke-linecap="butt" stroke-linejoin="miter">
	<path stroke='black'  d='M71.9,662.4 L80.9,662.4  '/>	<g transform="translate(63.6,666.3)" stroke="none" fill="black" font-family="Helvetica" font-size="12.00"  text-anchor="end">
		<text><tspan font-family="Helvetica" > 0</tspan></text>
	</g>
</g>
<g fill="none" color="black" stroke="currentColor" stroke-width="1.00" stroke-linecap="butt" stroke-linejoin="miter">
	<path stroke='black'  d='M71.9,561.0 L80.9,561.0  '/>	<g transform="translate(63.6,564.9)" stroke="none" fill="black" font-family="Helvetica" font-size="12.00"  text-anchor="end">
		<text><tspan font-family="Helvetica" > 50</tspan></text>
	</g>
</g>
<g fill="none" color="black" stroke="currentColor" stroke-width="1.00" stroke-linecap="butt" stroke-linejoin="miter">
	<path stroke='black'  d='M71.9,459.6 L80.9,459.6  '/>	<g transform="translate(63.6,463.5)" stroke="none" fill="black" font-family="Helvetica" font-size="12.00"  text-anchor="end">
		<text><tspan font-family="Helvetica" > 100</tspan></text>
	</g>
</g>
<g fill="none" color="black" stroke="currentColor" stroke-width="1.00" stroke-linecap="butt" stroke-linejoin="miter">
	<path stroke='black'  d='M71.9,358.2 L80.9,358.2  '/>	<g transform="translate(63.6,362.1)" stroke="none" fill="black" font-family="Helvetica" font-size="12.00"  text-anchor="end">
		<text><tspan font-family="Helvetica" > 150</tspan></text>
	</g>
</g>
<g fill="none" color="black" stroke="currentColor" stroke-width="1.00" stroke-linecap="butt" stroke-linejoin="miter">
	<path stroke='black'  d='M71.9,256.9 L80.9,256.9  '/>	<g transform="translate(63.6,260.8)" stroke="none" fill="black" font-family="Helvetica" font-size="12.00"  text-anchor="end">
		<text><tspan font-family="Helvetica" > 200</tspan></text>
	</g>
</g>
<g fill="none" color="black" stroke="currentColor" stroke-width="1.00" stroke-linecap="butt" stroke-linejoin="miter">
	<path stroke='black'  d='M71.9,155.5 L80.9,155.5  '/>	<g transform="translate(63.6,159.4)" stroke="none" fill="black" font-family="Helvetica" font-size="12.00"  text-anchor="end">
		<text><tspan font-family="Helvetica" > 250</tspan></text>
	</g>
</g>
<g fill="none" color="black" stroke="currentColor" stroke-width="1.00" stroke-linecap="butt" stroke-linejoin="miter">
	<path stroke='black'  d='M71.9,54.1 L80.9,54.1  '/>	<g transform="translate(63.6,58.0)" stroke="none" fill="black" font-family="Helvetica" font-size="12.00"  text-anchor="end">
		<text><tspan font-family="Helvetica" > 300</tspan></text>
	</g>
</g>
<g fill="none" color="black" stroke="currentColor" stroke-width="1.00" stroke-linecap="butt" stroke-linejoin="miter">
	<path stroke='black'  d='M71.9,662.4 L71.9,653.4  '/>	<g transform="translate(71.9,684.3)" stroke="none" fill="black" font-family="Helvetica" font-size="12.00"  text-anchor="middle">
		<text><tspan font-family="Helvetica" > 4.4</tspan></text>
	</g>
</g>
<g fill="none" color="black" stroke="currentColor" stroke-width="1.00" stroke-linecap="butt" stroke-linejoin="miter">
	<path stroke='black'  d='M246.8,662.4 L246.8,653.4  '/>	<g transform="translate(246.8,684.3)" stroke="none" fill="black" font-family="Helvetica" font-size="12.00"  text-anchor="middle">
		<text><tspan font-family="Helvetica" > 4.45</tspan></text>
	</g>
</g>
<g fill="none" color="black" stroke="currentColor" stroke-width="1.00" stroke-linecap="butt" stroke-linejoin="miter">
	<path stroke='black'  d='M421.8,662.4 L421.8,653.4  '/>	<g transform="translate(421.8,684.3)" stroke="none" fill="black" font-family="Helvetica" font-size="12.00"  text-anchor="middle">
		<text><tspan font-family="Helvetica" > 4.5</tspan></text>
	</g>
</g>
<g fill="none" color="black" stroke="currentColor" stroke-width="1.00" stroke-linecap="butt" stroke-linejoin="miter">
	<path stroke='black'  d='M596.7,662.4 L596.7,653.4  '/>	<g transform="translate(596.7,684.3)" stroke="none" fill="black" font-family="Helvetica" font-size="12.00"  text-anchor="middle">
		<text><tspan font-family="Helvetica" > 4.55</tspan></text>
	</g>
</g>
<g fill="none" color="black" stroke="currentColor" stroke-width="1.00" stroke-linecap="butt" stroke-linejoin="miter">
	<path stroke='black'  d='M771.6,662.4 L771.6,653.4  '/>	<g transform="translate(771.6,684.3)" stroke="none" fill="black" font-family="Helvetica" font-size="12.00"  text-anchor="middle">
		<text><tspan font-family="Helvetica" > 4.6</tspan></text>
	</g>
</g>
<g fill="none" color="black" stroke="currentColor" stroke-width="1.00" stroke-linecap="butt" stroke-linejoin="miter">
	<path stroke='black'  d='M946.6,662.4 L946.6,653.4  '/>	<g transform="translate(946.6,684.3)" stroke="none" fill="black" font-family="Helvetica" font-size="12.00"  text-anchor="middle">
		<text><tspan font-family="Helvetica" > 4.65</tspan></text>
	</g>
</g>
<g fill="none" color="black" stroke="currentColor" stroke-width="1.00" stroke-linecap="butt" stroke-linejoin="miter">
	<path stroke='black'  d='M1121.5,662.4 L1121.5,653.4  '/>	<g transform="translate(1121.5,684.3)" stroke="none" fill="black" font-family="Helvetica" font-size="12.00"  text-anchor="middle">
		<text><tspan font-family="Helvetica" > 4.7</tspan></text>
	</g>
</g>
<g fill="none" color="black" stroke="currentColor" stroke-width="1.00" stroke-linecap="butt" stroke-linejoin="miter">
</g>
<g fill="none" color="black" stroke="currentColor" stroke-width="1.00" stroke-linecap="butt" stroke-linejoin="miter">
	<path stroke='black'  d='M71.9,54.1 L71.9,662.4 L1121.5,662.4 L1121.5,54.1 L71.9,54.1 Z  '/></g>
<g fill="none" color="black" stroke="currentColor" stroke-width="1.00" stroke-linecap="butt" stroke-linejoin="miter">
	<g transform="translate(19.0,358.3) rotate(270)" stroke="none" fill="black" font-family="Helvetica" font-size="12.00"  text-anchor="middle">
		<text><tspan font-family="Helvetica" >Density (a.u.)</tspan></text>
	</g>
</g>
<g fill="none" color="black" stroke="currentColor" stroke-width="1.00" stroke-linecap="butt" stroke-linejoin="miter">
	<g transform="translate(596.7,711.3)" stroke="none" fill="black" font-family="Helvetica" font-size="12.00"  text-anchor="middle">
		<text><tspan font-family="Helvetica" >Average time (us)</tspan></text>
	</g>
</g>
<g fill="none" color="black" stroke="currentColor" stroke-width="1.00" stroke-linecap="butt" stroke-linejoin="miter">
	<g transform="translate(596.7,31.0)" stroke="none" fill="black" font-family="Helvetica" font-size="12.00"  text-anchor="middle">
		<text><tspan font-family="Helvetica" >bench_group/blake3/1536</tspan></text>
	</g>
</g>
<g fill="none" color="black" stroke="currentColor" stroke-width="1.00" stroke-linecap="butt" stroke-linejoin="miter">
</g>
	<g id="gnuplot_plot_1" ><title>Base PDF</title>
<g fill="none" color="black" stroke="currentColor" stroke-width="1.00" stroke-linecap="butt" stroke-linejoin="miter">
	<g transform="translate(1196.9,67.0)" stroke="none" fill="black" font-family="Helvetica" font-size="12.00"  text-anchor="start">
		<text><tspan font-family="Helvetica" >Base PDF</tspan></text>
	</g>
</g>
<g fill="none" color="black" stroke="currentColor" stroke-width="1.00" stroke-linecap="butt" stroke-linejoin="miter">
	<g stroke='none' shape-rendering='crispEdges'>
		<polygon fill = 'rgb(227,  26,  28)' fill-opacity = '0.500000' points = '1146.4,67.6 1188.6,67.6 1188.6,58.6 1146.4,58.6 '/>
		<polygon fill = 'rgb(227,  26,  28)' fill-opacity = '0.500000' points = '640.3,662.3 640.5,662.3 640.7,662.3 640.8,662.3 641.0,662.2 641.1,662.2 641.3,662.2 641.4,662.2 641.6,662.1 641.8,662.1 641.9,662.1 642.1,662.0 642.2,662.0 642.4,661.9 642.6,661.9 642.7,661.8
642.9,661.7 643.0,661.6 643.2,661.6 643.3,661.5 643.5,661.4 643.7,661.3 643.8,661.2 644.0,661.1 644.1,660.9 644.3,660.8 644.5,660.7 644.6,660.5 644.8,660.4 644.9,660.2 645.1,660.0 645.2,659.8
645.4,659.6 645.6,659.4 645.7,659.2 645.9,659.0 646.0,658.8 646.2,658.6 646.4,658.3 646.5,658.1 646.7,657.9 646.8,657.6 647.0,657.4 647.1,657.2 647.3,656.9 647.5,656.7 647.6,656.4 647.8,656.2
647.9,656.0 648.1,655.8 648.3,655.6 648.4,655.4 648.6,655.2 648.7,655.0 648.9,654.8 649.0,654.7 649.2,654.5 649.4,654.4 649.5,654.3 649.7,654.2 649.8,654.1 650.0,654.0 650.2,654.0 650.3,654.0
650.5,654.0 650.6,654.0 650.8,654.0 650.9,654.1 651.1,654.1 651.3,654.2 651.4,654.3 651.6,654.4 651.7,654.6 651.9,654.7 652.1,654.9 652.2,655.0 652.4,655.2 652.5,655.4 652.7,655.6 652.8,655.8
653.0,656.0 653.2,656.2 653.3,656.4 653.5,656.6 653.6,656.8 653.8,657.0 654.0,657.2 654.1,657.3 654.3,657.5 654.4,657.6 654.6,657.8 654.7,657.9 654.9,658.0 655.1,658.0 655.2,658.0 655.4,658.0
655.5,658.0 655.7,657.9 655.9,657.8 656.0,657.6 656.2,657.3 656.3,657.1 656.5,656.7 656.6,656.3 656.8,655.8 657.0,655.2 657.1,654.5 657.3,653.7 657.4,652.8 657.6,651.8 657.8,650.6 657.9,649.4
658.1,647.9 658.2,646.4 658.4,644.6 658.5,642.7 658.7,640.5 658.9,638.2 659.0,635.6 659.2,632.8 659.3,629.7 659.5,626.4 659.7,622.8 659.8,618.9 660.0,614.7 660.1,610.2 660.3,605.4 660.4,600.2
660.6,594.6 660.8,588.7 660.9,582.4 661.1,575.7 661.2,568.6 661.4,561.1 661.6,553.2 661.7,544.9 661.9,536.2 662.0,527.1 662.2,517.5 662.3,507.6 662.5,497.3 662.7,486.6 662.8,475.6 663.0,464.2
663.1,452.5 663.3,440.4 663.5,428.1 663.6,415.6 663.8,402.8 663.9,389.9 664.1,376.8 664.2,363.6 664.4,350.3 664.6,337.1 664.7,323.8 664.9,310.6 665.0,297.5 665.2,284.6 665.4,271.9 665.5,259.5
665.7,247.4 665.8,235.7 666.0,224.3 666.1,213.5 666.3,203.1 666.5,193.2 666.6,184.0 666.8,175.4 666.9,167.4 667.1,160.2 667.3,153.6 667.4,147.8 667.6,142.7 667.7,138.4 667.9,135.0 668.0,132.3
668.2,130.3 668.4,129.2 668.5,128.9 668.7,129.4 668.8,130.6 669.0,132.5 669.2,135.2 669.3,138.6 669.5,142.6 669.6,147.2 669.8,152.5 669.9,158.3 670.1,164.6 670.3,171.4 670.4,178.6 670.6,186.2
670.7,194.1 670.9,202.4 671.1,210.9 671.2,219.6 671.4,228.5 671.5,237.6 671.7,246.7 671.8,255.9 672.0,265.1 672.2,274.3 672.3,283.4 672.5,292.5 672.6,301.5 672.8,310.4 672.9,319.1 673.1,327.7
673.3,336.1 673.4,344.4 673.6,352.4 673.7,360.3 673.9,368.0 674.1,375.4 674.2,382.7 674.4,389.8 674.5,396.6 674.7,403.3 674.8,409.7 675.0,416.0 675.2,422.1 675.3,428.1 675.5,433.9 675.6,439.5
675.8,444.9 676.0,450.3 676.1,455.5 676.3,460.6 676.4,465.5 676.6,470.4 676.7,475.1 676.9,479.8 677.1,484.3 677.2,488.8 677.4,493.2 677.5,497.5 677.7,501.7 677.9,505.9 678.0,509.9 678.2,513.9
678.3,517.9 678.5,521.7 678.6,525.5 678.8,529.2 679.0,532.8 679.1,536.4 679.3,539.9 679.4,543.3 679.6,546.6 679.8,549.8 679.9,553.0 680.1,556.1 680.2,559.1 680.4,562.0 680.5,564.9 680.7,567.7
680.9,570.4 681.0,573.0 681.2,575.5 681.3,578.0 681.5,580.3 681.7,582.6 681.8,584.9 682.0,587.0 682.1,589.1 682.3,591.1 682.4,593.0 682.6,594.9 682.8,596.7 682.9,598.4 683.1,600.1 683.2,601.7
683.4,603.2 683.6,604.6 683.7,606.0 683.9,607.4 684.0,608.7 684.2,609.9 684.3,611.0 684.5,612.1 684.7,613.1 684.8,614.1 685.0,615.0 685.1,615.9 685.3,616.6 685.5,617.4 685.6,618.1 685.8,618.7
685.9,619.2 686.1,619.7 686.2,620.2 686.4,620.6 686.6,620.9 686.7,621.2 686.9,621.5 687.0,621.7 687.2,621.9 687.4,622.0 687.5,622.1 687.7,622.1 687.8,622.2 688.0,622.2 688.1,622.1 688.3,622.1
688.5,622.1 688.6,622.0 688.8,621.9 688.9,621.9 689.1,621.8 689.3,621.7 689.4,621.7 689.6,621.6 689.7,621.6 689.9,621.6 690.0,621.6 690.2,621.7 690.4,621.8 690.5,621.9 690.7,622.0 690.8,622.2
691.0,622.4 691.2,622.7 691.3,623.0 691.5,623.3 691.6,623.7 691.8,624.1 691.9,624.6 692.1,625.1 692.3,625.6 692.4,626.2 692.6,626.8 692.7,627.4 692.9,628.1 693.1,628.8 693.2,629.5 693.4,630.2
693.5,630.9 693.7,631.7 693.8,632.4 694.0,633.2 694.2,634.0 694.3,634.7 694.5,635.5 694.6,636.3 694.8,637.0 695.0,637.8 695.1,638.5 695.3,639.2 695.4,639.9 695.6,640.6 695.7,641.3 695.9,641.9
696.1,642.6 696.2,643.2 696.4,643.8 696.5,644.4 696.7,644.9 696.9,645.4 697.0,646.0 697.2,646.5 697.3,646.9 697.5,647.4 697.6,647.9 697.8,648.3 698.0,648.7 698.1,649.1 698.3,649.5 698.4,649.9
698.6,650.3 698.8,650.6 698.9,651.0 699.1,651.4 699.2,651.7 699.4,652.0 699.5,652.4 699.7,652.7 699.9,653.0 700.0,653.3 700.2,653.6 700.3,653.9 700.5,654.2 700.7,654.5 700.8,654.8 701.0,655.1
701.1,655.3 701.3,655.6 701.4,655.8 701.6,656.0 701.8,656.3 701.9,656.5 702.1,656.7 702.2,656.9 702.4,657.0 702.6,657.2 702.7,657.3 702.9,657.4 703.0,657.5 703.2,657.6 703.3,657.7 703.5,657.7
703.7,657.8 703.8,657.8 704.0,657.8 704.1,657.8 704.3,657.7 704.5,657.7 704.6,657.6 704.8,657.5 704.9,657.4 705.1,657.3 705.2,657.2 705.4,657.1 705.6,656.9 705.7,656.8 705.9,656.6 706.0,656.4
706.2,656.3 706.4,656.1 706.5,655.9 706.7,655.7 706.8,655.5 707.0,655.4 707.1,655.2 707.3,655.0 707.5,654.9 707.6,654.7 707.8,654.6 707.9,654.5 708.1,654.3 708.3,654.2 708.4,654.1 708.6,654.1
708.7,654.0 708.9,654.0 709.0,653.9 709.2,653.9 709.4,653.9 709.5,654.0 709.7,654.0 709.8,654.1 710.0,654.2 710.2,654.3 710.3,654.4 710.5,654.5 710.6,654.6 710.8,654.8 710.9,655.0 711.1,655.2
711.3,655.4 711.4,655.6 711.6,655.8 711.7,656.0 711.9,656.2 712.1,656.4 712.2,656.7 712.4,656.9 712.5,657.2 712.7,657.4 712.8,657.6 713.0,657.9 713.2,658.1 713.3,658.3 713.5,658.6 713.6,658.8
713.8,659.0 714.0,659.2 714.1,659.4 714.3,659.6 714.4,659.8 714.6,660.0 714.7,660.2 714.9,660.3 715.1,660.5 715.2,660.7 715.4,660.8 715.5,660.9 715.7,661.1 715.8,661.2 716.0,661.3 716.2,661.4
716.3,661.5 716.5,661.6 716.6,661.6 716.8,661.7 717.0,661.8 717.1,661.9 717.3,661.9 717.4,662.0 717.6,662.0 717.7,662.1 717.9,662.1 718.1,662.1 718.2,662.2 718.4,662.2 718.5,662.2 718.7,662.2
718.9,662.3 719.0,662.3 719.2,662.3 719.3,662.3 719.3,662.4 719.2,662.4 719.0,662.4 718.9,662.4 718.7,662.4 718.5,662.4 718.4,662.4 718.2,662.4 718.1,662.4 717.9,662.4 717.7,662.4 717.6,662.4
717.4,662.4 717.3,662.4 717.1,662.4 717.0,662.4 716.8,662.4 716.6,662.4 716.5,662.4 716.3,662.4 716.2,662.4 716.0,662.4 715.8,662.4 715.7,662.4 715.5,662.4 715.4,662.4 715.2,662.4 715.1,662.4
714.9,662.4 714.7,662.4 714.6,662.4 714.4,662.4 714.3,662.4 714.1,662.4 714.0,662.4 713.8,662.4 713.6,662.4 713.5,662.4 713.3,662.4 713.2,662.4 713.0,662.4 712.8,662.4 712.7,662.4 712.5,662.4
712.4,662.4 712.2,662.4 712.1,662.4 711.9,662.4 711.7,662.4 711.6,662.4 711.4,662.4 711.3,662.4 711.1,662.4 710.9,662.4 710.8,662.4 710.6,662.4 710.5,662.4 710.3,662.4 710.2,662.4 710.0,662.4
709.8,662.4 709.7,662.4 709.5,662.4 709.4,662.4 709.2,662.4 709.0,662.4 708.9,662.4 708.7,662.4 708.6,662.4 708.4,662.4 708.3,662.4 708.1,662.4 707.9,662.4 707.8,662.4 707.6,662.4 707.5,662.4
707.3,662.4 707.1,662.4 707.0,662.4 706.8,662.4 706.7,662.4 706.5,662.4 706.4,662.4 706.2,662.4 706.0,662.4 705.9,662.4 705.7,662.4 705.6,662.4 705.4,662.4 705.2,662.4 705.1,662.4 704.9,662.4
704.8,662.4 704.6,662.4 704.5,662.4 704.3,662.4 704.1,662.4 704.0,662.4 703.8,662.4 703.7,662.4 703.5,662.4 703.3,662.4 703.2,662.4 703.0,662.4 702.9,662.4 702.7,662.4 702.6,662.4 702.4,662.4
702.2,662.4 702.1,662.4 701.9,662.4 701.8,662.4 701.6,662.4 701.4,662.4 701.3,662.4 701.1,662.4 701.0,662.4 700.8,662.4 700.7,662.4 700.5,662.4 700.3,662.4 700.2,662.4 700.0,662.4 699.9,662.4
699.7,662.4 699.5,662.4 699.4,662.4 699.2,662.4 699.1,662.4 698.9,662.4 698.8,662.4 698.6,662.4 698.4,662.4 698.3,662.4 698.1,662.4 698.0,662.4 697.8,662.4 697.6,662.4 697.5,662.4 697.3,662.4
697.2,662.4 697.0,662.4 696.9,662.4 696.7,662.4 696.5,662.4 696.4,662.4 696.2,662.4 696.1,662.4 695.9,662.4 695.7,662.4 695.6,662.4 695.4,662.4 695.3,662.4 695.1,662.4 695.0,662.4 694.8,662.4
694.6,662.4 694.5,662.4 694.3,662.4 694.2,662.4 694.0,662.4 693.8,662.4 693.7,662.4 693.5,662.4 693.4,662.4 693.2,662.4 693.1,662.4 692.9,662.4 692.7,662.4 692.6,662.4 692.4,662.4 692.3,662.4
692.1,662.4 691.9,662.4 691.8,662.4 691.6,662.4 691.5,662.4 691.3,662.4 691.2,662.4 691.0,662.4 690.8,662.4 690.7,662.4 690.5,662.4 690.4,662.4 690.2,662.4 690.0,662.4 689.9,662.4 689.7,662.4
689.6,662.4 689.4,662.4 689.3,662.4 689.1,662.4 688.9,662.4 688.8,662.4 688.6,662.4 688.5,662.4 688.3,662.4 688.1,662.4 688.0,662.4 687.8,662.4 687.7,662.4 687.5,662.4 687.4,662.4 687.2,662.4
687.0,662.4 686.9,662.4 686.7,662.4 686.6,662.4 686.4,662.4 686.2,662.4 686.1,662.4 685.9,662.4 685.8,662.4 685.6,662.4 685.5,662.4 685.3,662.4 685.1,662.4 685.0,662.4 684.8,662.4 684.7,662.4
684.5,662.4 684.3,662.4 684.2,662.4 684.0,662.4 683.9,662.4 683.7,662.4 683.6,662.4 683.4,662.4 683.2,662.4 683.1,662.4 682.9,662.4 682.8,662.4 682.6,662.4 682.4,662.4 682.3,662.4 682.1,662.4
682.0,662.4 681.8,662.4 681.7,662.4 681.5,662.4 681.3,662.4 681.2,662.4 681.0,662.4 680.9,662.4 680.7,662.4 680.5,662.4 680.4,662.4 680.2,662.4 680.1,662.4 679.9,662.4 679.8,662.4 679.6,662.4
679.4,662.4 679.3,662.4 679.1,662.4 679.0,662.4 678.8,662.4 678.6,662.4 678.5,662.4 678.3,662.4 678.2,662.4 678.0,662.4 677.9,662.4 677.7,662.4 677.5,662.4 677.4,662.4 677.2,662.4 677.1,662.4
676.9,662.4 676.7,662.4 676.6,662.4 676.4,662.4 676.3,662.4 676.1,662.4 676.0,662.4 675.8,662.4 675.6,662.4 675.5,662.4 675.3,662.4 675.2,662.4 675.0,662.4 674.8,662.4 674.7,662.4 674.5,662.4
674.4,662.4 674.2,662.4 674.1,662.4 673.9,662.4 673.7,662.4 673.6,662.4 673.4,662.4 673.3,662.4 673.1,662.4 672.9,662.4 672.8,662.4 672.6,662.4 672.5,662.4 672.3,662.4 672.2,662.4 672.0,662.4
671.8,662.4 671.7,662.4 671.5,662.4 671.4,662.4 671.2,662.4 671.1,662.4 670.9,662.4 670.7,662.4 670.6,662.4 670.4,662.4 670.3,662.4 670.1,662.4 669.9,662.4 669.8,662.4 669.6,662.4 669.5,662.4
669.3,662.4 669.2,662.4 669.0,662.4 668.8,662.4 668.7,662.4 668.5,662.4 668.4,662.4 668.2,662.4 668.0,662.4 667.9,662.4 667.7,662.4 667.6,662.4 667.4,662.4 667.3,662.4 667.1,662.4 666.9,662.4
666.8,662.4 666.6,662.4 666.5,662.4 666.3,662.4 666.1,662.4 666.0,662.4 665.8,662.4 665.7,662.4 665.5,662.4 665.4,662.4 665.2,662.4 665.0,662.4 664.9,662.4 664.7,662.4 664.6,662.4 664.4,662.4
664.2,662.4 664.1,662.4 663.9,662.4 663.8,662.4 663.6,662.4 663.5,662.4 663.3,662.4 663.1,662.4 663.0,662.4 662.8,662.4 662.7,662.4 662.5,662.4 662.3,662.4 662.2,662.4 662.0,662.4 661.9,662.4
661.7,662.4 661.6,662.4 661.4,662.4 661.2,662.4 661.1,662.4 660.9,662.4 660.8,662.4 660.6,662.4 660.4,662.4 660.3,662.4 660.1,662.4 660.0,662.4 659.8,662.4 659.7,662.4 659.5,662.4 659.3,662.4
659.2,662.4 659.0,662.4 658.9,662.4 658.7,662.4 658.5,662.4 658.4,662.4 658.2,662.4 658.1,662.4 657.9,662.4 657.8,662.4 657.6,662.4 657.4,662.4 657.3,662.4 657.1,662.4 657.0,662.4 656.8,662.4
656.6,662.4 656.5,662.4 656.3,662.4 656.2,662.4 656.0,662.4 655.9,662.4 655.7,662.4 655.5,662.4 655.4,662.4 655.2,662.4 655.1,662.4 654.9,662.4 654.7,662.4 654.6,662.4 654.4,662.4 654.3,662.4
654.1,662.4 654.0,662.4 653.8,662.4 653.6,662.4 653.5,662.4 653.3,662.4 653.2,662.4 653.0,662.4 652.8,662.4 652.7,662.4 652.5,662.4 652.4,662.4 652.2,662.4 652.1,662.4 651.9,662.4 651.7,662.4
651.6,662.4 651.4,662.4 651.3,662.4 651.1,662.4 650.9,662.4 650.8,662.4 650.6,662.4 650.5,662.4 650.3,662.4 650.2,662.4 650.0,662.4 649.8,662.4 649.7,662.4 649.5,662.4 649.4,662.4 649.2,662.4
649.0,662.4 648.9,662.4 648.7,662.4 648.6,662.4 648.4,662.4 648.3,662.4 648.1,662.4 647.9,662.4 647.8,662.4 647.6,662.4 647.5,662.4 647.3,662.4 647.1,662.4 647.0,662.4 646.8,662.4 646.7,662.4
646.5,662.4 646.4,662.4 646.2,662.4 646.0,662.4 645.9,662.4 645.7,662.4 645.6,662.4 645.4,662.4 645.2,662.4 645.1,662.4 644.9,662.4 644.8,662.4 644.6,662.4 644.5,662.4 644.3,662.4 644.1,662.4
644.0,662.4 643.8,662.4 643.7,662.4 643.5,662.4 643.3,662.4 643.2,662.4 643.0,662.4 642.9,662.4 642.7,662.4 642.6,662.4 642.4,662.4 642.2,662.4 642.1,662.4 641.9,662.4 641.8,662.4 641.6,662.4
641.4,662.4 641.3,662.4 641.1,662.4 641.0,662.4 640.8,662.4 640.7,662.4 640.5,662.4 640.3,662.4 '/>
	</g>
</g>
	</g>
	<g id="gnuplot_plot_2" ><title>Base Mean</title>
<g fill="none" color="white" stroke="rgb(227,  26,  28)" stroke-width="2.00" stroke-linecap="butt" stroke-linejoin="miter">
</g>
<g fill="none" color="black" stroke="currentColor" stroke-width="2.00" stroke-linecap="butt" stroke-linejoin="miter">
	<g transform="translate(1196.9,85.0)" stroke="none" fill="black" font-family="Helvetica" font-size="12.00"  text-anchor="start">
		<text><tspan font-family="Helvetica" >Base Mean</tspan></text>
	</g>
</g>
<g fill="none" color="black" stroke="currentColor" stroke-width="2.00" stroke-linecap="butt" stroke-linejoin="miter">
	<path stroke='rgb(227,  26,  28)'  d='M1146.4,81.1 L1188.6,81.1 M671.9,662.4 L671.9,260.5  '/></g>
	</g>
	<g id="gnuplot_plot_3" ><title>New PDF</title>
<g fill="none" color="white" stroke="rgb(227,  26,  28)" stroke-width="1.00" stroke-linecap="butt" stroke-linejoin="miter">
</g>
<g fill="none" color="black" stroke="currentColor" stroke-width="1.00" stroke-linecap="butt" stroke-linejoin="miter">
	<g transform="translate(1196.9,103.0)" stroke="none" fill="black" font-family="Helvetica" font-size="12.00"  text-anchor="start">
		<text><tspan font-family="Helvetica" >New PDF</tspan></text>
	</g>
</g>
<g fill="none" color="black" stroke="currentColor" stroke-width="1.00" stroke-linecap="butt" stroke-linejoin="miter">
	<g stroke='none' shape-rendering='crispEdges'>
		<polygon fill = 'rgb( 31, 120, 180)' fill-opacity = '0.500000' points = '1146.4,103.6 1188.6,103.6 1188.6,94.6 1146.4,94.6 '/>
		<polygon fill = 'rgb( 31, 120, 180)' fill-opacity = '0.500000' points = '107.4,662.4 109.3,662.4 111.3,662.4 113.2,662.4 115.1,662.4 117.0,662.4 118.9,662.3 120.9,662.3 122.8,662.3 124.7,662.3 126.6,662.3 128.6,662.3 130.5,662.3 132.4,662.2 134.3,662.2 136.2,662.2
138.2,662.2 140.1,662.1 142.0,662.1 143.9,662.1 145.8,662.0 147.8,662.0 149.7,661.9 151.6,661.8 153.5,661.8 155.4,661.7 157.4,661.6 159.3,661.5 161.2,661.4 163.1,661.3 165.1,661.2 167.0,661.1
168.9,661.0 170.8,660.9 172.7,660.7 174.7,660.6 176.6,660.4 178.5,660.2 180.4,660.0 182.3,659.8 184.3,659.6 186.2,659.4 188.1,659.1 190.0,658.9 191.9,658.6 193.9,658.3 195.8,658.0 197.7,657.6
199.6,657.2 201.6,656.8 203.5,656.4 205.4,655.9 207.3,655.4 209.2,654.8 211.2,654.3 213.1,653.6 215.0,652.9 216.9,652.2 218.8,651.4 220.8,650.5 222.7,649.6 224.6,648.7 226.5,647.6 228.4,646.5
230.4,645.3 232.3,644.1 234.2,642.7 236.1,641.4 238.1,639.9 240.0,638.4 241.9,636.8 243.8,635.1 245.7,633.4 247.7,631.6 249.6,629.8 251.5,627.9 253.4,626.0 255.3,624.1 257.3,622.1 259.2,620.1
261.1,618.2 263.0,616.2 264.9,614.3 266.9,612.4 268.8,610.6 270.7,608.8 272.6,607.1 274.6,605.5 276.5,604.0 278.4,602.6 280.3,601.3 282.2,600.1 284.2,599.1 286.1,598.2 288.0,597.5 289.9,596.9
291.8,596.5 293.8,596.3 295.7,596.2 297.6,596.3 299.5,596.6 301.4,597.0 303.4,597.6 305.3,598.4 307.2,599.3 309.1,600.3 311.1,601.5 313.0,602.8 314.9,604.2 316.8,605.7 318.7,607.3 320.7,609.0
322.6,610.7 324.5,612.5 326.4,614.4 328.3,616.3 330.3,618.2 332.2,620.1 334.1,622.1 336.0,624.0 337.9,625.9 339.9,627.8 341.8,629.6 343.7,631.4 345.6,633.2 347.6,634.9 349.5,636.5 351.4,638.1
353.3,639.6 355.2,641.0 357.2,642.4 359.1,643.7 361.0,644.9 362.9,646.1 364.8,647.1 366.8,648.1 368.7,649.1 370.6,650.0 372.5,650.8 374.5,651.5 376.4,652.2 378.3,652.8 380.2,653.3 382.1,653.9
384.1,654.3 386.0,654.7 387.9,655.1 389.8,655.4 391.7,655.7 393.7,655.9 395.6,656.2 397.5,656.3 399.4,656.5 401.3,656.7 403.3,656.8 405.2,656.9 407.1,657.0 409.0,657.0 411.0,657.1 412.9,657.2
414.8,657.2 416.7,657.3 418.6,657.3 420.6,657.4 422.5,657.4 424.4,657.4 426.3,657.5 428.2,657.5 430.2,657.6 432.1,657.7 434.0,657.7 435.9,657.8 437.8,657.9 439.8,658.0 441.7,658.1 443.6,658.2
445.5,658.3 447.5,658.4 449.4,658.5 451.3,658.6 453.2,658.7 455.1,658.9 457.1,659.0 459.0,659.1 460.9,659.3 462.8,659.4 464.7,659.5 466.7,659.7 468.6,659.8 470.5,660.0 472.4,660.1 474.3,660.2
476.3,660.4 478.2,660.5 480.1,660.6 482.0,660.7 484.0,660.9 485.9,661.0 487.8,661.1 489.7,661.2 491.6,661.3 493.6,661.4 495.5,661.5 497.4,661.5 499.3,661.6 501.2,661.7 503.2,661.8 505.1,661.8
507.0,661.9 508.9,661.9 510.8,662.0 512.8,662.0 514.7,662.1 516.6,662.1 518.5,662.1 520.5,662.2 522.4,662.2 524.3,662.2 526.2,662.3 528.1,662.3 530.1,662.3 532.0,662.3 533.9,662.3 535.8,662.3
537.7,662.3 539.7,662.3 541.6,662.4 543.5,662.4 545.4,662.4 547.3,662.4 549.3,662.4 551.2,662.4 553.1,662.4 555.0,662.4 557.0,662.4 558.9,662.4 560.8,662.4 562.7,662.4 564.6,662.4 566.6,662.4
568.5,662.4 570.4,662.4 572.3,662.4 574.2,662.4 576.2,662.4 578.1,662.4 580.0,662.4 581.9,662.4 583.8,662.4 585.8,662.4 587.7,662.4 589.6,662.4 591.5,662.4 593.5,662.4 595.4,662.4 597.3,662.4
599.2,662.4 601.1,662.4 603.1,662.4 605.0,662.4 606.9,662.4 608.8,662.4 610.7,662.4 612.7,662.4 614.6,662.4 616.5,662.4 618.4,662.4 620.3,662.4 622.3,662.4 624.2,662.4 626.1,662.4 628.0,662.4
630.0,662.4 631.9,662.4 633.8,662.4 635.7,662.4 637.6,662.4 639.6,662.4 641.5,662.4 643.4,662.4 645.3,662.4 647.2,662.4 649.2,662.4 651.1,662.4 653.0,662.4 654.9,662.4 656.8,662.4 658.8,662.4
660.7,662.4 662.6,662.4 664.5,662.4 666.5,662.4 668.4,662.4 670.3,662.4 672.2,662.4 674.1,662.4 676.1,662.4 678.0,662.4 679.9,662.4 681.8,662.4 683.7,662.4 685.7,662.4 687.6,662.4 689.5,662.4
691.4,662.4 693.3,662.4 695.3,662.4 697.2,662.4 699.1,662.4 701.0,662.4 703.0,662.4 704.9,662.4 706.8,662.4 708.7,662.4 710.6,662.4 712.6,662.4 714.5,662.4 716.4,662.4 718.3,662.4 720.2,662.4
722.2,662.4 724.1,662.4 726.0,662.4 727.9,662.4 729.8,662.4 731.8,662.4 733.7,662.4 735.6,662.4 737.5,662.4 739.5,662.4 741.4,662.4 743.3,662.4 745.2,662.4 747.1,662.4 749.1,662.4 751.0,662.4
752.9,662.4 754.8,662.4 756.7,662.4 758.7,662.4 760.6,662.4 762.5,662.4 764.4,662.4 766.3,662.4 768.3,662.4 770.2,662.4 772.1,662.4 774.0,662.4 776.0,662.4 777.9,662.4 779.8,662.4 781.7,662.4
783.6,662.4 785.6,662.4 787.5,662.4 789.4,662.4 791.3,662.4 793.2,662.4 795.2,662.4 797.1,662.4 799.0,662.4 800.9,662.4 802.8,662.4 804.8,662.4 806.7,662.4 808.6,662.4 810.5,662.4 812.5,662.4
814.4,662.4 816.3,662.4 818.2,662.4 820.1,662.4 822.1,662.4 824.0,662.4 825.9,662.4 827.8,662.4 829.7,662.4 831.7,662.4 833.6,662.4 835.5,662.4 837.4,662.4 839.3,662.4 841.3,662.4 843.2,662.4
845.1,662.4 847.0,662.4 849.0,662.4 850.9,662.4 852.8,662.4 854.7,662.4 856.6,662.4 858.6,662.4 860.5,662.4 862.4,662.4 864.3,662.4 866.2,662.4 868.2,662.4 870.1,662.4 872.0,662.4 873.9,662.4
875.8,662.4 877.8,662.4 879.7,662.4 881.6,662.4 883.5,662.4 885.5,662.4 887.4,662.4 889.3,662.3 891.2,662.3 893.1,662.3 895.1,662.3 897.0,662.3 898.9,662.3 900.8,662.3 902.7,662.3 904.7,662.3
906.6,662.2 908.5,662.2 910.4,662.2 912.3,662.2 914.3,662.2 916.2,662.1 918.1,662.1 920.0,662.1 922.0,662.1 923.9,662.0 925.8,662.0 927.7,662.0 929.6,662.0 931.6,661.9 933.5,661.9 935.4,661.9
937.3,661.8 939.2,661.8 941.2,661.8 943.1,661.7 945.0,661.7 946.9,661.7 948.8,661.7 950.8,661.6 952.7,661.6 954.6,661.6 956.5,661.6 958.5,661.6 960.4,661.6 962.3,661.5 964.2,661.5 966.1,661.5
968.1,661.5 970.0,661.5 971.9,661.5 973.8,661.6 975.7,661.6 977.7,661.6 979.6,661.6 981.5,661.6 983.4,661.6 985.3,661.7 987.3,661.7 989.2,661.7 991.1,661.7 993.0,661.8 995.0,661.8 996.9,661.8
998.8,661.9 1000.7,661.9 1002.6,661.9 1004.6,661.9 1006.5,662.0 1008.4,662.0 1010.3,662.0 1012.2,662.1 1014.2,662.1 1016.1,662.1 1018.0,662.1 1019.9,662.2 1021.8,662.2 1023.8,662.2 1025.7,662.2 1027.6,662.2
1029.5,662.3 1031.5,662.3 1033.4,662.3 1035.3,662.3 1037.2,662.3 1039.1,662.3 1041.1,662.3 1043.0,662.3 1044.9,662.3 1046.8,662.4 1048.7,662.4 1050.7,662.4 1052.6,662.4 1054.5,662.4 1056.4,662.4 1058.3,662.4
1060.3,662.4 1062.2,662.4 1064.1,662.4 1066.0,662.4 1066.0,662.4 1064.1,662.4 1062.2,662.4 1060.3,662.4 1058.3,662.4 1056.4,662.4 1054.5,662.4 1052.6,662.4 1050.7,662.4 1048.7,662.4 1046.8,662.4 1044.9,662.4
1043.0,662.4 1041.1,662.4 1039.1,662.4 1037.2,662.4 1035.3,662.4 1033.4,662.4 1031.5,662.4 1029.5,662.4 1027.6,662.4 1025.7,662.4 1023.8,662.4 1021.8,662.4 1019.9,662.4 1018.0,662.4 1016.1,662.4 1014.2,662.4
1012.2,662.4 1010.3,662.4 1008.4,662.4 1006.5,662.4 1004.6,662.4 1002.6,662.4 1000.7,662.4 998.8,662.4 996.9,662.4 995.0,662.4 993.0,662.4 991.1,662.4 989.2,662.4 987.3,662.4 985.3,662.4 983.4,662.4
981.5,662.4 979.6,662.4 977.7,662.4 975.7,662.4 973.8,662.4 971.9,662.4 970.0,662.4 968.1,662.4 966.1,662.4 964.2,662.4 962.3,662.4 960.4,662.4 958.5,662.4 956.5,662.4 954.6,662.4 952.7,662.4
950.8,662.4 948.8,662.4 946.9,662.4 945.0,662.4 943.1,662.4 941.2,662.4 939.2,662.4 937.3,662.4 935.4,662.4 933.5,662.4 931.6,662.4 929.6,662.4 927.7,662.4 925.8,662.4 923.9,662.4 922.0,662.4
920.0,662.4 918.1,662.4 916.2,662.4 914.3,662.4 912.3,662.4 910.4,662.4 908.5,662.4 906.6,662.4 904.7,662.4 902.7,662.4 900.8,662.4 898.9,662.4 897.0,662.4 895.1,662.4 893.1,662.4 891.2,662.4
889.3,662.4 887.4,662.4 885.5,662.4 883.5,662.4 881.6,662.4 879.7,662.4 877.8,662.4 875.8,662.4 873.9,662.4 872.0,662.4 870.1,662.4 868.2,662.4 866.2,662.4 864.3,662.4 862.4,662.4 860.5,662.4
858.6,662.4 856.6,662.4 854.7,662.4 852.8,662.4 850.9,662.4 849.0,662.4 847.0,662.4 845.1,662.4 843.2,662.4 841.3,662.4 839.3,662.4 837.4,662.4 835.5,662.4 833.6,662.4 831.7,662.4 829.7,662.4
827.8,662.4 825.9,662.4 824.0,662.4 822.1,662.4 820.1,662.4 818.2,662.4 816.3,662.4 814.4,662.4 812.5,662.4 810.5,662.4 808.6,662.4 806.7,662.4 804.8,662.4 802.8,662.4 800.9,662.4 799.0,662.4
797.1,662.4 795.2,662.4 793.2,662.4 791.3,662.4 789.4,662.4 787.5,662.4 785.6,662.4 783.6,662.4 781.7,662.4 779.8,662.4 777.9,662.4 776.0,662.4 774.0,662.4 772.1,662.4 770.2,662.4 768.3,662.4
766.3,662.4 764.4,662.4 762.5,662.4 760.6,662.4 758.7,662.4 756.7,662.4 754.8,662.4 752.9,662.4 751.0,662.4 749.1,662.4 747.1,662.4 745.2,662.4 743.3,662.4 741.4,662.4 739.5,662.4 737.5,662.4
735.6,662.4 733.7,662.4 731.8,662.4 729.8,662.4 727.9,662.4 726.0,662.4 724.1,662.4 722.2,662.4 720.2,662.4 718.3,662.4 716.4,662.4 714.5,662.4 712.6,662.4 710.6,662.4 708.7,662.4 706.8,662.4
704.9,662.4 703.0,662.4 701.0,662.4 699.1,662.4 697.2,662.4 695.3,662.4 693.3,662.4 691.4,662.4 689.5,662.4 687.6,662.4 685.7,662.4 683.7,662.4 681.8,662.4 679.9,662.4 678.0,662.4 676.1,662.4
674.1,662.4 672.2,662.4 670.3,662.4 668.4,662.4 666.5,662.4 664.5,662.4 662.6,662.4 660.7,662.4 658.8,662.4 656.8,662.4 654.9,662.4 653.0,662.4 651.1,662.4 649.2,662.4 647.2,662.4 645.3,662.4
643.4,662.4 641.5,662.4 639.6,662.4 637.6,662.4 635.7,662.4 633.8,662.4 631.9,662.4 630.0,662.4 628.0,662.4 626.1,662.4 624.2,662.4 622.3,662.4 620.3,662.4 618.4,662.4 616.5,662.4 614.6,662.4
612.7,662.4 610.7,662.4 608.8,662.4 606.9,662.4 605.0,662.4 603.1,662.4 601.1,662.4 599.2,662.4 597.3,662.4 595.4,662.4 593.5,662.4 591.5,662.4 589.6,662.4 587.7,662.4 585.8,662.4 583.8,662.4
581.9,662.4 580.0,662.4 578.1,662.4 576.2,662.4 574.2,662.4 572.3,662.4 570.4,662.4 568.5,662.4 566.6,662.4 564.6,662.4 562.7,662.4 560.8,662.4 558.9,662.4 557.0,662.4 555.0,662.4 553.1,662.4
551.2,662.4 549.3,662.4 547.3,662.4 545.4,662.4 543.5,662.4 541.6,662.4 539.7,662.4 537.7,662.4 535.8,662.4 533.9,662.4 532.0,662.4 530.1,662.4 528.1,662.4 526.2,662.4 524.3,662.4 522.4,662.4
520.5,662.4 518.5,662.4 516.6,662.4 514.7,662.4 512.8,662.4 510.8,662.4 508.9,662.4 507.0,662.4 505.1,662.4 503.2,662.4 501.2,662.4 499.3,662.4 497.4,662.4 495.5,662.4 493.6,662.4 491.6,662.4
489.7,662.4 487.8,662.4 485.9,662.4 484.0,662.4 482.0,662.4 480.1,662.4 478.2,662.4 476.3,662.4 474.3,662.4 472.4,662.4 470.5,662.4 468.6,662.4 466.7,662.4 464.7,662.4 462.8,662.4 460.9,662.4
459.0,662.4 457.1,662.4 455.1,662.4 453.2,662.4 451.3,662.4 449.4,662.4 447.5,662.4 445.5,662.4 443.6,662.4 441.7,662.4 439.8,662.4 437.8,662.4 435.9,662.4 434.0,662.4 432.1,662.4 430.2,662.4
428.2,662.4 426.3,662.4 424.4,662.4 422.5,662.4 420.6,662.4 418.6,662.4 416.7,662.4 414.8,662.4 412.9,662.4 411.0,662.4 409.0,662.4 407.1,662.4 405.2,662.4 403.3,662.4 401.3,662.4 399.4,662.4
397.5,662.4 395.6,662.4 393.7,662.4 391.7,662.4 389.8,662.4 387.9,662.4 386.0,662.4 384.1,662.4 382.1,662.4 380.2,662.4 378.3,662.4 376.4,662.4 374.5,662.4 372.5,662.4 370.6,662.4 368.7,662.4
366.8,662.4 364.8,662.4 362.9,662.4 361.0,662.4 359.1,662.4 357.2,662.4 355.2,662.4 353.3,662.4 351.4,662.4 349.5,662.4 347.6,662.4 345.6,662.4 343.7,662.4 341.8,662.4 339.9,662.4 337.9,662.4
336.0,662.4 334.1,662.4 332.2,662.4 330.3,662.4 328.3,662.4 326.4,662.4 324.5,662.4 322.6,662.4 320.7,662.4 318.7,662.4 316.8,662.4 314.9,662.4 313.0,662.4 311.1,662.4 309.1,662.4 307.2,662.4
305.3,662.4 303.4,662.4 301.4,662.4 299.5,662.4 297.6,662.4 295.7,662.4 293.8,662.4 291.8,662.4 289.9,662.4 288.0,662.4 286.1,662.4 284.2,662.4 282.2,662.4 280.3,662.4 278.4,662.4 276.5,662.4
274.6,662.4 272.6,662.4 270.7,662.4 268.8,662.4 266.9,662.4 264.9,662.4 263.0,662.4 261.1,662.4 259.2,662.4 257.3,662.4 255.3,662.4 253.4,662.4 251.5,662.4 249.6,662.4 247.7,662.4 245.7,662.4
243.8,662.4 241.9,662.4 240.0,662.4 238.1,662.4 236.1,662.4 234.2,662.4 232.3,662.4 230.4,662.4 228.4,662.4 226.5,662.4 224.6,662.4 222.7,662.4 220.8,662.4 218.8,662.4 216.9,662.4 215.0,662.4
213.1,662.4 211.2,662.4 209.2,662.4 207.3,662.4 205.4,662.4 203.5,662.4 201.6,662.4 199.6,662.4 197.7,662.4 195.8,662.4 193.9,662.4 191.9,662.4 190.0,662.4 188.1,662.4 186.2,662.4 184.3,662.4
182.3,662.4 180.4,662.4 178.5,662.4 176.6,662.4 174.7,662.4 172.7,662.4 170.8,662.4 168.9,662.4 167.0,662.4 165.1,662.4 163.1,662.4 161.2,662.4 159.3,662.4 157.4,662.4 155.4,662.4 153.5,662.4
151.6,662.4 149.7,662.4 147.8,662.4 145.8,662.4 143.9,662.4 142.0,662.4 140.1,662.4 138.2,662.4 136.2,662.4 134.3,662.4 132.4,662.4 130.5,662.4 128.6,662.4 126.6,662.4 124.7,662.4 122.8,662.4
120.9,662.4 118.9,662.4 117.0,662.4 115.1,662.4 113.2,662.4 111.3,662.4 109.3,662.4 107.4,662.4 '/>
	</g>
</g>
	</g>
	<g id="gnuplot_plot_4" ><title>New Mean</title>
<g fill="none" color="white" stroke="rgb( 31, 120, 180)" stroke-width="2.00" stroke-linecap="butt" stroke-linejoin="miter">
</g>
<g fill="none" color="black" stroke="currentColor" stroke-width="2.00" stroke-linecap="butt" stroke-linejoin="miter">
	<g transform="translate(1196.9,121.0)" stroke="none" fill="black" font-family="Helvetica" font-size="12.00"  text-anchor="start">
		<text><tspan font-family="Helvetica" >New Mean</tspan></text>
	</g>
</g>
<g fill="none" color="black" stroke="currentColor" stroke-width="2.00" stroke-linecap="butt" stroke-linejoin="miter">
	<path stroke='rgb( 31, 120, 180)'  d='M1146.4,117.1 L1188.6,117.1 M309.1,662.4 L309.1,600.3  '/></g>
	</g>
<g fill="none" color="black" stroke="currentColor" stroke-width="2.00" stroke-linecap="butt" stroke-linejoin="miter">
</g>
<g fill="none" color="black" stroke="black" stroke-width="1.00" stroke-linecap="butt" stroke-linejoin="miter">
</g>
<g fill="none" color="black" stroke="currentColor" stroke-width="1.00" stroke-linecap="butt" stroke-linejoin="miter">
	<path stroke='black'  d='M71.9,54.1 L71.9,662.4 L1121.5,662.4 L1121.5,54.1 L71.9,54.1 Z  '/></g>
<g fill="none" color="black" stroke="currentColor" stroke-width="1.00" stroke-linecap="butt" stroke-linejoin="miter">
</g>
</g>
</svg>

