<?xml version="1.0" encoding="utf-8"  standalone="no"?>
<svg 
 viewBox="0 0 1280 720"
 xmlns="http://www.w3.org/2000/svg"
 xmlns:xlink="http://www.w3.org/1999/xlink"
>

<title>Gnuplot</title>
<desc>Produced by GNUPLOT 5.2 patchlevel 8 </desc>

<g id="gnuplot_canvas">

<rect x="0" y="0" width="1280" height="720" fill="none"/>
<defs>

	<circle id='gpDot' r='0.5' stroke-width='0.5' stroke='currentColor'/>
	<path id='gpPt0' stroke-width='0.222' stroke='currentColor' d='M-1,0 h2 M0,-1 v2'/>
	<path id='gpPt1' stroke-width='0.222' stroke='currentColor' d='M-1,-1 L1,1 M1,-1 L-1,1'/>
	<path id='gpPt2' stroke-width='0.222' stroke='currentColor' d='M-1,0 L1,0 M0,-1 L0,1 M-1,-1 L1,1 M-1,1 L1,-1'/>
	<rect id='gpPt3' stroke-width='0.222' stroke='currentColor' x='-1' y='-1' width='2' height='2'/>
	<rect id='gpPt4' stroke-width='0.222' stroke='currentColor' fill='currentColor' x='-1' y='-1' width='2' height='2'/>
	<circle id='gpPt5' stroke-width='0.222' stroke='currentColor' cx='0' cy='0' r='1'/>
	<use xlink:href='#gpPt5' id='gpPt6' fill='currentColor' stroke='none'/>
	<path id='gpPt7' stroke-width='0.222' stroke='currentColor' d='M0,-1.33 L-1.33,0.67 L1.33,0.67 z'/>
	<use xlink:href='#gpPt7' id='gpPt8' fill='currentColor' stroke='none'/>
	<use xlink:href='#gpPt7' id='gpPt9' stroke='currentColor' transform='rotate(180)'/>
	<use xlink:href='#gpPt9' id='gpPt10' fill='currentColor' stroke='none'/>
	<use xlink:href='#gpPt3' id='gpPt11' stroke='currentColor' transform='rotate(45)'/>
	<use xlink:href='#gpPt11' id='gpPt12' fill='currentColor' stroke='none'/>
	<path id='gpPt13' stroke-width='0.222' stroke='currentColor' d='M0,1.330 L1.265,0.411 L0.782,-1.067 L-0.782,-1.076 L-1.265,0.411 z'/>
	<use xlink:href='#gpPt13' id='gpPt14' fill='currentColor' stroke='none'/>
	<filter id='textbox' filterUnits='objectBoundingBox' x='0' y='0' height='1' width='1'>
	  <feFlood flood-color='white' flood-opacity='1' result='bgnd'/>
	  <feComposite in='SourceGraphic' in2='bgnd' operator='atop'/>
	</filter>
	<filter id='greybox' filterUnits='objectBoundingBox' x='0' y='0' height='1' width='1'>
	  <feFlood flood-color='lightgrey' flood-opacity='1' result='grey'/>
	  <feComposite in='SourceGraphic' in2='grey' operator='atop'/>
	</filter>
</defs>
<g fill="none" color="white" stroke="currentColor" stroke-width="1.00" stroke-linecap="butt" stroke-linejoin="miter">
</g>
<g fill="none" color="black" stroke="currentColor" stroke-width="1.00" stroke-linecap="butt" stroke-linejoin="miter">
	<path stroke='black'  d='M80.2,662.4 L89.2,662.4  '/>	<g transform="translate(71.9,666.3)" stroke="none" fill="black" font-family="Helvetica" font-size="12.00"  text-anchor="end">
		<text><tspan font-family="Helvetica" > 0</tspan></text>
	</g>
</g>
<g fill="none" color="black" stroke="currentColor" stroke-width="1.00" stroke-linecap="butt" stroke-linejoin="miter">
	<path stroke='black'  d='M80.2,594.8 L89.2,594.8  '/>	<g transform="translate(71.9,598.7)" stroke="none" fill="black" font-family="Helvetica" font-size="12.00"  text-anchor="end">
		<text><tspan font-family="Helvetica" > 500</tspan></text>
	</g>
</g>
<g fill="none" color="black" stroke="currentColor" stroke-width="1.00" stroke-linecap="butt" stroke-linejoin="miter">
	<path stroke='black'  d='M80.2,527.2 L89.2,527.2  '/>	<g transform="translate(71.9,531.1)" stroke="none" fill="black" font-family="Helvetica" font-size="12.00"  text-anchor="end">
		<text><tspan font-family="Helvetica" > 1000</tspan></text>
	</g>
</g>
<g fill="none" color="black" stroke="currentColor" stroke-width="1.00" stroke-linecap="butt" stroke-linejoin="miter">
	<path stroke='black'  d='M80.2,459.6 L89.2,459.6  '/>	<g transform="translate(71.9,463.5)" stroke="none" fill="black" font-family="Helvetica" font-size="12.00"  text-anchor="end">
		<text><tspan font-family="Helvetica" > 1500</tspan></text>
	</g>
</g>
<g fill="none" color="black" stroke="currentColor" stroke-width="1.00" stroke-linecap="butt" stroke-linejoin="miter">
	<path stroke='black'  d='M80.2,392.0 L89.2,392.0  '/>	<g transform="translate(71.9,395.9)" stroke="none" fill="black" font-family="Helvetica" font-size="12.00"  text-anchor="end">
		<text><tspan font-family="Helvetica" > 2000</tspan></text>
	</g>
</g>
<g fill="none" color="black" stroke="currentColor" stroke-width="1.00" stroke-linecap="butt" stroke-linejoin="miter">
	<path stroke='black'  d='M80.2,324.5 L89.2,324.5  '/>	<g transform="translate(71.9,328.4)" stroke="none" fill="black" font-family="Helvetica" font-size="12.00"  text-anchor="end">
		<text><tspan font-family="Helvetica" > 2500</tspan></text>
	</g>
</g>
<g fill="none" color="black" stroke="currentColor" stroke-width="1.00" stroke-linecap="butt" stroke-linejoin="miter">
	<path stroke='black'  d='M80.2,256.9 L89.2,256.9  '/>	<g transform="translate(71.9,260.8)" stroke="none" fill="black" font-family="Helvetica" font-size="12.00"  text-anchor="end">
		<text><tspan font-family="Helvetica" > 3000</tspan></text>
	</g>
</g>
<g fill="none" color="black" stroke="currentColor" stroke-width="1.00" stroke-linecap="butt" stroke-linejoin="miter">
	<path stroke='black'  d='M80.2,189.3 L89.2,189.3  '/>	<g transform="translate(71.9,193.2)" stroke="none" fill="black" font-family="Helvetica" font-size="12.00"  text-anchor="end">
		<text><tspan font-family="Helvetica" > 3500</tspan></text>
	</g>
</g>
<g fill="none" color="black" stroke="currentColor" stroke-width="1.00" stroke-linecap="butt" stroke-linejoin="miter">
	<path stroke='black'  d='M80.2,121.7 L89.2,121.7  '/>	<g transform="translate(71.9,125.6)" stroke="none" fill="black" font-family="Helvetica" font-size="12.00"  text-anchor="end">
		<text><tspan font-family="Helvetica" > 4000</tspan></text>
	</g>
</g>
<g fill="none" color="black" stroke="currentColor" stroke-width="1.00" stroke-linecap="butt" stroke-linejoin="miter">
	<path stroke='black'  d='M80.2,54.1 L89.2,54.1  '/>	<g transform="translate(71.9,58.0)" stroke="none" fill="black" font-family="Helvetica" font-size="12.00"  text-anchor="end">
		<text><tspan font-family="Helvetica" > 4500</tspan></text>
	</g>
</g>
<g fill="none" color="black" stroke="currentColor" stroke-width="1.00" stroke-linecap="butt" stroke-linejoin="miter">
	<path stroke='black'  d='M143.2,662.4 L143.2,653.4  '/>	<g transform="translate(143.2,684.3)" stroke="none" fill="black" font-family="Helvetica" font-size="12.00"  text-anchor="middle">
		<text><tspan font-family="Helvetica" > 0.705</tspan></text>
	</g>
</g>
<g fill="none" color="black" stroke="currentColor" stroke-width="1.00" stroke-linecap="butt" stroke-linejoin="miter">
	<path stroke='black'  d='M244.2,662.4 L244.2,653.4  '/>	<g transform="translate(244.2,684.3)" stroke="none" fill="black" font-family="Helvetica" font-size="12.00"  text-anchor="middle">
		<text><tspan font-family="Helvetica" > 0.71</tspan></text>
	</g>
</g>
<g fill="none" color="black" stroke="currentColor" stroke-width="1.00" stroke-linecap="butt" stroke-linejoin="miter">
	<path stroke='black'  d='M345.3,662.4 L345.3,653.4  '/>	<g transform="translate(345.3,684.3)" stroke="none" fill="black" font-family="Helvetica" font-size="12.00"  text-anchor="middle">
		<text><tspan font-family="Helvetica" > 0.715</tspan></text>
	</g>
</g>
<g fill="none" color="black" stroke="currentColor" stroke-width="1.00" stroke-linecap="butt" stroke-linejoin="miter">
	<path stroke='black'  d='M446.3,662.4 L446.3,653.4  '/>	<g transform="translate(446.3,684.3)" stroke="none" fill="black" font-family="Helvetica" font-size="12.00"  text-anchor="middle">
		<text><tspan font-family="Helvetica" > 0.72</tspan></text>
	</g>
</g>
<g fill="none" color="black" stroke="currentColor" stroke-width="1.00" stroke-linecap="butt" stroke-linejoin="miter">
	<path stroke='black'  d='M547.3,662.4 L547.3,653.4  '/>	<g transform="translate(547.3,684.3)" stroke="none" fill="black" font-family="Helvetica" font-size="12.00"  text-anchor="middle">
		<text><tspan font-family="Helvetica" > 0.725</tspan></text>
	</g>
</g>
<g fill="none" color="black" stroke="currentColor" stroke-width="1.00" stroke-linecap="butt" stroke-linejoin="miter">
	<path stroke='black'  d='M648.4,662.4 L648.4,653.4  '/>	<g transform="translate(648.4,684.3)" stroke="none" fill="black" font-family="Helvetica" font-size="12.00"  text-anchor="middle">
		<text><tspan font-family="Helvetica" > 0.73</tspan></text>
	</g>
</g>
<g fill="none" color="black" stroke="currentColor" stroke-width="1.00" stroke-linecap="butt" stroke-linejoin="miter">
	<path stroke='black'  d='M749.4,662.4 L749.4,653.4  '/>	<g transform="translate(749.4,684.3)" stroke="none" fill="black" font-family="Helvetica" font-size="12.00"  text-anchor="middle">
		<text><tspan font-family="Helvetica" > 0.735</tspan></text>
	</g>
</g>
<g fill="none" color="black" stroke="currentColor" stroke-width="1.00" stroke-linecap="butt" stroke-linejoin="miter">
	<path stroke='black'  d='M850.5,662.4 L850.5,653.4  '/>	<g transform="translate(850.5,684.3)" stroke="none" fill="black" font-family="Helvetica" font-size="12.00"  text-anchor="middle">
		<text><tspan font-family="Helvetica" > 0.74</tspan></text>
	</g>
</g>
<g fill="none" color="black" stroke="currentColor" stroke-width="1.00" stroke-linecap="butt" stroke-linejoin="miter">
	<path stroke='black'  d='M951.5,662.4 L951.5,653.4  '/>	<g transform="translate(951.5,684.3)" stroke="none" fill="black" font-family="Helvetica" font-size="12.00"  text-anchor="middle">
		<text><tspan font-family="Helvetica" > 0.745</tspan></text>
	</g>
</g>
<g fill="none" color="black" stroke="currentColor" stroke-width="1.00" stroke-linecap="butt" stroke-linejoin="miter">
</g>
<g fill="none" color="black" stroke="currentColor" stroke-width="1.00" stroke-linecap="butt" stroke-linejoin="miter">
	<path stroke='black'  d='M80.2,54.1 L80.2,662.4 L1013.6,662.4 L1013.6,54.1 L80.2,54.1 Z  '/></g>
<g fill="none" color="black" stroke="currentColor" stroke-width="1.00" stroke-linecap="butt" stroke-linejoin="miter">
	<g transform="translate(19.0,358.3) rotate(270)" stroke="none" fill="black" font-family="Helvetica" font-size="12.00"  text-anchor="middle">
		<text><tspan font-family="Helvetica" >Density (a.u.)</tspan></text>
	</g>
</g>
<g fill="none" color="black" stroke="currentColor" stroke-width="1.00" stroke-linecap="butt" stroke-linejoin="miter">
	<g transform="translate(546.9,711.3)" stroke="none" fill="black" font-family="Helvetica" font-size="12.00"  text-anchor="middle">
		<text><tspan font-family="Helvetica" >Relative change (%)</tspan></text>
	</g>
</g>
<g fill="none" color="black" stroke="currentColor" stroke-width="1.00" stroke-linecap="butt" stroke-linejoin="miter">
	<g transform="translate(546.9,31.0)" stroke="none" fill="black" font-family="Helvetica" font-size="12.00"  text-anchor="middle">
		<text><tspan font-family="Helvetica" >bench_group/blake3/384: median</tspan></text>
	</g>
</g>
<g fill="none" color="black" stroke="currentColor" stroke-width="1.00" stroke-linecap="butt" stroke-linejoin="miter">
</g>
	<g id="gnuplot_plot_1" ><title>Bootstrap distribution</title>
<g fill="none" color="white" stroke="currentColor" stroke-width="2.00" stroke-linecap="butt" stroke-linejoin="miter">
</g>
<g fill="none" color="black" stroke="currentColor" stroke-width="2.00" stroke-linecap="butt" stroke-linejoin="miter">
	<g transform="translate(1089.0,67.0)" stroke="none" fill="black" font-family="Helvetica" font-size="12.00"  text-anchor="start">
		<text><tspan font-family="Helvetica" >Bootstrap distribution</tspan></text>
	</g>
</g>
<g fill="none" color="black" stroke="currentColor" stroke-width="2.00" stroke-linecap="butt" stroke-linejoin="miter">
	<path stroke='rgb( 31, 120, 180)'  d='M1038.5,63.1 L1080.7,63.1 M80.2,632.8 L82.1,631.5 L83.9,630.1 L85.8,628.6 L87.7,627.1 L89.6,625.5
		L91.4,623.9 L93.3,622.2 L95.2,620.4 L97.0,618.6 L98.9,616.7 L100.8,614.8 L102.6,612.9 L104.5,610.9
		L106.4,608.9 L108.3,606.9 L110.1,604.9 L112.0,602.9 L113.9,600.9 L115.7,599.0 L117.6,597.0 L119.5,595.1
		L121.4,593.2 L123.2,591.3 L125.1,589.4 L127.0,587.6 L128.8,585.8 L130.7,584.0 L132.6,582.2 L134.4,580.4
		L136.3,578.5 L138.2,576.7 L140.1,574.8 L141.9,572.8 L143.8,570.8 L145.7,568.8 L147.5,566.6 L149.4,564.4
		L151.3,562.2 L153.2,559.9 L155.0,557.5 L156.9,555.1 L158.8,552.6 L160.6,550.1 L162.5,547.7 L164.4,545.2
		L166.2,542.7 L168.1,540.3 L170.0,538.0 L171.9,535.7 L173.7,533.5 L175.6,531.4 L177.5,529.3 L179.3,527.4
		L181.2,525.6 L183.1,523.9 L185.0,522.3 L186.8,520.7 L188.7,519.3 L190.6,517.9 L192.4,516.5 L194.3,515.2
		L196.2,513.9 L198.0,512.7 L199.9,511.4 L201.8,510.2 L203.7,508.9 L205.5,507.7 L207.4,506.4 L209.3,505.2
		L211.1,503.9 L213.0,502.7 L214.9,501.6 L216.7,500.5 L218.6,499.4 L220.5,498.4 L222.4,497.6 L224.2,496.8
		L226.1,496.1 L228.0,495.6 L229.8,495.1 L231.7,494.8 L233.6,494.5 L235.5,494.3 L237.3,494.1 L239.2,493.9
		L241.1,493.8 L242.9,493.5 L244.8,493.2 L246.7,492.8 L248.5,492.1 L250.4,491.3 L252.3,490.3 L254.2,489.1
		L256.0,487.5 L257.9,485.7 L259.8,483.6 L261.6,481.3 L263.5,478.7 L265.4,475.8 L267.3,472.8 L269.1,469.6
		L271.0,466.2 L272.9,462.8 L274.7,459.4 L276.6,456.0 L278.5,452.7 L280.3,449.5 L282.2,446.5 L284.1,443.8
		L286.0,441.3 L287.8,439.2 L289.7,437.4 L291.6,435.9 L293.4,434.7 L295.3,433.9 L297.2,433.4 L299.1,433.2
		L300.9,433.2 L302.8,433.4 L304.7,433.7 L306.5,434.1 L308.4,434.5 L310.3,434.9 L312.1,435.2 L314.0,435.3
		L315.9,435.2 L317.8,434.8 L319.6,434.1 L321.5,433.1 L323.4,431.8 L325.2,430.2 L327.1,428.2 L329.0,425.9
		L330.9,423.3 L332.7,420.5 L334.6,417.4 L336.5,414.2 L338.3,410.9 L340.2,407.4 L342.1,404.0 L343.9,400.5
		L345.8,397.2 L347.7,393.9 L349.6,390.7 L351.4,387.7 L353.3,384.8 L355.2,382.0 L357.0,379.4 L358.9,376.9
		L360.8,374.6 L362.7,372.3 L364.5,370.0 L366.4,367.7 L368.3,365.4 L370.1,363.0 L372.0,360.5 L373.9,357.9
		L375.7,355.0 L377.6,352.0 L379.5,348.7 L381.4,345.2 L383.2,341.5 L385.1,337.5 L387.0,333.4 L388.8,329.0
		L390.7,324.5 L392.6,319.9 L394.5,315.1 L396.3,310.3 L398.2,305.5 L400.1,300.8 L401.9,296.1 L403.8,291.5
		L405.7,287.0 L407.5,282.7 L409.4,278.5 L411.3,274.5 L413.2,270.7 L415.0,267.1 L416.9,263.6 L418.8,260.2
		L420.6,257.0 L422.5,253.9 L424.4,250.8 L426.3,247.7 L428.1,244.6 L430.0,241.5 L431.9,238.3 L433.7,235.1
		L435.6,231.7 L437.5,228.2 L439.3,224.7 L441.2,221.0 L443.1,217.2 L445.0,213.3 L446.8,209.4 L448.7,205.5
		L450.6,201.6 L452.4,197.7 L454.3,193.8 L456.2,190.1 L458.0,186.5 L459.9,183.1 L461.8,179.8 L463.7,176.8
		L465.5,173.9 L467.4,171.3 L469.3,168.8 L471.1,166.5 L473.0,164.5 L474.9,162.5 L476.8,160.6 L478.6,158.8
		L480.5,157.0 L482.4,155.2 L484.2,153.3 L486.1,151.2 L488.0,149.0 L489.8,146.6 L491.7,143.9 L493.6,140.9
		L495.5,137.6 L497.3,134.1 L499.2,130.2 L501.1,126.1 L502.9,121.8 L504.8,117.2 L506.7,112.4 L508.6,107.5
		L510.4,102.6 L512.3,97.7 L514.2,92.8 L516.0,88.2 L517.9,83.7 L519.8,79.6 L521.6,75.9 L523.5,72.6
		L525.4,69.7 L527.3,67.5 L529.1,65.8 L531.0,64.7 L532.9,64.3 L534.7,64.4 L536.6,65.2 L538.5,66.6
		L540.4,68.5 L542.2,71.0 L544.1,73.9 L546.0,77.2 L547.8,80.8 L549.7,84.7 L551.6,88.8 L553.4,93.0
		L555.3,97.3 L557.2,101.5 L559.1,105.7 L560.9,109.7 L562.8,113.5 L564.7,117.1 L566.5,120.4 L568.4,123.5
		L570.3,126.2 L572.2,128.7 L574.0,130.9 L575.9,132.8 L577.8,134.5 L579.6,136.0 L581.5,137.4 L583.4,138.7
		L585.2,139.9 L587.1,141.1 L589.0,142.3 L590.9,143.6 L592.7,145.1 L594.6,146.7 L596.5,148.5 L598.3,150.5
		L600.2,152.7 L602.1,155.2 L604.0,157.9 L605.8,160.8 L607.7,163.8 L609.6,167.1 L611.4,170.4 L613.3,173.9
		L615.2,177.4 L617.0,181.0 L618.9,184.5 L620.8,188.0 L622.7,191.5 L624.5,194.8 L626.4,198.1 L628.3,201.2
		L630.1,204.2 L632.0,207.1 L633.9,209.9 L635.8,212.7 L637.6,215.3 L639.5,217.9 L641.4,220.4 L643.2,222.9
		L645.1,225.5 L647.0,228.0 L648.8,230.6 L650.7,233.2 L652.6,235.9 L654.5,238.6 L656.3,241.4 L658.2,244.2
		L660.1,247.0 L661.9,249.8 L663.8,252.7 L665.7,255.4 L667.5,258.1 L669.4,260.7 L671.3,263.2 L673.2,265.6
		L675.0,267.7 L676.9,269.7 L678.8,271.5 L680.6,273.0 L682.5,274.3 L684.4,275.3 L686.3,276.2 L688.1,276.7
		L690.0,277.1 L691.9,277.2 L693.7,277.1 L695.6,276.9 L697.5,276.5 L699.3,275.9 L701.2,275.3 L703.1,274.6
		L705.0,273.8 L706.8,273.0 L708.7,272.2 L710.6,271.4 L712.4,270.7 L714.3,270.0 L716.2,269.3 L718.1,268.7
		L719.9,268.2 L721.8,267.7 L723.7,267.4 L725.5,267.0 L727.4,266.7 L729.3,266.5 L731.1,266.3 L733.0,266.1
		L734.9,265.9 L736.8,265.7 L738.6,265.6 L740.5,265.4 L742.4,265.3 L744.2,265.2 L746.1,265.1 L748.0,265.0
		L749.9,265.0 L751.7,265.1 L753.6,265.3 L755.5,265.6 L757.3,266.0 L759.2,266.6 L761.1,267.4 L762.9,268.4
		L764.8,269.6 L766.7,271.1 L768.6,272.9 L770.4,274.9 L772.3,277.2 L774.2,279.8 L776.0,282.7 L777.9,285.8
		L779.8,289.2 L781.7,292.9 L783.5,296.8 L785.4,300.8 L787.3,305.1 L789.1,309.5 L791.0,313.9 L792.9,318.5
		L794.7,323.2 L796.6,327.8 L798.5,332.5 L800.4,337.1 L802.2,341.6 L804.1,346.1 L806.0,350.5 L807.8,354.8
		L809.7,359.0 L811.6,363.1 L813.5,367.1 L815.3,371.0 L817.2,374.7 L819.1,378.4 L820.9,382.1 L822.8,385.7
		L824.7,389.2 L826.5,392.8 L828.4,396.3 L830.3,399.9 L832.2,403.5 L834.0,407.2 L835.9,411.0 L837.8,414.9
		L839.6,418.8 L841.5,422.9 L843.4,427.0 L845.3,431.3 L847.1,435.6 L849.0,440.0 L850.9,444.5 L852.7,449.0
		L854.6,453.6 L856.5,458.1 L858.3,462.6 L860.2,467.1 L862.1,471.6 L864.0,475.9 L865.8,480.2 L867.7,484.3
		L869.6,488.3 L871.4,492.2 L873.3,496.0 L875.2,499.5 L877.1,503.0 L878.9,506.2 L880.8,509.4 L882.7,512.4
		L884.5,515.2 L886.4,517.9 L888.3,520.6 L890.1,523.1 L892.0,525.5 L893.9,527.9 L895.8,530.2 L897.6,532.4
		L899.5,534.6 L901.4,536.8 L903.2,539.0 L905.1,541.1 L907.0,543.3 L908.8,545.4 L910.7,547.6 L912.6,549.7
		L914.5,551.8 L916.3,554.0 L918.2,556.1 L920.1,558.2 L921.9,560.4 L923.8,562.5 L925.7,564.6 L927.6,566.6
		L929.4,568.7 L931.3,570.8 L933.2,572.8 L935.0,574.8 L936.9,576.8 L938.8,578.7 L940.6,580.6 L942.5,582.5
		L944.4,584.4 L946.3,586.2 L948.1,588.1 L950.0,589.8 L951.9,591.6 L953.7,593.3 L955.6,595.0 L957.5,596.7
		L959.4,598.3 L961.2,599.9 L963.1,601.5 L965.0,603.1 L966.8,604.6 L968.7,606.1 L970.6,607.6 L972.4,609.1
		L974.3,610.6 L976.2,612.1 L978.1,613.5 L979.9,615.0 L981.8,616.4 L983.7,617.8 L985.5,619.2 L987.4,620.5
		L989.3,621.9 L991.2,623.2 L993.0,624.5 L994.9,625.8 L996.8,627.0 L998.6,628.2 L1000.5,629.3 L1002.4,630.4
		L1004.2,631.5 L1006.1,632.5 L1008.0,633.5 L1009.9,634.4 L1011.7,635.2 L1013.6,636.0  '/></g>
	</g>
	<g id="gnuplot_plot_2" ><title>Confidence interval</title>
<g fill="none" color="white" stroke="rgb( 31, 120, 180)" stroke-width="1.00" stroke-linecap="butt" stroke-linejoin="miter">
</g>
<g fill="none" color="black" stroke="currentColor" stroke-width="1.00" stroke-linecap="butt" stroke-linejoin="miter">
	<g transform="translate(1089.0,85.0)" stroke="none" fill="black" font-family="Helvetica" font-size="12.00"  text-anchor="start">
		<text><tspan font-family="Helvetica" >Confidence interval</tspan></text>
	</g>
</g>
<g fill="none" color="black" stroke="currentColor" stroke-width="1.00" stroke-linecap="butt" stroke-linejoin="miter">
	<g stroke='none' shape-rendering='crispEdges'>
		<polygon fill = 'rgb( 31, 120, 180)' fill-opacity = '0.250000' points = '1038.5,85.6 1080.7,85.6 1080.7,76.6 1038.5,76.6 '/>
		<polygon fill = 'rgb( 31, 120, 180)' fill-opacity = '0.250000' points = '166.2,542.7 168.1,540.3 170.0,538.0 171.9,535.7 173.7,533.5 175.6,531.4 177.5,529.3 179.3,527.4 181.2,525.6 183.1,523.9 185.0,522.3 186.8,520.7 188.7,519.3 190.6,517.9 192.4,516.5 194.3,515.2
196.2,513.9 198.0,512.7 199.9,511.4 201.8,510.2 203.7,508.9 205.5,507.7 207.4,506.4 209.3,505.2 211.1,503.9 213.0,502.7 214.9,501.6 216.7,500.5 218.6,499.4 220.5,498.4 222.4,497.6 224.2,496.8
226.1,496.1 228.0,495.6 229.8,495.1 231.7,494.8 233.6,494.5 235.5,494.3 237.3,494.1 239.2,493.9 241.1,493.8 242.9,493.5 244.8,493.2 246.7,492.8 248.5,492.1 250.4,491.3 252.3,490.3 254.2,489.1
256.0,487.5 257.9,485.7 259.8,483.6 261.6,481.3 263.5,478.7 265.4,475.8 267.3,472.8 269.1,469.6 271.0,466.2 272.9,462.8 274.7,459.4 276.6,456.0 278.5,452.7 280.3,449.5 282.2,446.5 284.1,443.8
286.0,441.3 287.8,439.2 289.7,437.4 291.6,435.9 293.4,434.7 295.3,433.9 297.2,433.4 299.1,433.2 300.9,433.2 302.8,433.4 304.7,433.7 306.5,434.1 308.4,434.5 310.3,434.9 312.1,435.2 314.0,435.3
315.9,435.2 317.8,434.8 319.6,434.1 321.5,433.1 323.4,431.8 325.2,430.2 327.1,428.2 329.0,425.9 330.9,423.3 332.7,420.5 334.6,417.4 336.5,414.2 338.3,410.9 340.2,407.4 342.1,404.0 343.9,400.5
345.8,397.2 347.7,393.9 349.6,390.7 351.4,387.7 353.3,384.8 355.2,382.0 357.0,379.4 358.9,376.9 360.8,374.6 362.7,372.3 364.5,370.0 366.4,367.7 368.3,365.4 370.1,363.0 372.0,360.5 373.9,357.9
375.7,355.0 377.6,352.0 379.5,348.7 381.4,345.2 383.2,341.5 385.1,337.5 387.0,333.4 388.8,329.0 390.7,324.5 392.6,319.9 394.5,315.1 396.3,310.3 398.2,305.5 400.1,300.8 401.9,296.1 403.8,291.5
405.7,287.0 407.5,282.7 409.4,278.5 411.3,274.5 413.2,270.7 415.0,267.1 416.9,263.6 418.8,260.2 420.6,257.0 422.5,253.9 424.4,250.8 426.3,247.7 428.1,244.6 430.0,241.5 431.9,238.3 433.7,235.1
435.6,231.7 437.5,228.2 439.3,224.7 441.2,221.0 443.1,217.2 445.0,213.3 446.8,209.4 448.7,205.5 450.6,201.6 452.4,197.7 454.3,193.8 456.2,190.1 458.0,186.5 459.9,183.1 461.8,179.8 463.7,176.8
465.5,173.9 467.4,171.3 469.3,168.8 471.1,166.5 473.0,164.5 474.9,162.5 476.8,160.6 478.6,158.8 480.5,157.0 482.4,155.2 484.2,153.3 486.1,151.2 488.0,149.0 489.8,146.6 491.7,143.9 493.6,140.9
495.5,137.6 497.3,134.1 499.2,130.2 501.1,126.1 502.9,121.8 504.8,117.2 506.7,112.4 508.6,107.5 510.4,102.6 512.3,97.7 514.2,92.8 516.0,88.2 517.9,83.7 519.8,79.6 521.6,75.9 523.5,72.6
525.4,69.7 527.3,67.5 529.1,65.8 531.0,64.7 532.9,64.3 534.7,64.4 536.6,65.2 538.5,66.6 540.4,68.5 542.2,71.0 544.1,73.9 546.0,77.2 547.8,80.8 549.7,84.7 551.6,88.8 553.4,93.0
555.3,97.3 557.2,101.5 559.1,105.7 560.9,109.7 562.8,113.5 564.7,117.1 566.5,120.4 568.4,123.5 570.3,126.2 572.2,128.7 574.0,130.9 575.9,132.8 577.8,134.5 579.6,136.0 581.5,137.4 583.4,138.7
585.2,139.9 587.1,141.1 589.0,142.3 590.9,143.6 592.7,145.1 594.6,146.7 596.5,148.5 598.3,150.5 600.2,152.7 602.1,155.2 604.0,157.9 605.8,160.8 607.7,163.8 609.6,167.1 611.4,170.4 613.3,173.9
615.2,177.4 617.0,181.0 618.9,184.5 620.8,188.0 622.7,191.5 624.5,194.8 626.4,198.1 628.3,201.2 630.1,204.2 632.0,207.1 633.9,209.9 635.8,212.7 637.6,215.3 639.5,217.9 641.4,220.4 643.2,222.9
645.1,225.5 647.0,228.0 648.8,230.6 650.7,233.2 652.6,235.9 654.5,238.6 656.3,241.4 658.2,244.2 660.1,247.0 661.9,249.8 663.8,252.7 665.7,255.4 667.5,258.1 669.4,260.7 671.3,263.2 673.2,265.6
675.0,267.7 676.9,269.7 678.8,271.5 680.6,273.0 682.5,274.3 684.4,275.3 686.3,276.2 688.1,276.7 690.0,277.1 691.9,277.2 693.7,277.1 695.6,276.9 697.5,276.5 699.3,275.9 701.2,275.3 703.1,274.6
705.0,273.8 706.8,273.0 708.7,272.2 710.6,271.4 712.4,270.7 714.3,270.0 716.2,269.3 718.1,268.7 719.9,268.2 721.8,267.7 723.7,267.4 725.5,267.0 727.4,266.7 729.3,266.5 731.1,266.3 733.0,266.1
734.9,265.9 736.8,265.7 738.6,265.6 740.5,265.4 742.4,265.3 744.2,265.2 746.1,265.1 748.0,265.0 749.9,265.0 751.7,265.1 753.6,265.3 755.5,265.6 757.3,266.0 759.2,266.6 761.1,267.4 762.9,268.4
764.8,269.6 766.7,271.1 768.6,272.9 770.4,274.9 772.3,277.2 774.2,279.8 776.0,282.7 777.9,285.8 779.8,289.2 781.7,292.9 783.5,296.8 785.4,300.8 787.3,305.1 789.1,309.5 791.0,313.9 792.9,318.5
794.7,323.2 796.6,327.8 798.5,332.5 800.4,337.1 802.2,341.6 804.1,346.1 806.0,350.5 807.8,354.8 809.7,359.0 811.6,363.1 813.5,367.1 815.3,371.0 817.2,374.7 819.1,378.4 820.9,382.1 822.8,385.7
824.7,389.2 826.5,392.8 828.4,396.3 830.3,399.9 832.2,403.5 834.0,407.2 835.9,411.0 837.8,414.9 839.6,418.8 841.5,422.9 843.4,427.0 845.3,431.3 847.1,435.6 849.0,440.0 850.9,444.5 852.7,449.0
854.6,453.6 856.5,458.1 858.3,462.6 860.2,467.1 862.1,471.6 864.0,475.9 865.8,480.2 867.7,484.3 869.6,488.3 871.4,492.2 873.3,496.0 875.2,499.5 877.1,503.0 878.9,506.2 880.8,509.4 882.7,512.4
884.5,515.2 886.4,517.9 888.3,520.6 890.1,523.1 892.0,525.5 893.9,527.9 895.8,530.2 897.6,532.4 899.5,534.6 901.4,536.8 903.2,539.0 905.1,541.1 907.0,543.3 908.8,545.4 910.7,547.6 912.6,549.7
914.5,551.8 916.3,554.0 918.2,556.1 920.1,558.2 921.9,560.4 923.8,562.5 925.7,564.6 925.7,662.4 923.8,662.4 921.9,662.4 920.1,662.4 918.2,662.4 916.3,662.4 914.5,662.4 912.6,662.4 910.7,662.4
908.8,662.4 907.0,662.4 905.1,662.4 903.2,662.4 901.4,662.4 899.5,662.4 897.6,662.4 895.8,662.4 893.9,662.4 892.0,662.4 890.1,662.4 888.3,662.4 886.4,662.4 884.5,662.4 882.7,662.4 880.8,662.4
878.9,662.4 877.1,662.4 875.2,662.4 873.3,662.4 871.4,662.4 869.6,662.4 867.7,662.4 865.8,662.4 864.0,662.4 862.1,662.4 860.2,662.4 858.3,662.4 856.5,662.4 854.6,662.4 852.7,662.4 850.9,662.4
849.0,662.4 847.1,662.4 845.3,662.4 843.4,662.4 841.5,662.4 839.6,662.4 837.8,662.4 835.9,662.4 834.0,662.4 832.2,662.4 830.3,662.4 828.4,662.4 826.5,662.4 824.7,662.4 822.8,662.4 820.9,662.4
819.1,662.4 817.2,662.4 815.3,662.4 813.5,662.4 811.6,662.4 809.7,662.4 807.8,662.4 806.0,662.4 804.1,662.4 802.2,662.4 800.4,662.4 798.5,662.4 796.6,662.4 794.7,662.4 792.9,662.4 791.0,662.4
789.1,662.4 787.3,662.4 785.4,662.4 783.5,662.4 781.7,662.4 779.8,662.4 777.9,662.4 776.0,662.4 774.2,662.4 772.3,662.4 770.4,662.4 768.6,662.4 766.7,662.4 764.8,662.4 762.9,662.4 761.1,662.4
759.2,662.4 757.3,662.4 755.5,662.4 753.6,662.4 751.7,662.4 749.9,662.4 748.0,662.4 746.1,662.4 744.2,662.4 742.4,662.4 740.5,662.4 738.6,662.4 736.8,662.4 734.9,662.4 733.0,662.4 731.1,662.4
729.3,662.4 727.4,662.4 725.5,662.4 723.7,662.4 721.8,662.4 719.9,662.4 718.1,662.4 716.2,662.4 714.3,662.4 712.4,662.4 710.6,662.4 708.7,662.4 706.8,662.4 705.0,662.4 703.1,662.4 701.2,662.4
699.3,662.4 697.5,662.4 695.6,662.4 693.7,662.4 691.9,662.4 690.0,662.4 688.1,662.4 686.3,662.4 684.4,662.4 682.5,662.4 680.6,662.4 678.8,662.4 676.9,662.4 675.0,662.4 673.2,662.4 671.3,662.4
669.4,662.4 667.5,662.4 665.7,662.4 663.8,662.4 661.9,662.4 660.1,662.4 658.2,662.4 656.3,662.4 654.5,662.4 652.6,662.4 650.7,662.4 648.8,662.4 647.0,662.4 645.1,662.4 643.2,662.4 641.4,662.4
639.5,662.4 637.6,662.4 635.8,662.4 633.9,662.4 632.0,662.4 630.1,662.4 628.3,662.4 626.4,662.4 624.5,662.4 622.7,662.4 620.8,662.4 618.9,662.4 617.0,662.4 615.2,662.4 613.3,662.4 611.4,662.4
609.6,662.4 607.7,662.4 605.8,662.4 604.0,662.4 602.1,662.4 600.2,662.4 598.3,662.4 596.5,662.4 594.6,662.4 592.7,662.4 590.9,662.4 589.0,662.4 587.1,662.4 585.2,662.4 583.4,662.4 581.5,662.4
579.6,662.4 577.8,662.4 575.9,662.4 574.0,662.4 572.2,662.4 570.3,662.4 568.4,662.4 566.5,662.4 564.7,662.4 562.8,662.4 560.9,662.4 559.1,662.4 557.2,662.4 555.3,662.4 553.4,662.4 551.6,662.4
549.7,662.4 547.8,662.4 546.0,662.4 544.1,662.4 542.2,662.4 540.4,662.4 538.5,662.4 536.6,662.4 534.7,662.4 532.9,662.4 531.0,662.4 529.1,662.4 527.3,662.4 525.4,662.4 523.5,662.4 521.6,662.4
519.8,662.4 517.9,662.4 516.0,662.4 514.2,662.4 512.3,662.4 510.4,662.4 508.6,662.4 506.7,662.4 504.8,662.4 502.9,662.4 501.1,662.4 499.2,662.4 497.3,662.4 495.5,662.4 493.6,662.4 491.7,662.4
489.8,662.4 488.0,662.4 486.1,662.4 484.2,662.4 482.4,662.4 480.5,662.4 478.6,662.4 476.8,662.4 474.9,662.4 473.0,662.4 471.1,662.4 469.3,662.4 467.4,662.4 465.5,662.4 463.7,662.4 461.8,662.4
459.9,662.4 458.0,662.4 456.2,662.4 454.3,662.4 452.4,662.4 450.6,662.4 448.7,662.4 446.8,662.4 445.0,662.4 443.1,662.4 441.2,662.4 439.3,662.4 437.5,662.4 435.6,662.4 433.7,662.4 431.9,662.4
430.0,662.4 428.1,662.4 426.3,662.4 424.4,662.4 422.5,662.4 420.6,662.4 418.8,662.4 416.9,662.4 415.0,662.4 413.2,662.4 411.3,662.4 409.4,662.4 407.5,662.4 405.7,662.4 403.8,662.4 401.9,662.4
400.1,662.4 398.2,662.4 396.3,662.4 394.5,662.4 392.6,662.4 390.7,662.4 388.8,662.4 387.0,662.4 385.1,662.4 383.2,662.4 381.4,662.4 379.5,662.4 377.6,662.4 375.7,662.4 373.9,662.4 372.0,662.4
370.1,662.4 368.3,662.4 366.4,662.4 364.5,662.4 362.7,662.4 360.8,662.4 358.9,662.4 357.0,662.4 355.2,662.4 353.3,662.4 351.4,662.4 349.6,662.4 347.7,662.4 345.8,662.4 343.9,662.4 342.1,662.4
340.2,662.4 338.3,662.4 336.5,662.4 334.6,662.4 332.7,662.4 330.9,662.4 329.0,662.4 327.1,662.4 325.2,662.4 323.4,662.4 321.5,662.4 319.6,662.4 317.8,662.4 315.9,662.4 314.0,662.4 312.1,662.4
310.3,662.4 308.4,662.4 306.5,662.4 304.7,662.4 302.8,662.4 300.9,662.4 299.1,662.4 297.2,662.4 295.3,662.4 293.4,662.4 291.6,662.4 289.7,662.4 287.8,662.4 286.0,662.4 284.1,662.4 282.2,662.4
280.3,662.4 278.5,662.4 276.6,662.4 274.7,662.4 272.9,662.4 271.0,662.4 269.1,662.4 267.3,662.4 265.4,662.4 263.5,662.4 261.6,662.4 259.8,662.4 257.9,662.4 256.0,662.4 254.2,662.4 252.3,662.4
250.4,662.4 248.5,662.4 246.7,662.4 244.8,662.4 242.9,662.4 241.1,662.4 239.2,662.4 237.3,662.4 235.5,662.4 233.6,662.4 231.7,662.4 229.8,662.4 228.0,662.4 226.1,662.4 224.2,662.4 222.4,662.4
220.5,662.4 218.6,662.4 216.7,662.4 214.9,662.4 213.0,662.4 211.1,662.4 209.3,662.4 207.4,662.4 205.5,662.4 203.7,662.4 201.8,662.4 199.9,662.4 198.0,662.4 196.2,662.4 194.3,662.4 192.4,662.4
190.6,662.4 188.7,662.4 186.8,662.4 185.0,662.4 183.1,662.4 181.2,662.4 179.3,662.4 177.5,662.4 175.6,662.4 173.7,662.4 171.9,662.4 170.0,662.4 168.1,662.4 166.2,662.4 '/>
	</g>
</g>
	</g>
	<g id="gnuplot_plot_3" ><title>Point estimate</title>
<g fill="none" color="white" stroke="rgb( 31, 120, 180)" stroke-width="2.00" stroke-linecap="butt" stroke-linejoin="miter">
</g>
<g fill="none" color="black" stroke="currentColor" stroke-width="2.00" stroke-linecap="butt" stroke-linejoin="miter">
	<g transform="translate(1089.0,103.0)" stroke="none" fill="black" font-family="Helvetica" font-size="12.00"  text-anchor="start">
		<text><tspan font-family="Helvetica" >Point estimate</tspan></text>
	</g>
</g>
<g fill="none" color="black" stroke="currentColor" stroke-width="2.00" stroke-linecap="butt" stroke-linejoin="miter">
	<path stroke='rgb( 31, 120, 180)'  d='M1038.5,99.1 L1080.7,99.1 M589.4,662.4 L589.4,142.6  '/></g>
	</g>
	<g id="gnuplot_plot_4" ><title>Noise threshold</title>
<g fill="none" color="white" stroke="rgb( 31, 120, 180)" stroke-width="1.00" stroke-linecap="butt" stroke-linejoin="miter">
</g>
<g fill="none" color="black" stroke="currentColor" stroke-width="1.00" stroke-linecap="butt" stroke-linejoin="miter">
	<g transform="translate(1089.0,121.0)" stroke="none" fill="black" font-family="Helvetica" font-size="12.00"  text-anchor="start">
		<text><tspan font-family="Helvetica" >Noise threshold</tspan></text>
	</g>
</g>
<g fill="none" color="black" stroke="currentColor" stroke-width="1.00" stroke-linecap="butt" stroke-linejoin="miter">
	<g stroke='none' shape-rendering='crispEdges'>
		<polygon fill = 'rgb(227,  26,  28)' fill-opacity = '0.100000' points = '1038.5,121.6 1080.7,121.6 1080.7,112.6 1038.5,112.6 '/>
		<polygon fill = 'rgb(227,  26,  28)' fill-opacity = '0.100000' points = '80.2,54.1 1013.6,54.1 1013.6,662.4 80.2,662.4 '/>
	</g>
</g>
	</g>
<g fill="none" color="white" stroke="rgb(227,  26,  28)" stroke-width="2.00" stroke-linecap="butt" stroke-linejoin="miter">
</g>
<g fill="none" color="black" stroke="currentColor" stroke-width="2.00" stroke-linecap="butt" stroke-linejoin="miter">
</g>
<g fill="none" color="black" stroke="black" stroke-width="1.00" stroke-linecap="butt" stroke-linejoin="miter">
</g>
<g fill="none" color="black" stroke="currentColor" stroke-width="1.00" stroke-linecap="butt" stroke-linejoin="miter">
	<path stroke='black'  d='M80.2,54.1 L80.2,662.4 L1013.6,662.4 L1013.6,54.1 L80.2,54.1 Z  '/></g>
<g fill="none" color="black" stroke="currentColor" stroke-width="1.00" stroke-linecap="butt" stroke-linejoin="miter">
</g>
</g>
</svg>

