<?xml version="1.0" encoding="utf-8"  standalone="no"?>
<svg 
 viewBox="0 0 1280 720"
 xmlns="http://www.w3.org/2000/svg"
 xmlns:xlink="http://www.w3.org/1999/xlink"
>

<title>Gnuplot</title>
<desc>Produced by GNUPLOT 5.2 patchlevel 8 </desc>

<g id="gnuplot_canvas">

<rect x="0" y="0" width="1280" height="720" fill="none"/>
<defs>

	<circle id='gpDot' r='0.5' stroke-width='0.5' stroke='currentColor'/>
	<path id='gpPt0' stroke-width='0.222' stroke='currentColor' d='M-1,0 h2 M0,-1 v2'/>
	<path id='gpPt1' stroke-width='0.222' stroke='currentColor' d='M-1,-1 L1,1 M1,-1 L-1,1'/>
	<path id='gpPt2' stroke-width='0.222' stroke='currentColor' d='M-1,0 L1,0 M0,-1 L0,1 M-1,-1 L1,1 M-1,1 L1,-1'/>
	<rect id='gpPt3' stroke-width='0.222' stroke='currentColor' x='-1' y='-1' width='2' height='2'/>
	<rect id='gpPt4' stroke-width='0.222' stroke='currentColor' fill='currentColor' x='-1' y='-1' width='2' height='2'/>
	<circle id='gpPt5' stroke-width='0.222' stroke='currentColor' cx='0' cy='0' r='1'/>
	<use xlink:href='#gpPt5' id='gpPt6' fill='currentColor' stroke='none'/>
	<path id='gpPt7' stroke-width='0.222' stroke='currentColor' d='M0,-1.33 L-1.33,0.67 L1.33,0.67 z'/>
	<use xlink:href='#gpPt7' id='gpPt8' fill='currentColor' stroke='none'/>
	<use xlink:href='#gpPt7' id='gpPt9' stroke='currentColor' transform='rotate(180)'/>
	<use xlink:href='#gpPt9' id='gpPt10' fill='currentColor' stroke='none'/>
	<use xlink:href='#gpPt3' id='gpPt11' stroke='currentColor' transform='rotate(45)'/>
	<use xlink:href='#gpPt11' id='gpPt12' fill='currentColor' stroke='none'/>
	<path id='gpPt13' stroke-width='0.222' stroke='currentColor' d='M0,1.330 L1.265,0.411 L0.782,-1.067 L-0.782,-1.076 L-1.265,0.411 z'/>
	<use xlink:href='#gpPt13' id='gpPt14' fill='currentColor' stroke='none'/>
	<filter id='textbox' filterUnits='objectBoundingBox' x='0' y='0' height='1' width='1'>
	  <feFlood flood-color='white' flood-opacity='1' result='bgnd'/>
	  <feComposite in='SourceGraphic' in2='bgnd' operator='atop'/>
	</filter>
	<filter id='greybox' filterUnits='objectBoundingBox' x='0' y='0' height='1' width='1'>
	  <feFlood flood-color='lightgrey' flood-opacity='1' result='grey'/>
	  <feComposite in='SourceGraphic' in2='grey' operator='atop'/>
	</filter>
</defs>
<g fill="none" color="white" stroke="currentColor" stroke-width="1.00" stroke-linecap="butt" stroke-linejoin="miter">
</g>
<g fill="none" color="black" stroke="currentColor" stroke-width="1.00" stroke-linecap="butt" stroke-linejoin="miter">
	<path stroke='black'  d='M88.5,662.4 L97.5,662.4  '/>	<g transform="translate(80.2,666.3)" stroke="none" fill="black" font-family="Helvetica" font-size="12.00"  text-anchor="end">
		<text><tspan font-family="Helvetica" > 0</tspan></text>
	</g>
</g>
<g fill="none" color="black" stroke="currentColor" stroke-width="1.00" stroke-linecap="butt" stroke-linejoin="miter">
	<path stroke='black'  d='M88.5,575.5 L97.5,575.5  '/>	<g transform="translate(80.2,579.4)" stroke="none" fill="black" font-family="Helvetica" font-size="12.00"  text-anchor="end">
		<text><tspan font-family="Helvetica" > 0.001</tspan></text>
	</g>
</g>
<g fill="none" color="black" stroke="currentColor" stroke-width="1.00" stroke-linecap="butt" stroke-linejoin="miter">
	<path stroke='black'  d='M88.5,488.6 L97.5,488.6  '/>	<g transform="translate(80.2,492.5)" stroke="none" fill="black" font-family="Helvetica" font-size="12.00"  text-anchor="end">
		<text><tspan font-family="Helvetica" > 0.002</tspan></text>
	</g>
</g>
<g fill="none" color="black" stroke="currentColor" stroke-width="1.00" stroke-linecap="butt" stroke-linejoin="miter">
	<path stroke='black'  d='M88.5,401.7 L97.5,401.7  '/>	<g transform="translate(80.2,405.6)" stroke="none" fill="black" font-family="Helvetica" font-size="12.00"  text-anchor="end">
		<text><tspan font-family="Helvetica" > 0.003</tspan></text>
	</g>
</g>
<g fill="none" color="black" stroke="currentColor" stroke-width="1.00" stroke-linecap="butt" stroke-linejoin="miter">
	<path stroke='black'  d='M88.5,314.8 L97.5,314.8  '/>	<g transform="translate(80.2,318.7)" stroke="none" fill="black" font-family="Helvetica" font-size="12.00"  text-anchor="end">
		<text><tspan font-family="Helvetica" > 0.004</tspan></text>
	</g>
</g>
<g fill="none" color="black" stroke="currentColor" stroke-width="1.00" stroke-linecap="butt" stroke-linejoin="miter">
	<path stroke='black'  d='M88.5,227.9 L97.5,227.9  '/>	<g transform="translate(80.2,231.8)" stroke="none" fill="black" font-family="Helvetica" font-size="12.00"  text-anchor="end">
		<text><tspan font-family="Helvetica" > 0.005</tspan></text>
	</g>
</g>
<g fill="none" color="black" stroke="currentColor" stroke-width="1.00" stroke-linecap="butt" stroke-linejoin="miter">
	<path stroke='black'  d='M88.5,141.0 L97.5,141.0  '/>	<g transform="translate(80.2,144.9)" stroke="none" fill="black" font-family="Helvetica" font-size="12.00"  text-anchor="end">
		<text><tspan font-family="Helvetica" > 0.006</tspan></text>
	</g>
</g>
<g fill="none" color="black" stroke="currentColor" stroke-width="1.00" stroke-linecap="butt" stroke-linejoin="miter">
	<path stroke='black'  d='M88.5,54.1 L97.5,54.1  '/>	<g transform="translate(80.2,58.0)" stroke="none" fill="black" font-family="Helvetica" font-size="12.00"  text-anchor="end">
		<text><tspan font-family="Helvetica" > 0.007</tspan></text>
	</g>
</g>
<g fill="none" color="black" stroke="currentColor" stroke-width="1.00" stroke-linecap="butt" stroke-linejoin="miter">
	<path stroke='black'  d='M193.9,662.4 L193.9,653.4  '/>	<g transform="translate(193.9,684.3)" stroke="none" fill="black" font-family="Helvetica" font-size="12.00"  text-anchor="middle">
		<text><tspan font-family="Helvetica" > 250</tspan></text>
	</g>
</g>
<g fill="none" color="black" stroke="currentColor" stroke-width="1.00" stroke-linecap="butt" stroke-linejoin="miter">
	<path stroke='black'  d='M352.1,662.4 L352.1,653.4  '/>	<g transform="translate(352.1,684.3)" stroke="none" fill="black" font-family="Helvetica" font-size="12.00"  text-anchor="middle">
		<text><tspan font-family="Helvetica" > 300</tspan></text>
	</g>
</g>
<g fill="none" color="black" stroke="currentColor" stroke-width="1.00" stroke-linecap="butt" stroke-linejoin="miter">
	<path stroke='black'  d='M510.3,662.4 L510.3,653.4  '/>	<g transform="translate(510.3,684.3)" stroke="none" fill="black" font-family="Helvetica" font-size="12.00"  text-anchor="middle">
		<text><tspan font-family="Helvetica" > 350</tspan></text>
	</g>
</g>
<g fill="none" color="black" stroke="currentColor" stroke-width="1.00" stroke-linecap="butt" stroke-linejoin="miter">
	<path stroke='black'  d='M668.5,662.4 L668.5,653.4  '/>	<g transform="translate(668.5,684.3)" stroke="none" fill="black" font-family="Helvetica" font-size="12.00"  text-anchor="middle">
		<text><tspan font-family="Helvetica" > 400</tspan></text>
	</g>
</g>
<g fill="none" color="black" stroke="currentColor" stroke-width="1.00" stroke-linecap="butt" stroke-linejoin="miter">
	<path stroke='black'  d='M826.7,662.4 L826.7,653.4  '/>	<g transform="translate(826.7,684.3)" stroke="none" fill="black" font-family="Helvetica" font-size="12.00"  text-anchor="middle">
		<text><tspan font-family="Helvetica" > 450</tspan></text>
	</g>
</g>
<g fill="none" color="black" stroke="currentColor" stroke-width="1.00" stroke-linecap="butt" stroke-linejoin="miter">
	<path stroke='black'  d='M984.9,662.4 L984.9,653.4  '/>	<g transform="translate(984.9,684.3)" stroke="none" fill="black" font-family="Helvetica" font-size="12.00"  text-anchor="middle">
		<text><tspan font-family="Helvetica" > 500</tspan></text>
	</g>
</g>
<g fill="none" color="black" stroke="currentColor" stroke-width="1.00" stroke-linecap="butt" stroke-linejoin="miter">
</g>
<g fill="none" color="black" stroke="currentColor" stroke-width="1.00" stroke-linecap="butt" stroke-linejoin="miter">
	<path stroke='black'  d='M88.5,54.1 L88.5,662.4 L1013.6,662.4 L1013.6,54.1 L88.5,54.1 Z  '/></g>
<g fill="none" color="black" stroke="currentColor" stroke-width="1.00" stroke-linecap="butt" stroke-linejoin="miter">
	<g transform="translate(19.0,358.3) rotate(270)" stroke="none" fill="black" font-family="Helvetica" font-size="12.00"  text-anchor="middle">
		<text><tspan font-family="Helvetica" >Density (a.u.)</tspan></text>
	</g>
</g>
<g fill="none" color="black" stroke="currentColor" stroke-width="1.00" stroke-linecap="butt" stroke-linejoin="miter">
	<g transform="translate(551.0,711.3)" stroke="none" fill="black" font-family="Helvetica" font-size="12.00"  text-anchor="middle">
		<text><tspan font-family="Helvetica" >Average time (ps)</tspan></text>
	</g>
</g>
<g fill="none" color="black" stroke="currentColor" stroke-width="1.00" stroke-linecap="butt" stroke-linejoin="miter">
	<g transform="translate(551.0,31.0)" stroke="none" fill="black" font-family="Helvetica" font-size="12.00"  text-anchor="middle">
		<text><tspan font-family="Helvetica" >bench_group/blake3/640: MAD</tspan></text>
	</g>
</g>
<g fill="none" color="black" stroke="currentColor" stroke-width="1.00" stroke-linecap="butt" stroke-linejoin="miter">
</g>
	<g id="gnuplot_plot_1" ><title>Bootstrap distribution</title>
<g fill="none" color="white" stroke="currentColor" stroke-width="2.00" stroke-linecap="butt" stroke-linejoin="miter">
</g>
<g fill="none" color="black" stroke="currentColor" stroke-width="2.00" stroke-linecap="butt" stroke-linejoin="miter">
	<g transform="translate(1089.0,67.0)" stroke="none" fill="black" font-family="Helvetica" font-size="12.00"  text-anchor="start">
		<text><tspan font-family="Helvetica" >Bootstrap distribution</tspan></text>
	</g>
</g>
<g fill="none" color="black" stroke="currentColor" stroke-width="2.00" stroke-linecap="butt" stroke-linejoin="miter">
	<path stroke='rgb( 31, 120, 180)'  d='M1038.5,63.1 L1080.7,63.1 M88.5,631.8 L90.4,631.0 L92.2,630.1 L94.1,629.2 L95.9,628.2 L97.8,627.2
		L99.6,626.2 L101.5,625.1 L103.3,623.9 L105.2,622.6 L107.0,621.3 L108.9,619.9 L110.7,618.3 L112.6,616.7
		L114.5,615.1 L116.3,613.3 L118.2,611.4 L120.0,609.4 L121.9,607.4 L123.7,605.3 L125.6,603.1 L127.4,600.9
		L129.3,598.5 L131.1,596.2 L133.0,593.8 L134.8,591.3 L136.7,588.8 L138.6,586.3 L140.4,583.7 L142.3,581.2
		L144.1,578.6 L146.0,576.0 L147.8,573.4 L149.7,570.8 L151.5,568.2 L153.4,565.7 L155.2,563.2 L157.1,560.7
		L158.9,558.3 L160.8,556.0 L162.7,553.7 L164.5,551.5 L166.4,549.5 L168.2,547.5 L170.1,545.7 L171.9,544.0
		L173.8,542.5 L175.6,541.1 L177.5,539.9 L179.3,538.8 L181.2,537.9 L183.0,537.1 L184.9,536.4 L186.8,535.8
		L188.6,535.4 L190.5,535.0 L192.3,534.6 L194.2,534.3 L196.0,534.0 L197.9,533.7 L199.7,533.4 L201.6,533.0
		L203.4,532.4 L205.3,531.8 L207.2,531.0 L209.0,530.0 L210.9,528.9 L212.7,527.5 L214.6,525.8 L216.4,524.0
		L218.3,521.8 L220.1,519.4 L222.0,516.7 L223.8,513.8 L225.7,510.5 L227.5,507.0 L229.4,503.3 L231.3,499.3
		L233.1,495.1 L235.0,490.8 L236.8,486.3 L238.7,481.7 L240.5,477.1 L242.4,472.5 L244.2,467.9 L246.1,463.4
		L247.9,459.0 L249.8,454.8 L251.6,450.8 L253.5,447.0 L255.4,443.4 L257.2,440.2 L259.1,437.2 L260.9,434.5
		L262.8,432.0 L264.6,429.8 L266.5,427.8 L268.3,426.0 L270.2,424.4 L272.0,422.8 L273.9,421.3 L275.7,419.8
		L277.6,418.3 L279.5,416.6 L281.3,414.8 L283.2,412.8 L285.0,410.6 L286.9,408.1 L288.7,405.4 L290.6,402.3
		L292.4,398.9 L294.3,395.1 L296.1,391.1 L298.0,386.7 L299.8,382.0 L301.7,377.0 L303.6,371.7 L305.4,366.3
		L307.3,360.6 L309.1,354.8 L311.0,348.8 L312.8,342.7 L314.7,336.6 L316.5,330.4 L318.4,324.2 L320.2,318.0
		L322.1,311.9 L323.9,305.8 L325.8,299.7 L327.7,293.7 L329.5,287.7 L331.4,281.8 L333.2,276.0 L335.1,270.2
		L336.9,264.4 L338.8,258.6 L340.6,252.8 L342.5,247.1 L344.3,241.3 L346.2,235.6 L348.0,229.9 L349.9,224.2
		L351.8,218.5 L353.6,212.8 L355.5,207.3 L357.3,201.8 L359.2,196.4 L361.0,191.2 L362.9,186.1 L364.7,181.2
		L366.6,176.5 L368.4,172.1 L370.3,168.0 L372.1,164.1 L374.0,160.6 L375.9,157.3 L377.7,154.4 L379.6,151.8
		L381.4,149.5 L383.3,147.5 L385.1,145.8 L387.0,144.3 L388.8,143.1 L390.7,142.2 L392.5,141.4 L394.4,140.7
		L396.2,140.2 L398.1,139.8 L400.0,139.4 L401.8,139.1 L403.7,138.9 L405.5,138.6 L407.4,138.3 L409.2,137.9
		L411.1,137.6 L412.9,137.2 L414.8,136.8 L416.6,136.3 L418.5,135.9 L420.3,135.4 L422.2,135.0 L424.1,134.5
		L425.9,134.2 L427.8,133.9 L429.6,133.8 L431.5,133.7 L433.3,133.8 L435.2,134.1 L437.0,134.6 L438.9,135.2
		L440.7,136.0 L442.6,137.0 L444.5,138.2 L446.3,139.6 L448.2,141.1 L450.0,142.8 L451.9,144.7 L453.7,146.7
		L455.6,148.8 L457.4,151.0 L459.3,153.3 L461.1,155.7 L463.0,158.1 L464.8,160.5 L466.7,163.0 L468.6,165.5
		L470.4,168.0 L472.3,170.4 L474.1,172.9 L476.0,175.4 L477.8,177.8 L479.7,180.2 L481.5,182.7 L483.4,185.1
		L485.2,187.6 L487.1,190.1 L488.9,192.6 L490.8,195.2 L492.7,197.8 L494.5,200.5 L496.4,203.3 L498.2,206.3
		L500.1,209.3 L501.9,212.5 L503.8,215.7 L505.6,219.1 L507.5,222.7 L509.3,226.3 L511.2,230.0 L513.0,233.7
		L514.9,237.5 L516.8,241.3 L518.6,245.0 L520.5,248.6 L522.3,252.1 L524.2,255.3 L526.0,258.3 L527.9,260.9
		L529.7,263.2 L531.6,265.0 L533.4,266.2 L535.3,267.0 L537.1,267.1 L539.0,266.6 L540.9,265.5 L542.7,263.7
		L544.6,261.2 L546.4,258.0 L548.3,254.2 L550.1,249.8 L552.0,244.8 L553.8,239.2 L555.7,233.2 L557.5,226.7
		L559.4,219.9 L561.2,212.8 L563.1,205.5 L565.0,198.1 L566.8,190.7 L568.7,183.3 L570.5,176.0 L572.4,169.0
		L574.2,162.2 L576.1,155.6 L577.9,149.5 L579.8,143.7 L581.6,138.3 L583.5,133.3 L585.3,128.7 L587.2,124.6
		L589.1,120.8 L590.9,117.3 L592.8,114.3 L594.6,111.5 L596.5,109.0 L598.3,106.7 L600.2,104.7 L602.0,102.9
		L603.9,101.2 L605.7,99.7 L607.6,98.4 L609.4,97.2 L611.3,96.1 L613.2,95.2 L615.0,94.4 L616.9,93.7
		L618.7,93.2 L620.6,92.9 L622.4,92.7 L624.3,92.7 L626.1,92.9 L628.0,93.3 L629.8,93.8 L631.7,94.6
		L633.5,95.5 L635.4,96.7 L637.3,98.1 L639.1,99.7 L641.0,101.5 L642.8,103.6 L644.7,105.9 L646.5,108.4
		L648.4,111.1 L650.2,114.0 L652.1,117.2 L653.9,120.6 L655.8,124.1 L657.6,127.8 L659.5,131.7 L661.4,135.8
		L663.2,139.9 L665.1,144.1 L666.9,148.4 L668.8,152.8 L670.6,157.1 L672.5,161.5 L674.3,165.8 L676.2,170.1
		L678.0,174.4 L679.9,178.7 L681.8,182.9 L683.6,187.1 L685.5,191.2 L687.3,195.4 L689.2,199.5 L691.0,203.7
		L692.9,207.9 L694.7,212.1 L696.6,216.4 L698.4,220.7 L700.3,225.1 L702.1,229.6 L704.0,234.0 L705.9,238.6
		L707.7,243.1 L709.6,247.7 L711.4,252.2 L713.3,256.8 L715.1,261.3 L717.0,265.7 L718.8,270.1 L720.7,274.4
		L722.5,278.7 L724.4,282.8 L726.2,286.9 L728.1,290.9 L730.0,294.8 L731.8,298.7 L733.7,302.5 L735.5,306.3
		L737.4,310.0 L739.2,313.8 L741.1,317.5 L742.9,321.3 L744.8,325.1 L746.6,328.9 L748.5,332.8 L750.3,336.7
		L752.2,340.6 L754.1,344.6 L755.9,348.6 L757.8,352.7 L759.6,356.8 L761.5,360.9 L763.3,365.1 L765.2,369.3
		L767.0,373.5 L768.9,377.8 L770.7,382.1 L772.6,386.5 L774.4,390.9 L776.3,395.3 L778.2,399.8 L780.0,404.4
		L781.9,409.0 L783.7,413.6 L785.6,418.3 L787.4,423.1 L789.3,427.9 L791.1,432.7 L793.0,437.6 L794.8,442.4
		L796.7,447.3 L798.5,452.2 L800.4,457.0 L802.3,461.9 L804.1,466.6 L806.0,471.4 L807.8,476.1 L809.7,480.7
		L811.5,485.2 L813.4,489.7 L815.2,494.1 L817.1,498.3 L818.9,502.5 L820.8,506.6 L822.6,510.7 L824.5,514.6
		L826.4,518.4 L828.2,522.1 L830.1,525.8 L831.9,529.3 L833.8,532.8 L835.6,536.2 L837.5,539.5 L839.3,542.7
		L841.2,545.8 L843.0,548.8 L844.9,551.8 L846.7,554.6 L848.6,557.4 L850.5,560.1 L852.3,562.7 L854.2,565.2
		L856.0,567.7 L857.9,570.0 L859.7,572.2 L861.6,574.4 L863.4,576.5 L865.3,578.4 L867.1,580.3 L869.0,582.1
		L870.8,583.8 L872.7,585.4 L874.6,586.9 L876.4,588.4 L878.3,589.7 L880.1,591.0 L882.0,592.2 L883.8,593.3
		L885.7,594.4 L887.5,595.4 L889.4,596.4 L891.2,597.3 L893.1,598.2 L894.9,599.1 L896.8,599.9 L898.7,600.7
		L900.5,601.4 L902.4,602.2 L904.2,602.9 L906.1,603.6 L907.9,604.3 L909.8,605.0 L911.6,605.7 L913.5,606.4
		L915.3,607.1 L917.2,607.7 L919.1,608.4 L920.9,609.0 L922.8,609.6 L924.6,610.2 L926.5,610.9 L928.3,611.5
		L930.2,612.1 L932.0,612.7 L933.9,613.3 L935.7,613.8 L937.6,614.4 L939.4,615.1 L941.3,615.7 L943.2,616.3
		L945.0,616.9 L946.9,617.6 L948.7,618.3 L950.6,619.0 L952.4,619.7 L954.3,620.4 L956.1,621.2 L958.0,622.0
		L959.8,622.8 L961.7,623.6 L963.5,624.4 L965.4,625.3 L967.3,626.1 L969.1,627.0 L971.0,627.8 L972.8,628.7
		L974.7,629.5 L976.5,630.4 L978.4,631.2 L980.2,632.0 L982.1,632.8 L983.9,633.6 L985.8,634.3 L987.6,635.1
		L989.5,635.8 L991.4,636.4 L993.2,637.1 L995.1,637.7 L996.9,638.2 L998.8,638.8 L1000.6,639.3 L1002.5,639.8
		L1004.3,640.2 L1006.2,640.6 L1008.0,641.0 L1009.9,641.3 L1011.7,641.6 L1013.6,641.9  '/></g>
	</g>
	<g id="gnuplot_plot_2" ><title>Confidence interval</title>
<g fill="none" color="white" stroke="rgb( 31, 120, 180)" stroke-width="1.00" stroke-linecap="butt" stroke-linejoin="miter">
</g>
<g fill="none" color="black" stroke="currentColor" stroke-width="1.00" stroke-linecap="butt" stroke-linejoin="miter">
	<g transform="translate(1089.0,85.0)" stroke="none" fill="black" font-family="Helvetica" font-size="12.00"  text-anchor="start">
		<text><tspan font-family="Helvetica" >Confidence interval</tspan></text>
	</g>
</g>
<g fill="none" color="black" stroke="currentColor" stroke-width="1.00" stroke-linecap="butt" stroke-linejoin="miter">
	<g stroke='none' shape-rendering='crispEdges'>
		<polygon fill = 'rgb( 31, 120, 180)' fill-opacity = '0.250000' points = '1038.5,85.6 1080.7,85.6 1080.7,76.6 1038.5,76.6 '/>
		<polygon fill = 'rgb( 31, 120, 180)' fill-opacity = '0.250000' points = '173.8,542.5 175.6,541.1 177.5,539.9 179.3,538.8 181.2,537.9 183.0,537.1 184.9,536.4 186.8,535.8 188.6,535.4 190.5,535.0 192.3,534.6 194.2,534.3 196.0,534.0 197.9,533.7 199.7,533.4 201.6,533.0
203.4,532.4 205.3,531.8 207.2,531.0 209.0,530.0 210.9,528.9 212.7,527.5 214.6,525.8 216.4,524.0 218.3,521.8 220.1,519.4 222.0,516.7 223.8,513.8 225.7,510.5 227.5,507.0 229.4,503.3 231.3,499.3
233.1,495.1 235.0,490.8 236.8,486.3 238.7,481.7 240.5,477.1 242.4,472.5 244.2,467.9 246.1,463.4 247.9,459.0 249.8,454.8 251.6,450.8 253.5,447.0 255.4,443.4 257.2,440.2 259.1,437.2 260.9,434.5
262.8,432.0 264.6,429.8 266.5,427.8 268.3,426.0 270.2,424.4 272.0,422.8 273.9,421.3 275.7,419.8 277.6,418.3 279.5,416.6 281.3,414.8 283.2,412.8 285.0,410.6 286.9,408.1 288.7,405.4 290.6,402.3
292.4,398.9 294.3,395.1 296.1,391.1 298.0,386.7 299.8,382.0 301.7,377.0 303.6,371.7 305.4,366.3 307.3,360.6 309.1,354.8 311.0,348.8 312.8,342.7 314.7,336.6 316.5,330.4 318.4,324.2 320.2,318.0
322.1,311.9 323.9,305.8 325.8,299.7 327.7,293.7 329.5,287.7 331.4,281.8 333.2,276.0 335.1,270.2 336.9,264.4 338.8,258.6 340.6,252.8 342.5,247.1 344.3,241.3 346.2,235.6 348.0,229.9 349.9,224.2
351.8,218.5 353.6,212.8 355.5,207.3 357.3,201.8 359.2,196.4 361.0,191.2 362.9,186.1 364.7,181.2 366.6,176.5 368.4,172.1 370.3,168.0 372.1,164.1 374.0,160.6 375.9,157.3 377.7,154.4 379.6,151.8
381.4,149.5 383.3,147.5 385.1,145.8 387.0,144.3 388.8,143.1 390.7,142.2 392.5,141.4 394.4,140.7 396.2,140.2 398.1,139.8 400.0,139.4 401.8,139.1 403.7,138.9 405.5,138.6 407.4,138.3 409.2,137.9
411.1,137.6 412.9,137.2 414.8,136.8 416.6,136.3 418.5,135.9 420.3,135.4 422.2,135.0 424.1,134.5 425.9,134.2 427.8,133.9 429.6,133.8 431.5,133.7 433.3,133.8 435.2,134.1 437.0,134.6 438.9,135.2
440.7,136.0 442.6,137.0 444.5,138.2 446.3,139.6 448.2,141.1 450.0,142.8 451.9,144.7 453.7,146.7 455.6,148.8 457.4,151.0 459.3,153.3 461.1,155.7 463.0,158.1 464.8,160.5 466.7,163.0 468.6,165.5
470.4,168.0 472.3,170.4 474.1,172.9 476.0,175.4 477.8,177.8 479.7,180.2 481.5,182.7 483.4,185.1 485.2,187.6 487.1,190.1 488.9,192.6 490.8,195.2 492.7,197.8 494.5,200.5 496.4,203.3 498.2,206.3
500.1,209.3 501.9,212.5 503.8,215.7 505.6,219.1 507.5,222.7 509.3,226.3 511.2,230.0 513.0,233.7 514.9,237.5 516.8,241.3 518.6,245.0 520.5,248.6 522.3,252.1 524.2,255.3 526.0,258.3 527.9,260.9
529.7,263.2 531.6,265.0 533.4,266.2 535.3,267.0 537.1,267.1 539.0,266.6 540.9,265.5 542.7,263.7 544.6,261.2 546.4,258.0 548.3,254.2 550.1,249.8 552.0,244.8 553.8,239.2 555.7,233.2 557.5,226.7
559.4,219.9 561.2,212.8 563.1,205.5 565.0,198.1 566.8,190.7 568.7,183.3 570.5,176.0 572.4,169.0 574.2,162.2 576.1,155.6 577.9,149.5 579.8,143.7 581.6,138.3 583.5,133.3 585.3,128.7 587.2,124.6
589.1,120.8 590.9,117.3 592.8,114.3 594.6,111.5 596.5,109.0 598.3,106.7 600.2,104.7 602.0,102.9 603.9,101.2 605.7,99.7 607.6,98.4 609.4,97.2 611.3,96.1 613.2,95.2 615.0,94.4 616.9,93.7
618.7,93.2 620.6,92.9 622.4,92.7 624.3,92.7 626.1,92.9 628.0,93.3 629.8,93.8 631.7,94.6 633.5,95.5 635.4,96.7 637.3,98.1 639.1,99.7 641.0,101.5 642.8,103.6 644.7,105.9 646.5,108.4
648.4,111.1 650.2,114.0 652.1,117.2 653.9,120.6 655.8,124.1 657.6,127.8 659.5,131.7 661.4,135.8 663.2,139.9 665.1,144.1 666.9,148.4 668.8,152.8 670.6,157.1 672.5,161.5 674.3,165.8 676.2,170.1
678.0,174.4 679.9,178.7 681.8,182.9 683.6,187.1 685.5,191.2 687.3,195.4 689.2,199.5 691.0,203.7 692.9,207.9 694.7,212.1 696.6,216.4 698.4,220.7 700.3,225.1 702.1,229.6 704.0,234.0 705.9,238.6
707.7,243.1 709.6,247.7 711.4,252.2 713.3,256.8 715.1,261.3 717.0,265.7 718.8,270.1 720.7,274.4 722.5,278.7 724.4,282.8 726.2,286.9 728.1,290.9 730.0,294.8 731.8,298.7 733.7,302.5 735.5,306.3
737.4,310.0 739.2,313.8 741.1,317.5 742.9,321.3 744.8,325.1 746.6,328.9 748.5,332.8 750.3,336.7 752.2,340.6 754.1,344.6 755.9,348.6 757.8,352.7 759.6,356.8 761.5,360.9 763.3,365.1 765.2,369.3
767.0,373.5 768.9,377.8 770.7,382.1 772.6,386.5 774.4,390.9 776.3,395.3 778.2,399.8 780.0,404.4 781.9,409.0 783.7,413.6 785.6,418.3 787.4,423.1 789.3,427.9 791.1,432.7 793.0,437.6 794.8,442.4
796.7,447.3 798.5,452.2 800.4,457.0 802.3,461.9 804.1,466.6 806.0,471.4 807.8,476.1 809.7,480.7 811.5,485.2 813.4,489.7 815.2,494.1 817.1,498.3 818.9,502.5 820.8,506.6 822.6,510.7 824.5,514.6
826.4,518.4 828.2,522.1 830.1,525.8 831.9,529.3 833.8,532.8 835.6,536.2 837.5,539.5 839.3,542.7 841.2,545.8 843.0,548.8 844.9,551.8 846.7,554.6 848.6,557.4 850.5,560.1 852.3,562.7 854.2,565.2
856.0,567.7 857.9,570.0 859.7,572.2 861.6,574.4 863.4,576.5 865.3,578.4 867.1,580.3 869.0,582.1 870.8,583.8 872.7,585.4 874.6,586.9 876.4,588.4 878.3,589.7 880.1,591.0 882.0,592.2 883.8,593.3
885.7,594.4 887.5,595.4 889.4,596.4 891.2,597.3 893.1,598.2 894.9,599.1 896.8,599.9 898.7,600.7 900.5,601.4 902.4,602.2 904.2,602.9 906.1,603.6 907.9,604.3 909.8,605.0 911.6,605.7 913.5,606.4
915.3,607.1 917.2,607.7 919.1,608.4 920.9,609.0 922.8,609.6 924.6,610.2 926.5,610.9 926.5,662.4 924.6,662.4 922.8,662.4 920.9,662.4 919.1,662.4 917.2,662.4 915.3,662.4 913.5,662.4 911.6,662.4
909.8,662.4 907.9,662.4 906.1,662.4 904.2,662.4 902.4,662.4 900.5,662.4 898.7,662.4 896.8,662.4 894.9,662.4 893.1,662.4 891.2,662.4 889.4,662.4 887.5,662.4 885.7,662.4 883.8,662.4 882.0,662.4
880.1,662.4 878.3,662.4 876.4,662.4 874.6,662.4 872.7,662.4 870.8,662.4 869.0,662.4 867.1,662.4 865.3,662.4 863.4,662.4 861.6,662.4 859.7,662.4 857.9,662.4 856.0,662.4 854.2,662.4 852.3,662.4
850.5,662.4 848.6,662.4 846.7,662.4 844.9,662.4 843.0,662.4 841.2,662.4 839.3,662.4 837.5,662.4 835.6,662.4 833.8,662.4 831.9,662.4 830.1,662.4 828.2,662.4 826.4,662.4 824.5,662.4 822.6,662.4
820.8,662.4 818.9,662.4 817.1,662.4 815.2,662.4 813.4,662.4 811.5,662.4 809.7,662.4 807.8,662.4 806.0,662.4 804.1,662.4 802.3,662.4 800.4,662.4 798.5,662.4 796.7,662.4 794.8,662.4 793.0,662.4
791.1,662.4 789.3,662.4 787.4,662.4 785.6,662.4 783.7,662.4 781.9,662.4 780.0,662.4 778.2,662.4 776.3,662.4 774.4,662.4 772.6,662.4 770.7,662.4 768.9,662.4 767.0,662.4 765.2,662.4 763.3,662.4
761.5,662.4 759.6,662.4 757.8,662.4 755.9,662.4 754.1,662.4 752.2,662.4 750.3,662.4 748.5,662.4 746.6,662.4 744.8,662.4 742.9,662.4 741.1,662.4 739.2,662.4 737.4,662.4 735.5,662.4 733.7,662.4
731.8,662.4 730.0,662.4 728.1,662.4 726.2,662.4 724.4,662.4 722.5,662.4 720.7,662.4 718.8,662.4 717.0,662.4 715.1,662.4 713.3,662.4 711.4,662.4 709.6,662.4 707.7,662.4 705.9,662.4 704.0,662.4
702.1,662.4 700.3,662.4 698.4,662.4 696.6,662.4 694.7,662.4 692.9,662.4 691.0,662.4 689.2,662.4 687.3,662.4 685.5,662.4 683.6,662.4 681.8,662.4 679.9,662.4 678.0,662.4 676.2,662.4 674.3,662.4
672.5,662.4 670.6,662.4 668.8,662.4 666.9,662.4 665.1,662.4 663.2,662.4 661.4,662.4 659.5,662.4 657.6,662.4 655.8,662.4 653.9,662.4 652.1,662.4 650.2,662.4 648.4,662.4 646.5,662.4 644.7,662.4
642.8,662.4 641.0,662.4 639.1,662.4 637.3,662.4 635.4,662.4 633.5,662.4 631.7,662.4 629.8,662.4 628.0,662.4 626.1,662.4 624.3,662.4 622.4,662.4 620.6,662.4 618.7,662.4 616.9,662.4 615.0,662.4
613.2,662.4 611.3,662.4 609.4,662.4 607.6,662.4 605.7,662.4 603.9,662.4 602.0,662.4 600.2,662.4 598.3,662.4 596.5,662.4 594.6,662.4 592.8,662.4 590.9,662.4 589.1,662.4 587.2,662.4 585.3,662.4
583.5,662.4 581.6,662.4 579.8,662.4 577.9,662.4 576.1,662.4 574.2,662.4 572.4,662.4 570.5,662.4 568.7,662.4 566.8,662.4 565.0,662.4 563.1,662.4 561.2,662.4 559.4,662.4 557.5,662.4 555.7,662.4
553.8,662.4 552.0,662.4 550.1,662.4 548.3,662.4 546.4,662.4 544.6,662.4 542.7,662.4 540.9,662.4 539.0,662.4 537.1,662.4 535.3,662.4 533.4,662.4 531.6,662.4 529.7,662.4 527.9,662.4 526.0,662.4
524.2,662.4 522.3,662.4 520.5,662.4 518.6,662.4 516.8,662.4 514.9,662.4 513.0,662.4 511.2,662.4 509.3,662.4 507.5,662.4 505.6,662.4 503.8,662.4 501.9,662.4 500.1,662.4 498.2,662.4 496.4,662.4
494.5,662.4 492.7,662.4 490.8,662.4 488.9,662.4 487.1,662.4 485.2,662.4 483.4,662.4 481.5,662.4 479.7,662.4 477.8,662.4 476.0,662.4 474.1,662.4 472.3,662.4 470.4,662.4 468.6,662.4 466.7,662.4
464.8,662.4 463.0,662.4 461.1,662.4 459.3,662.4 457.4,662.4 455.6,662.4 453.7,662.4 451.9,662.4 450.0,662.4 448.2,662.4 446.3,662.4 444.5,662.4 442.6,662.4 440.7,662.4 438.9,662.4 437.0,662.4
435.2,662.4 433.3,662.4 431.5,662.4 429.6,662.4 427.8,662.4 425.9,662.4 424.1,662.4 422.2,662.4 420.3,662.4 418.5,662.4 416.6,662.4 414.8,662.4 412.9,662.4 411.1,662.4 409.2,662.4 407.4,662.4
405.5,662.4 403.7,662.4 401.8,662.4 400.0,662.4 398.1,662.4 396.2,662.4 394.4,662.4 392.5,662.4 390.7,662.4 388.8,662.4 387.0,662.4 385.1,662.4 383.3,662.4 381.4,662.4 379.6,662.4 377.7,662.4
375.9,662.4 374.0,662.4 372.1,662.4 370.3,662.4 368.4,662.4 366.6,662.4 364.7,662.4 362.9,662.4 361.0,662.4 359.2,662.4 357.3,662.4 355.5,662.4 353.6,662.4 351.8,662.4 349.9,662.4 348.0,662.4
346.2,662.4 344.3,662.4 342.5,662.4 340.6,662.4 338.8,662.4 336.9,662.4 335.1,662.4 333.2,662.4 331.4,662.4 329.5,662.4 327.7,662.4 325.8,662.4 323.9,662.4 322.1,662.4 320.2,662.4 318.4,662.4
316.5,662.4 314.7,662.4 312.8,662.4 311.0,662.4 309.1,662.4 307.3,662.4 305.4,662.4 303.6,662.4 301.7,662.4 299.8,662.4 298.0,662.4 296.1,662.4 294.3,662.4 292.4,662.4 290.6,662.4 288.7,662.4
286.9,662.4 285.0,662.4 283.2,662.4 281.3,662.4 279.5,662.4 277.6,662.4 275.7,662.4 273.9,662.4 272.0,662.4 270.2,662.4 268.3,662.4 266.5,662.4 264.6,662.4 262.8,662.4 260.9,662.4 259.1,662.4
257.2,662.4 255.4,662.4 253.5,662.4 251.6,662.4 249.8,662.4 247.9,662.4 246.1,662.4 244.2,662.4 242.4,662.4 240.5,662.4 238.7,662.4 236.8,662.4 235.0,662.4 233.1,662.4 231.3,662.4 229.4,662.4
227.5,662.4 225.7,662.4 223.8,662.4 222.0,662.4 220.1,662.4 218.3,662.4 216.4,662.4 214.6,662.4 212.7,662.4 210.9,662.4 209.0,662.4 207.2,662.4 205.3,662.4 203.4,662.4 201.6,662.4 199.7,662.4
197.9,662.4 196.0,662.4 194.2,662.4 192.3,662.4 190.5,662.4 188.6,662.4 186.8,662.4 184.9,662.4 183.0,662.4 181.2,662.4 179.3,662.4 177.5,662.4 175.6,662.4 173.8,662.4 '/>
	</g>
</g>
	</g>
	<g id="gnuplot_plot_3" ><title>Point estimate</title>
<g fill="none" color="white" stroke="rgb( 31, 120, 180)" stroke-width="2.00" stroke-linecap="butt" stroke-linejoin="miter">
</g>
<g fill="none" color="black" stroke="currentColor" stroke-width="2.00" stroke-linecap="butt" stroke-linejoin="miter">
	<g transform="translate(1089.0,103.0)" stroke="none" fill="black" font-family="Helvetica" font-size="12.00"  text-anchor="start">
		<text><tspan font-family="Helvetica" >Point estimate</tspan></text>
	</g>
</g>
<g fill="none" color="black" stroke="currentColor" stroke-width="2.00" stroke-linecap="butt" stroke-linejoin="miter">
	<path stroke='rgb( 31, 120, 180)'  d='M1038.5,99.1 L1080.7,99.1 M595.0,662.4 L595.0,111.0  '/></g>
	</g>
<g fill="none" color="black" stroke="currentColor" stroke-width="2.00" stroke-linecap="butt" stroke-linejoin="miter">
</g>
<g fill="none" color="black" stroke="black" stroke-width="1.00" stroke-linecap="butt" stroke-linejoin="miter">
</g>
<g fill="none" color="black" stroke="currentColor" stroke-width="1.00" stroke-linecap="butt" stroke-linejoin="miter">
	<path stroke='black'  d='M88.5,54.1 L88.5,662.4 L1013.6,662.4 L1013.6,54.1 L88.5,54.1 Z  '/></g>
<g fill="none" color="black" stroke="currentColor" stroke-width="1.00" stroke-linecap="butt" stroke-linejoin="miter">
</g>
</g>
</svg>

