<?xml version="1.0" encoding="utf-8"  standalone="no"?>
<svg 
 viewBox="0 0 1280 720"
 xmlns="http://www.w3.org/2000/svg"
 xmlns:xlink="http://www.w3.org/1999/xlink"
>

<title>Gnuplot</title>
<desc>Produced by GNUPLOT 5.2 patchlevel 8 </desc>

<g id="gnuplot_canvas">

<rect x="0" y="0" width="1280" height="720" fill="none"/>
<defs>

	<circle id='gpDot' r='0.5' stroke-width='0.5' stroke='currentColor'/>
	<path id='gpPt0' stroke-width='0.222' stroke='currentColor' d='M-1,0 h2 M0,-1 v2'/>
	<path id='gpPt1' stroke-width='0.222' stroke='currentColor' d='M-1,-1 L1,1 M1,-1 L-1,1'/>
	<path id='gpPt2' stroke-width='0.222' stroke='currentColor' d='M-1,0 L1,0 M0,-1 L0,1 M-1,-1 L1,1 M-1,1 L1,-1'/>
	<rect id='gpPt3' stroke-width='0.222' stroke='currentColor' x='-1' y='-1' width='2' height='2'/>
	<rect id='gpPt4' stroke-width='0.222' stroke='currentColor' fill='currentColor' x='-1' y='-1' width='2' height='2'/>
	<circle id='gpPt5' stroke-width='0.222' stroke='currentColor' cx='0' cy='0' r='1'/>
	<use xlink:href='#gpPt5' id='gpPt6' fill='currentColor' stroke='none'/>
	<path id='gpPt7' stroke-width='0.222' stroke='currentColor' d='M0,-1.33 L-1.33,0.67 L1.33,0.67 z'/>
	<use xlink:href='#gpPt7' id='gpPt8' fill='currentColor' stroke='none'/>
	<use xlink:href='#gpPt7' id='gpPt9' stroke='currentColor' transform='rotate(180)'/>
	<use xlink:href='#gpPt9' id='gpPt10' fill='currentColor' stroke='none'/>
	<use xlink:href='#gpPt3' id='gpPt11' stroke='currentColor' transform='rotate(45)'/>
	<use xlink:href='#gpPt11' id='gpPt12' fill='currentColor' stroke='none'/>
	<path id='gpPt13' stroke-width='0.222' stroke='currentColor' d='M0,1.330 L1.265,0.411 L0.782,-1.067 L-0.782,-1.076 L-1.265,0.411 z'/>
	<use xlink:href='#gpPt13' id='gpPt14' fill='currentColor' stroke='none'/>
	<filter id='textbox' filterUnits='objectBoundingBox' x='0' y='0' height='1' width='1'>
	  <feFlood flood-color='white' flood-opacity='1' result='bgnd'/>
	  <feComposite in='SourceGraphic' in2='bgnd' operator='atop'/>
	</filter>
	<filter id='greybox' filterUnits='objectBoundingBox' x='0' y='0' height='1' width='1'>
	  <feFlood flood-color='lightgrey' flood-opacity='1' result='grey'/>
	  <feComposite in='SourceGraphic' in2='grey' operator='atop'/>
	</filter>
</defs>
<g fill="none" color="white" stroke="currentColor" stroke-width="1.00" stroke-linecap="butt" stroke-linejoin="miter">
</g>
<g fill="none" color="black" stroke="currentColor" stroke-width="1.00" stroke-linecap="butt" stroke-linejoin="miter">
	<path stroke='black'  d='M88.5,662.4 L97.5,662.4  '/>	<g transform="translate(80.2,666.3)" stroke="none" fill="black" font-family="Helvetica" font-size="12.00"  text-anchor="end">
		<text><tspan font-family="Helvetica" > 0</tspan></text>
	</g>
</g>
<g fill="none" color="black" stroke="currentColor" stroke-width="1.00" stroke-linecap="butt" stroke-linejoin="miter">
	<path stroke='black'  d='M88.5,594.8 L97.5,594.8  '/>	<g transform="translate(80.2,598.7)" stroke="none" fill="black" font-family="Helvetica" font-size="12.00"  text-anchor="end">
		<text><tspan font-family="Helvetica" > 0.001</tspan></text>
	</g>
</g>
<g fill="none" color="black" stroke="currentColor" stroke-width="1.00" stroke-linecap="butt" stroke-linejoin="miter">
	<path stroke='black'  d='M88.5,527.2 L97.5,527.2  '/>	<g transform="translate(80.2,531.1)" stroke="none" fill="black" font-family="Helvetica" font-size="12.00"  text-anchor="end">
		<text><tspan font-family="Helvetica" > 0.002</tspan></text>
	</g>
</g>
<g fill="none" color="black" stroke="currentColor" stroke-width="1.00" stroke-linecap="butt" stroke-linejoin="miter">
	<path stroke='black'  d='M88.5,459.6 L97.5,459.6  '/>	<g transform="translate(80.2,463.5)" stroke="none" fill="black" font-family="Helvetica" font-size="12.00"  text-anchor="end">
		<text><tspan font-family="Helvetica" > 0.003</tspan></text>
	</g>
</g>
<g fill="none" color="black" stroke="currentColor" stroke-width="1.00" stroke-linecap="butt" stroke-linejoin="miter">
	<path stroke='black'  d='M88.5,392.0 L97.5,392.0  '/>	<g transform="translate(80.2,395.9)" stroke="none" fill="black" font-family="Helvetica" font-size="12.00"  text-anchor="end">
		<text><tspan font-family="Helvetica" > 0.004</tspan></text>
	</g>
</g>
<g fill="none" color="black" stroke="currentColor" stroke-width="1.00" stroke-linecap="butt" stroke-linejoin="miter">
	<path stroke='black'  d='M88.5,324.5 L97.5,324.5  '/>	<g transform="translate(80.2,328.4)" stroke="none" fill="black" font-family="Helvetica" font-size="12.00"  text-anchor="end">
		<text><tspan font-family="Helvetica" > 0.005</tspan></text>
	</g>
</g>
<g fill="none" color="black" stroke="currentColor" stroke-width="1.00" stroke-linecap="butt" stroke-linejoin="miter">
	<path stroke='black'  d='M88.5,256.9 L97.5,256.9  '/>	<g transform="translate(80.2,260.8)" stroke="none" fill="black" font-family="Helvetica" font-size="12.00"  text-anchor="end">
		<text><tspan font-family="Helvetica" > 0.006</tspan></text>
	</g>
</g>
<g fill="none" color="black" stroke="currentColor" stroke-width="1.00" stroke-linecap="butt" stroke-linejoin="miter">
	<path stroke='black'  d='M88.5,189.3 L97.5,189.3  '/>	<g transform="translate(80.2,193.2)" stroke="none" fill="black" font-family="Helvetica" font-size="12.00"  text-anchor="end">
		<text><tspan font-family="Helvetica" > 0.007</tspan></text>
	</g>
</g>
<g fill="none" color="black" stroke="currentColor" stroke-width="1.00" stroke-linecap="butt" stroke-linejoin="miter">
	<path stroke='black'  d='M88.5,121.7 L97.5,121.7  '/>	<g transform="translate(80.2,125.6)" stroke="none" fill="black" font-family="Helvetica" font-size="12.00"  text-anchor="end">
		<text><tspan font-family="Helvetica" > 0.008</tspan></text>
	</g>
</g>
<g fill="none" color="black" stroke="currentColor" stroke-width="1.00" stroke-linecap="butt" stroke-linejoin="miter">
	<path stroke='black'  d='M88.5,54.1 L97.5,54.1  '/>	<g transform="translate(80.2,58.0)" stroke="none" fill="black" font-family="Helvetica" font-size="12.00"  text-anchor="end">
		<text><tspan font-family="Helvetica" > 0.009</tspan></text>
	</g>
</g>
<g fill="none" color="black" stroke="currentColor" stroke-width="1.00" stroke-linecap="butt" stroke-linejoin="miter">
	<path stroke='black'  d='M89.9,662.4 L89.9,653.4  '/>	<g transform="translate(89.9,684.3)" stroke="none" fill="black" font-family="Helvetica" font-size="12.00"  text-anchor="middle">
		<text><tspan font-family="Helvetica" > 250</tspan></text>
	</g>
</g>
<g fill="none" color="black" stroke="currentColor" stroke-width="1.00" stroke-linecap="butt" stroke-linejoin="miter">
	<path stroke='black'  d='M269.6,662.4 L269.6,653.4  '/>	<g transform="translate(269.6,684.3)" stroke="none" fill="black" font-family="Helvetica" font-size="12.00"  text-anchor="middle">
		<text><tspan font-family="Helvetica" > 300</tspan></text>
	</g>
</g>
<g fill="none" color="black" stroke="currentColor" stroke-width="1.00" stroke-linecap="butt" stroke-linejoin="miter">
	<path stroke='black'  d='M449.3,662.4 L449.3,653.4  '/>	<g transform="translate(449.3,684.3)" stroke="none" fill="black" font-family="Helvetica" font-size="12.00"  text-anchor="middle">
		<text><tspan font-family="Helvetica" > 350</tspan></text>
	</g>
</g>
<g fill="none" color="black" stroke="currentColor" stroke-width="1.00" stroke-linecap="butt" stroke-linejoin="miter">
	<path stroke='black'  d='M629.0,662.4 L629.0,653.4  '/>	<g transform="translate(629.0,684.3)" stroke="none" fill="black" font-family="Helvetica" font-size="12.00"  text-anchor="middle">
		<text><tspan font-family="Helvetica" > 400</tspan></text>
	</g>
</g>
<g fill="none" color="black" stroke="currentColor" stroke-width="1.00" stroke-linecap="butt" stroke-linejoin="miter">
	<path stroke='black'  d='M808.8,662.4 L808.8,653.4  '/>	<g transform="translate(808.8,684.3)" stroke="none" fill="black" font-family="Helvetica" font-size="12.00"  text-anchor="middle">
		<text><tspan font-family="Helvetica" > 450</tspan></text>
	</g>
</g>
<g fill="none" color="black" stroke="currentColor" stroke-width="1.00" stroke-linecap="butt" stroke-linejoin="miter">
	<path stroke='black'  d='M988.5,662.4 L988.5,653.4  '/>	<g transform="translate(988.5,684.3)" stroke="none" fill="black" font-family="Helvetica" font-size="12.00"  text-anchor="middle">
		<text><tspan font-family="Helvetica" > 500</tspan></text>
	</g>
</g>
<g fill="none" color="black" stroke="currentColor" stroke-width="1.00" stroke-linecap="butt" stroke-linejoin="miter">
</g>
<g fill="none" color="black" stroke="currentColor" stroke-width="1.00" stroke-linecap="butt" stroke-linejoin="miter">
	<path stroke='black'  d='M88.5,54.1 L88.5,662.4 L1013.6,662.4 L1013.6,54.1 L88.5,54.1 Z  '/></g>
<g fill="none" color="black" stroke="currentColor" stroke-width="1.00" stroke-linecap="butt" stroke-linejoin="miter">
	<g transform="translate(19.0,358.3) rotate(270)" stroke="none" fill="black" font-family="Helvetica" font-size="12.00"  text-anchor="middle">
		<text><tspan font-family="Helvetica" >Density (a.u.)</tspan></text>
	</g>
</g>
<g fill="none" color="black" stroke="currentColor" stroke-width="1.00" stroke-linecap="butt" stroke-linejoin="miter">
	<g transform="translate(551.0,711.3)" stroke="none" fill="black" font-family="Helvetica" font-size="12.00"  text-anchor="middle">
		<text><tspan font-family="Helvetica" >Average time (ps)</tspan></text>
	</g>
</g>
<g fill="none" color="black" stroke="currentColor" stroke-width="1.00" stroke-linecap="butt" stroke-linejoin="miter">
	<g transform="translate(551.0,31.0)" stroke="none" fill="black" font-family="Helvetica" font-size="12.00"  text-anchor="middle">
		<text><tspan font-family="Helvetica" >bench_group/blake3/448: MAD</tspan></text>
	</g>
</g>
<g fill="none" color="black" stroke="currentColor" stroke-width="1.00" stroke-linecap="butt" stroke-linejoin="miter">
</g>
	<g id="gnuplot_plot_1" ><title>Bootstrap distribution</title>
<g fill="none" color="white" stroke="currentColor" stroke-width="2.00" stroke-linecap="butt" stroke-linejoin="miter">
</g>
<g fill="none" color="black" stroke="currentColor" stroke-width="2.00" stroke-linecap="butt" stroke-linejoin="miter">
	<g transform="translate(1089.0,67.0)" stroke="none" fill="black" font-family="Helvetica" font-size="12.00"  text-anchor="start">
		<text><tspan font-family="Helvetica" >Bootstrap distribution</tspan></text>
	</g>
</g>
<g fill="none" color="black" stroke="currentColor" stroke-width="2.00" stroke-linecap="butt" stroke-linejoin="miter">
	<path stroke='rgb( 31, 120, 180)'  d='M1038.5,63.1 L1080.7,63.1 M88.5,637.5 L90.4,636.2 L92.2,634.9 L94.1,633.5 L95.9,632.1 L97.8,630.7
		L99.6,629.2 L101.5,627.6 L103.3,626.1 L105.2,624.5 L107.0,622.9 L108.9,621.3 L110.7,619.6 L112.6,618.0
		L114.5,616.3 L116.3,614.6 L118.2,613.0 L120.0,611.3 L121.9,609.6 L123.7,607.9 L125.6,606.3 L127.4,604.6
		L129.3,603.0 L131.1,601.3 L133.0,599.7 L134.8,598.1 L136.7,596.5 L138.6,594.9 L140.4,593.2 L142.3,591.6
		L144.1,590.1 L146.0,588.5 L147.8,586.9 L149.7,585.3 L151.5,583.7 L153.4,582.2 L155.2,580.6 L157.1,579.0
		L158.9,577.5 L160.8,575.9 L162.7,574.4 L164.5,572.8 L166.4,571.3 L168.2,569.7 L170.1,568.1 L171.9,566.4
		L173.8,564.8 L175.6,563.1 L177.5,561.3 L179.3,559.5 L181.2,557.6 L183.0,555.6 L184.9,553.6 L186.8,551.4
		L188.6,549.2 L190.5,546.8 L192.3,544.4 L194.2,541.8 L196.0,539.1 L197.9,536.2 L199.7,533.2 L201.6,530.1
		L203.4,526.9 L205.3,523.6 L207.2,520.1 L209.0,516.5 L210.9,512.8 L212.7,509.0 L214.6,505.1 L216.4,501.2
		L218.3,497.2 L220.1,493.2 L222.0,489.1 L223.8,485.1 L225.7,481.0 L227.5,477.1 L229.4,473.1 L231.3,469.3
		L233.1,465.6 L235.0,462.0 L236.8,458.6 L238.7,455.3 L240.5,452.2 L242.4,449.2 L244.2,446.5 L246.1,443.9
		L247.9,441.5 L249.8,439.3 L251.6,437.3 L253.5,435.4 L255.4,433.6 L257.2,431.9 L259.1,430.3 L260.9,428.7
		L262.8,427.1 L264.6,425.4 L266.5,423.7 L268.3,421.9 L270.2,420.0 L272.0,417.8 L273.9,415.5 L275.7,413.0
		L277.6,410.3 L279.5,407.3 L281.3,404.2 L283.2,400.7 L285.0,397.1 L286.9,393.2 L288.7,389.1 L290.6,384.9
		L292.4,380.4 L294.3,375.9 L296.1,371.2 L298.0,366.4 L299.8,361.6 L301.7,356.7 L303.6,351.9 L305.4,347.0
		L307.3,342.1 L309.1,337.3 L311.0,332.5 L312.8,327.8 L314.7,323.2 L316.5,318.6 L318.4,314.2 L320.2,309.8
		L322.1,305.4 L323.9,301.2 L325.8,296.9 L327.7,292.7 L329.5,288.6 L331.4,284.4 L333.2,280.2 L335.1,275.9
		L336.9,271.6 L338.8,267.2 L340.6,262.6 L342.5,257.9 L344.3,253.0 L346.2,247.9 L348.0,242.6 L349.9,237.0
		L351.8,231.2 L353.6,225.0 L355.5,218.7 L357.3,212.0 L359.2,205.1 L361.0,198.0 L362.9,190.7 L364.7,183.3
		L366.6,175.8 L368.4,168.3 L370.3,160.8 L372.1,153.4 L374.0,146.2 L375.9,139.2 L377.7,132.6 L379.6,126.4
		L381.4,120.6 L383.3,115.2 L385.1,110.4 L387.0,106.2 L388.8,102.5 L390.7,99.3 L392.5,96.8 L394.4,94.7
		L396.2,93.2 L398.1,92.1 L400.0,91.4 L401.8,91.2 L403.7,91.2 L405.5,91.6 L407.4,92.2 L409.2,92.9
		L411.1,93.8 L412.9,94.8 L414.8,95.9 L416.6,96.9 L418.5,97.9 L420.3,98.9 L422.2,99.8 L424.1,100.5
		L425.9,101.1 L427.8,101.6 L429.6,101.9 L431.5,102.1 L433.3,102.1 L435.2,101.9 L437.0,101.6 L438.9,101.1
		L440.7,100.5 L442.6,99.7 L444.5,98.9 L446.3,98.0 L448.2,97.0 L450.0,96.0 L451.9,95.1 L453.7,94.1
		L455.6,93.3 L457.4,92.5 L459.3,91.9 L461.1,91.4 L463.0,91.1 L464.8,91.0 L466.7,91.1 L468.6,91.5
		L470.4,92.0 L472.3,92.8 L474.1,93.8 L476.0,94.9 L477.8,96.3 L479.7,97.9 L481.5,99.7 L483.4,101.6
		L485.2,103.6 L487.1,105.8 L488.9,108.0 L490.8,110.4 L492.7,112.8 L494.5,115.2 L496.4,117.8 L498.2,120.3
		L500.1,122.9 L501.9,125.5 L503.8,128.2 L505.6,130.9 L507.5,133.5 L509.3,136.3 L511.2,139.0 L513.0,141.7
		L514.9,144.4 L516.8,147.2 L518.6,149.9 L520.5,152.6 L522.3,155.3 L524.2,157.9 L526.0,160.5 L527.9,163.1
		L529.7,165.6 L531.6,168.2 L533.4,170.6 L535.3,173.1 L537.1,175.5 L539.0,177.8 L540.9,180.2 L542.7,182.5
		L544.6,184.8 L546.4,187.2 L548.3,189.5 L550.1,191.9 L552.0,194.2 L553.8,196.6 L555.7,199.0 L557.5,201.5
		L559.4,203.9 L561.2,206.4 L563.1,208.9 L565.0,211.3 L566.8,213.8 L568.7,216.2 L570.5,218.6 L572.4,220.9
		L574.2,223.2 L576.1,225.3 L577.9,227.3 L579.8,229.2 L581.6,230.9 L583.5,232.5 L585.3,233.9 L587.2,235.3
		L589.1,236.4 L590.9,237.5 L592.8,238.6 L594.6,239.6 L596.5,240.6 L598.3,241.6 L600.2,242.8 L602.0,244.0
		L603.9,245.5 L605.7,247.1 L607.6,249.0 L609.4,251.2 L611.3,253.7 L613.2,256.5 L615.0,259.6 L616.9,263.0
		L618.7,266.6 L620.6,270.6 L622.4,274.7 L624.3,279.0 L626.1,283.5 L628.0,288.0 L629.8,292.6 L631.7,297.2
		L633.5,301.8 L635.4,306.3 L637.3,310.7 L639.1,314.9 L641.0,319.1 L642.8,323.1 L644.7,327.0 L646.5,330.8
		L648.4,334.5 L650.2,338.1 L652.1,341.6 L653.9,345.1 L655.8,348.5 L657.6,352.0 L659.5,355.5 L661.4,359.0
		L663.2,362.6 L665.1,366.2 L666.9,369.9 L668.8,373.7 L670.6,377.5 L672.5,381.4 L674.3,385.4 L676.2,389.5
		L678.0,393.6 L679.9,397.8 L681.8,402.0 L683.6,406.3 L685.5,410.6 L687.3,414.9 L689.2,419.3 L691.0,423.6
		L692.9,428.0 L694.7,432.3 L696.6,436.6 L698.4,440.9 L700.3,445.2 L702.1,449.4 L704.0,453.5 L705.9,457.6
		L707.7,461.5 L709.6,465.3 L711.4,469.0 L713.3,472.6 L715.1,476.0 L717.0,479.2 L718.8,482.3 L720.7,485.2
		L722.5,487.9 L724.4,490.4 L726.2,492.8 L728.1,495.0 L730.0,497.1 L731.8,499.0 L733.7,500.8 L735.5,502.4
		L737.4,504.0 L739.2,505.5 L741.1,506.9 L742.9,508.2 L744.8,509.4 L746.6,510.7 L748.5,511.9 L750.3,513.0
		L752.2,514.2 L754.1,515.3 L755.9,516.4 L757.8,517.6 L759.6,518.7 L761.5,519.8 L763.3,520.9 L765.2,522.0
		L767.0,523.1 L768.9,524.2 L770.7,525.3 L772.6,526.4 L774.4,527.5 L776.3,528.6 L778.2,529.7 L780.0,530.8
		L781.9,531.9 L783.7,533.0 L785.6,534.1 L787.4,535.2 L789.3,536.3 L791.1,537.4 L793.0,538.5 L794.8,539.6
		L796.7,540.7 L798.5,541.8 L800.4,542.9 L802.3,544.0 L804.1,545.1 L806.0,546.2 L807.8,547.3 L809.7,548.4
		L811.5,549.5 L813.4,550.6 L815.2,551.7 L817.1,552.8 L818.9,553.9 L820.8,555.0 L822.6,556.0 L824.5,557.1
		L826.4,558.2 L828.2,559.3 L830.1,560.3 L831.9,561.4 L833.8,562.4 L835.6,563.5 L837.5,564.5 L839.3,565.5
		L841.2,566.6 L843.0,567.6 L844.9,568.6 L846.7,569.6 L848.6,570.6 L850.5,571.6 L852.3,572.7 L854.2,573.7
		L856.0,574.8 L857.9,575.8 L859.7,576.9 L861.6,578.0 L863.4,579.1 L865.3,580.3 L867.1,581.4 L869.0,582.6
		L870.8,583.8 L872.7,585.1 L874.6,586.3 L876.4,587.5 L878.3,588.8 L880.1,590.0 L882.0,591.2 L883.8,592.4
		L885.7,593.6 L887.5,594.8 L889.4,595.9 L891.2,597.0 L893.1,598.1 L894.9,599.2 L896.8,600.2 L898.7,601.1
		L900.5,602.0 L902.4,602.9 L904.2,603.7 L906.1,604.5 L907.9,605.3 L909.8,606.0 L911.6,606.7 L913.5,607.3
		L915.3,607.9 L917.2,608.5 L919.1,609.1 L920.9,609.7 L922.8,610.2 L924.6,610.8 L926.5,611.3 L928.3,611.8
		L930.2,612.4 L932.0,612.9 L933.9,613.5 L935.7,614.1 L937.6,614.7 L939.4,615.3 L941.3,615.9 L943.2,616.6
		L945.0,617.2 L946.9,617.9 L948.7,618.6 L950.6,619.2 L952.4,619.9 L954.3,620.6 L956.1,621.3 L958.0,621.9
		L959.8,622.6 L961.7,623.2 L963.5,623.8 L965.4,624.4 L967.3,625.0 L969.1,625.5 L971.0,626.0 L972.8,626.5
		L974.7,627.0 L976.5,627.5 L978.4,627.9 L980.2,628.4 L982.1,628.8 L983.9,629.2 L985.8,629.6 L987.6,630.0
		L989.5,630.4 L991.4,630.8 L993.2,631.2 L995.1,631.6 L996.9,632.0 L998.8,632.4 L1000.6,632.8 L1002.5,633.2
		L1004.3,633.6 L1006.2,634.1 L1008.0,634.5 L1009.9,634.9 L1011.7,635.3 L1013.6,635.8  '/></g>
	</g>
	<g id="gnuplot_plot_2" ><title>Confidence interval</title>
<g fill="none" color="white" stroke="rgb( 31, 120, 180)" stroke-width="1.00" stroke-linecap="butt" stroke-linejoin="miter">
</g>
<g fill="none" color="black" stroke="currentColor" stroke-width="1.00" stroke-linecap="butt" stroke-linejoin="miter">
	<g transform="translate(1089.0,85.0)" stroke="none" fill="black" font-family="Helvetica" font-size="12.00"  text-anchor="start">
		<text><tspan font-family="Helvetica" >Confidence interval</tspan></text>
	</g>
</g>
<g fill="none" color="black" stroke="currentColor" stroke-width="1.00" stroke-linecap="butt" stroke-linejoin="miter">
	<g stroke='none' shape-rendering='crispEdges'>
		<polygon fill = 'rgb( 31, 120, 180)' fill-opacity = '0.250000' points = '1038.5,85.6 1080.7,85.6 1080.7,76.6 1038.5,76.6 '/>
		<polygon fill = 'rgb( 31, 120, 180)' fill-opacity = '0.250000' points = '173.8,564.8 175.6,563.1 177.5,561.3 179.3,559.5 181.2,557.6 183.0,555.6 184.9,553.6 186.8,551.4 188.6,549.2 190.5,546.8 192.3,544.4 194.2,541.8 196.0,539.1 197.9,536.2 199.7,533.2 201.6,530.1
203.4,526.9 205.3,523.6 207.2,520.1 209.0,516.5 210.9,512.8 212.7,509.0 214.6,505.1 216.4,501.2 218.3,497.2 220.1,493.2 222.0,489.1 223.8,485.1 225.7,481.0 227.5,477.1 229.4,473.1 231.3,469.3
233.1,465.6 235.0,462.0 236.8,458.6 238.7,455.3 240.5,452.2 242.4,449.2 244.2,446.5 246.1,443.9 247.9,441.5 249.8,439.3 251.6,437.3 253.5,435.4 255.4,433.6 257.2,431.9 259.1,430.3 260.9,428.7
262.8,427.1 264.6,425.4 266.5,423.7 268.3,421.9 270.2,420.0 272.0,417.8 273.9,415.5 275.7,413.0 277.6,410.3 279.5,407.3 281.3,404.2 283.2,400.7 285.0,397.1 286.9,393.2 288.7,389.1 290.6,384.9
292.4,380.4 294.3,375.9 296.1,371.2 298.0,366.4 299.8,361.6 301.7,356.7 303.6,351.9 305.4,347.0 307.3,342.1 309.1,337.3 311.0,332.5 312.8,327.8 314.7,323.2 316.5,318.6 318.4,314.2 320.2,309.8
322.1,305.4 323.9,301.2 325.8,296.9 327.7,292.7 329.5,288.6 331.4,284.4 333.2,280.2 335.1,275.9 336.9,271.6 338.8,267.2 340.6,262.6 342.5,257.9 344.3,253.0 346.2,247.9 348.0,242.6 349.9,237.0
351.8,231.2 353.6,225.0 355.5,218.7 357.3,212.0 359.2,205.1 361.0,198.0 362.9,190.7 364.7,183.3 366.6,175.8 368.4,168.3 370.3,160.8 372.1,153.4 374.0,146.2 375.9,139.2 377.7,132.6 379.6,126.4
381.4,120.6 383.3,115.2 385.1,110.4 387.0,106.2 388.8,102.5 390.7,99.3 392.5,96.8 394.4,94.7 396.2,93.2 398.1,92.1 400.0,91.4 401.8,91.2 403.7,91.2 405.5,91.6 407.4,92.2 409.2,92.9
411.1,93.8 412.9,94.8 414.8,95.9 416.6,96.9 418.5,97.9 420.3,98.9 422.2,99.8 424.1,100.5 425.9,101.1 427.8,101.6 429.6,101.9 431.5,102.1 433.3,102.1 435.2,101.9 437.0,101.6 438.9,101.1
440.7,100.5 442.6,99.7 444.5,98.9 446.3,98.0 448.2,97.0 450.0,96.0 451.9,95.1 453.7,94.1 455.6,93.3 457.4,92.5 459.3,91.9 461.1,91.4 463.0,91.1 464.8,91.0 466.7,91.1 468.6,91.5
470.4,92.0 472.3,92.8 474.1,93.8 476.0,94.9 477.8,96.3 479.7,97.9 481.5,99.7 483.4,101.6 485.2,103.6 487.1,105.8 488.9,108.0 490.8,110.4 492.7,112.8 494.5,115.2 496.4,117.8 498.2,120.3
500.1,122.9 501.9,125.5 503.8,128.2 505.6,130.9 507.5,133.5 509.3,136.3 511.2,139.0 513.0,141.7 514.9,144.4 516.8,147.2 518.6,149.9 520.5,152.6 522.3,155.3 524.2,157.9 526.0,160.5 527.9,163.1
529.7,165.6 531.6,168.2 533.4,170.6 535.3,173.1 537.1,175.5 539.0,177.8 540.9,180.2 542.7,182.5 544.6,184.8 546.4,187.2 548.3,189.5 550.1,191.9 552.0,194.2 553.8,196.6 555.7,199.0 557.5,201.5
559.4,203.9 561.2,206.4 563.1,208.9 565.0,211.3 566.8,213.8 568.7,216.2 570.5,218.6 572.4,220.9 574.2,223.2 576.1,225.3 577.9,227.3 579.8,229.2 581.6,230.9 583.5,232.5 585.3,233.9 587.2,235.3
589.1,236.4 590.9,237.5 592.8,238.6 594.6,239.6 596.5,240.6 598.3,241.6 600.2,242.8 602.0,244.0 603.9,245.5 605.7,247.1 607.6,249.0 609.4,251.2 611.3,253.7 613.2,256.5 615.0,259.6 616.9,263.0
618.7,266.6 620.6,270.6 622.4,274.7 624.3,279.0 626.1,283.5 628.0,288.0 629.8,292.6 631.7,297.2 633.5,301.8 635.4,306.3 637.3,310.7 639.1,314.9 641.0,319.1 642.8,323.1 644.7,327.0 646.5,330.8
648.4,334.5 650.2,338.1 652.1,341.6 653.9,345.1 655.8,348.5 657.6,352.0 659.5,355.5 661.4,359.0 663.2,362.6 665.1,366.2 666.9,369.9 668.8,373.7 670.6,377.5 672.5,381.4 674.3,385.4 676.2,389.5
678.0,393.6 679.9,397.8 681.8,402.0 683.6,406.3 685.5,410.6 687.3,414.9 689.2,419.3 691.0,423.6 692.9,428.0 694.7,432.3 696.6,436.6 698.4,440.9 700.3,445.2 702.1,449.4 704.0,453.5 705.9,457.6
707.7,461.5 709.6,465.3 711.4,469.0 713.3,472.6 715.1,476.0 717.0,479.2 718.8,482.3 720.7,485.2 722.5,487.9 724.4,490.4 726.2,492.8 728.1,495.0 730.0,497.1 731.8,499.0 733.7,500.8 735.5,502.4
737.4,504.0 739.2,505.5 741.1,506.9 742.9,508.2 744.8,509.4 746.6,510.7 748.5,511.9 750.3,513.0 752.2,514.2 754.1,515.3 755.9,516.4 757.8,517.6 759.6,518.7 761.5,519.8 763.3,520.9 765.2,522.0
767.0,523.1 768.9,524.2 770.7,525.3 772.6,526.4 774.4,527.5 776.3,528.6 778.2,529.7 780.0,530.8 781.9,531.9 783.7,533.0 785.6,534.1 787.4,535.2 789.3,536.3 791.1,537.4 793.0,538.5 794.8,539.6
796.7,540.7 798.5,541.8 800.4,542.9 802.3,544.0 804.1,545.1 806.0,546.2 807.8,547.3 809.7,548.4 811.5,549.5 813.4,550.6 815.2,551.7 817.1,552.8 818.9,553.9 820.8,555.0 822.6,556.0 824.5,557.1
826.4,558.2 828.2,559.3 830.1,560.3 831.9,561.4 833.8,562.4 835.6,563.5 837.5,564.5 839.3,565.5 841.2,566.6 843.0,567.6 844.9,568.6 846.7,569.6 848.6,570.6 850.5,571.6 852.3,572.7 854.2,573.7
856.0,574.8 857.9,575.8 859.7,576.9 861.6,578.0 863.4,579.1 865.3,580.3 867.1,581.4 869.0,582.6 870.8,583.8 872.7,585.1 874.6,586.3 876.4,587.5 878.3,588.8 880.1,590.0 882.0,591.2 883.8,592.4
885.7,593.6 887.5,594.8 889.4,595.9 891.2,597.0 893.1,598.1 894.9,599.2 896.8,600.2 898.7,601.1 900.5,602.0 902.4,602.9 904.2,603.7 906.1,604.5 907.9,605.3 909.8,606.0 911.6,606.7 913.5,607.3
915.3,607.9 917.2,608.5 919.1,609.1 920.9,609.7 922.8,610.2 924.6,610.8 926.5,611.3 926.5,662.4 924.6,662.4 922.8,662.4 920.9,662.4 919.1,662.4 917.2,662.4 915.3,662.4 913.5,662.4 911.6,662.4
909.8,662.4 907.9,662.4 906.1,662.4 904.2,662.4 902.4,662.4 900.5,662.4 898.7,662.4 896.8,662.4 894.9,662.4 893.1,662.4 891.2,662.4 889.4,662.4 887.5,662.4 885.7,662.4 883.8,662.4 882.0,662.4
880.1,662.4 878.3,662.4 876.4,662.4 874.6,662.4 872.7,662.4 870.8,662.4 869.0,662.4 867.1,662.4 865.3,662.4 863.4,662.4 861.6,662.4 859.7,662.4 857.9,662.4 856.0,662.4 854.2,662.4 852.3,662.4
850.5,662.4 848.6,662.4 846.7,662.4 844.9,662.4 843.0,662.4 841.2,662.4 839.3,662.4 837.5,662.4 835.6,662.4 833.8,662.4 831.9,662.4 830.1,662.4 828.2,662.4 826.4,662.4 824.5,662.4 822.6,662.4
820.8,662.4 818.9,662.4 817.1,662.4 815.2,662.4 813.4,662.4 811.5,662.4 809.7,662.4 807.8,662.4 806.0,662.4 804.1,662.4 802.3,662.4 800.4,662.4 798.5,662.4 796.7,662.4 794.8,662.4 793.0,662.4
791.1,662.4 789.3,662.4 787.4,662.4 785.6,662.4 783.7,662.4 781.9,662.4 780.0,662.4 778.2,662.4 776.3,662.4 774.4,662.4 772.6,662.4 770.7,662.4 768.9,662.4 767.0,662.4 765.2,662.4 763.3,662.4
761.5,662.4 759.6,662.4 757.8,662.4 755.9,662.4 754.1,662.4 752.2,662.4 750.3,662.4 748.5,662.4 746.6,662.4 744.8,662.4 742.9,662.4 741.1,662.4 739.2,662.4 737.4,662.4 735.5,662.4 733.7,662.4
731.8,662.4 730.0,662.4 728.1,662.4 726.2,662.4 724.4,662.4 722.5,662.4 720.7,662.4 718.8,662.4 717.0,662.4 715.1,662.4 713.3,662.4 711.4,662.4 709.6,662.4 707.7,662.4 705.9,662.4 704.0,662.4
702.1,662.4 700.3,662.4 698.4,662.4 696.6,662.4 694.7,662.4 692.9,662.4 691.0,662.4 689.2,662.4 687.3,662.4 685.5,662.4 683.6,662.4 681.8,662.4 679.9,662.4 678.0,662.4 676.2,662.4 674.3,662.4
672.5,662.4 670.6,662.4 668.8,662.4 666.9,662.4 665.1,662.4 663.2,662.4 661.4,662.4 659.5,662.4 657.6,662.4 655.8,662.4 653.9,662.4 652.1,662.4 650.2,662.4 648.4,662.4 646.5,662.4 644.7,662.4
642.8,662.4 641.0,662.4 639.1,662.4 637.3,662.4 635.4,662.4 633.5,662.4 631.7,662.4 629.8,662.4 628.0,662.4 626.1,662.4 624.3,662.4 622.4,662.4 620.6,662.4 618.7,662.4 616.9,662.4 615.0,662.4
613.2,662.4 611.3,662.4 609.4,662.4 607.6,662.4 605.7,662.4 603.9,662.4 602.0,662.4 600.2,662.4 598.3,662.4 596.5,662.4 594.6,662.4 592.8,662.4 590.9,662.4 589.1,662.4 587.2,662.4 585.3,662.4
583.5,662.4 581.6,662.4 579.8,662.4 577.9,662.4 576.1,662.4 574.2,662.4 572.4,662.4 570.5,662.4 568.7,662.4 566.8,662.4 565.0,662.4 563.1,662.4 561.2,662.4 559.4,662.4 557.5,662.4 555.7,662.4
553.8,662.4 552.0,662.4 550.1,662.4 548.3,662.4 546.4,662.4 544.6,662.4 542.7,662.4 540.9,662.4 539.0,662.4 537.1,662.4 535.3,662.4 533.4,662.4 531.6,662.4 529.7,662.4 527.9,662.4 526.0,662.4
524.2,662.4 522.3,662.4 520.5,662.4 518.6,662.4 516.8,662.4 514.9,662.4 513.0,662.4 511.2,662.4 509.3,662.4 507.5,662.4 505.6,662.4 503.8,662.4 501.9,662.4 500.1,662.4 498.2,662.4 496.4,662.4
494.5,662.4 492.7,662.4 490.8,662.4 488.9,662.4 487.1,662.4 485.2,662.4 483.4,662.4 481.5,662.4 479.7,662.4 477.8,662.4 476.0,662.4 474.1,662.4 472.3,662.4 470.4,662.4 468.6,662.4 466.7,662.4
464.8,662.4 463.0,662.4 461.1,662.4 459.3,662.4 457.4,662.4 455.6,662.4 453.7,662.4 451.9,662.4 450.0,662.4 448.2,662.4 446.3,662.4 444.5,662.4 442.6,662.4 440.7,662.4 438.9,662.4 437.0,662.4
435.2,662.4 433.3,662.4 431.5,662.4 429.6,662.4 427.8,662.4 425.9,662.4 424.1,662.4 422.2,662.4 420.3,662.4 418.5,662.4 416.6,662.4 414.8,662.4 412.9,662.4 411.1,662.4 409.2,662.4 407.4,662.4
405.5,662.4 403.7,662.4 401.8,662.4 400.0,662.4 398.1,662.4 396.2,662.4 394.4,662.4 392.5,662.4 390.7,662.4 388.8,662.4 387.0,662.4 385.1,662.4 383.3,662.4 381.4,662.4 379.6,662.4 377.7,662.4
375.9,662.4 374.0,662.4 372.1,662.4 370.3,662.4 368.4,662.4 366.6,662.4 364.7,662.4 362.9,662.4 361.0,662.4 359.2,662.4 357.3,662.4 355.5,662.4 353.6,662.4 351.8,662.4 349.9,662.4 348.0,662.4
346.2,662.4 344.3,662.4 342.5,662.4 340.6,662.4 338.8,662.4 336.9,662.4 335.1,662.4 333.2,662.4 331.4,662.4 329.5,662.4 327.7,662.4 325.8,662.4 323.9,662.4 322.1,662.4 320.2,662.4 318.4,662.4
316.5,662.4 314.7,662.4 312.8,662.4 311.0,662.4 309.1,662.4 307.3,662.4 305.4,662.4 303.6,662.4 301.7,662.4 299.8,662.4 298.0,662.4 296.1,662.4 294.3,662.4 292.4,662.4 290.6,662.4 288.7,662.4
286.9,662.4 285.0,662.4 283.2,662.4 281.3,662.4 279.5,662.4 277.6,662.4 275.7,662.4 273.9,662.4 272.0,662.4 270.2,662.4 268.3,662.4 266.5,662.4 264.6,662.4 262.8,662.4 260.9,662.4 259.1,662.4
257.2,662.4 255.4,662.4 253.5,662.4 251.6,662.4 249.8,662.4 247.9,662.4 246.1,662.4 244.2,662.4 242.4,662.4 240.5,662.4 238.7,662.4 236.8,662.4 235.0,662.4 233.1,662.4 231.3,662.4 229.4,662.4
227.5,662.4 225.7,662.4 223.8,662.4 222.0,662.4 220.1,662.4 218.3,662.4 216.4,662.4 214.6,662.4 212.7,662.4 210.9,662.4 209.0,662.4 207.2,662.4 205.3,662.4 203.4,662.4 201.6,662.4 199.7,662.4
197.9,662.4 196.0,662.4 194.2,662.4 192.3,662.4 190.5,662.4 188.6,662.4 186.8,662.4 184.9,662.4 183.0,662.4 181.2,662.4 179.3,662.4 177.5,662.4 175.6,662.4 173.8,662.4 '/>
	</g>
</g>
	</g>
	<g id="gnuplot_plot_3" ><title>Point estimate</title>
<g fill="none" color="white" stroke="rgb( 31, 120, 180)" stroke-width="2.00" stroke-linecap="butt" stroke-linejoin="miter">
</g>
<g fill="none" color="black" stroke="currentColor" stroke-width="2.00" stroke-linecap="butt" stroke-linejoin="miter">
	<g transform="translate(1089.0,103.0)" stroke="none" fill="black" font-family="Helvetica" font-size="12.00"  text-anchor="start">
		<text><tspan font-family="Helvetica" >Point estimate</tspan></text>
	</g>
</g>
<g fill="none" color="black" stroke="currentColor" stroke-width="2.00" stroke-linecap="butt" stroke-linejoin="miter">
	<path stroke='rgb( 31, 120, 180)'  d='M1038.5,99.1 L1080.7,99.1 M492.7,662.4 L492.7,112.8  '/></g>
	</g>
<g fill="none" color="black" stroke="currentColor" stroke-width="2.00" stroke-linecap="butt" stroke-linejoin="miter">
</g>
<g fill="none" color="black" stroke="black" stroke-width="1.00" stroke-linecap="butt" stroke-linejoin="miter">
</g>
<g fill="none" color="black" stroke="currentColor" stroke-width="1.00" stroke-linecap="butt" stroke-linejoin="miter">
	<path stroke='black'  d='M88.5,54.1 L88.5,662.4 L1013.6,662.4 L1013.6,54.1 L88.5,54.1 Z  '/></g>
<g fill="none" color="black" stroke="currentColor" stroke-width="1.00" stroke-linecap="butt" stroke-linejoin="miter">
</g>
</g>
</svg>

