<?xml version="1.0" encoding="utf-8"  standalone="no"?>
<svg 
 viewBox="0 0 1280 720"
 xmlns="http://www.w3.org/2000/svg"
 xmlns:xlink="http://www.w3.org/1999/xlink"
>

<title>Gnuplot</title>
<desc>Produced by GNUPLOT 5.2 patchlevel 8 </desc>

<g id="gnuplot_canvas">

<rect x="0" y="0" width="1280" height="720" fill="none"/>
<defs>

	<circle id='gpDot' r='0.5' stroke-width='0.5' stroke='currentColor'/>
	<path id='gpPt0' stroke-width='0.222' stroke='currentColor' d='M-1,0 h2 M0,-1 v2'/>
	<path id='gpPt1' stroke-width='0.222' stroke='currentColor' d='M-1,-1 L1,1 M1,-1 L-1,1'/>
	<path id='gpPt2' stroke-width='0.222' stroke='currentColor' d='M-1,0 L1,0 M0,-1 L0,1 M-1,-1 L1,1 M-1,1 L1,-1'/>
	<rect id='gpPt3' stroke-width='0.222' stroke='currentColor' x='-1' y='-1' width='2' height='2'/>
	<rect id='gpPt4' stroke-width='0.222' stroke='currentColor' fill='currentColor' x='-1' y='-1' width='2' height='2'/>
	<circle id='gpPt5' stroke-width='0.222' stroke='currentColor' cx='0' cy='0' r='1'/>
	<use xlink:href='#gpPt5' id='gpPt6' fill='currentColor' stroke='none'/>
	<path id='gpPt7' stroke-width='0.222' stroke='currentColor' d='M0,-1.33 L-1.33,0.67 L1.33,0.67 z'/>
	<use xlink:href='#gpPt7' id='gpPt8' fill='currentColor' stroke='none'/>
	<use xlink:href='#gpPt7' id='gpPt9' stroke='currentColor' transform='rotate(180)'/>
	<use xlink:href='#gpPt9' id='gpPt10' fill='currentColor' stroke='none'/>
	<use xlink:href='#gpPt3' id='gpPt11' stroke='currentColor' transform='rotate(45)'/>
	<use xlink:href='#gpPt11' id='gpPt12' fill='currentColor' stroke='none'/>
	<path id='gpPt13' stroke-width='0.222' stroke='currentColor' d='M0,1.330 L1.265,0.411 L0.782,-1.067 L-0.782,-1.076 L-1.265,0.411 z'/>
	<use xlink:href='#gpPt13' id='gpPt14' fill='currentColor' stroke='none'/>
	<filter id='textbox' filterUnits='objectBoundingBox' x='0' y='0' height='1' width='1'>
	  <feFlood flood-color='white' flood-opacity='1' result='bgnd'/>
	  <feComposite in='SourceGraphic' in2='bgnd' operator='atop'/>
	</filter>
	<filter id='greybox' filterUnits='objectBoundingBox' x='0' y='0' height='1' width='1'>
	  <feFlood flood-color='lightgrey' flood-opacity='1' result='grey'/>
	  <feComposite in='SourceGraphic' in2='grey' operator='atop'/>
	</filter>
</defs>
<g fill="none" color="white" stroke="currentColor" stroke-width="1.00" stroke-linecap="butt" stroke-linejoin="miter">
</g>
<g fill="none" color="black" stroke="currentColor" stroke-width="1.00" stroke-linecap="butt" stroke-linejoin="miter">
	<path stroke='black'  d='M88.5,662.4 L97.5,662.4  '/>	<g transform="translate(80.2,666.3)" stroke="none" fill="black" font-family="Helvetica" font-size="12.00"  text-anchor="end">
		<text><tspan font-family="Helvetica" > 0</tspan></text>
	</g>
</g>
<g fill="none" color="black" stroke="currentColor" stroke-width="1.00" stroke-linecap="butt" stroke-linejoin="miter">
	<path stroke='black'  d='M88.5,601.6 L97.5,601.6  '/>	<g transform="translate(80.2,605.5)" stroke="none" fill="black" font-family="Helvetica" font-size="12.00"  text-anchor="end">
		<text><tspan font-family="Helvetica" > 1000</tspan></text>
	</g>
</g>
<g fill="none" color="black" stroke="currentColor" stroke-width="1.00" stroke-linecap="butt" stroke-linejoin="miter">
	<path stroke='black'  d='M88.5,540.7 L97.5,540.7  '/>	<g transform="translate(80.2,544.6)" stroke="none" fill="black" font-family="Helvetica" font-size="12.00"  text-anchor="end">
		<text><tspan font-family="Helvetica" > 2000</tspan></text>
	</g>
</g>
<g fill="none" color="black" stroke="currentColor" stroke-width="1.00" stroke-linecap="butt" stroke-linejoin="miter">
	<path stroke='black'  d='M88.5,479.9 L97.5,479.9  '/>	<g transform="translate(80.2,483.8)" stroke="none" fill="black" font-family="Helvetica" font-size="12.00"  text-anchor="end">
		<text><tspan font-family="Helvetica" > 3000</tspan></text>
	</g>
</g>
<g fill="none" color="black" stroke="currentColor" stroke-width="1.00" stroke-linecap="butt" stroke-linejoin="miter">
	<path stroke='black'  d='M88.5,419.1 L97.5,419.1  '/>	<g transform="translate(80.2,423.0)" stroke="none" fill="black" font-family="Helvetica" font-size="12.00"  text-anchor="end">
		<text><tspan font-family="Helvetica" > 4000</tspan></text>
	</g>
</g>
<g fill="none" color="black" stroke="currentColor" stroke-width="1.00" stroke-linecap="butt" stroke-linejoin="miter">
	<path stroke='black'  d='M88.5,358.3 L97.5,358.3  '/>	<g transform="translate(80.2,362.2)" stroke="none" fill="black" font-family="Helvetica" font-size="12.00"  text-anchor="end">
		<text><tspan font-family="Helvetica" > 5000</tspan></text>
	</g>
</g>
<g fill="none" color="black" stroke="currentColor" stroke-width="1.00" stroke-linecap="butt" stroke-linejoin="miter">
	<path stroke='black'  d='M88.5,297.4 L97.5,297.4  '/>	<g transform="translate(80.2,301.3)" stroke="none" fill="black" font-family="Helvetica" font-size="12.00"  text-anchor="end">
		<text><tspan font-family="Helvetica" > 6000</tspan></text>
	</g>
</g>
<g fill="none" color="black" stroke="currentColor" stroke-width="1.00" stroke-linecap="butt" stroke-linejoin="miter">
	<path stroke='black'  d='M88.5,236.6 L97.5,236.6  '/>	<g transform="translate(80.2,240.5)" stroke="none" fill="black" font-family="Helvetica" font-size="12.00"  text-anchor="end">
		<text><tspan font-family="Helvetica" > 7000</tspan></text>
	</g>
</g>
<g fill="none" color="black" stroke="currentColor" stroke-width="1.00" stroke-linecap="butt" stroke-linejoin="miter">
	<path stroke='black'  d='M88.5,175.8 L97.5,175.8  '/>	<g transform="translate(80.2,179.7)" stroke="none" fill="black" font-family="Helvetica" font-size="12.00"  text-anchor="end">
		<text><tspan font-family="Helvetica" > 8000</tspan></text>
	</g>
</g>
<g fill="none" color="black" stroke="currentColor" stroke-width="1.00" stroke-linecap="butt" stroke-linejoin="miter">
	<path stroke='black'  d='M88.5,114.9 L97.5,114.9  '/>	<g transform="translate(80.2,118.8)" stroke="none" fill="black" font-family="Helvetica" font-size="12.00"  text-anchor="end">
		<text><tspan font-family="Helvetica" > 9000</tspan></text>
	</g>
</g>
<g fill="none" color="black" stroke="currentColor" stroke-width="1.00" stroke-linecap="butt" stroke-linejoin="miter">
	<path stroke='black'  d='M88.5,54.1 L97.5,54.1  '/>	<g transform="translate(80.2,58.0)" stroke="none" fill="black" font-family="Helvetica" font-size="12.00"  text-anchor="end">
		<text><tspan font-family="Helvetica" > 10000</tspan></text>
	</g>
</g>
<g fill="none" color="black" stroke="currentColor" stroke-width="1.00" stroke-linecap="butt" stroke-linejoin="miter">
	<path stroke='black'  d='M187.2,662.4 L187.2,653.4  '/>	<g transform="translate(187.2,684.3)" stroke="none" fill="black" font-family="Helvetica" font-size="12.00"  text-anchor="middle">
		<text><tspan font-family="Helvetica" > 1.28255</tspan></text>
	</g>
</g>
<g fill="none" color="black" stroke="currentColor" stroke-width="1.00" stroke-linecap="butt" stroke-linejoin="miter">
	<path stroke='black'  d='M409.3,662.4 L409.3,653.4  '/>	<g transform="translate(409.3,684.3)" stroke="none" fill="black" font-family="Helvetica" font-size="12.00"  text-anchor="middle">
		<text><tspan font-family="Helvetica" > 1.2826</tspan></text>
	</g>
</g>
<g fill="none" color="black" stroke="currentColor" stroke-width="1.00" stroke-linecap="butt" stroke-linejoin="miter">
	<path stroke='black'  d='M631.5,662.4 L631.5,653.4  '/>	<g transform="translate(631.5,684.3)" stroke="none" fill="black" font-family="Helvetica" font-size="12.00"  text-anchor="middle">
		<text><tspan font-family="Helvetica" > 1.28265</tspan></text>
	</g>
</g>
<g fill="none" color="black" stroke="currentColor" stroke-width="1.00" stroke-linecap="butt" stroke-linejoin="miter">
	<path stroke='black'  d='M853.6,662.4 L853.6,653.4  '/>	<g transform="translate(853.6,684.3)" stroke="none" fill="black" font-family="Helvetica" font-size="12.00"  text-anchor="middle">
		<text><tspan font-family="Helvetica" > 1.2827</tspan></text>
	</g>
</g>
<g fill="none" color="black" stroke="currentColor" stroke-width="1.00" stroke-linecap="butt" stroke-linejoin="miter">
</g>
<g fill="none" color="black" stroke="currentColor" stroke-width="1.00" stroke-linecap="butt" stroke-linejoin="miter">
	<path stroke='black'  d='M88.5,54.1 L88.5,662.4 L1013.6,662.4 L1013.6,54.1 L88.5,54.1 Z  '/></g>
<g fill="none" color="black" stroke="currentColor" stroke-width="1.00" stroke-linecap="butt" stroke-linejoin="miter">
	<g transform="translate(19.0,358.3) rotate(270)" stroke="none" fill="black" font-family="Helvetica" font-size="12.00"  text-anchor="middle">
		<text><tspan font-family="Helvetica" >Density (a.u.)</tspan></text>
	</g>
</g>
<g fill="none" color="black" stroke="currentColor" stroke-width="1.00" stroke-linecap="butt" stroke-linejoin="miter">
	<g transform="translate(551.0,711.3)" stroke="none" fill="black" font-family="Helvetica" font-size="12.00"  text-anchor="middle">
		<text><tspan font-family="Helvetica" >Average time (us)</tspan></text>
	</g>
</g>
<g fill="none" color="black" stroke="currentColor" stroke-width="1.00" stroke-linecap="butt" stroke-linejoin="miter">
	<g transform="translate(551.0,31.0)" stroke="none" fill="black" font-family="Helvetica" font-size="12.00"  text-anchor="middle">
		<text><tspan font-family="Helvetica" >bench_group/blake3/448: slope</tspan></text>
	</g>
</g>
<g fill="none" color="black" stroke="currentColor" stroke-width="1.00" stroke-linecap="butt" stroke-linejoin="miter">
</g>
	<g id="gnuplot_plot_1" ><title>Bootstrap distribution</title>
<g fill="none" color="white" stroke="currentColor" stroke-width="2.00" stroke-linecap="butt" stroke-linejoin="miter">
</g>
<g fill="none" color="black" stroke="currentColor" stroke-width="2.00" stroke-linecap="butt" stroke-linejoin="miter">
	<g transform="translate(1089.0,67.0)" stroke="none" fill="black" font-family="Helvetica" font-size="12.00"  text-anchor="start">
		<text><tspan font-family="Helvetica" >Bootstrap distribution</tspan></text>
	</g>
</g>
<g fill="none" color="black" stroke="currentColor" stroke-width="2.00" stroke-linecap="butt" stroke-linejoin="miter">
	<path stroke='rgb( 31, 120, 180)'  d='M1038.5,63.1 L1080.7,63.1 M88.5,628.6 L90.4,627.7 L92.2,626.7 L94.1,625.8 L95.9,624.8 L97.8,623.8
		L99.6,622.9 L101.5,621.9 L103.3,620.9 L105.2,619.9 L107.0,618.8 L108.9,617.8 L110.7,616.8 L112.6,615.7
		L114.5,614.6 L116.3,613.5 L118.2,612.4 L120.0,611.2 L121.9,610.1 L123.7,608.9 L125.6,607.7 L127.4,606.4
		L129.3,605.1 L131.1,603.8 L133.0,602.5 L134.8,601.1 L136.7,599.7 L138.6,598.2 L140.4,596.7 L142.3,595.2
		L144.1,593.6 L146.0,592.0 L147.8,590.3 L149.7,588.6 L151.5,586.8 L153.4,585.0 L155.2,583.2 L157.1,581.3
		L158.9,579.3 L160.8,577.3 L162.7,575.3 L164.5,573.3 L166.4,571.2 L168.2,569.1 L170.1,566.9 L171.9,564.8
		L173.8,562.6 L175.6,560.4 L177.5,558.2 L179.3,556.0 L181.2,553.7 L183.0,551.5 L184.9,549.2 L186.8,547.0
		L188.6,544.8 L190.5,542.5 L192.3,540.3 L194.2,538.1 L196.0,535.9 L197.9,533.7 L199.7,531.5 L201.6,529.3
		L203.4,527.1 L205.3,524.9 L207.2,522.7 L209.0,520.5 L210.9,518.3 L212.7,516.0 L214.6,513.8 L216.4,511.5
		L218.3,509.2 L220.1,506.9 L222.0,504.5 L223.8,502.1 L225.7,499.6 L227.5,497.0 L229.4,494.4 L231.3,491.8
		L233.1,489.0 L235.0,486.3 L236.8,483.4 L238.7,480.5 L240.5,477.5 L242.4,474.4 L244.2,471.3 L246.1,468.1
		L247.9,464.9 L249.8,461.6 L251.6,458.3 L253.5,454.9 L255.4,451.5 L257.2,448.0 L259.1,444.6 L260.9,441.1
		L262.8,437.5 L264.6,434.0 L266.5,430.5 L268.3,426.9 L270.2,423.4 L272.0,419.9 L273.9,416.4 L275.7,412.8
		L277.6,409.4 L279.5,405.9 L281.3,402.4 L283.2,399.0 L285.0,395.6 L286.9,392.2 L288.7,388.9 L290.6,385.5
		L292.4,382.2 L294.3,378.9 L296.1,375.6 L298.0,372.4 L299.8,369.1 L301.7,365.9 L303.6,362.6 L305.4,359.4
		L307.3,356.2 L309.1,352.9 L311.0,349.7 L312.8,346.4 L314.7,343.2 L316.5,339.9 L318.4,336.6 L320.2,333.3
		L322.1,330.0 L323.9,326.7 L325.8,323.4 L327.7,320.1 L329.5,316.8 L331.4,313.5 L333.2,310.2 L335.1,306.9
		L336.9,303.6 L338.8,300.3 L340.6,297.0 L342.5,293.7 L344.3,290.4 L346.2,287.1 L348.0,283.9 L349.9,280.6
		L351.8,277.3 L353.6,274.0 L355.5,270.7 L357.3,267.4 L359.2,264.1 L361.0,260.7 L362.9,257.4 L364.7,254.1
		L366.6,250.7 L368.4,247.4 L370.3,244.1 L372.1,240.7 L374.0,237.4 L375.9,234.0 L377.7,230.7 L379.6,227.4
		L381.4,224.2 L383.3,220.9 L385.1,217.7 L387.0,214.6 L388.8,211.5 L390.7,208.4 L392.5,205.4 L394.4,202.4
		L396.2,199.5 L398.1,196.7 L400.0,193.9 L401.8,191.2 L403.7,188.6 L405.5,186.0 L407.4,183.4 L409.2,181.0
		L411.1,178.6 L412.9,176.2 L414.8,173.9 L416.6,171.6 L418.5,169.4 L420.3,167.2 L422.2,165.1 L424.1,163.1
		L425.9,161.1 L427.8,159.1 L429.6,157.3 L431.5,155.4 L433.3,153.6 L435.2,151.9 L437.0,150.2 L438.9,148.6
		L440.7,147.0 L442.6,145.5 L444.5,144.0 L446.3,142.5 L448.2,141.1 L450.0,139.7 L451.9,138.4 L453.7,137.0
		L455.6,135.7 L457.4,134.3 L459.3,133.0 L461.1,131.7 L463.0,130.4 L464.8,129.2 L466.7,127.9 L468.6,126.6
		L470.4,125.4 L472.3,124.2 L474.1,123.0 L476.0,121.9 L477.8,120.8 L479.7,119.7 L481.5,118.7 L483.4,117.8
		L485.2,116.9 L487.1,116.1 L488.9,115.3 L490.8,114.6 L492.7,114.0 L494.5,113.4 L496.4,112.9 L498.2,112.4
		L500.1,112.0 L501.9,111.6 L503.8,111.3 L505.6,111.0 L507.5,110.7 L509.3,110.4 L511.2,110.1 L513.0,109.8
		L514.9,109.6 L516.8,109.3 L518.6,109.1 L520.5,108.8 L522.3,108.6 L524.2,108.4 L526.0,108.2 L527.9,108.1
		L529.7,108.0 L531.6,108.0 L533.4,108.0 L535.3,108.2 L537.1,108.4 L539.0,108.7 L540.9,109.2 L542.7,109.7
		L544.6,110.4 L546.4,111.2 L548.3,112.1 L550.1,113.2 L552.0,114.3 L553.8,115.6 L555.7,117.0 L557.5,118.5
		L559.4,120.1 L561.2,121.8 L563.1,123.5 L565.0,125.3 L566.8,127.2 L568.7,129.1 L570.5,131.0 L572.4,132.9
		L574.2,134.9 L576.1,136.8 L577.9,138.8 L579.8,140.7 L581.6,142.7 L583.5,144.7 L585.3,146.6 L587.2,148.5
		L589.1,150.5 L590.9,152.5 L592.8,154.4 L594.6,156.4 L596.5,158.4 L598.3,160.4 L600.2,162.5 L602.0,164.5
		L603.9,166.6 L605.7,168.7 L607.6,170.9 L609.4,173.1 L611.3,175.3 L613.2,177.5 L615.0,179.8 L616.9,182.1
		L618.7,184.3 L620.6,186.7 L622.4,189.0 L624.3,191.3 L626.1,193.6 L628.0,196.0 L629.8,198.3 L631.7,200.7
		L633.5,203.0 L635.4,205.4 L637.3,207.8 L639.1,210.2 L641.0,212.6 L642.8,215.0 L644.7,217.5 L646.5,220.0
		L648.4,222.5 L650.2,225.0 L652.1,227.6 L653.9,230.2 L655.8,232.8 L657.6,235.4 L659.5,238.1 L661.4,240.9
		L663.2,243.6 L665.1,246.4 L666.9,249.2 L668.8,252.1 L670.6,255.0 L672.5,257.9 L674.3,260.8 L676.2,263.7
		L678.0,266.7 L679.9,269.7 L681.8,272.8 L683.6,275.8 L685.5,278.9 L687.3,282.0 L689.2,285.1 L691.0,288.3
		L692.9,291.4 L694.7,294.6 L696.6,297.8 L698.4,301.0 L700.3,304.2 L702.1,307.3 L704.0,310.5 L705.9,313.7
		L707.7,316.9 L709.6,320.0 L711.4,323.2 L713.3,326.3 L715.1,329.4 L717.0,332.5 L718.8,335.6 L720.7,338.7
		L722.5,341.7 L724.4,344.8 L726.2,347.8 L728.1,350.8 L730.0,353.8 L731.8,356.8 L733.7,359.8 L735.5,362.8
		L737.4,365.8 L739.2,368.7 L741.1,371.7 L742.9,374.6 L744.8,377.5 L746.6,380.4 L748.5,383.2 L750.3,386.0
		L752.2,388.8 L754.1,391.6 L755.9,394.3 L757.8,397.0 L759.6,399.7 L761.5,402.3 L763.3,404.9 L765.2,407.5
		L767.0,410.1 L768.9,412.6 L770.7,415.1 L772.6,417.7 L774.4,420.2 L776.3,422.7 L778.2,425.1 L780.0,427.6
		L781.9,430.1 L783.7,432.6 L785.6,435.1 L787.4,437.7 L789.3,440.2 L791.1,442.7 L793.0,445.3 L794.8,447.8
		L796.7,450.3 L798.5,452.9 L800.4,455.5 L802.3,458.0 L804.1,460.5 L806.0,463.1 L807.8,465.6 L809.7,468.1
		L811.5,470.6 L813.4,473.0 L815.2,475.5 L817.1,477.9 L818.9,480.3 L820.8,482.6 L822.6,485.0 L824.5,487.3
		L826.4,489.6 L828.2,491.8 L830.1,494.1 L831.9,496.3 L833.8,498.5 L835.6,500.7 L837.5,502.9 L839.3,505.0
		L841.2,507.2 L843.0,509.3 L844.9,511.4 L846.7,513.5 L848.6,515.5 L850.5,517.6 L852.3,519.6 L854.2,521.6
		L856.0,523.6 L857.9,525.6 L859.7,527.5 L861.6,529.4 L863.4,531.4 L865.3,533.2 L867.1,535.1 L869.0,537.0
		L870.8,538.8 L872.7,540.7 L874.6,542.5 L876.4,544.3 L878.3,546.1 L880.1,547.9 L882.0,549.7 L883.8,551.5
		L885.7,553.2 L887.5,555.0 L889.4,556.8 L891.2,558.5 L893.1,560.3 L894.9,562.0 L896.8,563.7 L898.7,565.4
		L900.5,567.1 L902.4,568.8 L904.2,570.4 L906.1,572.0 L907.9,573.6 L909.8,575.2 L911.6,576.7 L913.5,578.2
		L915.3,579.6 L917.2,581.1 L919.1,582.5 L920.9,583.9 L922.8,585.2 L924.6,586.5 L926.5,587.8 L928.3,589.1
		L930.2,590.3 L932.0,591.5 L933.9,592.6 L935.7,593.8 L937.6,594.9 L939.4,596.0 L941.3,597.1 L943.2,598.1
		L945.0,599.2 L946.9,600.2 L948.7,601.2 L950.6,602.2 L952.4,603.1 L954.3,604.1 L956.1,605.1 L958.0,606.0
		L959.8,606.9 L961.7,607.9 L963.5,608.8 L965.4,609.7 L967.3,610.6 L969.1,611.6 L971.0,612.5 L972.8,613.4
		L974.7,614.3 L976.5,615.3 L978.4,616.2 L980.2,617.1 L982.1,618.0 L983.9,618.9 L985.8,619.8 L987.6,620.7
		L989.5,621.6 L991.4,622.5 L993.2,623.3 L995.1,624.1 L996.9,624.9 L998.8,625.7 L1000.6,626.5 L1002.5,627.2
		L1004.3,627.9 L1006.2,628.6 L1008.0,629.2 L1009.9,629.9 L1011.7,630.5 L1013.6,631.0  '/></g>
	</g>
	<g id="gnuplot_plot_2" ><title>Confidence interval</title>
<g fill="none" color="white" stroke="rgb( 31, 120, 180)" stroke-width="1.00" stroke-linecap="butt" stroke-linejoin="miter">
</g>
<g fill="none" color="black" stroke="currentColor" stroke-width="1.00" stroke-linecap="butt" stroke-linejoin="miter">
	<g transform="translate(1089.0,85.0)" stroke="none" fill="black" font-family="Helvetica" font-size="12.00"  text-anchor="start">
		<text><tspan font-family="Helvetica" >Confidence interval</tspan></text>
	</g>
</g>
<g fill="none" color="black" stroke="currentColor" stroke-width="1.00" stroke-linecap="butt" stroke-linejoin="miter">
	<g stroke='none' shape-rendering='crispEdges'>
		<polygon fill = 'rgb( 31, 120, 180)' fill-opacity = '0.250000' points = '1038.5,85.6 1080.7,85.6 1080.7,76.6 1038.5,76.6 '/>
		<polygon fill = 'rgb( 31, 120, 180)' fill-opacity = '0.250000' points = '173.8,562.6 175.6,560.4 177.5,558.2 179.3,556.0 181.2,553.7 183.0,551.5 184.9,549.2 186.8,547.0 188.6,544.8 190.5,542.5 192.3,540.3 194.2,538.1 196.0,535.9 197.9,533.7 199.7,531.5 201.6,529.3
203.4,527.1 205.3,524.9 207.2,522.7 209.0,520.5 210.9,518.3 212.7,516.0 214.6,513.8 216.4,511.5 218.3,509.2 220.1,506.9 222.0,504.5 223.8,502.1 225.7,499.6 227.5,497.0 229.4,494.4 231.3,491.8
233.1,489.0 235.0,486.3 236.8,483.4 238.7,480.5 240.5,477.5 242.4,474.4 244.2,471.3 246.1,468.1 247.9,464.9 249.8,461.6 251.6,458.3 253.5,454.9 255.4,451.5 257.2,448.0 259.1,444.6 260.9,441.1
262.8,437.5 264.6,434.0 266.5,430.5 268.3,426.9 270.2,423.4 272.0,419.9 273.9,416.4 275.7,412.8 277.6,409.4 279.5,405.9 281.3,402.4 283.2,399.0 285.0,395.6 286.9,392.2 288.7,388.9 290.6,385.5
292.4,382.2 294.3,378.9 296.1,375.6 298.0,372.4 299.8,369.1 301.7,365.9 303.6,362.6 305.4,359.4 307.3,356.2 309.1,352.9 311.0,349.7 312.8,346.4 314.7,343.2 316.5,339.9 318.4,336.6 320.2,333.3
322.1,330.0 323.9,326.7 325.8,323.4 327.7,320.1 329.5,316.8 331.4,313.5 333.2,310.2 335.1,306.9 336.9,303.6 338.8,300.3 340.6,297.0 342.5,293.7 344.3,290.4 346.2,287.1 348.0,283.9 349.9,280.6
351.8,277.3 353.6,274.0 355.5,270.7 357.3,267.4 359.2,264.1 361.0,260.7 362.9,257.4 364.7,254.1 366.6,250.7 368.4,247.4 370.3,244.1 372.1,240.7 374.0,237.4 375.9,234.0 377.7,230.7 379.6,227.4
381.4,224.2 383.3,220.9 385.1,217.7 387.0,214.6 388.8,211.5 390.7,208.4 392.5,205.4 394.4,202.4 396.2,199.5 398.1,196.7 400.0,193.9 401.8,191.2 403.7,188.6 405.5,186.0 407.4,183.4 409.2,181.0
411.1,178.6 412.9,176.2 414.8,173.9 416.6,171.6 418.5,169.4 420.3,167.2 422.2,165.1 424.1,163.1 425.9,161.1 427.8,159.1 429.6,157.3 431.5,155.4 433.3,153.6 435.2,151.9 437.0,150.2 438.9,148.6
440.7,147.0 442.6,145.5 444.5,144.0 446.3,142.5 448.2,141.1 450.0,139.7 451.9,138.4 453.7,137.0 455.6,135.7 457.4,134.3 459.3,133.0 461.1,131.7 463.0,130.4 464.8,129.2 466.7,127.9 468.6,126.6
470.4,125.4 472.3,124.2 474.1,123.0 476.0,121.9 477.8,120.8 479.7,119.7 481.5,118.7 483.4,117.8 485.2,116.9 487.1,116.1 488.9,115.3 490.8,114.6 492.7,114.0 494.5,113.4 496.4,112.9 498.2,112.4
500.1,112.0 501.9,111.6 503.8,111.3 505.6,111.0 507.5,110.7 509.3,110.4 511.2,110.1 513.0,109.8 514.9,109.6 516.8,109.3 518.6,109.1 520.5,108.8 522.3,108.6 524.2,108.4 526.0,108.2 527.9,108.1
529.7,108.0 531.6,108.0 533.4,108.0 535.3,108.2 537.1,108.4 539.0,108.7 540.9,109.2 542.7,109.7 544.6,110.4 546.4,111.2 548.3,112.1 550.1,113.2 552.0,114.3 553.8,115.6 555.7,117.0 557.5,118.5
559.4,120.1 561.2,121.8 563.1,123.5 565.0,125.3 566.8,127.2 568.7,129.1 570.5,131.0 572.4,132.9 574.2,134.9 576.1,136.8 577.9,138.8 579.8,140.7 581.6,142.7 583.5,144.7 585.3,146.6 587.2,148.5
589.1,150.5 590.9,152.5 592.8,154.4 594.6,156.4 596.5,158.4 598.3,160.4 600.2,162.5 602.0,164.5 603.9,166.6 605.7,168.7 607.6,170.9 609.4,173.1 611.3,175.3 613.2,177.5 615.0,179.8 616.9,182.1
618.7,184.3 620.6,186.7 622.4,189.0 624.3,191.3 626.1,193.6 628.0,196.0 629.8,198.3 631.7,200.7 633.5,203.0 635.4,205.4 637.3,207.8 639.1,210.2 641.0,212.6 642.8,215.0 644.7,217.5 646.5,220.0
648.4,222.5 650.2,225.0 652.1,227.6 653.9,230.2 655.8,232.8 657.6,235.4 659.5,238.1 661.4,240.9 663.2,243.6 665.1,246.4 666.9,249.2 668.8,252.1 670.6,255.0 672.5,257.9 674.3,260.8 676.2,263.7
678.0,266.7 679.9,269.7 681.8,272.8 683.6,275.8 685.5,278.9 687.3,282.0 689.2,285.1 691.0,288.3 692.9,291.4 694.7,294.6 696.6,297.8 698.4,301.0 700.3,304.2 702.1,307.3 704.0,310.5 705.9,313.7
707.7,316.9 709.6,320.0 711.4,323.2 713.3,326.3 715.1,329.4 717.0,332.5 718.8,335.6 720.7,338.7 722.5,341.7 724.4,344.8 726.2,347.8 728.1,350.8 730.0,353.8 731.8,356.8 733.7,359.8 735.5,362.8
737.4,365.8 739.2,368.7 741.1,371.7 742.9,374.6 744.8,377.5 746.6,380.4 748.5,383.2 750.3,386.0 752.2,388.8 754.1,391.6 755.9,394.3 757.8,397.0 759.6,399.7 761.5,402.3 763.3,404.9 765.2,407.5
767.0,410.1 768.9,412.6 770.7,415.1 772.6,417.7 774.4,420.2 776.3,422.7 778.2,425.1 780.0,427.6 781.9,430.1 783.7,432.6 785.6,435.1 787.4,437.7 789.3,440.2 791.1,442.7 793.0,445.3 794.8,447.8
796.7,450.3 798.5,452.9 800.4,455.5 802.3,458.0 804.1,460.5 806.0,463.1 807.8,465.6 809.7,468.1 811.5,470.6 813.4,473.0 815.2,475.5 817.1,477.9 818.9,480.3 820.8,482.6 822.6,485.0 824.5,487.3
826.4,489.6 828.2,491.8 830.1,494.1 831.9,496.3 833.8,498.5 835.6,500.7 837.5,502.9 839.3,505.0 841.2,507.2 843.0,509.3 844.9,511.4 846.7,513.5 848.6,515.5 850.5,517.6 852.3,519.6 854.2,521.6
856.0,523.6 857.9,525.6 859.7,527.5 861.6,529.4 863.4,531.4 865.3,533.2 867.1,535.1 869.0,537.0 870.8,538.8 872.7,540.7 874.6,542.5 876.4,544.3 878.3,546.1 880.1,547.9 882.0,549.7 883.8,551.5
885.7,553.2 887.5,555.0 889.4,556.8 891.2,558.5 893.1,560.3 894.9,562.0 896.8,563.7 898.7,565.4 900.5,567.1 902.4,568.8 904.2,570.4 906.1,572.0 907.9,573.6 909.8,575.2 911.6,576.7 913.5,578.2
915.3,579.6 917.2,581.1 919.1,582.5 920.9,583.9 922.8,585.2 924.6,586.5 926.5,587.8 926.5,662.4 924.6,662.4 922.8,662.4 920.9,662.4 919.1,662.4 917.2,662.4 915.3,662.4 913.5,662.4 911.6,662.4
909.8,662.4 907.9,662.4 906.1,662.4 904.2,662.4 902.4,662.4 900.5,662.4 898.7,662.4 896.8,662.4 894.9,662.4 893.1,662.4 891.2,662.4 889.4,662.4 887.5,662.4 885.7,662.4 883.8,662.4 882.0,662.4
880.1,662.4 878.3,662.4 876.4,662.4 874.6,662.4 872.7,662.4 870.8,662.4 869.0,662.4 867.1,662.4 865.3,662.4 863.4,662.4 861.6,662.4 859.7,662.4 857.9,662.4 856.0,662.4 854.2,662.4 852.3,662.4
850.5,662.4 848.6,662.4 846.7,662.4 844.9,662.4 843.0,662.4 841.2,662.4 839.3,662.4 837.5,662.4 835.6,662.4 833.8,662.4 831.9,662.4 830.1,662.4 828.2,662.4 826.4,662.4 824.5,662.4 822.6,662.4
820.8,662.4 818.9,662.4 817.1,662.4 815.2,662.4 813.4,662.4 811.5,662.4 809.7,662.4 807.8,662.4 806.0,662.4 804.1,662.4 802.3,662.4 800.4,662.4 798.5,662.4 796.7,662.4 794.8,662.4 793.0,662.4
791.1,662.4 789.3,662.4 787.4,662.4 785.6,662.4 783.7,662.4 781.9,662.4 780.0,662.4 778.2,662.4 776.3,662.4 774.4,662.4 772.6,662.4 770.7,662.4 768.9,662.4 767.0,662.4 765.2,662.4 763.3,662.4
761.5,662.4 759.6,662.4 757.8,662.4 755.9,662.4 754.1,662.4 752.2,662.4 750.3,662.4 748.5,662.4 746.6,662.4 744.8,662.4 742.9,662.4 741.1,662.4 739.2,662.4 737.4,662.4 735.5,662.4 733.7,662.4
731.8,662.4 730.0,662.4 728.1,662.4 726.2,662.4 724.4,662.4 722.5,662.4 720.7,662.4 718.8,662.4 717.0,662.4 715.1,662.4 713.3,662.4 711.4,662.4 709.6,662.4 707.7,662.4 705.9,662.4 704.0,662.4
702.1,662.4 700.3,662.4 698.4,662.4 696.6,662.4 694.7,662.4 692.9,662.4 691.0,662.4 689.2,662.4 687.3,662.4 685.5,662.4 683.6,662.4 681.8,662.4 679.9,662.4 678.0,662.4 676.2,662.4 674.3,662.4
672.5,662.4 670.6,662.4 668.8,662.4 666.9,662.4 665.1,662.4 663.2,662.4 661.4,662.4 659.5,662.4 657.6,662.4 655.8,662.4 653.9,662.4 652.1,662.4 650.2,662.4 648.4,662.4 646.5,662.4 644.7,662.4
642.8,662.4 641.0,662.4 639.1,662.4 637.3,662.4 635.4,662.4 633.5,662.4 631.7,662.4 629.8,662.4 628.0,662.4 626.1,662.4 624.3,662.4 622.4,662.4 620.6,662.4 618.7,662.4 616.9,662.4 615.0,662.4
613.2,662.4 611.3,662.4 609.4,662.4 607.6,662.4 605.7,662.4 603.9,662.4 602.0,662.4 600.2,662.4 598.3,662.4 596.5,662.4 594.6,662.4 592.8,662.4 590.9,662.4 589.1,662.4 587.2,662.4 585.3,662.4
583.5,662.4 581.6,662.4 579.8,662.4 577.9,662.4 576.1,662.4 574.2,662.4 572.4,662.4 570.5,662.4 568.7,662.4 566.8,662.4 565.0,662.4 563.1,662.4 561.2,662.4 559.4,662.4 557.5,662.4 555.7,662.4
553.8,662.4 552.0,662.4 550.1,662.4 548.3,662.4 546.4,662.4 544.6,662.4 542.7,662.4 540.9,662.4 539.0,662.4 537.1,662.4 535.3,662.4 533.4,662.4 531.6,662.4 529.7,662.4 527.9,662.4 526.0,662.4
524.2,662.4 522.3,662.4 520.5,662.4 518.6,662.4 516.8,662.4 514.9,662.4 513.0,662.4 511.2,662.4 509.3,662.4 507.5,662.4 505.6,662.4 503.8,662.4 501.9,662.4 500.1,662.4 498.2,662.4 496.4,662.4
494.5,662.4 492.7,662.4 490.8,662.4 488.9,662.4 487.1,662.4 485.2,662.4 483.4,662.4 481.5,662.4 479.7,662.4 477.8,662.4 476.0,662.4 474.1,662.4 472.3,662.4 470.4,662.4 468.6,662.4 466.7,662.4
464.8,662.4 463.0,662.4 461.1,662.4 459.3,662.4 457.4,662.4 455.6,662.4 453.7,662.4 451.9,662.4 450.0,662.4 448.2,662.4 446.3,662.4 444.5,662.4 442.6,662.4 440.7,662.4 438.9,662.4 437.0,662.4
435.2,662.4 433.3,662.4 431.5,662.4 429.6,662.4 427.8,662.4 425.9,662.4 424.1,662.4 422.2,662.4 420.3,662.4 418.5,662.4 416.6,662.4 414.8,662.4 412.9,662.4 411.1,662.4 409.2,662.4 407.4,662.4
405.5,662.4 403.7,662.4 401.8,662.4 400.0,662.4 398.1,662.4 396.2,662.4 394.4,662.4 392.5,662.4 390.7,662.4 388.8,662.4 387.0,662.4 385.1,662.4 383.3,662.4 381.4,662.4 379.6,662.4 377.7,662.4
375.9,662.4 374.0,662.4 372.1,662.4 370.3,662.4 368.4,662.4 366.6,662.4 364.7,662.4 362.9,662.4 361.0,662.4 359.2,662.4 357.3,662.4 355.5,662.4 353.6,662.4 351.8,662.4 349.9,662.4 348.0,662.4
346.2,662.4 344.3,662.4 342.5,662.4 340.6,662.4 338.8,662.4 336.9,662.4 335.1,662.4 333.2,662.4 331.4,662.4 329.5,662.4 327.7,662.4 325.8,662.4 323.9,662.4 322.1,662.4 320.2,662.4 318.4,662.4
316.5,662.4 314.7,662.4 312.8,662.4 311.0,662.4 309.1,662.4 307.3,662.4 305.4,662.4 303.6,662.4 301.7,662.4 299.8,662.4 298.0,662.4 296.1,662.4 294.3,662.4 292.4,662.4 290.6,662.4 288.7,662.4
286.9,662.4 285.0,662.4 283.2,662.4 281.3,662.4 279.5,662.4 277.6,662.4 275.7,662.4 273.9,662.4 272.0,662.4 270.2,662.4 268.3,662.4 266.5,662.4 264.6,662.4 262.8,662.4 260.9,662.4 259.1,662.4
257.2,662.4 255.4,662.4 253.5,662.4 251.6,662.4 249.8,662.4 247.9,662.4 246.1,662.4 244.2,662.4 242.4,662.4 240.5,662.4 238.7,662.4 236.8,662.4 235.0,662.4 233.1,662.4 231.3,662.4 229.4,662.4
227.5,662.4 225.7,662.4 223.8,662.4 222.0,662.4 220.1,662.4 218.3,662.4 216.4,662.4 214.6,662.4 212.7,662.4 210.9,662.4 209.0,662.4 207.2,662.4 205.3,662.4 203.4,662.4 201.6,662.4 199.7,662.4
197.9,662.4 196.0,662.4 194.2,662.4 192.3,662.4 190.5,662.4 188.6,662.4 186.8,662.4 184.9,662.4 183.0,662.4 181.2,662.4 179.3,662.4 177.5,662.4 175.6,662.4 173.8,662.4 '/>
	</g>
</g>
	</g>
	<g id="gnuplot_plot_3" ><title>Point estimate</title>
<g fill="none" color="white" stroke="rgb( 31, 120, 180)" stroke-width="2.00" stroke-linecap="butt" stroke-linejoin="miter">
</g>
<g fill="none" color="black" stroke="currentColor" stroke-width="2.00" stroke-linecap="butt" stroke-linejoin="miter">
	<g transform="translate(1089.0,103.0)" stroke="none" fill="black" font-family="Helvetica" font-size="12.00"  text-anchor="start">
		<text><tspan font-family="Helvetica" >Point estimate</tspan></text>
	</g>
</g>
<g fill="none" color="black" stroke="currentColor" stroke-width="2.00" stroke-linecap="butt" stroke-linejoin="miter">
	<path stroke='rgb( 31, 120, 180)'  d='M1038.5,99.1 L1080.7,99.1 M531.7,662.4 L531.7,108.0  '/></g>
	</g>
<g fill="none" color="black" stroke="currentColor" stroke-width="2.00" stroke-linecap="butt" stroke-linejoin="miter">
</g>
<g fill="none" color="black" stroke="black" stroke-width="1.00" stroke-linecap="butt" stroke-linejoin="miter">
</g>
<g fill="none" color="black" stroke="currentColor" stroke-width="1.00" stroke-linecap="butt" stroke-linejoin="miter">
	<path stroke='black'  d='M88.5,54.1 L88.5,662.4 L1013.6,662.4 L1013.6,54.1 L88.5,54.1 Z  '/></g>
<g fill="none" color="black" stroke="currentColor" stroke-width="1.00" stroke-linecap="butt" stroke-linejoin="miter">
</g>
</g>
</svg>

