<?xml version="1.0" encoding="utf-8"  standalone="no"?>
<svg 
 viewBox="0 0 1280 720"
 xmlns="http://www.w3.org/2000/svg"
 xmlns:xlink="http://www.w3.org/1999/xlink"
>

<title>Gnuplot</title>
<desc>Produced by GNUPLOT 5.2 patchlevel 8 </desc>

<g id="gnuplot_canvas">

<rect x="0" y="0" width="1280" height="720" fill="none"/>
<defs>

	<circle id='gpDot' r='0.5' stroke-width='0.5' stroke='currentColor'/>
	<path id='gpPt0' stroke-width='0.222' stroke='currentColor' d='M-1,0 h2 M0,-1 v2'/>
	<path id='gpPt1' stroke-width='0.222' stroke='currentColor' d='M-1,-1 L1,1 M1,-1 L-1,1'/>
	<path id='gpPt2' stroke-width='0.222' stroke='currentColor' d='M-1,0 L1,0 M0,-1 L0,1 M-1,-1 L1,1 M-1,1 L1,-1'/>
	<rect id='gpPt3' stroke-width='0.222' stroke='currentColor' x='-1' y='-1' width='2' height='2'/>
	<rect id='gpPt4' stroke-width='0.222' stroke='currentColor' fill='currentColor' x='-1' y='-1' width='2' height='2'/>
	<circle id='gpPt5' stroke-width='0.222' stroke='currentColor' cx='0' cy='0' r='1'/>
	<use xlink:href='#gpPt5' id='gpPt6' fill='currentColor' stroke='none'/>
	<path id='gpPt7' stroke-width='0.222' stroke='currentColor' d='M0,-1.33 L-1.33,0.67 L1.33,0.67 z'/>
	<use xlink:href='#gpPt7' id='gpPt8' fill='currentColor' stroke='none'/>
	<use xlink:href='#gpPt7' id='gpPt9' stroke='currentColor' transform='rotate(180)'/>
	<use xlink:href='#gpPt9' id='gpPt10' fill='currentColor' stroke='none'/>
	<use xlink:href='#gpPt3' id='gpPt11' stroke='currentColor' transform='rotate(45)'/>
	<use xlink:href='#gpPt11' id='gpPt12' fill='currentColor' stroke='none'/>
	<path id='gpPt13' stroke-width='0.222' stroke='currentColor' d='M0,1.330 L1.265,0.411 L0.782,-1.067 L-0.782,-1.076 L-1.265,0.411 z'/>
	<use xlink:href='#gpPt13' id='gpPt14' fill='currentColor' stroke='none'/>
	<filter id='textbox' filterUnits='objectBoundingBox' x='0' y='0' height='1' width='1'>
	  <feFlood flood-color='white' flood-opacity='1' result='bgnd'/>
	  <feComposite in='SourceGraphic' in2='bgnd' operator='atop'/>
	</filter>
	<filter id='greybox' filterUnits='objectBoundingBox' x='0' y='0' height='1' width='1'>
	  <feFlood flood-color='lightgrey' flood-opacity='1' result='grey'/>
	  <feComposite in='SourceGraphic' in2='grey' operator='atop'/>
	</filter>
</defs>
<g fill="none" color="white" stroke="currentColor" stroke-width="1.00" stroke-linecap="butt" stroke-linejoin="miter">
</g>
<g fill="none" color="black" stroke="currentColor" stroke-width="1.00" stroke-linecap="butt" stroke-linejoin="miter">
	<path stroke='black'  d='M80.2,662.4 L89.2,662.4  '/>	<g transform="translate(71.9,666.3)" stroke="none" fill="black" font-family="Helvetica" font-size="12.00"  text-anchor="end">
		<text><tspan font-family="Helvetica" > 0</tspan></text>
	</g>
</g>
<g fill="none" color="black" stroke="currentColor" stroke-width="1.00" stroke-linecap="butt" stroke-linejoin="miter">
	<path stroke='black'  d='M80.2,575.5 L89.2,575.5  '/>	<g transform="translate(71.9,579.4)" stroke="none" fill="black" font-family="Helvetica" font-size="12.00"  text-anchor="end">
		<text><tspan font-family="Helvetica" > 0.05</tspan></text>
	</g>
</g>
<g fill="none" color="black" stroke="currentColor" stroke-width="1.00" stroke-linecap="butt" stroke-linejoin="miter">
	<path stroke='black'  d='M80.2,488.6 L89.2,488.6  '/>	<g transform="translate(71.9,492.5)" stroke="none" fill="black" font-family="Helvetica" font-size="12.00"  text-anchor="end">
		<text><tspan font-family="Helvetica" > 0.1</tspan></text>
	</g>
</g>
<g fill="none" color="black" stroke="currentColor" stroke-width="1.00" stroke-linecap="butt" stroke-linejoin="miter">
	<path stroke='black'  d='M80.2,401.7 L89.2,401.7  '/>	<g transform="translate(71.9,405.6)" stroke="none" fill="black" font-family="Helvetica" font-size="12.00"  text-anchor="end">
		<text><tspan font-family="Helvetica" > 0.15</tspan></text>
	</g>
</g>
<g fill="none" color="black" stroke="currentColor" stroke-width="1.00" stroke-linecap="butt" stroke-linejoin="miter">
	<path stroke='black'  d='M80.2,314.8 L89.2,314.8  '/>	<g transform="translate(71.9,318.7)" stroke="none" fill="black" font-family="Helvetica" font-size="12.00"  text-anchor="end">
		<text><tspan font-family="Helvetica" > 0.2</tspan></text>
	</g>
</g>
<g fill="none" color="black" stroke="currentColor" stroke-width="1.00" stroke-linecap="butt" stroke-linejoin="miter">
	<path stroke='black'  d='M80.2,227.9 L89.2,227.9  '/>	<g transform="translate(71.9,231.8)" stroke="none" fill="black" font-family="Helvetica" font-size="12.00"  text-anchor="end">
		<text><tspan font-family="Helvetica" > 0.25</tspan></text>
	</g>
</g>
<g fill="none" color="black" stroke="currentColor" stroke-width="1.00" stroke-linecap="butt" stroke-linejoin="miter">
	<path stroke='black'  d='M80.2,141.0 L89.2,141.0  '/>	<g transform="translate(71.9,144.9)" stroke="none" fill="black" font-family="Helvetica" font-size="12.00"  text-anchor="end">
		<text><tspan font-family="Helvetica" > 0.3</tspan></text>
	</g>
</g>
<g fill="none" color="black" stroke="currentColor" stroke-width="1.00" stroke-linecap="butt" stroke-linejoin="miter">
	<path stroke='black'  d='M80.2,54.1 L89.2,54.1  '/>	<g transform="translate(71.9,58.0)" stroke="none" fill="black" font-family="Helvetica" font-size="12.00"  text-anchor="end">
		<text><tspan font-family="Helvetica" > 0.35</tspan></text>
	</g>
</g>
<g fill="none" color="black" stroke="currentColor" stroke-width="1.00" stroke-linecap="butt" stroke-linejoin="miter">
	<path stroke='black'  d='M151.0,662.4 L151.0,653.4  '/>	<g transform="translate(151.0,684.3)" stroke="none" fill="black" font-family="Helvetica" font-size="12.00"  text-anchor="middle">
		<text><tspan font-family="Helvetica" > 5</tspan></text>
	</g>
</g>
<g fill="none" color="black" stroke="currentColor" stroke-width="1.00" stroke-linecap="butt" stroke-linejoin="miter">
	<path stroke='black'  d='M286.5,662.4 L286.5,653.4  '/>	<g transform="translate(286.5,684.3)" stroke="none" fill="black" font-family="Helvetica" font-size="12.00"  text-anchor="middle">
		<text><tspan font-family="Helvetica" > 6</tspan></text>
	</g>
</g>
<g fill="none" color="black" stroke="currentColor" stroke-width="1.00" stroke-linecap="butt" stroke-linejoin="miter">
	<path stroke='black'  d='M422.0,662.4 L422.0,653.4  '/>	<g transform="translate(422.0,684.3)" stroke="none" fill="black" font-family="Helvetica" font-size="12.00"  text-anchor="middle">
		<text><tspan font-family="Helvetica" > 7</tspan></text>
	</g>
</g>
<g fill="none" color="black" stroke="currentColor" stroke-width="1.00" stroke-linecap="butt" stroke-linejoin="miter">
	<path stroke='black'  d='M557.4,662.4 L557.4,653.4  '/>	<g transform="translate(557.4,684.3)" stroke="none" fill="black" font-family="Helvetica" font-size="12.00"  text-anchor="middle">
		<text><tspan font-family="Helvetica" > 8</tspan></text>
	</g>
</g>
<g fill="none" color="black" stroke="currentColor" stroke-width="1.00" stroke-linecap="butt" stroke-linejoin="miter">
	<path stroke='black'  d='M692.9,662.4 L692.9,653.4  '/>	<g transform="translate(692.9,684.3)" stroke="none" fill="black" font-family="Helvetica" font-size="12.00"  text-anchor="middle">
		<text><tspan font-family="Helvetica" > 9</tspan></text>
	</g>
</g>
<g fill="none" color="black" stroke="currentColor" stroke-width="1.00" stroke-linecap="butt" stroke-linejoin="miter">
	<path stroke='black'  d='M828.4,662.4 L828.4,653.4  '/>	<g transform="translate(828.4,684.3)" stroke="none" fill="black" font-family="Helvetica" font-size="12.00"  text-anchor="middle">
		<text><tspan font-family="Helvetica" > 10</tspan></text>
	</g>
</g>
<g fill="none" color="black" stroke="currentColor" stroke-width="1.00" stroke-linecap="butt" stroke-linejoin="miter">
	<path stroke='black'  d='M963.9,662.4 L963.9,653.4  '/>	<g transform="translate(963.9,684.3)" stroke="none" fill="black" font-family="Helvetica" font-size="12.00"  text-anchor="middle">
		<text><tspan font-family="Helvetica" > 11</tspan></text>
	</g>
</g>
<g fill="none" color="black" stroke="currentColor" stroke-width="1.00" stroke-linecap="butt" stroke-linejoin="miter">
</g>
<g fill="none" color="black" stroke="currentColor" stroke-width="1.00" stroke-linecap="butt" stroke-linejoin="miter">
	<path stroke='black'  d='M80.2,54.1 L80.2,662.4 L1013.6,662.4 L1013.6,54.1 L80.2,54.1 Z  '/></g>
<g fill="none" color="black" stroke="currentColor" stroke-width="1.00" stroke-linecap="butt" stroke-linejoin="miter">
	<g transform="translate(19.0,358.3) rotate(270)" stroke="none" fill="black" font-family="Helvetica" font-size="12.00"  text-anchor="middle">
		<text><tspan font-family="Helvetica" >Density (a.u.)</tspan></text>
	</g>
</g>
<g fill="none" color="black" stroke="currentColor" stroke-width="1.00" stroke-linecap="butt" stroke-linejoin="miter">
	<g transform="translate(546.9,711.3)" stroke="none" fill="black" font-family="Helvetica" font-size="12.00"  text-anchor="middle">
		<text><tspan font-family="Helvetica" >Average time (ns)</tspan></text>
	</g>
</g>
<g fill="none" color="black" stroke="currentColor" stroke-width="1.00" stroke-linecap="butt" stroke-linejoin="miter">
	<g transform="translate(546.9,31.0)" stroke="none" fill="black" font-family="Helvetica" font-size="12.00"  text-anchor="middle">
		<text><tspan font-family="Helvetica" >bench_group/blake3/40960: MAD</tspan></text>
	</g>
</g>
<g fill="none" color="black" stroke="currentColor" stroke-width="1.00" stroke-linecap="butt" stroke-linejoin="miter">
</g>
	<g id="gnuplot_plot_1" ><title>Bootstrap distribution</title>
<g fill="none" color="white" stroke="currentColor" stroke-width="2.00" stroke-linecap="butt" stroke-linejoin="miter">
</g>
<g fill="none" color="black" stroke="currentColor" stroke-width="2.00" stroke-linecap="butt" stroke-linejoin="miter">
	<g transform="translate(1089.0,67.0)" stroke="none" fill="black" font-family="Helvetica" font-size="12.00"  text-anchor="start">
		<text><tspan font-family="Helvetica" >Bootstrap distribution</tspan></text>
	</g>
</g>
<g fill="none" color="black" stroke="currentColor" stroke-width="2.00" stroke-linecap="butt" stroke-linejoin="miter">
	<path stroke='rgb( 31, 120, 180)'  d='M1038.5,63.1 L1080.7,63.1 M80.2,645.3 L82.1,644.2 L83.9,643.1 L85.8,641.9 L87.7,640.7 L89.6,639.3
		L91.4,637.9 L93.3,636.4 L95.2,634.8 L97.0,633.1 L98.9,631.4 L100.8,629.5 L102.6,627.6 L104.5,625.6
		L106.4,623.5 L108.3,621.2 L110.1,618.9 L112.0,616.5 L113.9,613.9 L115.7,611.2 L117.6,608.4 L119.5,605.5
		L121.4,602.5 L123.2,599.3 L125.1,596.0 L127.0,592.5 L128.8,588.9 L130.7,585.2 L132.6,581.2 L134.4,577.2
		L136.3,572.9 L138.2,568.5 L140.1,563.9 L141.9,559.1 L143.8,554.2 L145.7,549.1 L147.5,543.9 L149.4,538.5
		L151.3,533.0 L153.2,527.3 L155.0,521.5 L156.9,515.7 L158.8,509.7 L160.6,503.7 L162.5,497.6 L164.4,491.5
		L166.2,485.4 L168.1,479.3 L170.0,473.3 L171.9,467.3 L173.7,461.3 L175.6,455.5 L177.5,449.7 L179.3,444.0
		L181.2,438.5 L183.1,433.1 L185.0,427.8 L186.8,422.7 L188.7,417.7 L190.6,412.9 L192.4,408.3 L194.3,403.8
		L196.2,399.6 L198.0,395.5 L199.9,391.6 L201.8,387.9 L203.7,384.4 L205.5,381.1 L207.4,378.1 L209.3,375.2
		L211.1,372.6 L213.0,370.2 L214.9,368.1 L216.7,366.2 L218.6,364.5 L220.5,363.1 L222.4,361.9 L224.2,361.0
		L226.1,360.4 L228.0,360.0 L229.8,359.9 L231.7,360.1 L233.6,360.5 L235.5,361.2 L237.3,362.2 L239.2,363.4
		L241.1,364.8 L242.9,366.5 L244.8,368.4 L246.7,370.5 L248.5,372.8 L250.4,375.3 L252.3,377.8 L254.2,380.5
		L256.0,383.2 L257.9,385.9 L259.8,388.7 L261.6,391.4 L263.5,394.0 L265.4,396.6 L267.3,399.0 L269.1,401.2
		L271.0,403.2 L272.9,405.1 L274.7,406.7 L276.6,408.0 L278.5,409.2 L280.3,410.0 L282.2,410.6 L284.1,411.0
		L286.0,411.1 L287.8,410.9 L289.7,410.6 L291.6,410.0 L293.4,409.2 L295.3,408.3 L297.2,407.2 L299.1,405.9
		L300.9,404.5 L302.8,402.9 L304.7,401.2 L306.5,399.4 L308.4,397.4 L310.3,395.3 L312.1,393.0 L314.0,390.6
		L315.9,388.0 L317.8,385.2 L319.6,382.3 L321.5,379.2 L323.4,375.9 L325.2,372.5 L327.1,368.9 L329.0,365.1
		L330.9,361.3 L332.7,357.3 L334.6,353.2 L336.5,349.1 L338.3,345.0 L340.2,340.9 L342.1,336.8 L343.9,332.9
		L345.8,329.0 L347.7,325.3 L349.6,321.7 L351.4,318.4 L353.3,315.2 L355.2,312.2 L357.0,309.4 L358.9,306.8
		L360.8,304.4 L362.7,302.2 L364.5,300.0 L366.4,298.0 L368.3,296.0 L370.1,294.1 L372.0,292.1 L373.9,290.1
		L375.7,288.0 L377.6,285.8 L379.5,283.4 L381.4,280.9 L383.2,278.1 L385.1,275.1 L387.0,271.9 L388.8,268.4
		L390.7,264.7 L392.6,260.9 L394.5,256.8 L396.3,252.5 L398.2,248.1 L400.1,243.6 L401.9,239.0 L403.8,234.3
		L405.7,229.7 L407.5,225.0 L409.4,220.4 L411.3,215.9 L413.2,211.5 L415.0,207.2 L416.9,203.0 L418.8,199.0
		L420.6,195.1 L422.5,191.4 L424.4,187.9 L426.3,184.5 L428.1,181.2 L430.0,178.0 L431.9,174.9 L433.7,171.9
		L435.6,168.8 L437.5,165.7 L439.3,162.6 L441.2,159.4 L443.1,156.0 L445.0,152.5 L446.8,148.7 L448.7,144.8
		L450.6,140.7 L452.4,136.4 L454.3,131.8 L456.2,127.1 L458.0,122.1 L459.9,117.1 L461.8,111.9 L463.7,106.7
		L465.5,101.5 L467.4,96.4 L469.3,91.4 L471.1,86.5 L473.0,81.9 L474.9,77.5 L476.8,73.4 L478.6,69.6
		L480.5,66.2 L482.4,63.2 L484.2,60.6 L486.1,58.5 L488.0,56.8 L489.8,55.5 L491.7,54.6 L493.6,54.2
		L495.5,54.3 L497.3,54.8 L499.2,55.8 L501.1,57.2 L502.9,59.0 L504.8,61.3 L506.7,64.1 L508.6,67.3
		L510.4,71.0 L512.3,75.1 L514.2,79.6 L516.0,84.5 L517.9,89.8 L519.8,95.4 L521.6,101.2 L523.5,107.4
		L525.4,113.7 L527.3,120.2 L529.1,126.7 L531.0,133.4 L532.9,140.0 L534.7,146.7 L536.6,153.3 L538.5,159.8
		L540.4,166.2 L542.2,172.6 L544.1,178.9 L546.0,185.2 L547.8,191.3 L549.7,197.5 L551.6,203.6 L553.4,209.8
		L555.3,215.9 L557.2,222.1 L559.1,228.4 L560.9,234.8 L562.8,241.2 L564.7,247.7 L566.5,254.3 L568.4,260.9
		L570.3,267.6 L572.2,274.2 L574.0,280.9 L575.9,287.4 L577.8,293.9 L579.6,300.3 L581.5,306.5 L583.4,312.5
		L585.2,318.3 L587.1,323.9 L589.0,329.2 L590.9,334.3 L592.7,339.1 L594.6,343.6 L596.5,347.9 L598.3,352.0
		L600.2,355.8 L602.1,359.5 L604.0,362.9 L605.8,366.3 L607.7,369.5 L609.6,372.7 L611.4,375.7 L613.3,378.8
		L615.2,381.8 L617.0,384.7 L618.9,387.7 L620.8,390.7 L622.7,393.6 L624.5,396.6 L626.4,399.5 L628.3,402.5
		L630.1,405.4 L632.0,408.2 L633.9,411.1 L635.8,413.8 L637.6,416.6 L639.5,419.2 L641.4,421.8 L643.2,424.4
		L645.1,426.8 L647.0,429.2 L648.8,431.6 L650.7,433.8 L652.6,436.0 L654.5,438.1 L656.3,440.1 L658.2,442.0
		L660.1,443.8 L661.9,445.5 L663.8,447.1 L665.7,448.5 L667.5,449.8 L669.4,450.9 L671.3,451.9 L673.2,452.6
		L675.0,453.2 L676.9,453.6 L678.8,453.9 L680.6,453.9 L682.5,453.8 L684.4,453.5 L686.3,453.0 L688.1,452.5
		L690.0,451.7 L691.9,450.9 L693.7,450.0 L695.6,449.1 L697.5,448.1 L699.3,447.1 L701.2,446.0 L703.1,445.0
		L705.0,444.1 L706.8,443.2 L708.7,442.3 L710.6,441.5 L712.4,440.8 L714.3,440.2 L716.2,439.7 L718.1,439.3
		L719.9,438.9 L721.8,438.7 L723.7,438.6 L725.5,438.5 L727.4,438.5 L729.3,438.6 L731.1,438.8 L733.0,439.0
		L734.9,439.3 L736.8,439.7 L738.6,440.2 L740.5,440.7 L742.4,441.3 L744.2,442.0 L746.1,442.7 L748.0,443.5
		L749.9,444.4 L751.7,445.4 L753.6,446.5 L755.5,447.6 L757.3,448.9 L759.2,450.3 L761.1,451.8 L762.9,453.4
		L764.8,455.1 L766.7,456.9 L768.6,458.9 L770.4,460.9 L772.3,463.2 L774.2,465.5 L776.0,468.0 L777.9,470.5
		L779.8,473.2 L781.7,476.1 L783.5,479.0 L785.4,482.1 L787.3,485.2 L789.1,488.5 L791.0,491.8 L792.9,495.3
		L794.7,498.8 L796.6,502.4 L798.5,506.1 L800.4,509.8 L802.2,513.5 L804.1,517.3 L806.0,521.1 L807.8,524.9
		L809.7,528.7 L811.6,532.5 L813.5,536.3 L815.3,540.0 L817.2,543.6 L819.1,547.2 L820.9,550.6 L822.8,554.0
		L824.7,557.3 L826.5,560.5 L828.4,563.5 L830.3,566.4 L832.2,569.1 L834.0,571.7 L835.9,574.1 L837.8,576.4
		L839.6,578.6 L841.5,580.6 L843.4,582.4 L845.3,584.1 L847.1,585.6 L849.0,587.1 L850.9,588.4 L852.7,589.6
		L854.6,590.6 L856.5,591.6 L858.3,592.6 L860.2,593.4 L862.1,594.2 L864.0,594.9 L865.8,595.6 L867.7,596.3
		L869.6,596.9 L871.4,597.6 L873.3,598.2 L875.2,598.8 L877.1,599.4 L878.9,600.1 L880.8,600.7 L882.7,601.4
		L884.5,602.1 L886.4,602.9 L888.3,603.6 L890.1,604.4 L892.0,605.3 L893.9,606.1 L895.8,607.0 L897.6,608.0
		L899.5,608.9 L901.4,609.9 L903.2,610.9 L905.1,611.9 L907.0,613.0 L908.8,614.0 L910.7,615.1 L912.6,616.1
		L914.5,617.2 L916.3,618.2 L918.2,619.2 L920.1,620.2 L921.9,621.2 L923.8,622.1 L925.7,623.0 L927.6,623.8
		L929.4,624.6 L931.3,625.4 L933.2,626.1 L935.0,626.8 L936.9,627.4 L938.8,628.0 L940.6,628.5 L942.5,629.0
		L944.4,629.5 L946.3,630.0 L948.1,630.4 L950.0,630.8 L951.9,631.3 L953.7,631.7 L955.6,632.1 L957.5,632.5
		L959.4,632.9 L961.2,633.3 L963.1,633.8 L965.0,634.2 L966.8,634.6 L968.7,635.0 L970.6,635.4 L972.4,635.9
		L974.3,636.3 L976.2,636.6 L978.1,637.0 L979.9,637.4 L981.8,637.7 L983.7,638.0 L985.5,638.3 L987.4,638.5
		L989.3,638.7 L991.2,638.9 L993.0,639.1 L994.9,639.2 L996.8,639.3 L998.6,639.4 L1000.5,639.4 L1002.4,639.5
		L1004.2,639.5 L1006.1,639.5 L1008.0,639.5 L1009.9,639.4 L1011.7,639.4 L1013.6,639.3  '/></g>
	</g>
	<g id="gnuplot_plot_2" ><title>Confidence interval</title>
<g fill="none" color="white" stroke="rgb( 31, 120, 180)" stroke-width="1.00" stroke-linecap="butt" stroke-linejoin="miter">
</g>
<g fill="none" color="black" stroke="currentColor" stroke-width="1.00" stroke-linecap="butt" stroke-linejoin="miter">
	<g transform="translate(1089.0,85.0)" stroke="none" fill="black" font-family="Helvetica" font-size="12.00"  text-anchor="start">
		<text><tspan font-family="Helvetica" >Confidence interval</tspan></text>
	</g>
</g>
<g fill="none" color="black" stroke="currentColor" stroke-width="1.00" stroke-linecap="butt" stroke-linejoin="miter">
	<g stroke='none' shape-rendering='crispEdges'>
		<polygon fill = 'rgb( 31, 120, 180)' fill-opacity = '0.250000' points = '1038.5,85.6 1080.7,85.6 1080.7,76.6 1038.5,76.6 '/>
		<polygon fill = 'rgb( 31, 120, 180)' fill-opacity = '0.250000' points = '166.2,485.4 168.1,479.3 170.0,473.3 171.9,467.3 173.7,461.3 175.6,455.5 177.5,449.7 179.3,444.0 181.2,438.5 183.1,433.1 185.0,427.8 186.8,422.7 188.7,417.7 190.6,412.9 192.4,408.3 194.3,403.8
196.2,399.6 198.0,395.5 199.9,391.6 201.8,387.9 203.7,384.4 205.5,381.1 207.4,378.1 209.3,375.2 211.1,372.6 213.0,370.2 214.9,368.1 216.7,366.2 218.6,364.5 220.5,363.1 222.4,361.9 224.2,361.0
226.1,360.4 228.0,360.0 229.8,359.9 231.7,360.1 233.6,360.5 235.5,361.2 237.3,362.2 239.2,363.4 241.1,364.8 242.9,366.5 244.8,368.4 246.7,370.5 248.5,372.8 250.4,375.3 252.3,377.8 254.2,380.5
256.0,383.2 257.9,385.9 259.8,388.7 261.6,391.4 263.5,394.0 265.4,396.6 267.3,399.0 269.1,401.2 271.0,403.2 272.9,405.1 274.7,406.7 276.6,408.0 278.5,409.2 280.3,410.0 282.2,410.6 284.1,411.0
286.0,411.1 287.8,410.9 289.7,410.6 291.6,410.0 293.4,409.2 295.3,408.3 297.2,407.2 299.1,405.9 300.9,404.5 302.8,402.9 304.7,401.2 306.5,399.4 308.4,397.4 310.3,395.3 312.1,393.0 314.0,390.6
315.9,388.0 317.8,385.2 319.6,382.3 321.5,379.2 323.4,375.9 325.2,372.5 327.1,368.9 329.0,365.1 330.9,361.3 332.7,357.3 334.6,353.2 336.5,349.1 338.3,345.0 340.2,340.9 342.1,336.8 343.9,332.9
345.8,329.0 347.7,325.3 349.6,321.7 351.4,318.4 353.3,315.2 355.2,312.2 357.0,309.4 358.9,306.8 360.8,304.4 362.7,302.2 364.5,300.0 366.4,298.0 368.3,296.0 370.1,294.1 372.0,292.1 373.9,290.1
375.7,288.0 377.6,285.8 379.5,283.4 381.4,280.9 383.2,278.1 385.1,275.1 387.0,271.9 388.8,268.4 390.7,264.7 392.6,260.9 394.5,256.8 396.3,252.5 398.2,248.1 400.1,243.6 401.9,239.0 403.8,234.3
405.7,229.7 407.5,225.0 409.4,220.4 411.3,215.9 413.2,211.5 415.0,207.2 416.9,203.0 418.8,199.0 420.6,195.1 422.5,191.4 424.4,187.9 426.3,184.5 428.1,181.2 430.0,178.0 431.9,174.9 433.7,171.9
435.6,168.8 437.5,165.7 439.3,162.6 441.2,159.4 443.1,156.0 445.0,152.5 446.8,148.7 448.7,144.8 450.6,140.7 452.4,136.4 454.3,131.8 456.2,127.1 458.0,122.1 459.9,117.1 461.8,111.9 463.7,106.7
465.5,101.5 467.4,96.4 469.3,91.4 471.1,86.5 473.0,81.9 474.9,77.5 476.8,73.4 478.6,69.6 480.5,66.2 482.4,63.2 484.2,60.6 486.1,58.5 488.0,56.8 489.8,55.5 491.7,54.6 493.6,54.2
495.5,54.3 497.3,54.8 499.2,55.8 501.1,57.2 502.9,59.0 504.8,61.3 506.7,64.1 508.6,67.3 510.4,71.0 512.3,75.1 514.2,79.6 516.0,84.5 517.9,89.8 519.8,95.4 521.6,101.2 523.5,107.4
525.4,113.7 527.3,120.2 529.1,126.7 531.0,133.4 532.9,140.0 534.7,146.7 536.6,153.3 538.5,159.8 540.4,166.2 542.2,172.6 544.1,178.9 546.0,185.2 547.8,191.3 549.7,197.5 551.6,203.6 553.4,209.8
555.3,215.9 557.2,222.1 559.1,228.4 560.9,234.8 562.8,241.2 564.7,247.7 566.5,254.3 568.4,260.9 570.3,267.6 572.2,274.2 574.0,280.9 575.9,287.4 577.8,293.9 579.6,300.3 581.5,306.5 583.4,312.5
585.2,318.3 587.1,323.9 589.0,329.2 590.9,334.3 592.7,339.1 594.6,343.6 596.5,347.9 598.3,352.0 600.2,355.8 602.1,359.5 604.0,362.9 605.8,366.3 607.7,369.5 609.6,372.7 611.4,375.7 613.3,378.8
615.2,381.8 617.0,384.7 618.9,387.7 620.8,390.7 622.7,393.6 624.5,396.6 626.4,399.5 628.3,402.5 630.1,405.4 632.0,408.2 633.9,411.1 635.8,413.8 637.6,416.6 639.5,419.2 641.4,421.8 643.2,424.4
645.1,426.8 647.0,429.2 648.8,431.6 650.7,433.8 652.6,436.0 654.5,438.1 656.3,440.1 658.2,442.0 660.1,443.8 661.9,445.5 663.8,447.1 665.7,448.5 667.5,449.8 669.4,450.9 671.3,451.9 673.2,452.6
675.0,453.2 676.9,453.6 678.8,453.9 680.6,453.9 682.5,453.8 684.4,453.5 686.3,453.0 688.1,452.5 690.0,451.7 691.9,450.9 693.7,450.0 695.6,449.1 697.5,448.1 699.3,447.1 701.2,446.0 703.1,445.0
705.0,444.1 706.8,443.2 708.7,442.3 710.6,441.5 712.4,440.8 714.3,440.2 716.2,439.7 718.1,439.3 719.9,438.9 721.8,438.7 723.7,438.6 725.5,438.5 727.4,438.5 729.3,438.6 731.1,438.8 733.0,439.0
734.9,439.3 736.8,439.7 738.6,440.2 740.5,440.7 742.4,441.3 744.2,442.0 746.1,442.7 748.0,443.5 749.9,444.4 751.7,445.4 753.6,446.5 755.5,447.6 757.3,448.9 759.2,450.3 761.1,451.8 762.9,453.4
764.8,455.1 766.7,456.9 768.6,458.9 770.4,460.9 772.3,463.2 774.2,465.5 776.0,468.0 777.9,470.5 779.8,473.2 781.7,476.1 783.5,479.0 785.4,482.1 787.3,485.2 789.1,488.5 791.0,491.8 792.9,495.3
794.7,498.8 796.6,502.4 798.5,506.1 800.4,509.8 802.2,513.5 804.1,517.3 806.0,521.1 807.8,524.9 809.7,528.7 811.6,532.5 813.5,536.3 815.3,540.0 817.2,543.6 819.1,547.2 820.9,550.6 822.8,554.0
824.7,557.3 826.5,560.5 828.4,563.5 830.3,566.4 832.2,569.1 834.0,571.7 835.9,574.1 837.8,576.4 839.6,578.6 841.5,580.6 843.4,582.4 845.3,584.1 847.1,585.6 849.0,587.1 850.9,588.4 852.7,589.6
854.6,590.6 856.5,591.6 858.3,592.6 860.2,593.4 862.1,594.2 864.0,594.9 865.8,595.6 867.7,596.3 869.6,596.9 871.4,597.6 873.3,598.2 875.2,598.8 877.1,599.4 878.9,600.1 880.8,600.7 882.7,601.4
884.5,602.1 886.4,602.9 888.3,603.6 890.1,604.4 892.0,605.3 893.9,606.1 895.8,607.0 897.6,608.0 899.5,608.9 901.4,609.9 903.2,610.9 905.1,611.9 907.0,613.0 908.8,614.0 910.7,615.1 912.6,616.1
914.5,617.2 916.3,618.2 918.2,619.2 920.1,620.2 921.9,621.2 923.8,622.1 925.7,623.0 925.7,662.4 923.8,662.4 921.9,662.4 920.1,662.4 918.2,662.4 916.3,662.4 914.5,662.4 912.6,662.4 910.7,662.4
908.8,662.4 907.0,662.4 905.1,662.4 903.2,662.4 901.4,662.4 899.5,662.4 897.6,662.4 895.8,662.4 893.9,662.4 892.0,662.4 890.1,662.4 888.3,662.4 886.4,662.4 884.5,662.4 882.7,662.4 880.8,662.4
878.9,662.4 877.1,662.4 875.2,662.4 873.3,662.4 871.4,662.4 869.6,662.4 867.7,662.4 865.8,662.4 864.0,662.4 862.1,662.4 860.2,662.4 858.3,662.4 856.5,662.4 854.6,662.4 852.7,662.4 850.9,662.4
849.0,662.4 847.1,662.4 845.3,662.4 843.4,662.4 841.5,662.4 839.6,662.4 837.8,662.4 835.9,662.4 834.0,662.4 832.2,662.4 830.3,662.4 828.4,662.4 826.5,662.4 824.7,662.4 822.8,662.4 820.9,662.4
819.1,662.4 817.2,662.4 815.3,662.4 813.5,662.4 811.6,662.4 809.7,662.4 807.8,662.4 806.0,662.4 804.1,662.4 802.2,662.4 800.4,662.4 798.5,662.4 796.6,662.4 794.7,662.4 792.9,662.4 791.0,662.4
789.1,662.4 787.3,662.4 785.4,662.4 783.5,662.4 781.7,662.4 779.8,662.4 777.9,662.4 776.0,662.4 774.2,662.4 772.3,662.4 770.4,662.4 768.6,662.4 766.7,662.4 764.8,662.4 762.9,662.4 761.1,662.4
759.2,662.4 757.3,662.4 755.5,662.4 753.6,662.4 751.7,662.4 749.9,662.4 748.0,662.4 746.1,662.4 744.2,662.4 742.4,662.4 740.5,662.4 738.6,662.4 736.8,662.4 734.9,662.4 733.0,662.4 731.1,662.4
729.3,662.4 727.4,662.4 725.5,662.4 723.7,662.4 721.8,662.4 719.9,662.4 718.1,662.4 716.2,662.4 714.3,662.4 712.4,662.4 710.6,662.4 708.7,662.4 706.8,662.4 705.0,662.4 703.1,662.4 701.2,662.4
699.3,662.4 697.5,662.4 695.6,662.4 693.7,662.4 691.9,662.4 690.0,662.4 688.1,662.4 686.3,662.4 684.4,662.4 682.5,662.4 680.6,662.4 678.8,662.4 676.9,662.4 675.0,662.4 673.2,662.4 671.3,662.4
669.4,662.4 667.5,662.4 665.7,662.4 663.8,662.4 661.9,662.4 660.1,662.4 658.2,662.4 656.3,662.4 654.5,662.4 652.6,662.4 650.7,662.4 648.8,662.4 647.0,662.4 645.1,662.4 643.2,662.4 641.4,662.4
639.5,662.4 637.6,662.4 635.8,662.4 633.9,662.4 632.0,662.4 630.1,662.4 628.3,662.4 626.4,662.4 624.5,662.4 622.7,662.4 620.8,662.4 618.9,662.4 617.0,662.4 615.2,662.4 613.3,662.4 611.4,662.4
609.6,662.4 607.7,662.4 605.8,662.4 604.0,662.4 602.1,662.4 600.2,662.4 598.3,662.4 596.5,662.4 594.6,662.4 592.7,662.4 590.9,662.4 589.0,662.4 587.1,662.4 585.2,662.4 583.4,662.4 581.5,662.4
579.6,662.4 577.8,662.4 575.9,662.4 574.0,662.4 572.2,662.4 570.3,662.4 568.4,662.4 566.5,662.4 564.7,662.4 562.8,662.4 560.9,662.4 559.1,662.4 557.2,662.4 555.3,662.4 553.4,662.4 551.6,662.4
549.7,662.4 547.8,662.4 546.0,662.4 544.1,662.4 542.2,662.4 540.4,662.4 538.5,662.4 536.6,662.4 534.7,662.4 532.9,662.4 531.0,662.4 529.1,662.4 527.3,662.4 525.4,662.4 523.5,662.4 521.6,662.4
519.8,662.4 517.9,662.4 516.0,662.4 514.2,662.4 512.3,662.4 510.4,662.4 508.6,662.4 506.7,662.4 504.8,662.4 502.9,662.4 501.1,662.4 499.2,662.4 497.3,662.4 495.5,662.4 493.6,662.4 491.7,662.4
489.8,662.4 488.0,662.4 486.1,662.4 484.2,662.4 482.4,662.4 480.5,662.4 478.6,662.4 476.8,662.4 474.9,662.4 473.0,662.4 471.1,662.4 469.3,662.4 467.4,662.4 465.5,662.4 463.7,662.4 461.8,662.4
459.9,662.4 458.0,662.4 456.2,662.4 454.3,662.4 452.4,662.4 450.6,662.4 448.7,662.4 446.8,662.4 445.0,662.4 443.1,662.4 441.2,662.4 439.3,662.4 437.5,662.4 435.6,662.4 433.7,662.4 431.9,662.4
430.0,662.4 428.1,662.4 426.3,662.4 424.4,662.4 422.5,662.4 420.6,662.4 418.8,662.4 416.9,662.4 415.0,662.4 413.2,662.4 411.3,662.4 409.4,662.4 407.5,662.4 405.7,662.4 403.8,662.4 401.9,662.4
400.1,662.4 398.2,662.4 396.3,662.4 394.5,662.4 392.6,662.4 390.7,662.4 388.8,662.4 387.0,662.4 385.1,662.4 383.2,662.4 381.4,662.4 379.5,662.4 377.6,662.4 375.7,662.4 373.9,662.4 372.0,662.4
370.1,662.4 368.3,662.4 366.4,662.4 364.5,662.4 362.7,662.4 360.8,662.4 358.9,662.4 357.0,662.4 355.2,662.4 353.3,662.4 351.4,662.4 349.6,662.4 347.7,662.4 345.8,662.4 343.9,662.4 342.1,662.4
340.2,662.4 338.3,662.4 336.5,662.4 334.6,662.4 332.7,662.4 330.9,662.4 329.0,662.4 327.1,662.4 325.2,662.4 323.4,662.4 321.5,662.4 319.6,662.4 317.8,662.4 315.9,662.4 314.0,662.4 312.1,662.4
310.3,662.4 308.4,662.4 306.5,662.4 304.7,662.4 302.8,662.4 300.9,662.4 299.1,662.4 297.2,662.4 295.3,662.4 293.4,662.4 291.6,662.4 289.7,662.4 287.8,662.4 286.0,662.4 284.1,662.4 282.2,662.4
280.3,662.4 278.5,662.4 276.6,662.4 274.7,662.4 272.9,662.4 271.0,662.4 269.1,662.4 267.3,662.4 265.4,662.4 263.5,662.4 261.6,662.4 259.8,662.4 257.9,662.4 256.0,662.4 254.2,662.4 252.3,662.4
250.4,662.4 248.5,662.4 246.7,662.4 244.8,662.4 242.9,662.4 241.1,662.4 239.2,662.4 237.3,662.4 235.5,662.4 233.6,662.4 231.7,662.4 229.8,662.4 228.0,662.4 226.1,662.4 224.2,662.4 222.4,662.4
220.5,662.4 218.6,662.4 216.7,662.4 214.9,662.4 213.0,662.4 211.1,662.4 209.3,662.4 207.4,662.4 205.5,662.4 203.7,662.4 201.8,662.4 199.9,662.4 198.0,662.4 196.2,662.4 194.3,662.4 192.4,662.4
190.6,662.4 188.7,662.4 186.8,662.4 185.0,662.4 183.1,662.4 181.2,662.4 179.3,662.4 177.5,662.4 175.6,662.4 173.7,662.4 171.9,662.4 170.0,662.4 168.1,662.4 166.2,662.4 '/>
	</g>
</g>
	</g>
	<g id="gnuplot_plot_3" ><title>Point estimate</title>
<g fill="none" color="white" stroke="rgb( 31, 120, 180)" stroke-width="2.00" stroke-linecap="butt" stroke-linejoin="miter">
</g>
<g fill="none" color="black" stroke="currentColor" stroke-width="2.00" stroke-linecap="butt" stroke-linejoin="miter">
	<g transform="translate(1089.0,103.0)" stroke="none" fill="black" font-family="Helvetica" font-size="12.00"  text-anchor="start">
		<text><tspan font-family="Helvetica" >Point estimate</tspan></text>
	</g>
</g>
<g fill="none" color="black" stroke="currentColor" stroke-width="2.00" stroke-linecap="butt" stroke-linejoin="miter">
	<path stroke='rgb( 31, 120, 180)'  d='M1038.5,99.1 L1080.7,99.1 M486.2,662.4 L486.2,58.4  '/></g>
	</g>
<g fill="none" color="black" stroke="currentColor" stroke-width="2.00" stroke-linecap="butt" stroke-linejoin="miter">
</g>
<g fill="none" color="black" stroke="black" stroke-width="1.00" stroke-linecap="butt" stroke-linejoin="miter">
</g>
<g fill="none" color="black" stroke="currentColor" stroke-width="1.00" stroke-linecap="butt" stroke-linejoin="miter">
	<path stroke='black'  d='M80.2,54.1 L80.2,662.4 L1013.6,662.4 L1013.6,54.1 L80.2,54.1 Z  '/></g>
<g fill="none" color="black" stroke="currentColor" stroke-width="1.00" stroke-linecap="butt" stroke-linejoin="miter">
</g>
</g>
</svg>

