<?xml version="1.0" encoding="utf-8"  standalone="no"?>
<svg 
 viewBox="0 0 1280 720"
 xmlns="http://www.w3.org/2000/svg"
 xmlns:xlink="http://www.w3.org/1999/xlink"
>

<title>Gnuplot</title>
<desc>Produced by GNUPLOT 5.2 patchlevel 8 </desc>

<g id="gnuplot_canvas">

<rect x="0" y="0" width="1280" height="720" fill="none"/>
<defs>

	<circle id='gpDot' r='0.5' stroke-width='0.5' stroke='currentColor'/>
	<path id='gpPt0' stroke-width='0.222' stroke='currentColor' d='M-1,0 h2 M0,-1 v2'/>
	<path id='gpPt1' stroke-width='0.222' stroke='currentColor' d='M-1,-1 L1,1 M1,-1 L-1,1'/>
	<path id='gpPt2' stroke-width='0.222' stroke='currentColor' d='M-1,0 L1,0 M0,-1 L0,1 M-1,-1 L1,1 M-1,1 L1,-1'/>
	<rect id='gpPt3' stroke-width='0.222' stroke='currentColor' x='-1' y='-1' width='2' height='2'/>
	<rect id='gpPt4' stroke-width='0.222' stroke='currentColor' fill='currentColor' x='-1' y='-1' width='2' height='2'/>
	<circle id='gpPt5' stroke-width='0.222' stroke='currentColor' cx='0' cy='0' r='1'/>
	<use xlink:href='#gpPt5' id='gpPt6' fill='currentColor' stroke='none'/>
	<path id='gpPt7' stroke-width='0.222' stroke='currentColor' d='M0,-1.33 L-1.33,0.67 L1.33,0.67 z'/>
	<use xlink:href='#gpPt7' id='gpPt8' fill='currentColor' stroke='none'/>
	<use xlink:href='#gpPt7' id='gpPt9' stroke='currentColor' transform='rotate(180)'/>
	<use xlink:href='#gpPt9' id='gpPt10' fill='currentColor' stroke='none'/>
	<use xlink:href='#gpPt3' id='gpPt11' stroke='currentColor' transform='rotate(45)'/>
	<use xlink:href='#gpPt11' id='gpPt12' fill='currentColor' stroke='none'/>
	<path id='gpPt13' stroke-width='0.222' stroke='currentColor' d='M0,1.330 L1.265,0.411 L0.782,-1.067 L-0.782,-1.076 L-1.265,0.411 z'/>
	<use xlink:href='#gpPt13' id='gpPt14' fill='currentColor' stroke='none'/>
	<filter id='textbox' filterUnits='objectBoundingBox' x='0' y='0' height='1' width='1'>
	  <feFlood flood-color='white' flood-opacity='1' result='bgnd'/>
	  <feComposite in='SourceGraphic' in2='bgnd' operator='atop'/>
	</filter>
	<filter id='greybox' filterUnits='objectBoundingBox' x='0' y='0' height='1' width='1'>
	  <feFlood flood-color='lightgrey' flood-opacity='1' result='grey'/>
	  <feComposite in='SourceGraphic' in2='grey' operator='atop'/>
	</filter>
</defs>
<g fill="none" color="white" stroke="currentColor" stroke-width="1.00" stroke-linecap="butt" stroke-linejoin="miter">
</g>
<g fill="none" color="black" stroke="currentColor" stroke-width="1.00" stroke-linecap="butt" stroke-linejoin="miter">
	<path stroke='black'  d='M88.5,662.4 L97.5,662.4  '/>	<g transform="translate(80.2,666.3)" stroke="none" fill="black" font-family="Helvetica" font-size="12.00"  text-anchor="end">
		<text><tspan font-family="Helvetica" > 0</tspan></text>
	</g>
</g>
<g fill="none" color="black" stroke="currentColor" stroke-width="1.00" stroke-linecap="butt" stroke-linejoin="miter">
	<path stroke='black'  d='M88.5,594.8 L97.5,594.8  '/>	<g transform="translate(80.2,598.7)" stroke="none" fill="black" font-family="Helvetica" font-size="12.00"  text-anchor="end">
		<text><tspan font-family="Helvetica" > 5000</tspan></text>
	</g>
</g>
<g fill="none" color="black" stroke="currentColor" stroke-width="1.00" stroke-linecap="butt" stroke-linejoin="miter">
	<path stroke='black'  d='M88.5,527.2 L97.5,527.2  '/>	<g transform="translate(80.2,531.1)" stroke="none" fill="black" font-family="Helvetica" font-size="12.00"  text-anchor="end">
		<text><tspan font-family="Helvetica" > 10000</tspan></text>
	</g>
</g>
<g fill="none" color="black" stroke="currentColor" stroke-width="1.00" stroke-linecap="butt" stroke-linejoin="miter">
	<path stroke='black'  d='M88.5,459.6 L97.5,459.6  '/>	<g transform="translate(80.2,463.5)" stroke="none" fill="black" font-family="Helvetica" font-size="12.00"  text-anchor="end">
		<text><tspan font-family="Helvetica" > 15000</tspan></text>
	</g>
</g>
<g fill="none" color="black" stroke="currentColor" stroke-width="1.00" stroke-linecap="butt" stroke-linejoin="miter">
	<path stroke='black'  d='M88.5,392.0 L97.5,392.0  '/>	<g transform="translate(80.2,395.9)" stroke="none" fill="black" font-family="Helvetica" font-size="12.00"  text-anchor="end">
		<text><tspan font-family="Helvetica" > 20000</tspan></text>
	</g>
</g>
<g fill="none" color="black" stroke="currentColor" stroke-width="1.00" stroke-linecap="butt" stroke-linejoin="miter">
	<path stroke='black'  d='M88.5,324.5 L97.5,324.5  '/>	<g transform="translate(80.2,328.4)" stroke="none" fill="black" font-family="Helvetica" font-size="12.00"  text-anchor="end">
		<text><tspan font-family="Helvetica" > 25000</tspan></text>
	</g>
</g>
<g fill="none" color="black" stroke="currentColor" stroke-width="1.00" stroke-linecap="butt" stroke-linejoin="miter">
	<path stroke='black'  d='M88.5,256.9 L97.5,256.9  '/>	<g transform="translate(80.2,260.8)" stroke="none" fill="black" font-family="Helvetica" font-size="12.00"  text-anchor="end">
		<text><tspan font-family="Helvetica" > 30000</tspan></text>
	</g>
</g>
<g fill="none" color="black" stroke="currentColor" stroke-width="1.00" stroke-linecap="butt" stroke-linejoin="miter">
	<path stroke='black'  d='M88.5,189.3 L97.5,189.3  '/>	<g transform="translate(80.2,193.2)" stroke="none" fill="black" font-family="Helvetica" font-size="12.00"  text-anchor="end">
		<text><tspan font-family="Helvetica" > 35000</tspan></text>
	</g>
</g>
<g fill="none" color="black" stroke="currentColor" stroke-width="1.00" stroke-linecap="butt" stroke-linejoin="miter">
	<path stroke='black'  d='M88.5,121.7 L97.5,121.7  '/>	<g transform="translate(80.2,125.6)" stroke="none" fill="black" font-family="Helvetica" font-size="12.00"  text-anchor="end">
		<text><tspan font-family="Helvetica" > 40000</tspan></text>
	</g>
</g>
<g fill="none" color="black" stroke="currentColor" stroke-width="1.00" stroke-linecap="butt" stroke-linejoin="miter">
	<path stroke='black'  d='M88.5,54.1 L97.5,54.1  '/>	<g transform="translate(80.2,58.0)" stroke="none" fill="black" font-family="Helvetica" font-size="12.00"  text-anchor="end">
		<text><tspan font-family="Helvetica" > 45000</tspan></text>
	</g>
</g>
<g fill="none" color="black" stroke="currentColor" stroke-width="1.00" stroke-linecap="butt" stroke-linejoin="miter">
	<path stroke='black'  d='M112.4,662.4 L112.4,653.4  '/>	<g transform="translate(112.4,684.3)" stroke="none" fill="black" font-family="Helvetica" font-size="12.00"  text-anchor="middle">
		<text><tspan font-family="Helvetica" >-70.376</tspan></text>
	</g>
</g>
<g fill="none" color="black" stroke="currentColor" stroke-width="1.00" stroke-linecap="butt" stroke-linejoin="miter">
	<path stroke='black'  d='M292.6,662.4 L292.6,653.4  '/>	<g transform="translate(292.6,684.3)" stroke="none" fill="black" font-family="Helvetica" font-size="12.00"  text-anchor="middle">
		<text><tspan font-family="Helvetica" >-70.375</tspan></text>
	</g>
</g>
<g fill="none" color="black" stroke="currentColor" stroke-width="1.00" stroke-linecap="butt" stroke-linejoin="miter">
	<path stroke='black'  d='M472.8,662.4 L472.8,653.4  '/>	<g transform="translate(472.8,684.3)" stroke="none" fill="black" font-family="Helvetica" font-size="12.00"  text-anchor="middle">
		<text><tspan font-family="Helvetica" >-70.374</tspan></text>
	</g>
</g>
<g fill="none" color="black" stroke="currentColor" stroke-width="1.00" stroke-linecap="butt" stroke-linejoin="miter">
	<path stroke='black'  d='M653.0,662.4 L653.0,653.4  '/>	<g transform="translate(653.0,684.3)" stroke="none" fill="black" font-family="Helvetica" font-size="12.00"  text-anchor="middle">
		<text><tspan font-family="Helvetica" >-70.373</tspan></text>
	</g>
</g>
<g fill="none" color="black" stroke="currentColor" stroke-width="1.00" stroke-linecap="butt" stroke-linejoin="miter">
	<path stroke='black'  d='M833.3,662.4 L833.3,653.4  '/>	<g transform="translate(833.3,684.3)" stroke="none" fill="black" font-family="Helvetica" font-size="12.00"  text-anchor="middle">
		<text><tspan font-family="Helvetica" >-70.372</tspan></text>
	</g>
</g>
<g fill="none" color="black" stroke="currentColor" stroke-width="1.00" stroke-linecap="butt" stroke-linejoin="miter">
	<path stroke='black'  d='M1013.5,662.4 L1013.5,653.4  '/>	<g transform="translate(1013.5,684.3)" stroke="none" fill="black" font-family="Helvetica" font-size="12.00"  text-anchor="middle">
		<text><tspan font-family="Helvetica" >-70.371</tspan></text>
	</g>
</g>
<g fill="none" color="black" stroke="currentColor" stroke-width="1.00" stroke-linecap="butt" stroke-linejoin="miter">
</g>
<g fill="none" color="black" stroke="currentColor" stroke-width="1.00" stroke-linecap="butt" stroke-linejoin="miter">
	<path stroke='black'  d='M88.5,54.1 L88.5,662.4 L1013.6,662.4 L1013.6,54.1 L88.5,54.1 Z  '/></g>
<g fill="none" color="black" stroke="currentColor" stroke-width="1.00" stroke-linecap="butt" stroke-linejoin="miter">
	<g transform="translate(19.0,358.3) rotate(270)" stroke="none" fill="black" font-family="Helvetica" font-size="12.00"  text-anchor="middle">
		<text><tspan font-family="Helvetica" >Density (a.u.)</tspan></text>
	</g>
</g>
<g fill="none" color="black" stroke="currentColor" stroke-width="1.00" stroke-linecap="butt" stroke-linejoin="miter">
	<g transform="translate(551.0,711.3)" stroke="none" fill="black" font-family="Helvetica" font-size="12.00"  text-anchor="middle">
		<text><tspan font-family="Helvetica" >Relative change (%)</tspan></text>
	</g>
</g>
<g fill="none" color="black" stroke="currentColor" stroke-width="1.00" stroke-linecap="butt" stroke-linejoin="miter">
	<g transform="translate(551.0,31.0)" stroke="none" fill="black" font-family="Helvetica" font-size="12.00"  text-anchor="middle">
		<text><tspan font-family="Helvetica" >bench_group/blake3/49152: median</tspan></text>
	</g>
</g>
<g fill="none" color="black" stroke="currentColor" stroke-width="1.00" stroke-linecap="butt" stroke-linejoin="miter">
</g>
	<g id="gnuplot_plot_1" ><title>Bootstrap distribution</title>
<g fill="none" color="white" stroke="currentColor" stroke-width="2.00" stroke-linecap="butt" stroke-linejoin="miter">
</g>
<g fill="none" color="black" stroke="currentColor" stroke-width="2.00" stroke-linecap="butt" stroke-linejoin="miter">
	<g transform="translate(1089.0,67.0)" stroke="none" fill="black" font-family="Helvetica" font-size="12.00"  text-anchor="start">
		<text><tspan font-family="Helvetica" >Bootstrap distribution</tspan></text>
	</g>
</g>
<g fill="none" color="black" stroke="currentColor" stroke-width="2.00" stroke-linecap="butt" stroke-linejoin="miter">
	<path stroke='rgb( 31, 120, 180)'  d='M1038.5,63.1 L1080.7,63.1 M88.5,646.4 L90.4,646.0 L92.2,645.7 L94.1,645.3 L95.9,644.9 L97.8,644.5
		L99.6,644.2 L101.5,643.7 L103.3,643.3 L105.2,642.9 L107.0,642.5 L108.9,642.1 L110.7,641.6 L112.6,641.2
		L114.5,640.7 L116.3,640.2 L118.2,639.7 L120.0,639.2 L121.9,638.7 L123.7,638.2 L125.6,637.7 L127.4,637.2
		L129.3,636.6 L131.1,636.1 L133.0,635.5 L134.8,635.0 L136.7,634.4 L138.6,633.8 L140.4,633.2 L142.3,632.6
		L144.1,632.0 L146.0,631.4 L147.8,630.8 L149.7,630.2 L151.5,629.6 L153.4,629.0 L155.2,628.4 L157.1,627.7
		L158.9,627.1 L160.8,626.5 L162.7,625.9 L164.5,625.3 L166.4,624.7 L168.2,624.0 L170.1,623.4 L171.9,622.8
		L173.8,622.2 L175.6,621.6 L177.5,621.0 L179.3,620.4 L181.2,619.8 L183.0,619.2 L184.9,618.6 L186.8,618.0
		L188.6,617.4 L190.5,616.8 L192.3,616.3 L194.2,615.7 L196.0,615.1 L197.9,614.5 L199.7,613.9 L201.6,613.3
		L203.4,612.7 L205.3,612.2 L207.2,611.6 L209.0,611.0 L210.9,610.3 L212.7,609.7 L214.6,609.1 L216.4,608.5
		L218.3,607.8 L220.1,607.2 L222.0,606.5 L223.8,605.8 L225.7,605.1 L227.5,604.4 L229.4,603.7 L231.3,602.9
		L233.1,602.1 L235.0,601.3 L236.8,600.5 L238.7,599.7 L240.5,598.8 L242.4,598.0 L244.2,597.1 L246.1,596.1
		L247.9,595.2 L249.8,594.2 L251.6,593.2 L253.5,592.1 L255.4,591.0 L257.2,589.9 L259.1,588.8 L260.9,587.6
		L262.8,586.4 L264.6,585.1 L266.5,583.9 L268.3,582.5 L270.2,581.2 L272.0,579.8 L273.9,578.4 L275.7,576.9
		L277.6,575.4 L279.5,573.8 L281.3,572.2 L283.2,570.5 L285.0,568.9 L286.9,567.1 L288.7,565.3 L290.6,563.5
		L292.4,561.6 L294.3,559.7 L296.1,557.7 L298.0,555.7 L299.8,553.7 L301.7,551.5 L303.6,549.4 L305.4,547.2
		L307.3,544.9 L309.1,542.6 L311.0,540.2 L312.8,537.8 L314.7,535.4 L316.5,532.9 L318.4,530.4 L320.2,527.8
		L322.1,525.2 L323.9,522.5 L325.8,519.8 L327.7,517.1 L329.5,514.3 L331.4,511.5 L333.2,508.7 L335.1,505.9
		L336.9,503.0 L338.8,500.1 L340.6,497.2 L342.5,494.2 L344.3,491.3 L346.2,488.3 L348.0,485.3 L349.9,482.4
		L351.8,479.4 L353.6,476.4 L355.5,473.4 L357.3,470.4 L359.2,467.5 L361.0,464.5 L362.9,461.6 L364.7,458.6
		L366.6,455.7 L368.4,452.8 L370.3,449.9 L372.1,447.1 L374.0,444.2 L375.9,441.4 L377.7,438.7 L379.6,435.9
		L381.4,433.2 L383.3,430.5 L385.1,427.9 L387.0,425.3 L388.8,422.7 L390.7,420.2 L392.5,417.7 L394.4,415.2
		L396.2,412.7 L398.1,410.3 L400.0,407.9 L401.8,405.6 L403.7,403.3 L405.5,401.0 L407.4,398.7 L409.2,396.4
		L411.1,394.2 L412.9,392.0 L414.8,389.8 L416.6,387.6 L418.5,385.5 L420.3,383.3 L422.2,381.2 L424.1,379.0
		L425.9,376.9 L427.8,374.7 L429.6,372.6 L431.5,370.4 L433.3,368.2 L435.2,366.1 L437.0,363.9 L438.9,361.6
		L440.7,359.4 L442.6,357.1 L444.5,354.9 L446.3,352.6 L448.2,350.2 L450.0,347.9 L451.9,345.5 L453.7,343.0
		L455.6,340.6 L457.4,338.1 L459.3,335.5 L461.1,333.0 L463.0,330.4 L464.8,327.7 L466.7,325.1 L468.6,322.4
		L470.4,319.7 L472.3,316.9 L474.1,314.1 L476.0,311.3 L477.8,308.5 L479.7,305.6 L481.5,302.7 L483.4,299.8
		L485.2,296.9 L487.1,293.9 L488.9,291.0 L490.8,288.0 L492.7,285.1 L494.5,282.1 L496.4,279.2 L498.2,276.2
		L500.1,273.2 L501.9,270.3 L503.8,267.4 L505.6,264.4 L507.5,261.6 L509.3,258.7 L511.2,255.8 L513.0,253.0
		L514.9,250.2 L516.8,247.4 L518.6,244.7 L520.5,242.0 L522.3,239.3 L524.2,236.7 L526.0,234.1 L527.9,231.6
		L529.7,229.1 L531.6,226.6 L533.4,224.1 L535.3,221.8 L537.1,219.4 L539.0,217.1 L540.9,214.8 L542.7,212.5
		L544.6,210.3 L546.4,208.1 L548.3,206.0 L550.1,203.8 L552.0,201.7 L553.8,199.6 L555.7,197.6 L557.5,195.5
		L559.4,193.4 L561.2,191.4 L563.1,189.3 L565.0,187.3 L566.8,185.3 L568.7,183.2 L570.5,181.1 L572.4,179.0
		L574.2,176.9 L576.1,174.8 L577.9,172.7 L579.8,170.5 L581.6,168.3 L583.5,166.1 L585.3,163.8 L587.2,161.5
		L589.1,159.2 L590.9,156.8 L592.8,154.4 L594.6,152.0 L596.5,149.5 L598.3,147.1 L600.2,144.5 L602.0,142.0
		L603.9,139.4 L605.7,136.9 L607.6,134.3 L609.4,131.7 L611.3,129.0 L613.2,126.4 L615.0,123.8 L616.9,121.3
		L618.7,118.7 L620.6,116.2 L622.4,113.7 L624.3,111.2 L626.1,108.8 L628.0,106.5 L629.8,104.2 L631.7,102.0
		L633.5,99.9 L635.4,97.8 L637.3,95.9 L639.1,94.1 L641.0,92.4 L642.8,90.9 L644.7,89.4 L646.5,88.1
		L648.4,87.0 L650.2,86.0 L652.1,85.2 L653.9,84.5 L655.8,84.0 L657.6,83.7 L659.5,83.6 L661.4,83.7
		L663.2,83.9 L665.1,84.3 L666.9,85.0 L668.8,85.8 L670.6,86.8 L672.5,88.0 L674.3,89.4 L676.2,91.0
		L678.0,92.8 L679.9,94.7 L681.8,96.9 L683.6,99.2 L685.5,101.7 L687.3,104.4 L689.2,107.3 L691.0,110.3
		L692.9,113.5 L694.7,116.8 L696.6,120.3 L698.4,123.9 L700.3,127.6 L702.1,131.5 L704.0,135.4 L705.9,139.5
		L707.7,143.7 L709.6,147.9 L711.4,152.3 L713.3,156.7 L715.1,161.2 L717.0,165.7 L718.8,170.3 L720.7,175.0
		L722.5,179.6 L724.4,184.3 L726.2,189.0 L728.1,193.7 L730.0,198.5 L731.8,203.2 L733.7,207.9 L735.5,212.6
		L737.4,217.2 L739.2,221.9 L741.1,226.5 L742.9,231.1 L744.8,235.6 L746.6,240.1 L748.5,244.5 L750.3,248.9
		L752.2,253.2 L754.1,257.4 L755.9,261.6 L757.8,265.8 L759.6,269.8 L761.5,273.8 L763.3,277.7 L765.2,281.6
		L767.0,285.4 L768.9,289.1 L770.7,292.7 L772.6,296.3 L774.4,299.8 L776.3,303.3 L778.2,306.6 L780.0,309.9
		L781.9,313.2 L783.7,316.3 L785.6,319.5 L787.4,322.5 L789.3,325.5 L791.1,328.5 L793.0,331.4 L794.8,334.3
		L796.7,337.1 L798.5,339.9 L800.4,342.6 L802.3,345.3 L804.1,348.0 L806.0,350.6 L807.8,353.3 L809.7,355.9
		L811.5,358.5 L813.4,361.1 L815.2,363.7 L817.1,366.3 L818.9,368.9 L820.8,371.5 L822.6,374.1 L824.5,376.7
		L826.4,379.4 L828.2,382.0 L830.1,384.7 L831.9,387.4 L833.8,390.1 L835.6,392.9 L837.5,395.7 L839.3,398.5
		L841.2,401.4 L843.0,404.3 L844.9,407.3 L846.7,410.2 L848.6,413.3 L850.5,416.3 L852.3,419.4 L854.2,422.6
		L856.0,425.8 L857.9,429.0 L859.7,432.3 L861.6,435.6 L863.4,438.9 L865.3,442.3 L867.1,445.7 L869.0,449.1
		L870.8,452.6 L872.7,456.1 L874.6,459.6 L876.4,463.1 L878.3,466.6 L880.1,470.2 L882.0,473.7 L883.8,477.3
		L885.7,480.8 L887.5,484.4 L889.4,487.9 L891.2,491.5 L893.1,495.0 L894.9,498.5 L896.8,502.0 L898.7,505.4
		L900.5,508.9 L902.4,512.3 L904.2,515.7 L906.1,519.0 L907.9,522.3 L909.8,525.5 L911.6,528.8 L913.5,531.9
		L915.3,535.0 L917.2,538.1 L919.1,541.1 L920.9,544.1 L922.8,547.0 L924.6,549.9 L926.5,552.7 L928.3,555.4
		L930.2,558.1 L932.0,560.7 L933.9,563.3 L935.7,565.8 L937.6,568.3 L939.4,570.7 L941.3,573.0 L943.2,575.3
		L945.0,577.5 L946.9,579.7 L948.7,581.8 L950.6,583.8 L952.4,585.8 L954.3,587.8 L956.1,589.6 L958.0,591.5
		L959.8,593.3 L961.7,595.0 L963.5,596.7 L965.4,598.3 L967.3,599.9 L969.1,601.5 L971.0,603.0 L972.8,604.4
		L974.7,605.9 L976.5,607.3 L978.4,608.6 L980.2,609.9 L982.1,611.2 L983.9,612.4 L985.8,613.6 L987.6,614.8
		L989.5,615.9 L991.4,617.0 L993.2,618.1 L995.1,619.2 L996.9,620.2 L998.8,621.2 L1000.6,622.2 L1002.5,623.1
		L1004.3,624.1 L1006.2,625.0 L1008.0,625.9 L1009.9,626.7 L1011.7,627.6 L1013.6,628.4  '/></g>
	</g>
	<g id="gnuplot_plot_2" ><title>Confidence interval</title>
<g fill="none" color="white" stroke="rgb( 31, 120, 180)" stroke-width="1.00" stroke-linecap="butt" stroke-linejoin="miter">
</g>
<g fill="none" color="black" stroke="currentColor" stroke-width="1.00" stroke-linecap="butt" stroke-linejoin="miter">
	<g transform="translate(1089.0,85.0)" stroke="none" fill="black" font-family="Helvetica" font-size="12.00"  text-anchor="start">
		<text><tspan font-family="Helvetica" >Confidence interval</tspan></text>
	</g>
</g>
<g fill="none" color="black" stroke="currentColor" stroke-width="1.00" stroke-linecap="butt" stroke-linejoin="miter">
	<g stroke='none' shape-rendering='crispEdges'>
		<polygon fill = 'rgb( 31, 120, 180)' fill-opacity = '0.250000' points = '1038.5,85.6 1080.7,85.6 1080.7,76.6 1038.5,76.6 '/>
		<polygon fill = 'rgb( 31, 120, 180)' fill-opacity = '0.250000' points = '173.8,622.2 175.6,621.6 177.5,621.0 179.3,620.4 181.2,619.8 183.0,619.2 184.9,618.6 186.8,618.0 188.6,617.4 190.5,616.8 192.3,616.3 194.2,615.7 196.0,615.1 197.9,614.5 199.7,613.9 201.6,613.3
203.4,612.7 205.3,612.2 207.2,611.6 209.0,611.0 210.9,610.3 212.7,609.7 214.6,609.1 216.4,608.5 218.3,607.8 220.1,607.2 222.0,606.5 223.8,605.8 225.7,605.1 227.5,604.4 229.4,603.7 231.3,602.9
233.1,602.1 235.0,601.3 236.8,600.5 238.7,599.7 240.5,598.8 242.4,598.0 244.2,597.1 246.1,596.1 247.9,595.2 249.8,594.2 251.6,593.2 253.5,592.1 255.4,591.0 257.2,589.9 259.1,588.8 260.9,587.6
262.8,586.4 264.6,585.1 266.5,583.9 268.3,582.5 270.2,581.2 272.0,579.8 273.9,578.4 275.7,576.9 277.6,575.4 279.5,573.8 281.3,572.2 283.2,570.5 285.0,568.9 286.9,567.1 288.7,565.3 290.6,563.5
292.4,561.6 294.3,559.7 296.1,557.7 298.0,555.7 299.8,553.7 301.7,551.5 303.6,549.4 305.4,547.2 307.3,544.9 309.1,542.6 311.0,540.2 312.8,537.8 314.7,535.4 316.5,532.9 318.4,530.4 320.2,527.8
322.1,525.2 323.9,522.5 325.8,519.8 327.7,517.1 329.5,514.3 331.4,511.5 333.2,508.7 335.1,505.9 336.9,503.0 338.8,500.1 340.6,497.2 342.5,494.2 344.3,491.3 346.2,488.3 348.0,485.3 349.9,482.4
351.8,479.4 353.6,476.4 355.5,473.4 357.3,470.4 359.2,467.5 361.0,464.5 362.9,461.6 364.7,458.6 366.6,455.7 368.4,452.8 370.3,449.9 372.1,447.1 374.0,444.2 375.9,441.4 377.7,438.7 379.6,435.9
381.4,433.2 383.3,430.5 385.1,427.9 387.0,425.3 388.8,422.7 390.7,420.2 392.5,417.7 394.4,415.2 396.2,412.7 398.1,410.3 400.0,407.9 401.8,405.6 403.7,403.3 405.5,401.0 407.4,398.7 409.2,396.4
411.1,394.2 412.9,392.0 414.8,389.8 416.6,387.6 418.5,385.5 420.3,383.3 422.2,381.2 424.1,379.0 425.9,376.9 427.8,374.7 429.6,372.6 431.5,370.4 433.3,368.2 435.2,366.1 437.0,363.9 438.9,361.6
440.7,359.4 442.6,357.1 444.5,354.9 446.3,352.6 448.2,350.2 450.0,347.9 451.9,345.5 453.7,343.0 455.6,340.6 457.4,338.1 459.3,335.5 461.1,333.0 463.0,330.4 464.8,327.7 466.7,325.1 468.6,322.4
470.4,319.7 472.3,316.9 474.1,314.1 476.0,311.3 477.8,308.5 479.7,305.6 481.5,302.7 483.4,299.8 485.2,296.9 487.1,293.9 488.9,291.0 490.8,288.0 492.7,285.1 494.5,282.1 496.4,279.2 498.2,276.2
500.1,273.2 501.9,270.3 503.8,267.4 505.6,264.4 507.5,261.6 509.3,258.7 511.2,255.8 513.0,253.0 514.9,250.2 516.8,247.4 518.6,244.7 520.5,242.0 522.3,239.3 524.2,236.7 526.0,234.1 527.9,231.6
529.7,229.1 531.6,226.6 533.4,224.1 535.3,221.8 537.1,219.4 539.0,217.1 540.9,214.8 542.7,212.5 544.6,210.3 546.4,208.1 548.3,206.0 550.1,203.8 552.0,201.7 553.8,199.6 555.7,197.6 557.5,195.5
559.4,193.4 561.2,191.4 563.1,189.3 565.0,187.3 566.8,185.3 568.7,183.2 570.5,181.1 572.4,179.0 574.2,176.9 576.1,174.8 577.9,172.7 579.8,170.5 581.6,168.3 583.5,166.1 585.3,163.8 587.2,161.5
589.1,159.2 590.9,156.8 592.8,154.4 594.6,152.0 596.5,149.5 598.3,147.1 600.2,144.5 602.0,142.0 603.9,139.4 605.7,136.9 607.6,134.3 609.4,131.7 611.3,129.0 613.2,126.4 615.0,123.8 616.9,121.3
618.7,118.7 620.6,116.2 622.4,113.7 624.3,111.2 626.1,108.8 628.0,106.5 629.8,104.2 631.7,102.0 633.5,99.9 635.4,97.8 637.3,95.9 639.1,94.1 641.0,92.4 642.8,90.9 644.7,89.4 646.5,88.1
648.4,87.0 650.2,86.0 652.1,85.2 653.9,84.5 655.8,84.0 657.6,83.7 659.5,83.6 661.4,83.7 663.2,83.9 665.1,84.3 666.9,85.0 668.8,85.8 670.6,86.8 672.5,88.0 674.3,89.4 676.2,91.0
678.0,92.8 679.9,94.7 681.8,96.9 683.6,99.2 685.5,101.7 687.3,104.4 689.2,107.3 691.0,110.3 692.9,113.5 694.7,116.8 696.6,120.3 698.4,123.9 700.3,127.6 702.1,131.5 704.0,135.4 705.9,139.5
707.7,143.7 709.6,147.9 711.4,152.3 713.3,156.7 715.1,161.2 717.0,165.7 718.8,170.3 720.7,175.0 722.5,179.6 724.4,184.3 726.2,189.0 728.1,193.7 730.0,198.5 731.8,203.2 733.7,207.9 735.5,212.6
737.4,217.2 739.2,221.9 741.1,226.5 742.9,231.1 744.8,235.6 746.6,240.1 748.5,244.5 750.3,248.9 752.2,253.2 754.1,257.4 755.9,261.6 757.8,265.8 759.6,269.8 761.5,273.8 763.3,277.7 765.2,281.6
767.0,285.4 768.9,289.1 770.7,292.7 772.6,296.3 774.4,299.8 776.3,303.3 778.2,306.6 780.0,309.9 781.9,313.2 783.7,316.3 785.6,319.5 787.4,322.5 789.3,325.5 791.1,328.5 793.0,331.4 794.8,334.3
796.7,337.1 798.5,339.9 800.4,342.6 802.3,345.3 804.1,348.0 806.0,350.6 807.8,353.3 809.7,355.9 811.5,358.5 813.4,361.1 815.2,363.7 817.1,366.3 818.9,368.9 820.8,371.5 822.6,374.1 824.5,376.7
826.4,379.4 828.2,382.0 830.1,384.7 831.9,387.4 833.8,390.1 835.6,392.9 837.5,395.7 839.3,398.5 841.2,401.4 843.0,404.3 844.9,407.3 846.7,410.2 848.6,413.3 850.5,416.3 852.3,419.4 854.2,422.6
856.0,425.8 857.9,429.0 859.7,432.3 861.6,435.6 863.4,438.9 865.3,442.3 867.1,445.7 869.0,449.1 870.8,452.6 872.7,456.1 874.6,459.6 876.4,463.1 878.3,466.6 880.1,470.2 882.0,473.7 883.8,477.3
885.7,480.8 887.5,484.4 889.4,487.9 891.2,491.5 893.1,495.0 894.9,498.5 896.8,502.0 898.7,505.4 900.5,508.9 902.4,512.3 904.2,515.7 906.1,519.0 907.9,522.3 909.8,525.5 911.6,528.8 913.5,531.9
915.3,535.0 917.2,538.1 919.1,541.1 920.9,544.1 922.8,547.0 924.6,549.9 926.5,552.7 926.5,662.4 924.6,662.4 922.8,662.4 920.9,662.4 919.1,662.4 917.2,662.4 915.3,662.4 913.5,662.4 911.6,662.4
909.8,662.4 907.9,662.4 906.1,662.4 904.2,662.4 902.4,662.4 900.5,662.4 898.7,662.4 896.8,662.4 894.9,662.4 893.1,662.4 891.2,662.4 889.4,662.4 887.5,662.4 885.7,662.4 883.8,662.4 882.0,662.4
880.1,662.4 878.3,662.4 876.4,662.4 874.6,662.4 872.7,662.4 870.8,662.4 869.0,662.4 867.1,662.4 865.3,662.4 863.4,662.4 861.6,662.4 859.7,662.4 857.9,662.4 856.0,662.4 854.2,662.4 852.3,662.4
850.5,662.4 848.6,662.4 846.7,662.4 844.9,662.4 843.0,662.4 841.2,662.4 839.3,662.4 837.5,662.4 835.6,662.4 833.8,662.4 831.9,662.4 830.1,662.4 828.2,662.4 826.4,662.4 824.5,662.4 822.6,662.4
820.8,662.4 818.9,662.4 817.1,662.4 815.2,662.4 813.4,662.4 811.5,662.4 809.7,662.4 807.8,662.4 806.0,662.4 804.1,662.4 802.3,662.4 800.4,662.4 798.5,662.4 796.7,662.4 794.8,662.4 793.0,662.4
791.1,662.4 789.3,662.4 787.4,662.4 785.6,662.4 783.7,662.4 781.9,662.4 780.0,662.4 778.2,662.4 776.3,662.4 774.4,662.4 772.6,662.4 770.7,662.4 768.9,662.4 767.0,662.4 765.2,662.4 763.3,662.4
761.5,662.4 759.6,662.4 757.8,662.4 755.9,662.4 754.1,662.4 752.2,662.4 750.3,662.4 748.5,662.4 746.6,662.4 744.8,662.4 742.9,662.4 741.1,662.4 739.2,662.4 737.4,662.4 735.5,662.4 733.7,662.4
731.8,662.4 730.0,662.4 728.1,662.4 726.2,662.4 724.4,662.4 722.5,662.4 720.7,662.4 718.8,662.4 717.0,662.4 715.1,662.4 713.3,662.4 711.4,662.4 709.6,662.4 707.7,662.4 705.9,662.4 704.0,662.4
702.1,662.4 700.3,662.4 698.4,662.4 696.6,662.4 694.7,662.4 692.9,662.4 691.0,662.4 689.2,662.4 687.3,662.4 685.5,662.4 683.6,662.4 681.8,662.4 679.9,662.4 678.0,662.4 676.2,662.4 674.3,662.4
672.5,662.4 670.6,662.4 668.8,662.4 666.9,662.4 665.1,662.4 663.2,662.4 661.4,662.4 659.5,662.4 657.6,662.4 655.8,662.4 653.9,662.4 652.1,662.4 650.2,662.4 648.4,662.4 646.5,662.4 644.7,662.4
642.8,662.4 641.0,662.4 639.1,662.4 637.3,662.4 635.4,662.4 633.5,662.4 631.7,662.4 629.8,662.4 628.0,662.4 626.1,662.4 624.3,662.4 622.4,662.4 620.6,662.4 618.7,662.4 616.9,662.4 615.0,662.4
613.2,662.4 611.3,662.4 609.4,662.4 607.6,662.4 605.7,662.4 603.9,662.4 602.0,662.4 600.2,662.4 598.3,662.4 596.5,662.4 594.6,662.4 592.8,662.4 590.9,662.4 589.1,662.4 587.2,662.4 585.3,662.4
583.5,662.4 581.6,662.4 579.8,662.4 577.9,662.4 576.1,662.4 574.2,662.4 572.4,662.4 570.5,662.4 568.7,662.4 566.8,662.4 565.0,662.4 563.1,662.4 561.2,662.4 559.4,662.4 557.5,662.4 555.7,662.4
553.8,662.4 552.0,662.4 550.1,662.4 548.3,662.4 546.4,662.4 544.6,662.4 542.7,662.4 540.9,662.4 539.0,662.4 537.1,662.4 535.3,662.4 533.4,662.4 531.6,662.4 529.7,662.4 527.9,662.4 526.0,662.4
524.2,662.4 522.3,662.4 520.5,662.4 518.6,662.4 516.8,662.4 514.9,662.4 513.0,662.4 511.2,662.4 509.3,662.4 507.5,662.4 505.6,662.4 503.8,662.4 501.9,662.4 500.1,662.4 498.2,662.4 496.4,662.4
494.5,662.4 492.7,662.4 490.8,662.4 488.9,662.4 487.1,662.4 485.2,662.4 483.4,662.4 481.5,662.4 479.7,662.4 477.8,662.4 476.0,662.4 474.1,662.4 472.3,662.4 470.4,662.4 468.6,662.4 466.7,662.4
464.8,662.4 463.0,662.4 461.1,662.4 459.3,662.4 457.4,662.4 455.6,662.4 453.7,662.4 451.9,662.4 450.0,662.4 448.2,662.4 446.3,662.4 444.5,662.4 442.6,662.4 440.7,662.4 438.9,662.4 437.0,662.4
435.2,662.4 433.3,662.4 431.5,662.4 429.6,662.4 427.8,662.4 425.9,662.4 424.1,662.4 422.2,662.4 420.3,662.4 418.5,662.4 416.6,662.4 414.8,662.4 412.9,662.4 411.1,662.4 409.2,662.4 407.4,662.4
405.5,662.4 403.7,662.4 401.8,662.4 400.0,662.4 398.1,662.4 396.2,662.4 394.4,662.4 392.5,662.4 390.7,662.4 388.8,662.4 387.0,662.4 385.1,662.4 383.3,662.4 381.4,662.4 379.6,662.4 377.7,662.4
375.9,662.4 374.0,662.4 372.1,662.4 370.3,662.4 368.4,662.4 366.6,662.4 364.7,662.4 362.9,662.4 361.0,662.4 359.2,662.4 357.3,662.4 355.5,662.4 353.6,662.4 351.8,662.4 349.9,662.4 348.0,662.4
346.2,662.4 344.3,662.4 342.5,662.4 340.6,662.4 338.8,662.4 336.9,662.4 335.1,662.4 333.2,662.4 331.4,662.4 329.5,662.4 327.7,662.4 325.8,662.4 323.9,662.4 322.1,662.4 320.2,662.4 318.4,662.4
316.5,662.4 314.7,662.4 312.8,662.4 311.0,662.4 309.1,662.4 307.3,662.4 305.4,662.4 303.6,662.4 301.7,662.4 299.8,662.4 298.0,662.4 296.1,662.4 294.3,662.4 292.4,662.4 290.6,662.4 288.7,662.4
286.9,662.4 285.0,662.4 283.2,662.4 281.3,662.4 279.5,662.4 277.6,662.4 275.7,662.4 273.9,662.4 272.0,662.4 270.2,662.4 268.3,662.4 266.5,662.4 264.6,662.4 262.8,662.4 260.9,662.4 259.1,662.4
257.2,662.4 255.4,662.4 253.5,662.4 251.6,662.4 249.8,662.4 247.9,662.4 246.1,662.4 244.2,662.4 242.4,662.4 240.5,662.4 238.7,662.4 236.8,662.4 235.0,662.4 233.1,662.4 231.3,662.4 229.4,662.4
227.5,662.4 225.7,662.4 223.8,662.4 222.0,662.4 220.1,662.4 218.3,662.4 216.4,662.4 214.6,662.4 212.7,662.4 210.9,662.4 209.0,662.4 207.2,662.4 205.3,662.4 203.4,662.4 201.6,662.4 199.7,662.4
197.9,662.4 196.0,662.4 194.2,662.4 192.3,662.4 190.5,662.4 188.6,662.4 186.8,662.4 184.9,662.4 183.0,662.4 181.2,662.4 179.3,662.4 177.5,662.4 175.6,662.4 173.8,662.4 '/>
	</g>
</g>
	</g>
	<g id="gnuplot_plot_3" ><title>Point estimate</title>
<g fill="none" color="white" stroke="rgb( 31, 120, 180)" stroke-width="2.00" stroke-linecap="butt" stroke-linejoin="miter">
</g>
<g fill="none" color="black" stroke="currentColor" stroke-width="2.00" stroke-linecap="butt" stroke-linejoin="miter">
	<g transform="translate(1089.0,103.0)" stroke="none" fill="black" font-family="Helvetica" font-size="12.00"  text-anchor="start">
		<text><tspan font-family="Helvetica" >Point estimate</tspan></text>
	</g>
</g>
<g fill="none" color="black" stroke="currentColor" stroke-width="2.00" stroke-linecap="butt" stroke-linejoin="miter">
	<path stroke='rgb( 31, 120, 180)'  d='M1038.5,99.1 L1080.7,99.1 M622.2,662.4 L622.2,114.0  '/></g>
	</g>
	<g id="gnuplot_plot_4" ><title>Noise threshold</title>
<g fill="none" color="white" stroke="rgb( 31, 120, 180)" stroke-width="1.00" stroke-linecap="butt" stroke-linejoin="miter">
</g>
<g fill="none" color="black" stroke="currentColor" stroke-width="1.00" stroke-linecap="butt" stroke-linejoin="miter">
	<g transform="translate(1089.0,121.0)" stroke="none" fill="black" font-family="Helvetica" font-size="12.00"  text-anchor="start">
		<text><tspan font-family="Helvetica" >Noise threshold</tspan></text>
	</g>
</g>
<g fill="none" color="black" stroke="currentColor" stroke-width="1.00" stroke-linecap="butt" stroke-linejoin="miter">
	<g stroke='none' shape-rendering='crispEdges'>
		<polygon fill = 'rgb(227,  26,  28)' fill-opacity = '0.100000' points = '1038.5,121.6 1080.7,121.6 1080.7,112.6 1038.5,112.6 '/>
		<polygon fill = 'rgb(227,  26,  28)' fill-opacity = '0.100000' points = '551.1,54.1 551.1,54.1 551.1,662.4 551.1,662.4 '/>
	</g>
</g>
	</g>
<g fill="none" color="white" stroke="rgb(227,  26,  28)" stroke-width="2.00" stroke-linecap="butt" stroke-linejoin="miter">
</g>
<g fill="none" color="black" stroke="currentColor" stroke-width="2.00" stroke-linecap="butt" stroke-linejoin="miter">
</g>
<g fill="none" color="black" stroke="black" stroke-width="1.00" stroke-linecap="butt" stroke-linejoin="miter">
</g>
<g fill="none" color="black" stroke="currentColor" stroke-width="1.00" stroke-linecap="butt" stroke-linejoin="miter">
	<path stroke='black'  d='M88.5,54.1 L88.5,662.4 L1013.6,662.4 L1013.6,54.1 L88.5,54.1 Z  '/></g>
<g fill="none" color="black" stroke="currentColor" stroke-width="1.00" stroke-linecap="butt" stroke-linejoin="miter">
</g>
</g>
</svg>

