<?xml version="1.0" encoding="utf-8"  standalone="no"?>
<svg 
 viewBox="0 0 1280 720"
 xmlns="http://www.w3.org/2000/svg"
 xmlns:xlink="http://www.w3.org/1999/xlink"
>

<title>Gnuplot</title>
<desc>Produced by GNUPLOT 5.2 patchlevel 8 </desc>

<g id="gnuplot_canvas">

<rect x="0" y="0" width="1280" height="720" fill="none"/>
<defs>

	<circle id='gpDot' r='0.5' stroke-width='0.5' stroke='currentColor'/>
	<path id='gpPt0' stroke-width='0.222' stroke='currentColor' d='M-1,0 h2 M0,-1 v2'/>
	<path id='gpPt1' stroke-width='0.222' stroke='currentColor' d='M-1,-1 L1,1 M1,-1 L-1,1'/>
	<path id='gpPt2' stroke-width='0.222' stroke='currentColor' d='M-1,0 L1,0 M0,-1 L0,1 M-1,-1 L1,1 M-1,1 L1,-1'/>
	<rect id='gpPt3' stroke-width='0.222' stroke='currentColor' x='-1' y='-1' width='2' height='2'/>
	<rect id='gpPt4' stroke-width='0.222' stroke='currentColor' fill='currentColor' x='-1' y='-1' width='2' height='2'/>
	<circle id='gpPt5' stroke-width='0.222' stroke='currentColor' cx='0' cy='0' r='1'/>
	<use xlink:href='#gpPt5' id='gpPt6' fill='currentColor' stroke='none'/>
	<path id='gpPt7' stroke-width='0.222' stroke='currentColor' d='M0,-1.33 L-1.33,0.67 L1.33,0.67 z'/>
	<use xlink:href='#gpPt7' id='gpPt8' fill='currentColor' stroke='none'/>
	<use xlink:href='#gpPt7' id='gpPt9' stroke='currentColor' transform='rotate(180)'/>
	<use xlink:href='#gpPt9' id='gpPt10' fill='currentColor' stroke='none'/>
	<use xlink:href='#gpPt3' id='gpPt11' stroke='currentColor' transform='rotate(45)'/>
	<use xlink:href='#gpPt11' id='gpPt12' fill='currentColor' stroke='none'/>
	<path id='gpPt13' stroke-width='0.222' stroke='currentColor' d='M0,1.330 L1.265,0.411 L0.782,-1.067 L-0.782,-1.076 L-1.265,0.411 z'/>
	<use xlink:href='#gpPt13' id='gpPt14' fill='currentColor' stroke='none'/>
	<filter id='textbox' filterUnits='objectBoundingBox' x='0' y='0' height='1' width='1'>
	  <feFlood flood-color='white' flood-opacity='1' result='bgnd'/>
	  <feComposite in='SourceGraphic' in2='bgnd' operator='atop'/>
	</filter>
	<filter id='greybox' filterUnits='objectBoundingBox' x='0' y='0' height='1' width='1'>
	  <feFlood flood-color='lightgrey' flood-opacity='1' result='grey'/>
	  <feComposite in='SourceGraphic' in2='grey' operator='atop'/>
	</filter>
</defs>
<g fill="none" color="white" stroke="currentColor" stroke-width="1.00" stroke-linecap="butt" stroke-linejoin="miter">
</g>
<g fill="none" color="black" stroke="currentColor" stroke-width="1.00" stroke-linecap="butt" stroke-linejoin="miter">
	<path stroke='black'  d='M71.9,662.4 L80.9,662.4  '/>	<g transform="translate(63.6,666.3)" stroke="none" fill="black" font-family="Helvetica" font-size="12.00"  text-anchor="end">
		<text><tspan font-family="Helvetica" > 0</tspan></text>
	</g>
</g>
<g fill="none" color="black" stroke="currentColor" stroke-width="1.00" stroke-linecap="butt" stroke-linejoin="miter">
	<path stroke='black'  d='M71.9,561.0 L80.9,561.0  '/>	<g transform="translate(63.6,564.9)" stroke="none" fill="black" font-family="Helvetica" font-size="12.00"  text-anchor="end">
		<text><tspan font-family="Helvetica" > 20</tspan></text>
	</g>
</g>
<g fill="none" color="black" stroke="currentColor" stroke-width="1.00" stroke-linecap="butt" stroke-linejoin="miter">
	<path stroke='black'  d='M71.9,459.6 L80.9,459.6  '/>	<g transform="translate(63.6,463.5)" stroke="none" fill="black" font-family="Helvetica" font-size="12.00"  text-anchor="end">
		<text><tspan font-family="Helvetica" > 40</tspan></text>
	</g>
</g>
<g fill="none" color="black" stroke="currentColor" stroke-width="1.00" stroke-linecap="butt" stroke-linejoin="miter">
	<path stroke='black'  d='M71.9,358.2 L80.9,358.2  '/>	<g transform="translate(63.6,362.1)" stroke="none" fill="black" font-family="Helvetica" font-size="12.00"  text-anchor="end">
		<text><tspan font-family="Helvetica" > 60</tspan></text>
	</g>
</g>
<g fill="none" color="black" stroke="currentColor" stroke-width="1.00" stroke-linecap="butt" stroke-linejoin="miter">
	<path stroke='black'  d='M71.9,256.9 L80.9,256.9  '/>	<g transform="translate(63.6,260.8)" stroke="none" fill="black" font-family="Helvetica" font-size="12.00"  text-anchor="end">
		<text><tspan font-family="Helvetica" > 80</tspan></text>
	</g>
</g>
<g fill="none" color="black" stroke="currentColor" stroke-width="1.00" stroke-linecap="butt" stroke-linejoin="miter">
	<path stroke='black'  d='M71.9,155.5 L80.9,155.5  '/>	<g transform="translate(63.6,159.4)" stroke="none" fill="black" font-family="Helvetica" font-size="12.00"  text-anchor="end">
		<text><tspan font-family="Helvetica" > 100</tspan></text>
	</g>
</g>
<g fill="none" color="black" stroke="currentColor" stroke-width="1.00" stroke-linecap="butt" stroke-linejoin="miter">
	<path stroke='black'  d='M71.9,54.1 L80.9,54.1  '/>	<g transform="translate(63.6,58.0)" stroke="none" fill="black" font-family="Helvetica" font-size="12.00"  text-anchor="end">
		<text><tspan font-family="Helvetica" > 120</tspan></text>
	</g>
</g>
<g fill="none" color="black" stroke="currentColor" stroke-width="1.00" stroke-linecap="butt" stroke-linejoin="miter">
	<path stroke='black'  d='M161.8,662.4 L161.8,653.4  '/>	<g transform="translate(161.8,684.3)" stroke="none" fill="black" font-family="Helvetica" font-size="12.00"  text-anchor="middle">
		<text><tspan font-family="Helvetica" > 43.56</tspan></text>
	</g>
</g>
<g fill="none" color="black" stroke="currentColor" stroke-width="1.00" stroke-linecap="butt" stroke-linejoin="miter">
	<path stroke='black'  d='M271.3,662.4 L271.3,653.4  '/>	<g transform="translate(271.3,684.3)" stroke="none" fill="black" font-family="Helvetica" font-size="12.00"  text-anchor="middle">
		<text><tspan font-family="Helvetica" > 43.562</tspan></text>
	</g>
</g>
<g fill="none" color="black" stroke="currentColor" stroke-width="1.00" stroke-linecap="butt" stroke-linejoin="miter">
	<path stroke='black'  d='M380.8,662.4 L380.8,653.4  '/>	<g transform="translate(380.8,684.3)" stroke="none" fill="black" font-family="Helvetica" font-size="12.00"  text-anchor="middle">
		<text><tspan font-family="Helvetica" > 43.564</tspan></text>
	</g>
</g>
<g fill="none" color="black" stroke="currentColor" stroke-width="1.00" stroke-linecap="butt" stroke-linejoin="miter">
	<path stroke='black'  d='M490.3,662.4 L490.3,653.4  '/>	<g transform="translate(490.3,684.3)" stroke="none" fill="black" font-family="Helvetica" font-size="12.00"  text-anchor="middle">
		<text><tspan font-family="Helvetica" > 43.566</tspan></text>
	</g>
</g>
<g fill="none" color="black" stroke="currentColor" stroke-width="1.00" stroke-linecap="butt" stroke-linejoin="miter">
	<path stroke='black'  d='M599.8,662.4 L599.8,653.4  '/>	<g transform="translate(599.8,684.3)" stroke="none" fill="black" font-family="Helvetica" font-size="12.00"  text-anchor="middle">
		<text><tspan font-family="Helvetica" > 43.568</tspan></text>
	</g>
</g>
<g fill="none" color="black" stroke="currentColor" stroke-width="1.00" stroke-linecap="butt" stroke-linejoin="miter">
	<path stroke='black'  d='M709.3,662.4 L709.3,653.4  '/>	<g transform="translate(709.3,684.3)" stroke="none" fill="black" font-family="Helvetica" font-size="12.00"  text-anchor="middle">
		<text><tspan font-family="Helvetica" > 43.57</tspan></text>
	</g>
</g>
<g fill="none" color="black" stroke="currentColor" stroke-width="1.00" stroke-linecap="butt" stroke-linejoin="miter">
	<path stroke='black'  d='M818.8,662.4 L818.8,653.4  '/>	<g transform="translate(818.8,684.3)" stroke="none" fill="black" font-family="Helvetica" font-size="12.00"  text-anchor="middle">
		<text><tspan font-family="Helvetica" > 43.572</tspan></text>
	</g>
</g>
<g fill="none" color="black" stroke="currentColor" stroke-width="1.00" stroke-linecap="butt" stroke-linejoin="miter">
	<path stroke='black'  d='M928.4,662.4 L928.4,653.4  '/>	<g transform="translate(928.4,684.3)" stroke="none" fill="black" font-family="Helvetica" font-size="12.00"  text-anchor="middle">
		<text><tspan font-family="Helvetica" > 43.574</tspan></text>
	</g>
</g>
<g fill="none" color="black" stroke="currentColor" stroke-width="1.00" stroke-linecap="butt" stroke-linejoin="miter">
</g>
<g fill="none" color="black" stroke="currentColor" stroke-width="1.00" stroke-linecap="butt" stroke-linejoin="miter">
	<path stroke='black'  d='M71.9,54.1 L71.9,662.4 L1013.6,662.4 L1013.6,54.1 L71.9,54.1 Z  '/></g>
<g fill="none" color="black" stroke="currentColor" stroke-width="1.00" stroke-linecap="butt" stroke-linejoin="miter">
	<g transform="translate(19.0,358.3) rotate(270)" stroke="none" fill="black" font-family="Helvetica" font-size="12.00"  text-anchor="middle">
		<text><tspan font-family="Helvetica" >Density (a.u.)</tspan></text>
	</g>
</g>
<g fill="none" color="black" stroke="currentColor" stroke-width="1.00" stroke-linecap="butt" stroke-linejoin="miter">
	<g transform="translate(542.7,711.3)" stroke="none" fill="black" font-family="Helvetica" font-size="12.00"  text-anchor="middle">
		<text><tspan font-family="Helvetica" >Average time (us)</tspan></text>
	</g>
</g>
<g fill="none" color="black" stroke="currentColor" stroke-width="1.00" stroke-linecap="butt" stroke-linejoin="miter">
	<g transform="translate(542.7,31.0)" stroke="none" fill="black" font-family="Helvetica" font-size="12.00"  text-anchor="middle">
		<text><tspan font-family="Helvetica" >bench_group/blake3/49152: slope</tspan></text>
	</g>
</g>
<g fill="none" color="black" stroke="currentColor" stroke-width="1.00" stroke-linecap="butt" stroke-linejoin="miter">
</g>
	<g id="gnuplot_plot_1" ><title>Bootstrap distribution</title>
<g fill="none" color="white" stroke="currentColor" stroke-width="2.00" stroke-linecap="butt" stroke-linejoin="miter">
</g>
<g fill="none" color="black" stroke="currentColor" stroke-width="2.00" stroke-linecap="butt" stroke-linejoin="miter">
	<g transform="translate(1089.0,67.0)" stroke="none" fill="black" font-family="Helvetica" font-size="12.00"  text-anchor="start">
		<text><tspan font-family="Helvetica" >Bootstrap distribution</tspan></text>
	</g>
</g>
<g fill="none" color="black" stroke="currentColor" stroke-width="2.00" stroke-linecap="butt" stroke-linejoin="miter">
	<path stroke='rgb( 31, 120, 180)'  d='M1038.5,63.1 L1080.7,63.1 M71.9,631.2 L73.8,630.6 L75.7,630.0 L77.6,629.4 L79.4,628.7 L81.3,628.1
		L83.2,627.4 L85.1,626.7 L87.0,626.0 L88.9,625.2 L90.8,624.5 L92.7,623.7 L94.5,622.9 L96.4,622.1
		L98.3,621.3 L100.2,620.5 L102.1,619.6 L104.0,618.8 L105.9,617.9 L107.8,617.0 L109.6,616.1 L111.5,615.2
		L113.4,614.3 L115.3,613.3 L117.2,612.4 L119.1,611.4 L121.0,610.5 L122.9,609.5 L124.7,608.5 L126.6,607.5
		L128.5,606.5 L130.4,605.5 L132.3,604.5 L134.2,603.4 L136.1,602.4 L138.0,601.3 L139.8,600.2 L141.7,599.1
		L143.6,598.0 L145.5,596.8 L147.4,595.7 L149.3,594.5 L151.2,593.3 L153.0,592.1 L154.9,590.9 L156.8,589.7
		L158.7,588.4 L160.6,587.2 L162.5,585.9 L164.4,584.6 L166.3,583.3 L168.1,582.0 L170.0,580.7 L171.9,579.5
		L173.8,578.2 L175.7,576.9 L177.6,575.6 L179.5,574.3 L181.4,573.0 L183.2,571.8 L185.1,570.5 L187.0,569.2
		L188.9,568.0 L190.8,566.7 L192.7,565.4 L194.6,564.2 L196.5,562.9 L198.3,561.6 L200.2,560.3 L202.1,559.0
		L204.0,557.7 L205.9,556.4 L207.8,555.0 L209.7,553.7 L211.6,552.3 L213.4,550.9 L215.3,549.4 L217.2,547.9
		L219.1,546.4 L221.0,544.8 L222.9,543.2 L224.8,541.6 L226.6,539.9 L228.5,538.1 L230.4,536.4 L232.3,534.5
		L234.2,532.6 L236.1,530.7 L238.0,528.7 L239.9,526.7 L241.7,524.7 L243.6,522.6 L245.5,520.5 L247.4,518.3
		L249.3,516.2 L251.2,514.0 L253.1,511.9 L255.0,509.7 L256.8,507.5 L258.7,505.4 L260.6,503.2 L262.5,501.1
		L264.4,499.0 L266.3,496.9 L268.2,494.8 L270.1,492.7 L271.9,490.7 L273.8,488.6 L275.7,486.5 L277.6,484.5
		L279.5,482.4 L281.4,480.3 L283.3,478.2 L285.2,476.1 L287.0,473.9 L288.9,471.7 L290.8,469.5 L292.7,467.2
		L294.6,464.9 L296.5,462.6 L298.4,460.2 L300.2,457.7 L302.1,455.3 L304.0,452.7 L305.9,450.2 L307.8,447.5
		L309.7,444.9 L311.6,442.2 L313.5,439.4 L315.3,436.7 L317.2,433.8 L319.1,431.0 L321.0,428.1 L322.9,425.1
		L324.8,422.2 L326.7,419.2 L328.6,416.1 L330.4,413.1 L332.3,410.1 L334.2,407.0 L336.1,403.9 L338.0,400.9
		L339.9,397.8 L341.8,394.8 L343.7,391.8 L345.5,388.8 L347.4,385.9 L349.3,382.9 L351.2,380.1 L353.1,377.2
		L355.0,374.4 L356.9,371.6 L358.8,368.9 L360.6,366.2 L362.5,363.5 L364.4,360.8 L366.3,358.2 L368.2,355.5
		L370.1,352.9 L372.0,350.3 L373.8,347.6 L375.7,345.0 L377.6,342.4 L379.5,339.7 L381.4,337.0 L383.3,334.3
		L385.2,331.6 L387.1,328.8 L388.9,326.1 L390.8,323.3 L392.7,320.5 L394.6,317.7 L396.5,315.0 L398.4,312.2
		L400.3,309.4 L402.2,306.6 L404.0,303.8 L405.9,301.1 L407.8,298.3 L409.7,295.6 L411.6,292.8 L413.5,290.1
		L415.4,287.3 L417.3,284.6 L419.1,281.8 L421.0,279.0 L422.9,276.2 L424.8,273.3 L426.7,270.5 L428.6,267.5
		L430.5,264.6 L432.4,261.5 L434.2,258.5 L436.1,255.4 L438.0,252.2 L439.9,249.0 L441.8,245.7 L443.7,242.4
		L445.6,239.1 L447.4,235.7 L449.3,232.4 L451.2,229.0 L453.1,225.6 L455.0,222.2 L456.9,218.8 L458.8,215.4
		L460.7,212.1 L462.5,208.8 L464.4,205.5 L466.3,202.3 L468.2,199.2 L470.1,196.1 L472.0,193.0 L473.9,190.1
		L475.8,187.1 L477.6,184.3 L479.5,181.5 L481.4,178.8 L483.3,176.1 L485.2,173.5 L487.1,170.9 L489.0,168.3
		L490.9,165.8 L492.7,163.4 L494.6,160.9 L496.5,158.5 L498.4,156.2 L500.3,153.8 L502.2,151.5 L504.1,149.3
		L506.0,147.1 L507.8,144.9 L509.7,142.8 L511.6,140.7 L513.5,138.7 L515.4,136.8 L517.3,134.9 L519.2,133.1
		L521.0,131.4 L522.9,129.8 L524.8,128.3 L526.7,126.9 L528.6,125.6 L530.5,124.3 L532.4,123.2 L534.3,122.1
		L536.1,121.2 L538.0,120.2 L539.9,119.4 L541.8,118.6 L543.7,117.8 L545.6,117.0 L547.5,116.2 L549.4,115.5
		L551.2,114.7 L553.1,113.9 L555.0,113.1 L556.9,112.3 L558.8,111.4 L560.7,110.5 L562.6,109.5 L564.5,108.6
		L566.3,107.5 L568.2,106.5 L570.1,105.4 L572.0,104.3 L573.9,103.3 L575.8,102.2 L577.7,101.1 L579.5,100.1
		L581.4,99.0 L583.3,98.1 L585.2,97.1 L587.1,96.3 L589.0,95.5 L590.9,94.7 L592.8,94.1 L594.6,93.5
		L596.5,93.1 L598.4,92.7 L600.3,92.4 L602.2,92.3 L604.1,92.3 L606.0,92.3 L607.9,92.5 L609.7,92.9
		L611.6,93.3 L613.5,93.8 L615.4,94.5 L617.3,95.3 L619.2,96.1 L621.1,97.1 L623.0,98.2 L624.8,99.3
		L626.7,100.5 L628.6,101.8 L630.5,103.2 L632.4,104.6 L634.3,106.1 L636.2,107.7 L638.1,109.2 L639.9,110.8
		L641.8,112.5 L643.7,114.1 L645.6,115.8 L647.5,117.5 L649.4,119.2 L651.3,120.9 L653.1,122.7 L655.0,124.4
		L656.9,126.2 L658.8,128.0 L660.7,129.8 L662.6,131.6 L664.5,133.5 L666.4,135.3 L668.2,137.3 L670.1,139.2
		L672.0,141.3 L673.9,143.3 L675.8,145.5 L677.7,147.7 L679.6,150.0 L681.5,152.4 L683.3,154.8 L685.2,157.4
		L687.1,160.0 L689.0,162.7 L690.9,165.4 L692.8,168.3 L694.7,171.1 L696.6,174.1 L698.4,177.0 L700.3,180.0
		L702.2,183.1 L704.1,186.1 L706.0,189.1 L707.9,192.2 L709.8,195.2 L711.7,198.2 L713.5,201.2 L715.4,204.2
		L717.3,207.2 L719.2,210.1 L721.1,213.0 L723.0,216.0 L724.9,218.9 L726.7,221.8 L728.6,224.7 L730.5,227.6
		L732.4,230.5 L734.3,233.5 L736.2,236.4 L738.1,239.5 L740.0,242.5 L741.8,245.6 L743.7,248.8 L745.6,252.0
		L747.5,255.2 L749.4,258.5 L751.3,261.9 L753.2,265.4 L755.1,268.9 L756.9,272.5 L758.8,276.1 L760.7,279.9
		L762.6,283.6 L764.5,287.5 L766.4,291.4 L768.3,295.3 L770.2,299.3 L772.0,303.3 L773.9,307.4 L775.8,311.4
		L777.7,315.5 L779.6,319.6 L781.5,323.7 L783.4,327.8 L785.3,331.9 L787.1,336.0 L789.0,340.0 L790.9,344.0
		L792.8,347.9 L794.7,351.8 L796.6,355.6 L798.5,359.3 L800.3,363.0 L802.2,366.6 L804.1,370.1 L806.0,373.5
		L807.9,376.9 L809.8,380.2 L811.7,383.4 L813.6,386.5 L815.4,389.6 L817.3,392.6 L819.2,395.6 L821.1,398.5
		L823.0,401.4 L824.9,404.2 L826.8,407.0 L828.7,409.8 L830.5,412.6 L832.4,415.4 L834.3,418.2 L836.2,420.9
		L838.1,423.7 L840.0,426.5 L841.9,429.3 L843.8,432.1 L845.6,434.9 L847.5,437.8 L849.4,440.6 L851.3,443.5
		L853.2,446.4 L855.1,449.3 L857.0,452.2 L858.9,455.2 L860.7,458.2 L862.6,461.1 L864.5,464.1 L866.4,467.1
		L868.3,470.1 L870.2,473.2 L872.1,476.2 L873.9,479.2 L875.8,482.3 L877.7,485.3 L879.6,488.3 L881.5,491.4
		L883.4,494.4 L885.3,497.4 L887.2,500.4 L889.0,503.3 L890.9,506.3 L892.8,509.2 L894.7,512.2 L896.6,515.0
		L898.5,517.9 L900.4,520.8 L902.3,523.6 L904.1,526.4 L906.0,529.2 L907.9,531.9 L909.8,534.6 L911.7,537.3
		L913.6,540.0 L915.5,542.6 L917.4,545.2 L919.2,547.8 L921.1,550.3 L923.0,552.8 L924.9,555.2 L926.8,557.6
		L928.7,559.9 L930.6,562.3 L932.5,564.5 L934.3,566.7 L936.2,568.9 L938.1,571.0 L940.0,573.1 L941.9,575.1
		L943.8,577.1 L945.7,579.1 L947.5,581.0 L949.4,582.8 L951.3,584.6 L953.2,586.4 L955.1,588.1 L957.0,589.8
		L958.9,591.5 L960.8,593.1 L962.6,594.7 L964.5,596.3 L966.4,597.8 L968.3,599.3 L970.2,600.8 L972.1,602.3
		L974.0,603.7 L975.9,605.1 L977.7,606.5 L979.6,607.9 L981.5,609.2 L983.4,610.5 L985.3,611.8 L987.2,613.1
		L989.1,614.3 L991.0,615.5 L992.8,616.7 L994.7,617.9 L996.6,619.1 L998.5,620.2 L1000.4,621.3 L1002.3,622.5
		L1004.2,623.5 L1006.1,624.6 L1007.9,625.6 L1009.8,626.7 L1011.7,627.7 L1013.6,628.7  '/></g>
	</g>
	<g id="gnuplot_plot_2" ><title>Confidence interval</title>
<g fill="none" color="white" stroke="rgb( 31, 120, 180)" stroke-width="1.00" stroke-linecap="butt" stroke-linejoin="miter">
</g>
<g fill="none" color="black" stroke="currentColor" stroke-width="1.00" stroke-linecap="butt" stroke-linejoin="miter">
	<g transform="translate(1089.0,85.0)" stroke="none" fill="black" font-family="Helvetica" font-size="12.00"  text-anchor="start">
		<text><tspan font-family="Helvetica" >Confidence interval</tspan></text>
	</g>
</g>
<g fill="none" color="black" stroke="currentColor" stroke-width="1.00" stroke-linecap="butt" stroke-linejoin="miter">
	<g stroke='none' shape-rendering='crispEdges'>
		<polygon fill = 'rgb( 31, 120, 180)' fill-opacity = '0.250000' points = '1038.5,85.6 1080.7,85.6 1080.7,76.6 1038.5,76.6 '/>
		<polygon fill = 'rgb( 31, 120, 180)' fill-opacity = '0.250000' points = '158.7,588.4 160.6,587.2 162.5,585.9 164.4,584.6 166.3,583.3 168.1,582.0 170.0,580.7 171.9,579.5 173.8,578.2 175.7,576.9 177.6,575.6 179.5,574.3 181.4,573.0 183.2,571.8 185.1,570.5 187.0,569.2
188.9,568.0 190.8,566.7 192.7,565.4 194.6,564.2 196.5,562.9 198.3,561.6 200.2,560.3 202.1,559.0 204.0,557.7 205.9,556.4 207.8,555.0 209.7,553.7 211.6,552.3 213.4,550.9 215.3,549.4 217.2,547.9
219.1,546.4 221.0,544.8 222.9,543.2 224.8,541.6 226.6,539.9 228.5,538.1 230.4,536.4 232.3,534.5 234.2,532.6 236.1,530.7 238.0,528.7 239.9,526.7 241.7,524.7 243.6,522.6 245.5,520.5 247.4,518.3
249.3,516.2 251.2,514.0 253.1,511.9 255.0,509.7 256.8,507.5 258.7,505.4 260.6,503.2 262.5,501.1 264.4,499.0 266.3,496.9 268.2,494.8 270.1,492.7 271.9,490.7 273.8,488.6 275.7,486.5 277.6,484.5
279.5,482.4 281.4,480.3 283.3,478.2 285.2,476.1 287.0,473.9 288.9,471.7 290.8,469.5 292.7,467.2 294.6,464.9 296.5,462.6 298.4,460.2 300.2,457.7 302.1,455.3 304.0,452.7 305.9,450.2 307.8,447.5
309.7,444.9 311.6,442.2 313.5,439.4 315.3,436.7 317.2,433.8 319.1,431.0 321.0,428.1 322.9,425.1 324.8,422.2 326.7,419.2 328.6,416.1 330.4,413.1 332.3,410.1 334.2,407.0 336.1,403.9 338.0,400.9
339.9,397.8 341.8,394.8 343.7,391.8 345.5,388.8 347.4,385.9 349.3,382.9 351.2,380.1 353.1,377.2 355.0,374.4 356.9,371.6 358.8,368.9 360.6,366.2 362.5,363.5 364.4,360.8 366.3,358.2 368.2,355.5
370.1,352.9 372.0,350.3 373.8,347.6 375.7,345.0 377.6,342.4 379.5,339.7 381.4,337.0 383.3,334.3 385.2,331.6 387.1,328.8 388.9,326.1 390.8,323.3 392.7,320.5 394.6,317.7 396.5,315.0 398.4,312.2
400.3,309.4 402.2,306.6 404.0,303.8 405.9,301.1 407.8,298.3 409.7,295.6 411.6,292.8 413.5,290.1 415.4,287.3 417.3,284.6 419.1,281.8 421.0,279.0 422.9,276.2 424.8,273.3 426.7,270.5 428.6,267.5
430.5,264.6 432.4,261.5 434.2,258.5 436.1,255.4 438.0,252.2 439.9,249.0 441.8,245.7 443.7,242.4 445.6,239.1 447.4,235.7 449.3,232.4 451.2,229.0 453.1,225.6 455.0,222.2 456.9,218.8 458.8,215.4
460.7,212.1 462.5,208.8 464.4,205.5 466.3,202.3 468.2,199.2 470.1,196.1 472.0,193.0 473.9,190.1 475.8,187.1 477.6,184.3 479.5,181.5 481.4,178.8 483.3,176.1 485.2,173.5 487.1,170.9 489.0,168.3
490.9,165.8 492.7,163.4 494.6,160.9 496.5,158.5 498.4,156.2 500.3,153.8 502.2,151.5 504.1,149.3 506.0,147.1 507.8,144.9 509.7,142.8 511.6,140.7 513.5,138.7 515.4,136.8 517.3,134.9 519.2,133.1
521.0,131.4 522.9,129.8 524.8,128.3 526.7,126.9 528.6,125.6 530.5,124.3 532.4,123.2 534.3,122.1 536.1,121.2 538.0,120.2 539.9,119.4 541.8,118.6 543.7,117.8 545.6,117.0 547.5,116.2 549.4,115.5
551.2,114.7 553.1,113.9 555.0,113.1 556.9,112.3 558.8,111.4 560.7,110.5 562.6,109.5 564.5,108.6 566.3,107.5 568.2,106.5 570.1,105.4 572.0,104.3 573.9,103.3 575.8,102.2 577.7,101.1 579.5,100.1
581.4,99.0 583.3,98.1 585.2,97.1 587.1,96.3 589.0,95.5 590.9,94.7 592.8,94.1 594.6,93.5 596.5,93.1 598.4,92.7 600.3,92.4 602.2,92.3 604.1,92.3 606.0,92.3 607.9,92.5 609.7,92.9
611.6,93.3 613.5,93.8 615.4,94.5 617.3,95.3 619.2,96.1 621.1,97.1 623.0,98.2 624.8,99.3 626.7,100.5 628.6,101.8 630.5,103.2 632.4,104.6 634.3,106.1 636.2,107.7 638.1,109.2 639.9,110.8
641.8,112.5 643.7,114.1 645.6,115.8 647.5,117.5 649.4,119.2 651.3,120.9 653.1,122.7 655.0,124.4 656.9,126.2 658.8,128.0 660.7,129.8 662.6,131.6 664.5,133.5 666.4,135.3 668.2,137.3 670.1,139.2
672.0,141.3 673.9,143.3 675.8,145.5 677.7,147.7 679.6,150.0 681.5,152.4 683.3,154.8 685.2,157.4 687.1,160.0 689.0,162.7 690.9,165.4 692.8,168.3 694.7,171.1 696.6,174.1 698.4,177.0 700.3,180.0
702.2,183.1 704.1,186.1 706.0,189.1 707.9,192.2 709.8,195.2 711.7,198.2 713.5,201.2 715.4,204.2 717.3,207.2 719.2,210.1 721.1,213.0 723.0,216.0 724.9,218.9 726.7,221.8 728.6,224.7 730.5,227.6
732.4,230.5 734.3,233.5 736.2,236.4 738.1,239.5 740.0,242.5 741.8,245.6 743.7,248.8 745.6,252.0 747.5,255.2 749.4,258.5 751.3,261.9 753.2,265.4 755.1,268.9 756.9,272.5 758.8,276.1 760.7,279.9
762.6,283.6 764.5,287.5 766.4,291.4 768.3,295.3 770.2,299.3 772.0,303.3 773.9,307.4 775.8,311.4 777.7,315.5 779.6,319.6 781.5,323.7 783.4,327.8 785.3,331.9 787.1,336.0 789.0,340.0 790.9,344.0
792.8,347.9 794.7,351.8 796.6,355.6 798.5,359.3 800.3,363.0 802.2,366.6 804.1,370.1 806.0,373.5 807.9,376.9 809.8,380.2 811.7,383.4 813.6,386.5 815.4,389.6 817.3,392.6 819.2,395.6 821.1,398.5
823.0,401.4 824.9,404.2 826.8,407.0 828.7,409.8 830.5,412.6 832.4,415.4 834.3,418.2 836.2,420.9 838.1,423.7 840.0,426.5 841.9,429.3 843.8,432.1 845.6,434.9 847.5,437.8 849.4,440.6 851.3,443.5
853.2,446.4 855.1,449.3 857.0,452.2 858.9,455.2 860.7,458.2 862.6,461.1 864.5,464.1 866.4,467.1 868.3,470.1 870.2,473.2 872.1,476.2 873.9,479.2 875.8,482.3 877.7,485.3 879.6,488.3 881.5,491.4
883.4,494.4 885.3,497.4 887.2,500.4 889.0,503.3 890.9,506.3 892.8,509.2 894.7,512.2 896.6,515.0 898.5,517.9 900.4,520.8 902.3,523.6 904.1,526.4 906.0,529.2 907.9,531.9 909.8,534.6 911.7,537.3
913.6,540.0 915.5,542.6 917.4,545.2 919.2,547.8 921.1,550.3 923.0,552.8 924.9,555.2 924.9,662.4 923.0,662.4 921.1,662.4 919.2,662.4 917.4,662.4 915.5,662.4 913.6,662.4 911.7,662.4 909.8,662.4
907.9,662.4 906.0,662.4 904.1,662.4 902.3,662.4 900.4,662.4 898.5,662.4 896.6,662.4 894.7,662.4 892.8,662.4 890.9,662.4 889.0,662.4 887.2,662.4 885.3,662.4 883.4,662.4 881.5,662.4 879.6,662.4
877.7,662.4 875.8,662.4 873.9,662.4 872.1,662.4 870.2,662.4 868.3,662.4 866.4,662.4 864.5,662.4 862.6,662.4 860.7,662.4 858.9,662.4 857.0,662.4 855.1,662.4 853.2,662.4 851.3,662.4 849.4,662.4
847.5,662.4 845.6,662.4 843.8,662.4 841.9,662.4 840.0,662.4 838.1,662.4 836.2,662.4 834.3,662.4 832.4,662.4 830.5,662.4 828.7,662.4 826.8,662.4 824.9,662.4 823.0,662.4 821.1,662.4 819.2,662.4
817.3,662.4 815.4,662.4 813.6,662.4 811.7,662.4 809.8,662.4 807.9,662.4 806.0,662.4 804.1,662.4 802.2,662.4 800.3,662.4 798.5,662.4 796.6,662.4 794.7,662.4 792.8,662.4 790.9,662.4 789.0,662.4
787.1,662.4 785.3,662.4 783.4,662.4 781.5,662.4 779.6,662.4 777.7,662.4 775.8,662.4 773.9,662.4 772.0,662.4 770.2,662.4 768.3,662.4 766.4,662.4 764.5,662.4 762.6,662.4 760.7,662.4 758.8,662.4
756.9,662.4 755.1,662.4 753.2,662.4 751.3,662.4 749.4,662.4 747.5,662.4 745.6,662.4 743.7,662.4 741.8,662.4 740.0,662.4 738.1,662.4 736.2,662.4 734.3,662.4 732.4,662.4 730.5,662.4 728.6,662.4
726.7,662.4 724.9,662.4 723.0,662.4 721.1,662.4 719.2,662.4 717.3,662.4 715.4,662.4 713.5,662.4 711.7,662.4 709.8,662.4 707.9,662.4 706.0,662.4 704.1,662.4 702.2,662.4 700.3,662.4 698.4,662.4
696.6,662.4 694.7,662.4 692.8,662.4 690.9,662.4 689.0,662.4 687.1,662.4 685.2,662.4 683.3,662.4 681.5,662.4 679.6,662.4 677.7,662.4 675.8,662.4 673.9,662.4 672.0,662.4 670.1,662.4 668.2,662.4
666.4,662.4 664.5,662.4 662.6,662.4 660.7,662.4 658.8,662.4 656.9,662.4 655.0,662.4 653.1,662.4 651.3,662.4 649.4,662.4 647.5,662.4 645.6,662.4 643.7,662.4 641.8,662.4 639.9,662.4 638.1,662.4
636.2,662.4 634.3,662.4 632.4,662.4 630.5,662.4 628.6,662.4 626.7,662.4 624.8,662.4 623.0,662.4 621.1,662.4 619.2,662.4 617.3,662.4 615.4,662.4 613.5,662.4 611.6,662.4 609.7,662.4 607.9,662.4
606.0,662.4 604.1,662.4 602.2,662.4 600.3,662.4 598.4,662.4 596.5,662.4 594.6,662.4 592.8,662.4 590.9,662.4 589.0,662.4 587.1,662.4 585.2,662.4 583.3,662.4 581.4,662.4 579.5,662.4 577.7,662.4
575.8,662.4 573.9,662.4 572.0,662.4 570.1,662.4 568.2,662.4 566.3,662.4 564.5,662.4 562.6,662.4 560.7,662.4 558.8,662.4 556.9,662.4 555.0,662.4 553.1,662.4 551.2,662.4 549.4,662.4 547.5,662.4
545.6,662.4 543.7,662.4 541.8,662.4 539.9,662.4 538.0,662.4 536.1,662.4 534.3,662.4 532.4,662.4 530.5,662.4 528.6,662.4 526.7,662.4 524.8,662.4 522.9,662.4 521.0,662.4 519.2,662.4 517.3,662.4
515.4,662.4 513.5,662.4 511.6,662.4 509.7,662.4 507.8,662.4 506.0,662.4 504.1,662.4 502.2,662.4 500.3,662.4 498.4,662.4 496.5,662.4 494.6,662.4 492.7,662.4 490.9,662.4 489.0,662.4 487.1,662.4
485.2,662.4 483.3,662.4 481.4,662.4 479.5,662.4 477.6,662.4 475.8,662.4 473.9,662.4 472.0,662.4 470.1,662.4 468.2,662.4 466.3,662.4 464.4,662.4 462.5,662.4 460.7,662.4 458.8,662.4 456.9,662.4
455.0,662.4 453.1,662.4 451.2,662.4 449.3,662.4 447.4,662.4 445.6,662.4 443.7,662.4 441.8,662.4 439.9,662.4 438.0,662.4 436.1,662.4 434.2,662.4 432.4,662.4 430.5,662.4 428.6,662.4 426.7,662.4
424.8,662.4 422.9,662.4 421.0,662.4 419.1,662.4 417.3,662.4 415.4,662.4 413.5,662.4 411.6,662.4 409.7,662.4 407.8,662.4 405.9,662.4 404.0,662.4 402.2,662.4 400.3,662.4 398.4,662.4 396.5,662.4
394.6,662.4 392.7,662.4 390.8,662.4 388.9,662.4 387.1,662.4 385.2,662.4 383.3,662.4 381.4,662.4 379.5,662.4 377.6,662.4 375.7,662.4 373.8,662.4 372.0,662.4 370.1,662.4 368.2,662.4 366.3,662.4
364.4,662.4 362.5,662.4 360.6,662.4 358.8,662.4 356.9,662.4 355.0,662.4 353.1,662.4 351.2,662.4 349.3,662.4 347.4,662.4 345.5,662.4 343.7,662.4 341.8,662.4 339.9,662.4 338.0,662.4 336.1,662.4
334.2,662.4 332.3,662.4 330.4,662.4 328.6,662.4 326.7,662.4 324.8,662.4 322.9,662.4 321.0,662.4 319.1,662.4 317.2,662.4 315.3,662.4 313.5,662.4 311.6,662.4 309.7,662.4 307.8,662.4 305.9,662.4
304.0,662.4 302.1,662.4 300.2,662.4 298.4,662.4 296.5,662.4 294.6,662.4 292.7,662.4 290.8,662.4 288.9,662.4 287.0,662.4 285.2,662.4 283.3,662.4 281.4,662.4 279.5,662.4 277.6,662.4 275.7,662.4
273.8,662.4 271.9,662.4 270.1,662.4 268.2,662.4 266.3,662.4 264.4,662.4 262.5,662.4 260.6,662.4 258.7,662.4 256.8,662.4 255.0,662.4 253.1,662.4 251.2,662.4 249.3,662.4 247.4,662.4 245.5,662.4
243.6,662.4 241.7,662.4 239.9,662.4 238.0,662.4 236.1,662.4 234.2,662.4 232.3,662.4 230.4,662.4 228.5,662.4 226.6,662.4 224.8,662.4 222.9,662.4 221.0,662.4 219.1,662.4 217.2,662.4 215.3,662.4
213.4,662.4 211.6,662.4 209.7,662.4 207.8,662.4 205.9,662.4 204.0,662.4 202.1,662.4 200.2,662.4 198.3,662.4 196.5,662.4 194.6,662.4 192.7,662.4 190.8,662.4 188.9,662.4 187.0,662.4 185.1,662.4
183.2,662.4 181.4,662.4 179.5,662.4 177.6,662.4 175.7,662.4 173.8,662.4 171.9,662.4 170.0,662.4 168.1,662.4 166.3,662.4 164.4,662.4 162.5,662.4 160.6,662.4 158.7,662.4 '/>
	</g>
</g>
	</g>
	<g id="gnuplot_plot_3" ><title>Point estimate</title>
<g fill="none" color="white" stroke="rgb( 31, 120, 180)" stroke-width="2.00" stroke-linecap="butt" stroke-linejoin="miter">
</g>
<g fill="none" color="black" stroke="currentColor" stroke-width="2.00" stroke-linecap="butt" stroke-linejoin="miter">
	<g transform="translate(1089.0,103.0)" stroke="none" fill="black" font-family="Helvetica" font-size="12.00"  text-anchor="start">
		<text><tspan font-family="Helvetica" >Point estimate</tspan></text>
	</g>
</g>
<g fill="none" color="black" stroke="currentColor" stroke-width="2.00" stroke-linecap="butt" stroke-linejoin="miter">
	<path stroke='rgb( 31, 120, 180)'  d='M1038.5,99.1 L1080.7,99.1 M572.7,662.4 L572.7,103.9  '/></g>
	</g>
<g fill="none" color="black" stroke="currentColor" stroke-width="2.00" stroke-linecap="butt" stroke-linejoin="miter">
</g>
<g fill="none" color="black" stroke="black" stroke-width="1.00" stroke-linecap="butt" stroke-linejoin="miter">
</g>
<g fill="none" color="black" stroke="currentColor" stroke-width="1.00" stroke-linecap="butt" stroke-linejoin="miter">
	<path stroke='black'  d='M71.9,54.1 L71.9,662.4 L1013.6,662.4 L1013.6,54.1 L71.9,54.1 Z  '/></g>
<g fill="none" color="black" stroke="currentColor" stroke-width="1.00" stroke-linecap="butt" stroke-linejoin="miter">
</g>
</g>
</svg>

