<?xml version="1.0" encoding="utf-8"  standalone="no"?>
<svg 
 viewBox="0 0 1280 720"
 xmlns="http://www.w3.org/2000/svg"
 xmlns:xlink="http://www.w3.org/1999/xlink"
>

<title>Gnuplot</title>
<desc>Produced by GNUPLOT 5.2 patchlevel 8 </desc>

<g id="gnuplot_canvas">

<rect x="0" y="0" width="1280" height="720" fill="none"/>
<defs>

	<circle id='gpDot' r='0.5' stroke-width='0.5' stroke='currentColor'/>
	<path id='gpPt0' stroke-width='0.222' stroke='currentColor' d='M-1,0 h2 M0,-1 v2'/>
	<path id='gpPt1' stroke-width='0.222' stroke='currentColor' d='M-1,-1 L1,1 M1,-1 L-1,1'/>
	<path id='gpPt2' stroke-width='0.222' stroke='currentColor' d='M-1,0 L1,0 M0,-1 L0,1 M-1,-1 L1,1 M-1,1 L1,-1'/>
	<rect id='gpPt3' stroke-width='0.222' stroke='currentColor' x='-1' y='-1' width='2' height='2'/>
	<rect id='gpPt4' stroke-width='0.222' stroke='currentColor' fill='currentColor' x='-1' y='-1' width='2' height='2'/>
	<circle id='gpPt5' stroke-width='0.222' stroke='currentColor' cx='0' cy='0' r='1'/>
	<use xlink:href='#gpPt5' id='gpPt6' fill='currentColor' stroke='none'/>
	<path id='gpPt7' stroke-width='0.222' stroke='currentColor' d='M0,-1.33 L-1.33,0.67 L1.33,0.67 z'/>
	<use xlink:href='#gpPt7' id='gpPt8' fill='currentColor' stroke='none'/>
	<use xlink:href='#gpPt7' id='gpPt9' stroke='currentColor' transform='rotate(180)'/>
	<use xlink:href='#gpPt9' id='gpPt10' fill='currentColor' stroke='none'/>
	<use xlink:href='#gpPt3' id='gpPt11' stroke='currentColor' transform='rotate(45)'/>
	<use xlink:href='#gpPt11' id='gpPt12' fill='currentColor' stroke='none'/>
	<path id='gpPt13' stroke-width='0.222' stroke='currentColor' d='M0,1.330 L1.265,0.411 L0.782,-1.067 L-0.782,-1.076 L-1.265,0.411 z'/>
	<use xlink:href='#gpPt13' id='gpPt14' fill='currentColor' stroke='none'/>
	<filter id='textbox' filterUnits='objectBoundingBox' x='0' y='0' height='1' width='1'>
	  <feFlood flood-color='white' flood-opacity='1' result='bgnd'/>
	  <feComposite in='SourceGraphic' in2='bgnd' operator='atop'/>
	</filter>
	<filter id='greybox' filterUnits='objectBoundingBox' x='0' y='0' height='1' width='1'>
	  <feFlood flood-color='lightgrey' flood-opacity='1' result='grey'/>
	  <feComposite in='SourceGraphic' in2='grey' operator='atop'/>
	</filter>
</defs>
<g fill="none" color="white" stroke="currentColor" stroke-width="1.00" stroke-linecap="butt" stroke-linejoin="miter">
</g>
<g fill="none" color="black" stroke="currentColor" stroke-width="1.00" stroke-linecap="butt" stroke-linejoin="miter">
	<path stroke='black'  d='M80.2,662.4 L89.2,662.4  '/>	<g transform="translate(71.9,666.3)" stroke="none" fill="black" font-family="Helvetica" font-size="12.00"  text-anchor="end">
		<text><tspan font-family="Helvetica" > 0</tspan></text>
	</g>
</g>
<g fill="none" color="black" stroke="currentColor" stroke-width="1.00" stroke-linecap="butt" stroke-linejoin="miter">
	<path stroke='black'  d='M80.2,594.8 L89.2,594.8  '/>	<g transform="translate(71.9,598.7)" stroke="none" fill="black" font-family="Helvetica" font-size="12.00"  text-anchor="end">
		<text><tspan font-family="Helvetica" > 200</tspan></text>
	</g>
</g>
<g fill="none" color="black" stroke="currentColor" stroke-width="1.00" stroke-linecap="butt" stroke-linejoin="miter">
	<path stroke='black'  d='M80.2,527.2 L89.2,527.2  '/>	<g transform="translate(71.9,531.1)" stroke="none" fill="black" font-family="Helvetica" font-size="12.00"  text-anchor="end">
		<text><tspan font-family="Helvetica" > 400</tspan></text>
	</g>
</g>
<g fill="none" color="black" stroke="currentColor" stroke-width="1.00" stroke-linecap="butt" stroke-linejoin="miter">
	<path stroke='black'  d='M80.2,459.6 L89.2,459.6  '/>	<g transform="translate(71.9,463.5)" stroke="none" fill="black" font-family="Helvetica" font-size="12.00"  text-anchor="end">
		<text><tspan font-family="Helvetica" > 600</tspan></text>
	</g>
</g>
<g fill="none" color="black" stroke="currentColor" stroke-width="1.00" stroke-linecap="butt" stroke-linejoin="miter">
	<path stroke='black'  d='M80.2,392.0 L89.2,392.0  '/>	<g transform="translate(71.9,395.9)" stroke="none" fill="black" font-family="Helvetica" font-size="12.00"  text-anchor="end">
		<text><tspan font-family="Helvetica" > 800</tspan></text>
	</g>
</g>
<g fill="none" color="black" stroke="currentColor" stroke-width="1.00" stroke-linecap="butt" stroke-linejoin="miter">
	<path stroke='black'  d='M80.2,324.5 L89.2,324.5  '/>	<g transform="translate(71.9,328.4)" stroke="none" fill="black" font-family="Helvetica" font-size="12.00"  text-anchor="end">
		<text><tspan font-family="Helvetica" > 1000</tspan></text>
	</g>
</g>
<g fill="none" color="black" stroke="currentColor" stroke-width="1.00" stroke-linecap="butt" stroke-linejoin="miter">
	<path stroke='black'  d='M80.2,256.9 L89.2,256.9  '/>	<g transform="translate(71.9,260.8)" stroke="none" fill="black" font-family="Helvetica" font-size="12.00"  text-anchor="end">
		<text><tspan font-family="Helvetica" > 1200</tspan></text>
	</g>
</g>
<g fill="none" color="black" stroke="currentColor" stroke-width="1.00" stroke-linecap="butt" stroke-linejoin="miter">
	<path stroke='black'  d='M80.2,189.3 L89.2,189.3  '/>	<g transform="translate(71.9,193.2)" stroke="none" fill="black" font-family="Helvetica" font-size="12.00"  text-anchor="end">
		<text><tspan font-family="Helvetica" > 1400</tspan></text>
	</g>
</g>
<g fill="none" color="black" stroke="currentColor" stroke-width="1.00" stroke-linecap="butt" stroke-linejoin="miter">
	<path stroke='black'  d='M80.2,121.7 L89.2,121.7  '/>	<g transform="translate(71.9,125.6)" stroke="none" fill="black" font-family="Helvetica" font-size="12.00"  text-anchor="end">
		<text><tspan font-family="Helvetica" > 1600</tspan></text>
	</g>
</g>
<g fill="none" color="black" stroke="currentColor" stroke-width="1.00" stroke-linecap="butt" stroke-linejoin="miter">
	<path stroke='black'  d='M80.2,54.1 L89.2,54.1  '/>	<g transform="translate(71.9,58.0)" stroke="none" fill="black" font-family="Helvetica" font-size="12.00"  text-anchor="end">
		<text><tspan font-family="Helvetica" > 1800</tspan></text>
	</g>
</g>
<g fill="none" color="black" stroke="currentColor" stroke-width="1.00" stroke-linecap="butt" stroke-linejoin="miter">
	<path stroke='black'  d='M164.7,662.4 L164.7,653.4  '/>	<g transform="translate(164.7,684.3)" stroke="none" fill="black" font-family="Helvetica" font-size="12.00"  text-anchor="middle">
		<text><tspan font-family="Helvetica" > 3.5554</tspan></text>
	</g>
</g>
<g fill="none" color="black" stroke="currentColor" stroke-width="1.00" stroke-linecap="butt" stroke-linejoin="miter">
	<path stroke='black'  d='M332.6,662.4 L332.6,653.4  '/>	<g transform="translate(332.6,684.3)" stroke="none" fill="black" font-family="Helvetica" font-size="12.00"  text-anchor="middle">
		<text><tspan font-family="Helvetica" > 3.5556</tspan></text>
	</g>
</g>
<g fill="none" color="black" stroke="currentColor" stroke-width="1.00" stroke-linecap="butt" stroke-linejoin="miter">
	<path stroke='black'  d='M500.5,662.4 L500.5,653.4  '/>	<g transform="translate(500.5,684.3)" stroke="none" fill="black" font-family="Helvetica" font-size="12.00"  text-anchor="middle">
		<text><tspan font-family="Helvetica" > 3.5558</tspan></text>
	</g>
</g>
<g fill="none" color="black" stroke="currentColor" stroke-width="1.00" stroke-linecap="butt" stroke-linejoin="miter">
	<path stroke='black'  d='M668.4,662.4 L668.4,653.4  '/>	<g transform="translate(668.4,684.3)" stroke="none" fill="black" font-family="Helvetica" font-size="12.00"  text-anchor="middle">
		<text><tspan font-family="Helvetica" > 3.556</tspan></text>
	</g>
</g>
<g fill="none" color="black" stroke="currentColor" stroke-width="1.00" stroke-linecap="butt" stroke-linejoin="miter">
	<path stroke='black'  d='M836.3,662.4 L836.3,653.4  '/>	<g transform="translate(836.3,684.3)" stroke="none" fill="black" font-family="Helvetica" font-size="12.00"  text-anchor="middle">
		<text><tspan font-family="Helvetica" > 3.5562</tspan></text>
	</g>
</g>
<g fill="none" color="black" stroke="currentColor" stroke-width="1.00" stroke-linecap="butt" stroke-linejoin="miter">
	<path stroke='black'  d='M1004.2,662.4 L1004.2,653.4  '/>	<g transform="translate(1004.2,684.3)" stroke="none" fill="black" font-family="Helvetica" font-size="12.00"  text-anchor="middle">
		<text><tspan font-family="Helvetica" > 3.5564</tspan></text>
	</g>
</g>
<g fill="none" color="black" stroke="currentColor" stroke-width="1.00" stroke-linecap="butt" stroke-linejoin="miter">
</g>
<g fill="none" color="black" stroke="currentColor" stroke-width="1.00" stroke-linecap="butt" stroke-linejoin="miter">
	<path stroke='black'  d='M80.2,54.1 L80.2,662.4 L1013.6,662.4 L1013.6,54.1 L80.2,54.1 Z  '/></g>
<g fill="none" color="black" stroke="currentColor" stroke-width="1.00" stroke-linecap="butt" stroke-linejoin="miter">
	<g transform="translate(19.0,358.3) rotate(270)" stroke="none" fill="black" font-family="Helvetica" font-size="12.00"  text-anchor="middle">
		<text><tspan font-family="Helvetica" >Density (a.u.)</tspan></text>
	</g>
</g>
<g fill="none" color="black" stroke="currentColor" stroke-width="1.00" stroke-linecap="butt" stroke-linejoin="miter">
	<g transform="translate(546.9,711.3)" stroke="none" fill="black" font-family="Helvetica" font-size="12.00"  text-anchor="middle">
		<text><tspan font-family="Helvetica" >Average time (us)</tspan></text>
	</g>
</g>
<g fill="none" color="black" stroke="currentColor" stroke-width="1.00" stroke-linecap="butt" stroke-linejoin="miter">
	<g transform="translate(546.9,31.0)" stroke="none" fill="black" font-family="Helvetica" font-size="12.00"  text-anchor="middle">
		<text><tspan font-family="Helvetica" >bench_group/blake3/2048: mean</tspan></text>
	</g>
</g>
<g fill="none" color="black" stroke="currentColor" stroke-width="1.00" stroke-linecap="butt" stroke-linejoin="miter">
</g>
	<g id="gnuplot_plot_1" ><title>Bootstrap distribution</title>
<g fill="none" color="white" stroke="currentColor" stroke-width="2.00" stroke-linecap="butt" stroke-linejoin="miter">
</g>
<g fill="none" color="black" stroke="currentColor" stroke-width="2.00" stroke-linecap="butt" stroke-linejoin="miter">
	<g transform="translate(1089.0,67.0)" stroke="none" fill="black" font-family="Helvetica" font-size="12.00"  text-anchor="start">
		<text><tspan font-family="Helvetica" >Bootstrap distribution</tspan></text>
	</g>
</g>
<g fill="none" color="black" stroke="currentColor" stroke-width="2.00" stroke-linecap="butt" stroke-linejoin="miter">
	<path stroke='rgb( 31, 120, 180)'  d='M1038.5,63.1 L1080.7,63.1 M80.2,627.7 L82.1,626.8 L83.9,625.8 L85.8,624.8 L87.7,623.7 L89.6,622.7
		L91.4,621.6 L93.3,620.5 L95.2,619.3 L97.0,618.1 L98.9,616.9 L100.8,615.7 L102.6,614.5 L104.5,613.2
		L106.4,611.9 L108.3,610.6 L110.1,609.2 L112.0,607.9 L113.9,606.5 L115.7,605.2 L117.6,603.8 L119.5,602.4
		L121.4,601.0 L123.2,599.6 L125.1,598.2 L127.0,596.8 L128.8,595.4 L130.7,594.0 L132.6,592.6 L134.4,591.2
		L136.3,589.8 L138.2,588.4 L140.1,586.9 L141.9,585.5 L143.8,584.0 L145.7,582.6 L147.5,581.1 L149.4,579.5
		L151.3,578.0 L153.2,576.4 L155.0,574.7 L156.9,573.0 L158.8,571.2 L160.6,569.4 L162.5,567.5 L164.4,565.5
		L166.2,563.5 L168.1,561.4 L170.0,559.3 L171.9,557.1 L173.7,554.9 L175.6,552.6 L177.5,550.2 L179.3,547.8
		L181.2,545.4 L183.1,542.9 L185.0,540.5 L186.8,537.9 L188.7,535.4 L190.6,532.9 L192.4,530.3 L194.3,527.7
		L196.2,525.1 L198.0,522.5 L199.9,519.9 L201.8,517.3 L203.7,514.6 L205.5,511.9 L207.4,509.2 L209.3,506.4
		L211.1,503.6 L213.0,500.8 L214.9,498.0 L216.7,495.1 L218.6,492.2 L220.5,489.3 L222.4,486.4 L224.2,483.4
		L226.1,480.4 L228.0,477.4 L229.8,474.4 L231.7,471.3 L233.6,468.3 L235.5,465.3 L237.3,462.2 L239.2,459.2
		L241.1,456.1 L242.9,453.1 L244.8,450.0 L246.7,447.0 L248.5,443.9 L250.4,440.9 L252.3,437.8 L254.2,434.8
		L256.0,431.7 L257.9,428.6 L259.8,425.6 L261.6,422.5 L263.5,419.5 L265.4,416.4 L267.3,413.3 L269.1,410.2
		L271.0,407.1 L272.9,404.0 L274.7,400.8 L276.6,397.7 L278.5,394.5 L280.3,391.3 L282.2,388.1 L284.1,384.9
		L286.0,381.6 L287.8,378.3 L289.7,375.0 L291.6,371.6 L293.4,368.1 L295.3,364.6 L297.2,361.1 L299.1,357.5
		L300.9,353.9 L302.8,350.2 L304.7,346.4 L306.5,342.6 L308.4,338.7 L310.3,334.8 L312.1,330.9 L314.0,326.9
		L315.9,322.9 L317.8,318.8 L319.6,314.8 L321.5,310.7 L323.4,306.6 L325.2,302.6 L327.1,298.5 L329.0,294.5
		L330.9,290.5 L332.7,286.6 L334.6,282.7 L336.5,278.9 L338.3,275.1 L340.2,271.4 L342.1,267.7 L343.9,264.1
		L345.8,260.6 L347.7,257.1 L349.6,253.7 L351.4,250.4 L353.3,247.1 L355.2,243.8 L357.0,240.6 L358.9,237.4
		L360.8,234.3 L362.7,231.2 L364.5,228.1 L366.4,225.1 L368.3,222.1 L370.1,219.1 L372.0,216.1 L373.9,213.1
		L375.7,210.1 L377.6,207.2 L379.5,204.2 L381.4,201.3 L383.2,198.3 L385.1,195.4 L387.0,192.5 L388.8,189.6
		L390.7,186.7 L392.6,183.8 L394.5,180.9 L396.3,178.0 L398.2,175.2 L400.1,172.3 L401.9,169.5 L403.8,166.7
		L405.7,163.9 L407.5,161.1 L409.4,158.4 L411.3,155.7 L413.2,153.0 L415.0,150.4 L416.9,147.8 L418.8,145.2
		L420.6,142.8 L422.5,140.3 L424.4,138.0 L426.3,135.7 L428.1,133.5 L430.0,131.3 L431.9,129.2 L433.7,127.2
		L435.6,125.3 L437.5,123.5 L439.3,121.7 L441.2,120.0 L443.1,118.3 L445.0,116.7 L446.8,115.1 L448.7,113.6
		L450.6,112.1 L452.4,110.6 L454.3,109.2 L456.2,107.7 L458.0,106.2 L459.9,104.8 L461.8,103.3 L463.7,101.8
		L465.5,100.4 L467.4,98.9 L469.3,97.5 L471.1,96.0 L473.0,94.6 L474.9,93.3 L476.8,91.9 L478.6,90.7
		L480.5,89.5 L482.4,88.4 L484.2,87.3 L486.1,86.4 L488.0,85.5 L489.8,84.7 L491.7,84.0 L493.6,83.4
		L495.5,82.9 L497.3,82.5 L499.2,82.2 L501.1,81.9 L502.9,81.6 L504.8,81.4 L506.7,81.3 L508.6,81.2
		L510.4,81.1 L512.3,81.0 L514.2,80.9 L516.0,80.9 L517.9,80.8 L519.8,80.8 L521.6,80.9 L523.5,80.9
		L525.4,81.0 L527.3,81.2 L529.1,81.4 L531.0,81.7 L532.9,82.1 L534.7,82.5 L536.6,83.0 L538.5,83.6
		L540.4,84.3 L542.2,85.1 L544.1,85.9 L546.0,86.8 L547.8,87.8 L549.7,88.9 L551.6,90.1 L553.4,91.3
		L555.3,92.5 L557.2,93.8 L559.1,95.1 L560.9,96.5 L562.8,97.9 L564.7,99.4 L566.5,100.9 L568.4,102.4
		L570.3,104.0 L572.2,105.6 L574.0,107.3 L575.9,109.0 L577.8,110.7 L579.6,112.5 L581.5,114.4 L583.4,116.4
		L585.2,118.4 L587.1,120.4 L589.0,122.5 L590.9,124.7 L592.7,127.0 L594.6,129.2 L596.5,131.6 L598.3,134.0
		L600.2,136.4 L602.1,138.9 L604.0,141.4 L605.8,144.0 L607.7,146.6 L609.6,149.2 L611.4,151.8 L613.3,154.4
		L615.2,157.1 L617.0,159.8 L618.9,162.4 L620.8,165.1 L622.7,167.9 L624.5,170.6 L626.4,173.3 L628.3,176.0
		L630.1,178.8 L632.0,181.5 L633.9,184.3 L635.8,187.1 L637.6,189.9 L639.5,192.7 L641.4,195.5 L643.2,198.4
		L645.1,201.3 L647.0,204.2 L648.8,207.1 L650.7,210.1 L652.6,213.0 L654.5,216.1 L656.3,219.1 L658.2,222.2
		L660.1,225.3 L661.9,228.5 L663.8,231.7 L665.7,234.9 L667.5,238.2 L669.4,241.4 L671.3,244.7 L673.2,248.0
		L675.0,251.3 L676.9,254.6 L678.8,257.9 L680.6,261.3 L682.5,264.6 L684.4,267.8 L686.3,271.1 L688.1,274.4
		L690.0,277.6 L691.9,280.8 L693.7,284.0 L695.6,287.2 L697.5,290.4 L699.3,293.5 L701.2,296.6 L703.1,299.7
		L705.0,302.8 L706.8,305.9 L708.7,309.0 L710.6,312.0 L712.4,315.1 L714.3,318.1 L716.2,321.1 L718.1,324.1
		L719.9,327.1 L721.8,330.1 L723.7,333.1 L725.5,336.1 L727.4,339.1 L729.3,342.2 L731.1,345.2 L733.0,348.2
		L734.9,351.2 L736.8,354.2 L738.6,357.3 L740.5,360.3 L742.4,363.4 L744.2,366.5 L746.1,369.6 L748.0,372.7
		L749.9,375.9 L751.7,379.0 L753.6,382.2 L755.5,385.4 L757.3,388.5 L759.2,391.7 L761.1,394.8 L762.9,398.0
		L764.8,401.1 L766.7,404.2 L768.6,407.3 L770.4,410.3 L772.3,413.3 L774.2,416.3 L776.0,419.2 L777.9,422.1
		L779.8,425.0 L781.7,427.8 L783.5,430.6 L785.4,433.3 L787.3,436.0 L789.1,438.7 L791.0,441.3 L792.9,444.0
		L794.7,446.5 L796.6,449.1 L798.5,451.7 L800.4,454.2 L802.2,456.7 L804.1,459.2 L806.0,461.7 L807.8,464.2
		L809.7,466.7 L811.6,469.1 L813.5,471.6 L815.3,474.0 L817.2,476.4 L819.1,478.9 L820.9,481.3 L822.8,483.7
		L824.7,486.1 L826.5,488.5 L828.4,490.9 L830.3,493.2 L832.2,495.6 L834.0,497.9 L835.9,500.3 L837.8,502.6
		L839.6,504.9 L841.5,507.2 L843.4,509.5 L845.3,511.7 L847.1,514.0 L849.0,516.1 L850.9,518.3 L852.7,520.5
		L854.6,522.6 L856.5,524.6 L858.3,526.7 L860.2,528.7 L862.1,530.7 L864.0,532.6 L865.8,534.5 L867.7,536.4
		L869.6,538.2 L871.4,540.0 L873.3,541.8 L875.2,543.5 L877.1,545.2 L878.9,546.8 L880.8,548.4 L882.7,550.0
		L884.5,551.6 L886.4,553.1 L888.3,554.6 L890.1,556.0 L892.0,557.5 L893.9,558.9 L895.8,560.3 L897.6,561.7
		L899.5,563.0 L901.4,564.4 L903.2,565.7 L905.1,567.0 L907.0,568.4 L908.8,569.7 L910.7,571.0 L912.6,572.4
		L914.5,573.7 L916.3,575.1 L918.2,576.4 L920.1,577.8 L921.9,579.2 L923.8,580.6 L925.7,582.1 L927.6,583.5
		L929.4,584.9 L931.3,586.4 L933.2,587.8 L935.0,589.2 L936.9,590.7 L938.8,592.1 L940.6,593.5 L942.5,594.8
		L944.4,596.2 L946.3,597.5 L948.1,598.8 L950.0,600.1 L951.9,601.3 L953.7,602.4 L955.6,603.6 L957.5,604.7
		L959.4,605.7 L961.2,606.7 L963.1,607.7 L965.0,608.6 L966.8,609.5 L968.7,610.4 L970.6,611.2 L972.4,612.1
		L974.3,612.9 L976.2,613.7 L978.1,614.4 L979.9,615.2 L981.8,616.0 L983.7,616.7 L985.5,617.5 L987.4,618.2
		L989.3,619.0 L991.2,619.8 L993.0,620.5 L994.9,621.3 L996.8,622.0 L998.6,622.8 L1000.5,623.6 L1002.4,624.3
		L1004.2,625.1 L1006.1,625.8 L1008.0,626.5 L1009.9,627.3 L1011.7,628.0 L1013.6,628.7  '/></g>
	</g>
	<g id="gnuplot_plot_2" ><title>Confidence interval</title>
<g fill="none" color="white" stroke="rgb( 31, 120, 180)" stroke-width="1.00" stroke-linecap="butt" stroke-linejoin="miter">
</g>
<g fill="none" color="black" stroke="currentColor" stroke-width="1.00" stroke-linecap="butt" stroke-linejoin="miter">
	<g transform="translate(1089.0,85.0)" stroke="none" fill="black" font-family="Helvetica" font-size="12.00"  text-anchor="start">
		<text><tspan font-family="Helvetica" >Confidence interval</tspan></text>
	</g>
</g>
<g fill="none" color="black" stroke="currentColor" stroke-width="1.00" stroke-linecap="butt" stroke-linejoin="miter">
	<g stroke='none' shape-rendering='crispEdges'>
		<polygon fill = 'rgb( 31, 120, 180)' fill-opacity = '0.250000' points = '1038.5,85.6 1080.7,85.6 1080.7,76.6 1038.5,76.6 '/>
		<polygon fill = 'rgb( 31, 120, 180)' fill-opacity = '0.250000' points = '166.2,563.5 168.1,561.4 170.0,559.3 171.9,557.1 173.7,554.9 175.6,552.6 177.5,550.2 179.3,547.8 181.2,545.4 183.1,542.9 185.0,540.5 186.8,537.9 188.7,535.4 190.6,532.9 192.4,530.3 194.3,527.7
196.2,525.1 198.0,522.5 199.9,519.9 201.8,517.3 203.7,514.6 205.5,511.9 207.4,509.2 209.3,506.4 211.1,503.6 213.0,500.8 214.9,498.0 216.7,495.1 218.6,492.2 220.5,489.3 222.4,486.4 224.2,483.4
226.1,480.4 228.0,477.4 229.8,474.4 231.7,471.3 233.6,468.3 235.5,465.3 237.3,462.2 239.2,459.2 241.1,456.1 242.9,453.1 244.8,450.0 246.7,447.0 248.5,443.9 250.4,440.9 252.3,437.8 254.2,434.8
256.0,431.7 257.9,428.6 259.8,425.6 261.6,422.5 263.5,419.5 265.4,416.4 267.3,413.3 269.1,410.2 271.0,407.1 272.9,404.0 274.7,400.8 276.6,397.7 278.5,394.5 280.3,391.3 282.2,388.1 284.1,384.9
286.0,381.6 287.8,378.3 289.7,375.0 291.6,371.6 293.4,368.1 295.3,364.6 297.2,361.1 299.1,357.5 300.9,353.9 302.8,350.2 304.7,346.4 306.5,342.6 308.4,338.7 310.3,334.8 312.1,330.9 314.0,326.9
315.9,322.9 317.8,318.8 319.6,314.8 321.5,310.7 323.4,306.6 325.2,302.6 327.1,298.5 329.0,294.5 330.9,290.5 332.7,286.6 334.6,282.7 336.5,278.9 338.3,275.1 340.2,271.4 342.1,267.7 343.9,264.1
345.8,260.6 347.7,257.1 349.6,253.7 351.4,250.4 353.3,247.1 355.2,243.8 357.0,240.6 358.9,237.4 360.8,234.3 362.7,231.2 364.5,228.1 366.4,225.1 368.3,222.1 370.1,219.1 372.0,216.1 373.9,213.1
375.7,210.1 377.6,207.2 379.5,204.2 381.4,201.3 383.2,198.3 385.1,195.4 387.0,192.5 388.8,189.6 390.7,186.7 392.6,183.8 394.5,180.9 396.3,178.0 398.2,175.2 400.1,172.3 401.9,169.5 403.8,166.7
405.7,163.9 407.5,161.1 409.4,158.4 411.3,155.7 413.2,153.0 415.0,150.4 416.9,147.8 418.8,145.2 420.6,142.8 422.5,140.3 424.4,138.0 426.3,135.7 428.1,133.5 430.0,131.3 431.9,129.2 433.7,127.2
435.6,125.3 437.5,123.5 439.3,121.7 441.2,120.0 443.1,118.3 445.0,116.7 446.8,115.1 448.7,113.6 450.6,112.1 452.4,110.6 454.3,109.2 456.2,107.7 458.0,106.2 459.9,104.8 461.8,103.3 463.7,101.8
465.5,100.4 467.4,98.9 469.3,97.5 471.1,96.0 473.0,94.6 474.9,93.3 476.8,91.9 478.6,90.7 480.5,89.5 482.4,88.4 484.2,87.3 486.1,86.4 488.0,85.5 489.8,84.7 491.7,84.0 493.6,83.4
495.5,82.9 497.3,82.5 499.2,82.2 501.1,81.9 502.9,81.6 504.8,81.4 506.7,81.3 508.6,81.2 510.4,81.1 512.3,81.0 514.2,80.9 516.0,80.9 517.9,80.8 519.8,80.8 521.6,80.9 523.5,80.9
525.4,81.0 527.3,81.2 529.1,81.4 531.0,81.7 532.9,82.1 534.7,82.5 536.6,83.0 538.5,83.6 540.4,84.3 542.2,85.1 544.1,85.9 546.0,86.8 547.8,87.8 549.7,88.9 551.6,90.1 553.4,91.3
555.3,92.5 557.2,93.8 559.1,95.1 560.9,96.5 562.8,97.9 564.7,99.4 566.5,100.9 568.4,102.4 570.3,104.0 572.2,105.6 574.0,107.3 575.9,109.0 577.8,110.7 579.6,112.5 581.5,114.4 583.4,116.4
585.2,118.4 587.1,120.4 589.0,122.5 590.9,124.7 592.7,127.0 594.6,129.2 596.5,131.6 598.3,134.0 600.2,136.4 602.1,138.9 604.0,141.4 605.8,144.0 607.7,146.6 609.6,149.2 611.4,151.8 613.3,154.4
615.2,157.1 617.0,159.8 618.9,162.4 620.8,165.1 622.7,167.9 624.5,170.6 626.4,173.3 628.3,176.0 630.1,178.8 632.0,181.5 633.9,184.3 635.8,187.1 637.6,189.9 639.5,192.7 641.4,195.5 643.2,198.4
645.1,201.3 647.0,204.2 648.8,207.1 650.7,210.1 652.6,213.0 654.5,216.1 656.3,219.1 658.2,222.2 660.1,225.3 661.9,228.5 663.8,231.7 665.7,234.9 667.5,238.2 669.4,241.4 671.3,244.7 673.2,248.0
675.0,251.3 676.9,254.6 678.8,257.9 680.6,261.3 682.5,264.6 684.4,267.8 686.3,271.1 688.1,274.4 690.0,277.6 691.9,280.8 693.7,284.0 695.6,287.2 697.5,290.4 699.3,293.5 701.2,296.6 703.1,299.7
705.0,302.8 706.8,305.9 708.7,309.0 710.6,312.0 712.4,315.1 714.3,318.1 716.2,321.1 718.1,324.1 719.9,327.1 721.8,330.1 723.7,333.1 725.5,336.1 727.4,339.1 729.3,342.2 731.1,345.2 733.0,348.2
734.9,351.2 736.8,354.2 738.6,357.3 740.5,360.3 742.4,363.4 744.2,366.5 746.1,369.6 748.0,372.7 749.9,375.9 751.7,379.0 753.6,382.2 755.5,385.4 757.3,388.5 759.2,391.7 761.1,394.8 762.9,398.0
764.8,401.1 766.7,404.2 768.6,407.3 770.4,410.3 772.3,413.3 774.2,416.3 776.0,419.2 777.9,422.1 779.8,425.0 781.7,427.8 783.5,430.6 785.4,433.3 787.3,436.0 789.1,438.7 791.0,441.3 792.9,444.0
794.7,446.5 796.6,449.1 798.5,451.7 800.4,454.2 802.2,456.7 804.1,459.2 806.0,461.7 807.8,464.2 809.7,466.7 811.6,469.1 813.5,471.6 815.3,474.0 817.2,476.4 819.1,478.9 820.9,481.3 822.8,483.7
824.7,486.1 826.5,488.5 828.4,490.9 830.3,493.2 832.2,495.6 834.0,497.9 835.9,500.3 837.8,502.6 839.6,504.9 841.5,507.2 843.4,509.5 845.3,511.7 847.1,514.0 849.0,516.1 850.9,518.3 852.7,520.5
854.6,522.6 856.5,524.6 858.3,526.7 860.2,528.7 862.1,530.7 864.0,532.6 865.8,534.5 867.7,536.4 869.6,538.2 871.4,540.0 873.3,541.8 875.2,543.5 877.1,545.2 878.9,546.8 880.8,548.4 882.7,550.0
884.5,551.6 886.4,553.1 888.3,554.6 890.1,556.0 892.0,557.5 893.9,558.9 895.8,560.3 897.6,561.7 899.5,563.0 901.4,564.4 903.2,565.7 905.1,567.0 907.0,568.4 908.8,569.7 910.7,571.0 912.6,572.4
914.5,573.7 916.3,575.1 918.2,576.4 920.1,577.8 921.9,579.2 923.8,580.6 925.7,582.1 925.7,662.4 923.8,662.4 921.9,662.4 920.1,662.4 918.2,662.4 916.3,662.4 914.5,662.4 912.6,662.4 910.7,662.4
908.8,662.4 907.0,662.4 905.1,662.4 903.2,662.4 901.4,662.4 899.5,662.4 897.6,662.4 895.8,662.4 893.9,662.4 892.0,662.4 890.1,662.4 888.3,662.4 886.4,662.4 884.5,662.4 882.7,662.4 880.8,662.4
878.9,662.4 877.1,662.4 875.2,662.4 873.3,662.4 871.4,662.4 869.6,662.4 867.7,662.4 865.8,662.4 864.0,662.4 862.1,662.4 860.2,662.4 858.3,662.4 856.5,662.4 854.6,662.4 852.7,662.4 850.9,662.4
849.0,662.4 847.1,662.4 845.3,662.4 843.4,662.4 841.5,662.4 839.6,662.4 837.8,662.4 835.9,662.4 834.0,662.4 832.2,662.4 830.3,662.4 828.4,662.4 826.5,662.4 824.7,662.4 822.8,662.4 820.9,662.4
819.1,662.4 817.2,662.4 815.3,662.4 813.5,662.4 811.6,662.4 809.7,662.4 807.8,662.4 806.0,662.4 804.1,662.4 802.2,662.4 800.4,662.4 798.5,662.4 796.6,662.4 794.7,662.4 792.9,662.4 791.0,662.4
789.1,662.4 787.3,662.4 785.4,662.4 783.5,662.4 781.7,662.4 779.8,662.4 777.9,662.4 776.0,662.4 774.2,662.4 772.3,662.4 770.4,662.4 768.6,662.4 766.7,662.4 764.8,662.4 762.9,662.4 761.1,662.4
759.2,662.4 757.3,662.4 755.5,662.4 753.6,662.4 751.7,662.4 749.9,662.4 748.0,662.4 746.1,662.4 744.2,662.4 742.4,662.4 740.5,662.4 738.6,662.4 736.8,662.4 734.9,662.4 733.0,662.4 731.1,662.4
729.3,662.4 727.4,662.4 725.5,662.4 723.7,662.4 721.8,662.4 719.9,662.4 718.1,662.4 716.2,662.4 714.3,662.4 712.4,662.4 710.6,662.4 708.7,662.4 706.8,662.4 705.0,662.4 703.1,662.4 701.2,662.4
699.3,662.4 697.5,662.4 695.6,662.4 693.7,662.4 691.9,662.4 690.0,662.4 688.1,662.4 686.3,662.4 684.4,662.4 682.5,662.4 680.6,662.4 678.8,662.4 676.9,662.4 675.0,662.4 673.2,662.4 671.3,662.4
669.4,662.4 667.5,662.4 665.7,662.4 663.8,662.4 661.9,662.4 660.1,662.4 658.2,662.4 656.3,662.4 654.5,662.4 652.6,662.4 650.7,662.4 648.8,662.4 647.0,662.4 645.1,662.4 643.2,662.4 641.4,662.4
639.5,662.4 637.6,662.4 635.8,662.4 633.9,662.4 632.0,662.4 630.1,662.4 628.3,662.4 626.4,662.4 624.5,662.4 622.7,662.4 620.8,662.4 618.9,662.4 617.0,662.4 615.2,662.4 613.3,662.4 611.4,662.4
609.6,662.4 607.7,662.4 605.8,662.4 604.0,662.4 602.1,662.4 600.2,662.4 598.3,662.4 596.5,662.4 594.6,662.4 592.7,662.4 590.9,662.4 589.0,662.4 587.1,662.4 585.2,662.4 583.4,662.4 581.5,662.4
579.6,662.4 577.8,662.4 575.9,662.4 574.0,662.4 572.2,662.4 570.3,662.4 568.4,662.4 566.5,662.4 564.7,662.4 562.8,662.4 560.9,662.4 559.1,662.4 557.2,662.4 555.3,662.4 553.4,662.4 551.6,662.4
549.7,662.4 547.8,662.4 546.0,662.4 544.1,662.4 542.2,662.4 540.4,662.4 538.5,662.4 536.6,662.4 534.7,662.4 532.9,662.4 531.0,662.4 529.1,662.4 527.3,662.4 525.4,662.4 523.5,662.4 521.6,662.4
519.8,662.4 517.9,662.4 516.0,662.4 514.2,662.4 512.3,662.4 510.4,662.4 508.6,662.4 506.7,662.4 504.8,662.4 502.9,662.4 501.1,662.4 499.2,662.4 497.3,662.4 495.5,662.4 493.6,662.4 491.7,662.4
489.8,662.4 488.0,662.4 486.1,662.4 484.2,662.4 482.4,662.4 480.5,662.4 478.6,662.4 476.8,662.4 474.9,662.4 473.0,662.4 471.1,662.4 469.3,662.4 467.4,662.4 465.5,662.4 463.7,662.4 461.8,662.4
459.9,662.4 458.0,662.4 456.2,662.4 454.3,662.4 452.4,662.4 450.6,662.4 448.7,662.4 446.8,662.4 445.0,662.4 443.1,662.4 441.2,662.4 439.3,662.4 437.5,662.4 435.6,662.4 433.7,662.4 431.9,662.4
430.0,662.4 428.1,662.4 426.3,662.4 424.4,662.4 422.5,662.4 420.6,662.4 418.8,662.4 416.9,662.4 415.0,662.4 413.2,662.4 411.3,662.4 409.4,662.4 407.5,662.4 405.7,662.4 403.8,662.4 401.9,662.4
400.1,662.4 398.2,662.4 396.3,662.4 394.5,662.4 392.6,662.4 390.7,662.4 388.8,662.4 387.0,662.4 385.1,662.4 383.2,662.4 381.4,662.4 379.5,662.4 377.6,662.4 375.7,662.4 373.9,662.4 372.0,662.4
370.1,662.4 368.3,662.4 366.4,662.4 364.5,662.4 362.7,662.4 360.8,662.4 358.9,662.4 357.0,662.4 355.2,662.4 353.3,662.4 351.4,662.4 349.6,662.4 347.7,662.4 345.8,662.4 343.9,662.4 342.1,662.4
340.2,662.4 338.3,662.4 336.5,662.4 334.6,662.4 332.7,662.4 330.9,662.4 329.0,662.4 327.1,662.4 325.2,662.4 323.4,662.4 321.5,662.4 319.6,662.4 317.8,662.4 315.9,662.4 314.0,662.4 312.1,662.4
310.3,662.4 308.4,662.4 306.5,662.4 304.7,662.4 302.8,662.4 300.9,662.4 299.1,662.4 297.2,662.4 295.3,662.4 293.4,662.4 291.6,662.4 289.7,662.4 287.8,662.4 286.0,662.4 284.1,662.4 282.2,662.4
280.3,662.4 278.5,662.4 276.6,662.4 274.7,662.4 272.9,662.4 271.0,662.4 269.1,662.4 267.3,662.4 265.4,662.4 263.5,662.4 261.6,662.4 259.8,662.4 257.9,662.4 256.0,662.4 254.2,662.4 252.3,662.4
250.4,662.4 248.5,662.4 246.7,662.4 244.8,662.4 242.9,662.4 241.1,662.4 239.2,662.4 237.3,662.4 235.5,662.4 233.6,662.4 231.7,662.4 229.8,662.4 228.0,662.4 226.1,662.4 224.2,662.4 222.4,662.4
220.5,662.4 218.6,662.4 216.7,662.4 214.9,662.4 213.0,662.4 211.1,662.4 209.3,662.4 207.4,662.4 205.5,662.4 203.7,662.4 201.8,662.4 199.9,662.4 198.0,662.4 196.2,662.4 194.3,662.4 192.4,662.4
190.6,662.4 188.7,662.4 186.8,662.4 185.0,662.4 183.1,662.4 181.2,662.4 179.3,662.4 177.5,662.4 175.6,662.4 173.7,662.4 171.9,662.4 170.0,662.4 168.1,662.4 166.2,662.4 '/>
	</g>
</g>
	</g>
	<g id="gnuplot_plot_3" ><title>Point estimate</title>
<g fill="none" color="white" stroke="rgb( 31, 120, 180)" stroke-width="2.00" stroke-linecap="butt" stroke-linejoin="miter">
</g>
<g fill="none" color="black" stroke="currentColor" stroke-width="2.00" stroke-linecap="butt" stroke-linejoin="miter">
	<g transform="translate(1089.0,103.0)" stroke="none" fill="black" font-family="Helvetica" font-size="12.00"  text-anchor="start">
		<text><tspan font-family="Helvetica" >Point estimate</tspan></text>
	</g>
</g>
<g fill="none" color="black" stroke="currentColor" stroke-width="2.00" stroke-linecap="butt" stroke-linejoin="miter">
	<path stroke='rgb( 31, 120, 180)'  d='M1038.5,99.1 L1080.7,99.1 M528.7,662.4 L528.7,81.4  '/></g>
	</g>
<g fill="none" color="black" stroke="currentColor" stroke-width="2.00" stroke-linecap="butt" stroke-linejoin="miter">
</g>
<g fill="none" color="black" stroke="black" stroke-width="1.00" stroke-linecap="butt" stroke-linejoin="miter">
</g>
<g fill="none" color="black" stroke="currentColor" stroke-width="1.00" stroke-linecap="butt" stroke-linejoin="miter">
	<path stroke='black'  d='M80.2,54.1 L80.2,662.4 L1013.6,662.4 L1013.6,54.1 L80.2,54.1 Z  '/></g>
<g fill="none" color="black" stroke="currentColor" stroke-width="1.00" stroke-linecap="butt" stroke-linejoin="miter">
</g>
</g>
</svg>

