<?xml version="1.0" encoding="utf-8"  standalone="no"?>
<svg 
 viewBox="0 0 1280 720"
 xmlns="http://www.w3.org/2000/svg"
 xmlns:xlink="http://www.w3.org/1999/xlink"
>

<title>Gnuplot</title>
<desc>Produced by GNUPLOT 5.2 patchlevel 8 </desc>

<g id="gnuplot_canvas">

<rect x="0" y="0" width="1280" height="720" fill="none"/>
<defs>

	<circle id='gpDot' r='0.5' stroke-width='0.5' stroke='currentColor'/>
	<path id='gpPt0' stroke-width='0.222' stroke='currentColor' d='M-1,0 h2 M0,-1 v2'/>
	<path id='gpPt1' stroke-width='0.222' stroke='currentColor' d='M-1,-1 L1,1 M1,-1 L-1,1'/>
	<path id='gpPt2' stroke-width='0.222' stroke='currentColor' d='M-1,0 L1,0 M0,-1 L0,1 M-1,-1 L1,1 M-1,1 L1,-1'/>
	<rect id='gpPt3' stroke-width='0.222' stroke='currentColor' x='-1' y='-1' width='2' height='2'/>
	<rect id='gpPt4' stroke-width='0.222' stroke='currentColor' fill='currentColor' x='-1' y='-1' width='2' height='2'/>
	<circle id='gpPt5' stroke-width='0.222' stroke='currentColor' cx='0' cy='0' r='1'/>
	<use xlink:href='#gpPt5' id='gpPt6' fill='currentColor' stroke='none'/>
	<path id='gpPt7' stroke-width='0.222' stroke='currentColor' d='M0,-1.33 L-1.33,0.67 L1.33,0.67 z'/>
	<use xlink:href='#gpPt7' id='gpPt8' fill='currentColor' stroke='none'/>
	<use xlink:href='#gpPt7' id='gpPt9' stroke='currentColor' transform='rotate(180)'/>
	<use xlink:href='#gpPt9' id='gpPt10' fill='currentColor' stroke='none'/>
	<use xlink:href='#gpPt3' id='gpPt11' stroke='currentColor' transform='rotate(45)'/>
	<use xlink:href='#gpPt11' id='gpPt12' fill='currentColor' stroke='none'/>
	<path id='gpPt13' stroke-width='0.222' stroke='currentColor' d='M0,1.330 L1.265,0.411 L0.782,-1.067 L-0.782,-1.076 L-1.265,0.411 z'/>
	<use xlink:href='#gpPt13' id='gpPt14' fill='currentColor' stroke='none'/>
	<filter id='textbox' filterUnits='objectBoundingBox' x='0' y='0' height='1' width='1'>
	  <feFlood flood-color='white' flood-opacity='1' result='bgnd'/>
	  <feComposite in='SourceGraphic' in2='bgnd' operator='atop'/>
	</filter>
	<filter id='greybox' filterUnits='objectBoundingBox' x='0' y='0' height='1' width='1'>
	  <feFlood flood-color='lightgrey' flood-opacity='1' result='grey'/>
	  <feComposite in='SourceGraphic' in2='grey' operator='atop'/>
	</filter>
</defs>
<g fill="none" color="white" stroke="currentColor" stroke-width="1.00" stroke-linecap="butt" stroke-linejoin="miter">
</g>
<g fill="none" color="black" stroke="currentColor" stroke-width="1.00" stroke-linecap="butt" stroke-linejoin="miter">
	<path stroke='black'  d='M80.2,662.4 L89.2,662.4  '/>	<g transform="translate(71.9,666.3)" stroke="none" fill="black" font-family="Helvetica" font-size="12.00"  text-anchor="end">
		<text><tspan font-family="Helvetica" > 0</tspan></text>
	</g>
</g>
<g fill="none" color="black" stroke="currentColor" stroke-width="1.00" stroke-linecap="butt" stroke-linejoin="miter">
	<path stroke='black'  d='M80.2,586.4 L89.2,586.4  '/>	<g transform="translate(71.9,590.3)" stroke="none" fill="black" font-family="Helvetica" font-size="12.00"  text-anchor="end">
		<text><tspan font-family="Helvetica" > 200</tspan></text>
	</g>
</g>
<g fill="none" color="black" stroke="currentColor" stroke-width="1.00" stroke-linecap="butt" stroke-linejoin="miter">
	<path stroke='black'  d='M80.2,510.3 L89.2,510.3  '/>	<g transform="translate(71.9,514.2)" stroke="none" fill="black" font-family="Helvetica" font-size="12.00"  text-anchor="end">
		<text><tspan font-family="Helvetica" > 400</tspan></text>
	</g>
</g>
<g fill="none" color="black" stroke="currentColor" stroke-width="1.00" stroke-linecap="butt" stroke-linejoin="miter">
	<path stroke='black'  d='M80.2,434.3 L89.2,434.3  '/>	<g transform="translate(71.9,438.2)" stroke="none" fill="black" font-family="Helvetica" font-size="12.00"  text-anchor="end">
		<text><tspan font-family="Helvetica" > 600</tspan></text>
	</g>
</g>
<g fill="none" color="black" stroke="currentColor" stroke-width="1.00" stroke-linecap="butt" stroke-linejoin="miter">
	<path stroke='black'  d='M80.2,358.2 L89.2,358.2  '/>	<g transform="translate(71.9,362.1)" stroke="none" fill="black" font-family="Helvetica" font-size="12.00"  text-anchor="end">
		<text><tspan font-family="Helvetica" > 800</tspan></text>
	</g>
</g>
<g fill="none" color="black" stroke="currentColor" stroke-width="1.00" stroke-linecap="butt" stroke-linejoin="miter">
	<path stroke='black'  d='M80.2,282.2 L89.2,282.2  '/>	<g transform="translate(71.9,286.1)" stroke="none" fill="black" font-family="Helvetica" font-size="12.00"  text-anchor="end">
		<text><tspan font-family="Helvetica" > 1000</tspan></text>
	</g>
</g>
<g fill="none" color="black" stroke="currentColor" stroke-width="1.00" stroke-linecap="butt" stroke-linejoin="miter">
	<path stroke='black'  d='M80.2,206.2 L89.2,206.2  '/>	<g transform="translate(71.9,210.1)" stroke="none" fill="black" font-family="Helvetica" font-size="12.00"  text-anchor="end">
		<text><tspan font-family="Helvetica" > 1200</tspan></text>
	</g>
</g>
<g fill="none" color="black" stroke="currentColor" stroke-width="1.00" stroke-linecap="butt" stroke-linejoin="miter">
	<path stroke='black'  d='M80.2,130.1 L89.2,130.1  '/>	<g transform="translate(71.9,134.0)" stroke="none" fill="black" font-family="Helvetica" font-size="12.00"  text-anchor="end">
		<text><tspan font-family="Helvetica" > 1400</tspan></text>
	</g>
</g>
<g fill="none" color="black" stroke="currentColor" stroke-width="1.00" stroke-linecap="butt" stroke-linejoin="miter">
	<path stroke='black'  d='M80.2,54.1 L89.2,54.1  '/>	<g transform="translate(71.9,58.0)" stroke="none" fill="black" font-family="Helvetica" font-size="12.00"  text-anchor="end">
		<text><tspan font-family="Helvetica" > 1600</tspan></text>
	</g>
</g>
<g fill="none" color="black" stroke="currentColor" stroke-width="1.00" stroke-linecap="butt" stroke-linejoin="miter">
	<path stroke='black'  d='M80.3,662.4 L80.3,653.4  '/>	<g transform="translate(80.3,684.3)" stroke="none" fill="black" font-family="Helvetica" font-size="12.00"  text-anchor="middle">
		<text><tspan font-family="Helvetica" > 5.1592</tspan></text>
	</g>
</g>
<g fill="none" color="black" stroke="currentColor" stroke-width="1.00" stroke-linecap="butt" stroke-linejoin="miter">
	<path stroke='black'  d='M220.9,662.4 L220.9,653.4  '/>	<g transform="translate(220.9,684.3)" stroke="none" fill="black" font-family="Helvetica" font-size="12.00"  text-anchor="middle">
		<text><tspan font-family="Helvetica" > 5.1594</tspan></text>
	</g>
</g>
<g fill="none" color="black" stroke="currentColor" stroke-width="1.00" stroke-linecap="butt" stroke-linejoin="miter">
	<path stroke='black'  d='M361.4,662.4 L361.4,653.4  '/>	<g transform="translate(361.4,684.3)" stroke="none" fill="black" font-family="Helvetica" font-size="12.00"  text-anchor="middle">
		<text><tspan font-family="Helvetica" > 5.1596</tspan></text>
	</g>
</g>
<g fill="none" color="black" stroke="currentColor" stroke-width="1.00" stroke-linecap="butt" stroke-linejoin="miter">
	<path stroke='black'  d='M502.0,662.4 L502.0,653.4  '/>	<g transform="translate(502.0,684.3)" stroke="none" fill="black" font-family="Helvetica" font-size="12.00"  text-anchor="middle">
		<text><tspan font-family="Helvetica" > 5.1598</tspan></text>
	</g>
</g>
<g fill="none" color="black" stroke="currentColor" stroke-width="1.00" stroke-linecap="butt" stroke-linejoin="miter">
	<path stroke='black'  d='M642.6,662.4 L642.6,653.4  '/>	<g transform="translate(642.6,684.3)" stroke="none" fill="black" font-family="Helvetica" font-size="12.00"  text-anchor="middle">
		<text><tspan font-family="Helvetica" > 5.16</tspan></text>
	</g>
</g>
<g fill="none" color="black" stroke="currentColor" stroke-width="1.00" stroke-linecap="butt" stroke-linejoin="miter">
	<path stroke='black'  d='M783.2,662.4 L783.2,653.4  '/>	<g transform="translate(783.2,684.3)" stroke="none" fill="black" font-family="Helvetica" font-size="12.00"  text-anchor="middle">
		<text><tspan font-family="Helvetica" > 5.1602</tspan></text>
	</g>
</g>
<g fill="none" color="black" stroke="currentColor" stroke-width="1.00" stroke-linecap="butt" stroke-linejoin="miter">
	<path stroke='black'  d='M923.8,662.4 L923.8,653.4  '/>	<g transform="translate(923.8,684.3)" stroke="none" fill="black" font-family="Helvetica" font-size="12.00"  text-anchor="middle">
		<text><tspan font-family="Helvetica" > 5.1604</tspan></text>
	</g>
</g>
<g fill="none" color="black" stroke="currentColor" stroke-width="1.00" stroke-linecap="butt" stroke-linejoin="miter">
</g>
<g fill="none" color="black" stroke="currentColor" stroke-width="1.00" stroke-linecap="butt" stroke-linejoin="miter">
	<path stroke='black'  d='M80.2,54.1 L80.2,662.4 L1013.6,662.4 L1013.6,54.1 L80.2,54.1 Z  '/></g>
<g fill="none" color="black" stroke="currentColor" stroke-width="1.00" stroke-linecap="butt" stroke-linejoin="miter">
	<g transform="translate(19.0,358.3) rotate(270)" stroke="none" fill="black" font-family="Helvetica" font-size="12.00"  text-anchor="middle">
		<text><tspan font-family="Helvetica" >Density (a.u.)</tspan></text>
	</g>
</g>
<g fill="none" color="black" stroke="currentColor" stroke-width="1.00" stroke-linecap="butt" stroke-linejoin="miter">
	<g transform="translate(546.9,711.3)" stroke="none" fill="black" font-family="Helvetica" font-size="12.00"  text-anchor="middle">
		<text><tspan font-family="Helvetica" >Average time (us)</tspan></text>
	</g>
</g>
<g fill="none" color="black" stroke="currentColor" stroke-width="1.00" stroke-linecap="butt" stroke-linejoin="miter">
	<g transform="translate(546.9,31.0)" stroke="none" fill="black" font-family="Helvetica" font-size="12.00"  text-anchor="middle">
		<text><tspan font-family="Helvetica" >bench_group/blake3/1792: slope</tspan></text>
	</g>
</g>
<g fill="none" color="black" stroke="currentColor" stroke-width="1.00" stroke-linecap="butt" stroke-linejoin="miter">
</g>
	<g id="gnuplot_plot_1" ><title>Bootstrap distribution</title>
<g fill="none" color="white" stroke="currentColor" stroke-width="2.00" stroke-linecap="butt" stroke-linejoin="miter">
</g>
<g fill="none" color="black" stroke="currentColor" stroke-width="2.00" stroke-linecap="butt" stroke-linejoin="miter">
	<g transform="translate(1089.0,67.0)" stroke="none" fill="black" font-family="Helvetica" font-size="12.00"  text-anchor="start">
		<text><tspan font-family="Helvetica" >Bootstrap distribution</tspan></text>
	</g>
</g>
<g fill="none" color="black" stroke="currentColor" stroke-width="2.00" stroke-linecap="butt" stroke-linejoin="miter">
	<path stroke='rgb( 31, 120, 180)'  d='M1038.5,63.1 L1080.7,63.1 M80.2,629.7 L82.1,628.9 L83.9,628.0 L85.8,627.2 L87.7,626.3 L89.6,625.5
		L91.4,624.6 L93.3,623.7 L95.2,622.9 L97.0,622.0 L98.9,621.1 L100.8,620.2 L102.6,619.3 L104.5,618.4
		L106.4,617.5 L108.3,616.6 L110.1,615.6 L112.0,614.7 L113.9,613.7 L115.7,612.7 L117.6,611.7 L119.5,610.6
		L121.4,609.5 L123.2,608.3 L125.1,607.2 L127.0,605.9 L128.8,604.6 L130.7,603.3 L132.6,601.9 L134.4,600.4
		L136.3,598.9 L138.2,597.4 L140.1,595.8 L141.9,594.2 L143.8,592.5 L145.7,590.8 L147.5,589.0 L149.4,587.2
		L151.3,585.4 L153.2,583.6 L155.0,581.7 L156.9,579.8 L158.8,578.0 L160.6,576.1 L162.5,574.2 L164.4,572.3
		L166.2,570.4 L168.1,568.5 L170.0,566.6 L171.9,564.7 L173.7,562.8 L175.6,560.9 L177.5,558.9 L179.3,557.0
		L181.2,555.1 L183.1,553.2 L185.0,551.2 L186.8,549.3 L188.7,547.3 L190.6,545.4 L192.4,543.4 L194.3,541.3
		L196.2,539.3 L198.0,537.2 L199.9,535.2 L201.8,533.0 L203.7,530.9 L205.5,528.7 L207.4,526.5 L209.3,524.3
		L211.1,522.0 L213.0,519.7 L214.9,517.4 L216.7,515.0 L218.6,512.6 L220.5,510.2 L222.4,507.7 L224.2,505.2
		L226.1,502.6 L228.0,500.0 L229.8,497.4 L231.7,494.7 L233.6,492.0 L235.5,489.2 L237.3,486.4 L239.2,483.6
		L241.1,480.7 L242.9,477.8 L244.8,474.9 L246.7,471.9 L248.5,468.9 L250.4,465.9 L252.3,462.8 L254.2,459.7
		L256.0,456.6 L257.9,453.4 L259.8,450.2 L261.6,447.0 L263.5,443.7 L265.4,440.4 L267.3,437.1 L269.1,433.8
		L271.0,430.4 L272.9,427.0 L274.7,423.6 L276.6,420.1 L278.5,416.6 L280.3,413.1 L282.2,409.6 L284.1,406.0
		L286.0,402.5 L287.8,398.9 L289.7,395.3 L291.6,391.7 L293.4,388.1 L295.3,384.5 L297.2,381.0 L299.1,377.4
		L300.9,373.9 L302.8,370.4 L304.7,367.0 L306.5,363.5 L308.4,360.2 L310.3,356.8 L312.1,353.5 L314.0,350.3
		L315.9,347.1 L317.8,343.9 L319.6,340.8 L321.5,337.6 L323.4,334.5 L325.2,331.5 L327.1,328.4 L329.0,325.3
		L330.9,322.3 L332.7,319.2 L334.6,316.2 L336.5,313.1 L338.3,310.0 L340.2,306.9 L342.1,303.8 L343.9,300.7
		L345.8,297.5 L347.7,294.4 L349.6,291.2 L351.4,288.1 L353.3,284.9 L355.2,281.7 L357.0,278.5 L358.9,275.4
		L360.8,272.2 L362.7,269.1 L364.5,266.0 L366.4,262.9 L368.3,259.8 L370.1,256.7 L372.0,253.7 L373.9,250.7
		L375.7,247.8 L377.6,244.9 L379.5,242.0 L381.4,239.1 L383.2,236.3 L385.1,233.5 L387.0,230.8 L388.8,228.1
		L390.7,225.4 L392.6,222.8 L394.5,220.2 L396.3,217.6 L398.2,215.1 L400.1,212.5 L401.9,210.0 L403.8,207.5
		L405.7,205.0 L407.5,202.5 L409.4,200.0 L411.3,197.4 L413.2,194.9 L415.0,192.4 L416.9,189.8 L418.8,187.3
		L420.6,184.8 L422.5,182.2 L424.4,179.7 L426.3,177.2 L428.1,174.7 L430.0,172.3 L431.9,169.9 L433.7,167.6
		L435.6,165.4 L437.5,163.2 L439.3,161.1 L441.2,159.1 L443.1,157.2 L445.0,155.3 L446.8,153.6 L448.7,151.9
		L450.6,150.2 L452.4,148.7 L454.3,147.2 L456.2,145.7 L458.0,144.3 L459.9,143.0 L461.8,141.6 L463.7,140.3
		L465.5,139.0 L467.4,137.7 L469.3,136.4 L471.1,135.1 L473.0,133.8 L474.9,132.6 L476.8,131.3 L478.6,130.1
		L480.5,128.9 L482.4,127.7 L484.2,126.6 L486.1,125.5 L488.0,124.5 L489.8,123.5 L491.7,122.6 L493.6,121.8
		L495.5,121.0 L497.3,120.3 L499.2,119.7 L501.1,119.1 L502.9,118.6 L504.8,118.2 L506.7,117.9 L508.6,117.6
		L510.4,117.4 L512.3,117.2 L514.2,117.1 L516.0,117.1 L517.9,117.1 L519.8,117.2 L521.6,117.3 L523.5,117.5
		L525.4,117.8 L527.3,118.1 L529.1,118.4 L531.0,118.8 L532.9,119.3 L534.7,119.8 L536.6,120.4 L538.5,121.0
		L540.4,121.7 L542.2,122.4 L544.1,123.2 L546.0,124.1 L547.8,125.0 L549.7,125.9 L551.6,126.9 L553.4,127.9
		L555.3,128.9 L557.2,130.0 L559.1,131.2 L560.9,132.3 L562.8,133.5 L564.7,134.7 L566.5,136.0 L568.4,137.3
		L570.3,138.6 L572.2,139.9 L574.0,141.2 L575.9,142.6 L577.8,144.0 L579.6,145.5 L581.5,146.9 L583.4,148.4
		L585.2,149.9 L587.1,151.4 L589.0,153.0 L590.9,154.5 L592.7,156.1 L594.6,157.8 L596.5,159.4 L598.3,161.1
		L600.2,162.8 L602.1,164.5 L604.0,166.3 L605.8,168.1 L607.7,169.9 L609.6,171.8 L611.4,173.6 L613.3,175.5
		L615.2,177.5 L617.0,179.5 L618.9,181.5 L620.8,183.6 L622.7,185.7 L624.5,187.9 L626.4,190.1 L628.3,192.3
		L630.1,194.7 L632.0,197.0 L633.9,199.5 L635.8,202.0 L637.6,204.5 L639.5,207.1 L641.4,209.8 L643.2,212.5
		L645.1,215.2 L647.0,218.0 L648.8,220.8 L650.7,223.7 L652.6,226.5 L654.5,229.4 L656.3,232.4 L658.2,235.3
		L660.1,238.2 L661.9,241.2 L663.8,244.1 L665.7,247.0 L667.5,250.0 L669.4,252.9 L671.3,255.9 L673.2,258.8
		L675.0,261.8 L676.9,264.8 L678.8,267.7 L680.6,270.7 L682.5,273.7 L684.4,276.7 L686.3,279.7 L688.1,282.7
		L690.0,285.8 L691.9,288.8 L693.7,291.9 L695.6,295.0 L697.5,298.1 L699.3,301.2 L701.2,304.3 L703.1,307.5
		L705.0,310.6 L706.8,313.7 L708.7,316.8 L710.6,319.9 L712.4,323.0 L714.3,326.1 L716.2,329.2 L718.1,332.2
		L719.9,335.3 L721.8,338.3 L723.7,341.3 L725.5,344.3 L727.4,347.3 L729.3,350.3 L731.1,353.2 L733.0,356.2
		L734.9,359.1 L736.8,362.0 L738.6,364.9 L740.5,367.8 L742.4,370.7 L744.2,373.6 L746.1,376.5 L748.0,379.3
		L749.9,382.2 L751.7,385.1 L753.6,388.0 L755.5,390.8 L757.3,393.7 L759.2,396.6 L761.1,399.5 L762.9,402.4
		L764.8,405.2 L766.7,408.1 L768.6,411.0 L770.4,413.9 L772.3,416.8 L774.2,419.7 L776.0,422.6 L777.9,425.5
		L779.8,428.3 L781.7,431.2 L783.5,434.0 L785.4,436.8 L787.3,439.5 L789.1,442.2 L791.0,444.9 L792.9,447.5
		L794.7,450.0 L796.6,452.5 L798.5,455.0 L800.4,457.4 L802.2,459.8 L804.1,462.1 L806.0,464.3 L807.8,466.6
		L809.7,468.7 L811.6,470.9 L813.5,473.0 L815.3,475.1 L817.2,477.2 L819.1,479.3 L820.9,481.5 L822.8,483.6
		L824.7,485.7 L826.5,487.9 L828.4,490.0 L830.3,492.2 L832.2,494.5 L834.0,496.8 L835.9,499.1 L837.8,501.4
		L839.6,503.7 L841.5,506.1 L843.4,508.5 L845.3,510.9 L847.1,513.3 L849.0,515.7 L850.9,518.1 L852.7,520.5
		L854.6,522.8 L856.5,525.2 L858.3,527.5 L860.2,529.7 L862.1,531.9 L864.0,534.1 L865.8,536.2 L867.7,538.3
		L869.6,540.3 L871.4,542.2 L873.3,544.1 L875.2,546.0 L877.1,547.8 L878.9,549.6 L880.8,551.3 L882.7,553.0
		L884.5,554.6 L886.4,556.2 L888.3,557.8 L890.1,559.4 L892.0,560.9 L893.9,562.4 L895.8,563.9 L897.6,565.4
		L899.5,566.9 L901.4,568.3 L903.2,569.8 L905.1,571.3 L907.0,572.7 L908.8,574.2 L910.7,575.6 L912.6,577.1
		L914.5,578.5 L916.3,580.0 L918.2,581.4 L920.1,582.8 L921.9,584.3 L923.8,585.7 L925.7,587.0 L927.6,588.4
		L929.4,589.7 L931.3,591.1 L933.2,592.4 L935.0,593.6 L936.9,594.9 L938.8,596.1 L940.6,597.3 L942.5,598.5
		L944.4,599.6 L946.3,600.7 L948.1,601.8 L950.0,602.9 L951.9,603.9 L953.7,605.0 L955.6,606.0 L957.5,607.0
		L959.4,608.0 L961.2,608.9 L963.1,609.9 L965.0,610.8 L966.8,611.7 L968.7,612.6 L970.6,613.5 L972.4,614.4
		L974.3,615.3 L976.2,616.1 L978.1,616.9 L979.9,617.8 L981.8,618.6 L983.7,619.4 L985.5,620.1 L987.4,620.9
		L989.3,621.7 L991.2,622.4 L993.0,623.2 L994.9,623.9 L996.8,624.6 L998.6,625.4 L1000.5,626.1 L1002.4,626.8
		L1004.2,627.5 L1006.1,628.2 L1008.0,628.8 L1009.9,629.5 L1011.7,630.2 L1013.6,630.8  '/></g>
	</g>
	<g id="gnuplot_plot_2" ><title>Confidence interval</title>
<g fill="none" color="white" stroke="rgb( 31, 120, 180)" stroke-width="1.00" stroke-linecap="butt" stroke-linejoin="miter">
</g>
<g fill="none" color="black" stroke="currentColor" stroke-width="1.00" stroke-linecap="butt" stroke-linejoin="miter">
	<g transform="translate(1089.0,85.0)" stroke="none" fill="black" font-family="Helvetica" font-size="12.00"  text-anchor="start">
		<text><tspan font-family="Helvetica" >Confidence interval</tspan></text>
	</g>
</g>
<g fill="none" color="black" stroke="currentColor" stroke-width="1.00" stroke-linecap="butt" stroke-linejoin="miter">
	<g stroke='none' shape-rendering='crispEdges'>
		<polygon fill = 'rgb( 31, 120, 180)' fill-opacity = '0.250000' points = '1038.5,85.6 1080.7,85.6 1080.7,76.6 1038.5,76.6 '/>
		<polygon fill = 'rgb( 31, 120, 180)' fill-opacity = '0.250000' points = '166.2,570.4 168.1,568.5 170.0,566.6 171.9,564.7 173.7,562.8 175.6,560.9 177.5,558.9 179.3,557.0 181.2,555.1 183.1,553.2 185.0,551.2 186.8,549.3 188.7,547.3 190.6,545.4 192.4,543.4 194.3,541.3
196.2,539.3 198.0,537.2 199.9,535.2 201.8,533.0 203.7,530.9 205.5,528.7 207.4,526.5 209.3,524.3 211.1,522.0 213.0,519.7 214.9,517.4 216.7,515.0 218.6,512.6 220.5,510.2 222.4,507.7 224.2,505.2
226.1,502.6 228.0,500.0 229.8,497.4 231.7,494.7 233.6,492.0 235.5,489.2 237.3,486.4 239.2,483.6 241.1,480.7 242.9,477.8 244.8,474.9 246.7,471.9 248.5,468.9 250.4,465.9 252.3,462.8 254.2,459.7
256.0,456.6 257.9,453.4 259.8,450.2 261.6,447.0 263.5,443.7 265.4,440.4 267.3,437.1 269.1,433.8 271.0,430.4 272.9,427.0 274.7,423.6 276.6,420.1 278.5,416.6 280.3,413.1 282.2,409.6 284.1,406.0
286.0,402.5 287.8,398.9 289.7,395.3 291.6,391.7 293.4,388.1 295.3,384.5 297.2,381.0 299.1,377.4 300.9,373.9 302.8,370.4 304.7,367.0 306.5,363.5 308.4,360.2 310.3,356.8 312.1,353.5 314.0,350.3
315.9,347.1 317.8,343.9 319.6,340.8 321.5,337.6 323.4,334.5 325.2,331.5 327.1,328.4 329.0,325.3 330.9,322.3 332.7,319.2 334.6,316.2 336.5,313.1 338.3,310.0 340.2,306.9 342.1,303.8 343.9,300.7
345.8,297.5 347.7,294.4 349.6,291.2 351.4,288.1 353.3,284.9 355.2,281.7 357.0,278.5 358.9,275.4 360.8,272.2 362.7,269.1 364.5,266.0 366.4,262.9 368.3,259.8 370.1,256.7 372.0,253.7 373.9,250.7
375.7,247.8 377.6,244.9 379.5,242.0 381.4,239.1 383.2,236.3 385.1,233.5 387.0,230.8 388.8,228.1 390.7,225.4 392.6,222.8 394.5,220.2 396.3,217.6 398.2,215.1 400.1,212.5 401.9,210.0 403.8,207.5
405.7,205.0 407.5,202.5 409.4,200.0 411.3,197.4 413.2,194.9 415.0,192.4 416.9,189.8 418.8,187.3 420.6,184.8 422.5,182.2 424.4,179.7 426.3,177.2 428.1,174.7 430.0,172.3 431.9,169.9 433.7,167.6
435.6,165.4 437.5,163.2 439.3,161.1 441.2,159.1 443.1,157.2 445.0,155.3 446.8,153.6 448.7,151.9 450.6,150.2 452.4,148.7 454.3,147.2 456.2,145.7 458.0,144.3 459.9,143.0 461.8,141.6 463.7,140.3
465.5,139.0 467.4,137.7 469.3,136.4 471.1,135.1 473.0,133.8 474.9,132.6 476.8,131.3 478.6,130.1 480.5,128.9 482.4,127.7 484.2,126.6 486.1,125.5 488.0,124.5 489.8,123.5 491.7,122.6 493.6,121.8
495.5,121.0 497.3,120.3 499.2,119.7 501.1,119.1 502.9,118.6 504.8,118.2 506.7,117.9 508.6,117.6 510.4,117.4 512.3,117.2 514.2,117.1 516.0,117.1 517.9,117.1 519.8,117.2 521.6,117.3 523.5,117.5
525.4,117.8 527.3,118.1 529.1,118.4 531.0,118.8 532.9,119.3 534.7,119.8 536.6,120.4 538.5,121.0 540.4,121.7 542.2,122.4 544.1,123.2 546.0,124.1 547.8,125.0 549.7,125.9 551.6,126.9 553.4,127.9
555.3,128.9 557.2,130.0 559.1,131.2 560.9,132.3 562.8,133.5 564.7,134.7 566.5,136.0 568.4,137.3 570.3,138.6 572.2,139.9 574.0,141.2 575.9,142.6 577.8,144.0 579.6,145.5 581.5,146.9 583.4,148.4
585.2,149.9 587.1,151.4 589.0,153.0 590.9,154.5 592.7,156.1 594.6,157.8 596.5,159.4 598.3,161.1 600.2,162.8 602.1,164.5 604.0,166.3 605.8,168.1 607.7,169.9 609.6,171.8 611.4,173.6 613.3,175.5
615.2,177.5 617.0,179.5 618.9,181.5 620.8,183.6 622.7,185.7 624.5,187.9 626.4,190.1 628.3,192.3 630.1,194.7 632.0,197.0 633.9,199.5 635.8,202.0 637.6,204.5 639.5,207.1 641.4,209.8 643.2,212.5
645.1,215.2 647.0,218.0 648.8,220.8 650.7,223.7 652.6,226.5 654.5,229.4 656.3,232.4 658.2,235.3 660.1,238.2 661.9,241.2 663.8,244.1 665.7,247.0 667.5,250.0 669.4,252.9 671.3,255.9 673.2,258.8
675.0,261.8 676.9,264.8 678.8,267.7 680.6,270.7 682.5,273.7 684.4,276.7 686.3,279.7 688.1,282.7 690.0,285.8 691.9,288.8 693.7,291.9 695.6,295.0 697.5,298.1 699.3,301.2 701.2,304.3 703.1,307.5
705.0,310.6 706.8,313.7 708.7,316.8 710.6,319.9 712.4,323.0 714.3,326.1 716.2,329.2 718.1,332.2 719.9,335.3 721.8,338.3 723.7,341.3 725.5,344.3 727.4,347.3 729.3,350.3 731.1,353.2 733.0,356.2
734.9,359.1 736.8,362.0 738.6,364.9 740.5,367.8 742.4,370.7 744.2,373.6 746.1,376.5 748.0,379.3 749.9,382.2 751.7,385.1 753.6,388.0 755.5,390.8 757.3,393.7 759.2,396.6 761.1,399.5 762.9,402.4
764.8,405.2 766.7,408.1 768.6,411.0 770.4,413.9 772.3,416.8 774.2,419.7 776.0,422.6 777.9,425.5 779.8,428.3 781.7,431.2 783.5,434.0 785.4,436.8 787.3,439.5 789.1,442.2 791.0,444.9 792.9,447.5
794.7,450.0 796.6,452.5 798.5,455.0 800.4,457.4 802.2,459.8 804.1,462.1 806.0,464.3 807.8,466.6 809.7,468.7 811.6,470.9 813.5,473.0 815.3,475.1 817.2,477.2 819.1,479.3 820.9,481.5 822.8,483.6
824.7,485.7 826.5,487.9 828.4,490.0 830.3,492.2 832.2,494.5 834.0,496.8 835.9,499.1 837.8,501.4 839.6,503.7 841.5,506.1 843.4,508.5 845.3,510.9 847.1,513.3 849.0,515.7 850.9,518.1 852.7,520.5
854.6,522.8 856.5,525.2 858.3,527.5 860.2,529.7 862.1,531.9 864.0,534.1 865.8,536.2 867.7,538.3 869.6,540.3 871.4,542.2 873.3,544.1 875.2,546.0 877.1,547.8 878.9,549.6 880.8,551.3 882.7,553.0
884.5,554.6 886.4,556.2 888.3,557.8 890.1,559.4 892.0,560.9 893.9,562.4 895.8,563.9 897.6,565.4 899.5,566.9 901.4,568.3 903.2,569.8 905.1,571.3 907.0,572.7 908.8,574.2 910.7,575.6 912.6,577.1
914.5,578.5 916.3,580.0 918.2,581.4 920.1,582.8 921.9,584.3 923.8,585.7 925.7,587.0 925.7,662.4 923.8,662.4 921.9,662.4 920.1,662.4 918.2,662.4 916.3,662.4 914.5,662.4 912.6,662.4 910.7,662.4
908.8,662.4 907.0,662.4 905.1,662.4 903.2,662.4 901.4,662.4 899.5,662.4 897.6,662.4 895.8,662.4 893.9,662.4 892.0,662.4 890.1,662.4 888.3,662.4 886.4,662.4 884.5,662.4 882.7,662.4 880.8,662.4
878.9,662.4 877.1,662.4 875.2,662.4 873.3,662.4 871.4,662.4 869.6,662.4 867.7,662.4 865.8,662.4 864.0,662.4 862.1,662.4 860.2,662.4 858.3,662.4 856.5,662.4 854.6,662.4 852.7,662.4 850.9,662.4
849.0,662.4 847.1,662.4 845.3,662.4 843.4,662.4 841.5,662.4 839.6,662.4 837.8,662.4 835.9,662.4 834.0,662.4 832.2,662.4 830.3,662.4 828.4,662.4 826.5,662.4 824.7,662.4 822.8,662.4 820.9,662.4
819.1,662.4 817.2,662.4 815.3,662.4 813.5,662.4 811.6,662.4 809.7,662.4 807.8,662.4 806.0,662.4 804.1,662.4 802.2,662.4 800.4,662.4 798.5,662.4 796.6,662.4 794.7,662.4 792.9,662.4 791.0,662.4
789.1,662.4 787.3,662.4 785.4,662.4 783.5,662.4 781.7,662.4 779.8,662.4 777.9,662.4 776.0,662.4 774.2,662.4 772.3,662.4 770.4,662.4 768.6,662.4 766.7,662.4 764.8,662.4 762.9,662.4 761.1,662.4
759.2,662.4 757.3,662.4 755.5,662.4 753.6,662.4 751.7,662.4 749.9,662.4 748.0,662.4 746.1,662.4 744.2,662.4 742.4,662.4 740.5,662.4 738.6,662.4 736.8,662.4 734.9,662.4 733.0,662.4 731.1,662.4
729.3,662.4 727.4,662.4 725.5,662.4 723.7,662.4 721.8,662.4 719.9,662.4 718.1,662.4 716.2,662.4 714.3,662.4 712.4,662.4 710.6,662.4 708.7,662.4 706.8,662.4 705.0,662.4 703.1,662.4 701.2,662.4
699.3,662.4 697.5,662.4 695.6,662.4 693.7,662.4 691.9,662.4 690.0,662.4 688.1,662.4 686.3,662.4 684.4,662.4 682.5,662.4 680.6,662.4 678.8,662.4 676.9,662.4 675.0,662.4 673.2,662.4 671.3,662.4
669.4,662.4 667.5,662.4 665.7,662.4 663.8,662.4 661.9,662.4 660.1,662.4 658.2,662.4 656.3,662.4 654.5,662.4 652.6,662.4 650.7,662.4 648.8,662.4 647.0,662.4 645.1,662.4 643.2,662.4 641.4,662.4
639.5,662.4 637.6,662.4 635.8,662.4 633.9,662.4 632.0,662.4 630.1,662.4 628.3,662.4 626.4,662.4 624.5,662.4 622.7,662.4 620.8,662.4 618.9,662.4 617.0,662.4 615.2,662.4 613.3,662.4 611.4,662.4
609.6,662.4 607.7,662.4 605.8,662.4 604.0,662.4 602.1,662.4 600.2,662.4 598.3,662.4 596.5,662.4 594.6,662.4 592.7,662.4 590.9,662.4 589.0,662.4 587.1,662.4 585.2,662.4 583.4,662.4 581.5,662.4
579.6,662.4 577.8,662.4 575.9,662.4 574.0,662.4 572.2,662.4 570.3,662.4 568.4,662.4 566.5,662.4 564.7,662.4 562.8,662.4 560.9,662.4 559.1,662.4 557.2,662.4 555.3,662.4 553.4,662.4 551.6,662.4
549.7,662.4 547.8,662.4 546.0,662.4 544.1,662.4 542.2,662.4 540.4,662.4 538.5,662.4 536.6,662.4 534.7,662.4 532.9,662.4 531.0,662.4 529.1,662.4 527.3,662.4 525.4,662.4 523.5,662.4 521.6,662.4
519.8,662.4 517.9,662.4 516.0,662.4 514.2,662.4 512.3,662.4 510.4,662.4 508.6,662.4 506.7,662.4 504.8,662.4 502.9,662.4 501.1,662.4 499.2,662.4 497.3,662.4 495.5,662.4 493.6,662.4 491.7,662.4
489.8,662.4 488.0,662.4 486.1,662.4 484.2,662.4 482.4,662.4 480.5,662.4 478.6,662.4 476.8,662.4 474.9,662.4 473.0,662.4 471.1,662.4 469.3,662.4 467.4,662.4 465.5,662.4 463.7,662.4 461.8,662.4
459.9,662.4 458.0,662.4 456.2,662.4 454.3,662.4 452.4,662.4 450.6,662.4 448.7,662.4 446.8,662.4 445.0,662.4 443.1,662.4 441.2,662.4 439.3,662.4 437.5,662.4 435.6,662.4 433.7,662.4 431.9,662.4
430.0,662.4 428.1,662.4 426.3,662.4 424.4,662.4 422.5,662.4 420.6,662.4 418.8,662.4 416.9,662.4 415.0,662.4 413.2,662.4 411.3,662.4 409.4,662.4 407.5,662.4 405.7,662.4 403.8,662.4 401.9,662.4
400.1,662.4 398.2,662.4 396.3,662.4 394.5,662.4 392.6,662.4 390.7,662.4 388.8,662.4 387.0,662.4 385.1,662.4 383.2,662.4 381.4,662.4 379.5,662.4 377.6,662.4 375.7,662.4 373.9,662.4 372.0,662.4
370.1,662.4 368.3,662.4 366.4,662.4 364.5,662.4 362.7,662.4 360.8,662.4 358.9,662.4 357.0,662.4 355.2,662.4 353.3,662.4 351.4,662.4 349.6,662.4 347.7,662.4 345.8,662.4 343.9,662.4 342.1,662.4
340.2,662.4 338.3,662.4 336.5,662.4 334.6,662.4 332.7,662.4 330.9,662.4 329.0,662.4 327.1,662.4 325.2,662.4 323.4,662.4 321.5,662.4 319.6,662.4 317.8,662.4 315.9,662.4 314.0,662.4 312.1,662.4
310.3,662.4 308.4,662.4 306.5,662.4 304.7,662.4 302.8,662.4 300.9,662.4 299.1,662.4 297.2,662.4 295.3,662.4 293.4,662.4 291.6,662.4 289.7,662.4 287.8,662.4 286.0,662.4 284.1,662.4 282.2,662.4
280.3,662.4 278.5,662.4 276.6,662.4 274.7,662.4 272.9,662.4 271.0,662.4 269.1,662.4 267.3,662.4 265.4,662.4 263.5,662.4 261.6,662.4 259.8,662.4 257.9,662.4 256.0,662.4 254.2,662.4 252.3,662.4
250.4,662.4 248.5,662.4 246.7,662.4 244.8,662.4 242.9,662.4 241.1,662.4 239.2,662.4 237.3,662.4 235.5,662.4 233.6,662.4 231.7,662.4 229.8,662.4 228.0,662.4 226.1,662.4 224.2,662.4 222.4,662.4
220.5,662.4 218.6,662.4 216.7,662.4 214.9,662.4 213.0,662.4 211.1,662.4 209.3,662.4 207.4,662.4 205.5,662.4 203.7,662.4 201.8,662.4 199.9,662.4 198.0,662.4 196.2,662.4 194.3,662.4 192.4,662.4
190.6,662.4 188.7,662.4 186.8,662.4 185.0,662.4 183.1,662.4 181.2,662.4 179.3,662.4 177.5,662.4 175.6,662.4 173.7,662.4 171.9,662.4 170.0,662.4 168.1,662.4 166.2,662.4 '/>
	</g>
</g>
	</g>
	<g id="gnuplot_plot_3" ><title>Point estimate</title>
<g fill="none" color="white" stroke="rgb( 31, 120, 180)" stroke-width="2.00" stroke-linecap="butt" stroke-linejoin="miter">
</g>
<g fill="none" color="black" stroke="currentColor" stroke-width="2.00" stroke-linecap="butt" stroke-linejoin="miter">
	<g transform="translate(1089.0,103.0)" stroke="none" fill="black" font-family="Helvetica" font-size="12.00"  text-anchor="start">
		<text><tspan font-family="Helvetica" >Point estimate</tspan></text>
	</g>
</g>
<g fill="none" color="black" stroke="currentColor" stroke-width="2.00" stroke-linecap="butt" stroke-linejoin="miter">
	<path stroke='rgb( 31, 120, 180)'  d='M1038.5,99.1 L1080.7,99.1 M530.2,662.4 L530.2,118.7  '/></g>
	</g>
<g fill="none" color="black" stroke="currentColor" stroke-width="2.00" stroke-linecap="butt" stroke-linejoin="miter">
</g>
<g fill="none" color="black" stroke="black" stroke-width="1.00" stroke-linecap="butt" stroke-linejoin="miter">
</g>
<g fill="none" color="black" stroke="currentColor" stroke-width="1.00" stroke-linecap="butt" stroke-linejoin="miter">
	<path stroke='black'  d='M80.2,54.1 L80.2,662.4 L1013.6,662.4 L1013.6,54.1 L80.2,54.1 Z  '/></g>
<g fill="none" color="black" stroke="currentColor" stroke-width="1.00" stroke-linecap="butt" stroke-linejoin="miter">
</g>
</g>
</svg>

