<?xml version="1.0" encoding="utf-8"  standalone="no"?>
<svg 
 viewBox="0 0 1280 720"
 xmlns="http://www.w3.org/2000/svg"
 xmlns:xlink="http://www.w3.org/1999/xlink"
>

<title>Gnuplot</title>
<desc>Produced by GNUPLOT 5.2 patchlevel 8 </desc>

<g id="gnuplot_canvas">

<rect x="0" y="0" width="1280" height="720" fill="none"/>
<defs>

	<circle id='gpDot' r='0.5' stroke-width='0.5' stroke='currentColor'/>
	<path id='gpPt0' stroke-width='0.222' stroke='currentColor' d='M-1,0 h2 M0,-1 v2'/>
	<path id='gpPt1' stroke-width='0.222' stroke='currentColor' d='M-1,-1 L1,1 M1,-1 L-1,1'/>
	<path id='gpPt2' stroke-width='0.222' stroke='currentColor' d='M-1,0 L1,0 M0,-1 L0,1 M-1,-1 L1,1 M-1,1 L1,-1'/>
	<rect id='gpPt3' stroke-width='0.222' stroke='currentColor' x='-1' y='-1' width='2' height='2'/>
	<rect id='gpPt4' stroke-width='0.222' stroke='currentColor' fill='currentColor' x='-1' y='-1' width='2' height='2'/>
	<circle id='gpPt5' stroke-width='0.222' stroke='currentColor' cx='0' cy='0' r='1'/>
	<use xlink:href='#gpPt5' id='gpPt6' fill='currentColor' stroke='none'/>
	<path id='gpPt7' stroke-width='0.222' stroke='currentColor' d='M0,-1.33 L-1.33,0.67 L1.33,0.67 z'/>
	<use xlink:href='#gpPt7' id='gpPt8' fill='currentColor' stroke='none'/>
	<use xlink:href='#gpPt7' id='gpPt9' stroke='currentColor' transform='rotate(180)'/>
	<use xlink:href='#gpPt9' id='gpPt10' fill='currentColor' stroke='none'/>
	<use xlink:href='#gpPt3' id='gpPt11' stroke='currentColor' transform='rotate(45)'/>
	<use xlink:href='#gpPt11' id='gpPt12' fill='currentColor' stroke='none'/>
	<path id='gpPt13' stroke-width='0.222' stroke='currentColor' d='M0,1.330 L1.265,0.411 L0.782,-1.067 L-0.782,-1.076 L-1.265,0.411 z'/>
	<use xlink:href='#gpPt13' id='gpPt14' fill='currentColor' stroke='none'/>
	<filter id='textbox' filterUnits='objectBoundingBox' x='0' y='0' height='1' width='1'>
	  <feFlood flood-color='white' flood-opacity='1' result='bgnd'/>
	  <feComposite in='SourceGraphic' in2='bgnd' operator='atop'/>
	</filter>
	<filter id='greybox' filterUnits='objectBoundingBox' x='0' y='0' height='1' width='1'>
	  <feFlood flood-color='lightgrey' flood-opacity='1' result='grey'/>
	  <feComposite in='SourceGraphic' in2='grey' operator='atop'/>
	</filter>
</defs>
<g fill="none" color="white" stroke="currentColor" stroke-width="1.00" stroke-linecap="butt" stroke-linejoin="miter">
</g>
<g fill="none" color="black" stroke="currentColor" stroke-width="1.00" stroke-linecap="butt" stroke-linejoin="miter">
	<path stroke='black'  d='M71.9,662.4 L80.9,662.4  '/>	<g transform="translate(63.6,666.3)" stroke="none" fill="black" font-family="Helvetica" font-size="12.00"  text-anchor="end">
		<text><tspan font-family="Helvetica" > 0</tspan></text>
	</g>
</g>
<g fill="none" color="black" stroke="currentColor" stroke-width="1.00" stroke-linecap="butt" stroke-linejoin="miter">
	<path stroke='black'  d='M71.9,586.4 L80.9,586.4  '/>	<g transform="translate(63.6,590.3)" stroke="none" fill="black" font-family="Helvetica" font-size="12.00"  text-anchor="end">
		<text><tspan font-family="Helvetica" > 20</tspan></text>
	</g>
</g>
<g fill="none" color="black" stroke="currentColor" stroke-width="1.00" stroke-linecap="butt" stroke-linejoin="miter">
	<path stroke='black'  d='M71.9,510.3 L80.9,510.3  '/>	<g transform="translate(63.6,514.2)" stroke="none" fill="black" font-family="Helvetica" font-size="12.00"  text-anchor="end">
		<text><tspan font-family="Helvetica" > 40</tspan></text>
	</g>
</g>
<g fill="none" color="black" stroke="currentColor" stroke-width="1.00" stroke-linecap="butt" stroke-linejoin="miter">
	<path stroke='black'  d='M71.9,434.3 L80.9,434.3  '/>	<g transform="translate(63.6,438.2)" stroke="none" fill="black" font-family="Helvetica" font-size="12.00"  text-anchor="end">
		<text><tspan font-family="Helvetica" > 60</tspan></text>
	</g>
</g>
<g fill="none" color="black" stroke="currentColor" stroke-width="1.00" stroke-linecap="butt" stroke-linejoin="miter">
	<path stroke='black'  d='M71.9,358.2 L80.9,358.2  '/>	<g transform="translate(63.6,362.1)" stroke="none" fill="black" font-family="Helvetica" font-size="12.00"  text-anchor="end">
		<text><tspan font-family="Helvetica" > 80</tspan></text>
	</g>
</g>
<g fill="none" color="black" stroke="currentColor" stroke-width="1.00" stroke-linecap="butt" stroke-linejoin="miter">
	<path stroke='black'  d='M71.9,282.2 L80.9,282.2  '/>	<g transform="translate(63.6,286.1)" stroke="none" fill="black" font-family="Helvetica" font-size="12.00"  text-anchor="end">
		<text><tspan font-family="Helvetica" > 100</tspan></text>
	</g>
</g>
<g fill="none" color="black" stroke="currentColor" stroke-width="1.00" stroke-linecap="butt" stroke-linejoin="miter">
	<path stroke='black'  d='M71.9,206.2 L80.9,206.2  '/>	<g transform="translate(63.6,210.1)" stroke="none" fill="black" font-family="Helvetica" font-size="12.00"  text-anchor="end">
		<text><tspan font-family="Helvetica" > 120</tspan></text>
	</g>
</g>
<g fill="none" color="black" stroke="currentColor" stroke-width="1.00" stroke-linecap="butt" stroke-linejoin="miter">
	<path stroke='black'  d='M71.9,130.1 L80.9,130.1  '/>	<g transform="translate(63.6,134.0)" stroke="none" fill="black" font-family="Helvetica" font-size="12.00"  text-anchor="end">
		<text><tspan font-family="Helvetica" > 140</tspan></text>
	</g>
</g>
<g fill="none" color="black" stroke="currentColor" stroke-width="1.00" stroke-linecap="butt" stroke-linejoin="miter">
	<path stroke='black'  d='M71.9,54.1 L80.9,54.1  '/>	<g transform="translate(63.6,58.0)" stroke="none" fill="black" font-family="Helvetica" font-size="12.00"  text-anchor="end">
		<text><tspan font-family="Helvetica" > 160</tspan></text>
	</g>
</g>
<g fill="none" color="black" stroke="currentColor" stroke-width="1.00" stroke-linecap="butt" stroke-linejoin="miter">
	<path stroke='black'  d='M71.9,662.4 L71.9,653.4  '/>	<g transform="translate(71.9,684.3)" stroke="none" fill="black" font-family="Helvetica" font-size="12.00"  text-anchor="middle">
		<text><tspan font-family="Helvetica" > 7.5</tspan></text>
	</g>
</g>
<g fill="none" color="black" stroke="currentColor" stroke-width="1.00" stroke-linecap="butt" stroke-linejoin="miter">
	<path stroke='black'  d='M221.8,662.4 L221.8,653.4  '/>	<g transform="translate(221.8,684.3)" stroke="none" fill="black" font-family="Helvetica" font-size="12.00"  text-anchor="middle">
		<text><tspan font-family="Helvetica" > 8</tspan></text>
	</g>
</g>
<g fill="none" color="black" stroke="currentColor" stroke-width="1.00" stroke-linecap="butt" stroke-linejoin="miter">
	<path stroke='black'  d='M371.8,662.4 L371.8,653.4  '/>	<g transform="translate(371.8,684.3)" stroke="none" fill="black" font-family="Helvetica" font-size="12.00"  text-anchor="middle">
		<text><tspan font-family="Helvetica" > 8.5</tspan></text>
	</g>
</g>
<g fill="none" color="black" stroke="currentColor" stroke-width="1.00" stroke-linecap="butt" stroke-linejoin="miter">
	<path stroke='black'  d='M521.7,662.4 L521.7,653.4  '/>	<g transform="translate(521.7,684.3)" stroke="none" fill="black" font-family="Helvetica" font-size="12.00"  text-anchor="middle">
		<text><tspan font-family="Helvetica" > 9</tspan></text>
	</g>
</g>
<g fill="none" color="black" stroke="currentColor" stroke-width="1.00" stroke-linecap="butt" stroke-linejoin="miter">
	<path stroke='black'  d='M671.7,662.4 L671.7,653.4  '/>	<g transform="translate(671.7,684.3)" stroke="none" fill="black" font-family="Helvetica" font-size="12.00"  text-anchor="middle">
		<text><tspan font-family="Helvetica" > 9.5</tspan></text>
	</g>
</g>
<g fill="none" color="black" stroke="currentColor" stroke-width="1.00" stroke-linecap="butt" stroke-linejoin="miter">
	<path stroke='black'  d='M821.6,662.4 L821.6,653.4  '/>	<g transform="translate(821.6,684.3)" stroke="none" fill="black" font-family="Helvetica" font-size="12.00"  text-anchor="middle">
		<text><tspan font-family="Helvetica" > 10</tspan></text>
	</g>
</g>
<g fill="none" color="black" stroke="currentColor" stroke-width="1.00" stroke-linecap="butt" stroke-linejoin="miter">
	<path stroke='black'  d='M971.6,662.4 L971.6,653.4  '/>	<g transform="translate(971.6,684.3)" stroke="none" fill="black" font-family="Helvetica" font-size="12.00"  text-anchor="middle">
		<text><tspan font-family="Helvetica" > 10.5</tspan></text>
	</g>
</g>
<g fill="none" color="black" stroke="currentColor" stroke-width="1.00" stroke-linecap="butt" stroke-linejoin="miter">
	<path stroke='black'  d='M1121.5,662.4 L1121.5,653.4  '/>	<g transform="translate(1121.5,684.3)" stroke="none" fill="black" font-family="Helvetica" font-size="12.00"  text-anchor="middle">
		<text><tspan font-family="Helvetica" > 11</tspan></text>
	</g>
</g>
<g fill="none" color="black" stroke="currentColor" stroke-width="1.00" stroke-linecap="butt" stroke-linejoin="miter">
</g>
<g fill="none" color="black" stroke="currentColor" stroke-width="1.00" stroke-linecap="butt" stroke-linejoin="miter">
	<path stroke='black'  d='M71.9,54.1 L71.9,662.4 L1121.5,662.4 L1121.5,54.1 L71.9,54.1 Z  '/></g>
<g fill="none" color="black" stroke="currentColor" stroke-width="1.00" stroke-linecap="butt" stroke-linejoin="miter">
	<g transform="translate(19.0,358.3) rotate(270)" stroke="none" fill="black" font-family="Helvetica" font-size="12.00"  text-anchor="middle">
		<text><tspan font-family="Helvetica" >Density (a.u.)</tspan></text>
	</g>
</g>
<g fill="none" color="black" stroke="currentColor" stroke-width="1.00" stroke-linecap="butt" stroke-linejoin="miter">
	<g transform="translate(596.7,711.3)" stroke="none" fill="black" font-family="Helvetica" font-size="12.00"  text-anchor="middle">
		<text><tspan font-family="Helvetica" >Average time (us)</tspan></text>
	</g>
</g>
<g fill="none" color="black" stroke="currentColor" stroke-width="1.00" stroke-linecap="butt" stroke-linejoin="miter">
	<g transform="translate(596.7,31.0)" stroke="none" fill="black" font-family="Helvetica" font-size="12.00"  text-anchor="middle">
		<text><tspan font-family="Helvetica" >bench_group/blake3/3584</tspan></text>
	</g>
</g>
<g fill="none" color="black" stroke="currentColor" stroke-width="1.00" stroke-linecap="butt" stroke-linejoin="miter">
</g>
	<g id="gnuplot_plot_1" ><title>Base PDF</title>
<g fill="none" color="black" stroke="currentColor" stroke-width="1.00" stroke-linecap="butt" stroke-linejoin="miter">
	<g transform="translate(1196.9,67.0)" stroke="none" fill="black" font-family="Helvetica" font-size="12.00"  text-anchor="start">
		<text><tspan font-family="Helvetica" >Base PDF</tspan></text>
	</g>
</g>
<g fill="none" color="black" stroke="currentColor" stroke-width="1.00" stroke-linecap="butt" stroke-linejoin="miter">
	<g stroke='none' shape-rendering='crispEdges'>
		<polygon fill = 'rgb(227,  26,  28)' fill-opacity = '0.500000' points = '1146.4,67.6 1188.6,67.6 1188.6,58.6 1146.4,58.6 '/>
		<polygon fill = 'rgb(227,  26,  28)' fill-opacity = '0.500000' points = '1028.6,662.3 1028.6,662.3 1028.7,662.3 1028.7,662.3 1028.8,662.3 1028.8,662.3 1028.9,662.2 1028.9,662.2 1029.0,662.2 1029.1,662.1 1029.1,662.1 1029.2,662.0 1029.2,662.0 1029.3,661.9 1029.3,661.9 1029.4,661.8
1029.4,661.7 1029.5,661.6 1029.5,661.5 1029.6,661.3 1029.6,661.2 1029.7,661.0 1029.8,660.8 1029.8,660.6 1029.9,660.4 1029.9,660.1 1030.0,659.9 1030.0,659.5 1030.1,659.2 1030.1,658.8 1030.2,658.3 1030.2,657.8
1030.3,657.3 1030.4,656.7 1030.4,656.0 1030.5,655.2 1030.5,654.4 1030.6,653.5 1030.6,652.6 1030.7,651.5 1030.7,650.3 1030.8,649.0 1030.8,647.7 1030.9,646.2 1030.9,644.5 1031.0,642.8 1031.1,640.9 1031.1,638.8
1031.2,636.6 1031.2,634.3 1031.3,631.7 1031.3,629.1 1031.4,626.2 1031.4,623.1 1031.5,619.9 1031.5,616.4 1031.6,612.8 1031.7,609.0 1031.7,605.0 1031.8,600.7 1031.8,596.3 1031.9,591.7 1031.9,586.9 1032.0,581.9
1032.0,576.7 1032.1,571.3 1032.1,565.7 1032.2,560.0 1032.2,554.2 1032.3,548.1 1032.4,542.0 1032.4,535.8 1032.5,529.4 1032.5,523.0 1032.6,516.5 1032.6,510.0 1032.7,503.4 1032.7,496.9 1032.8,490.3 1032.8,483.9
1032.9,477.4 1032.9,471.1 1033.0,464.9 1033.1,458.8 1033.1,452.9 1033.2,447.2 1033.2,441.7 1033.3,436.4 1033.3,431.4 1033.4,426.7 1033.4,422.2 1033.5,418.1 1033.5,414.3 1033.6,410.8 1033.7,407.7 1033.7,404.9
1033.8,402.6 1033.8,400.6 1033.9,399.0 1033.9,397.8 1034.0,397.0 1034.0,396.6 1034.1,396.6 1034.1,397.0 1034.2,397.8 1034.2,398.9 1034.3,400.4 1034.4,402.3 1034.4,404.5 1034.5,407.1 1034.5,409.9 1034.6,413.1
1034.6,416.5 1034.7,420.2 1034.7,424.2 1034.8,428.3 1034.8,432.7 1034.9,437.3 1035.0,442.0 1035.0,446.8 1035.1,451.8 1035.1,456.9 1035.2,462.0 1035.2,467.2 1035.3,472.5 1035.3,477.8 1035.4,483.1 1035.4,488.3
1035.5,493.6 1035.5,498.8 1035.6,503.9 1035.7,509.0 1035.7,514.0 1035.8,518.9 1035.8,523.7 1035.9,528.4 1035.9,533.0 1036.0,537.5 1036.0,541.8 1036.1,546.0 1036.1,550.1 1036.2,554.1 1036.3,557.8 1036.3,561.5
1036.4,565.0 1036.4,568.4 1036.5,571.6 1036.5,574.7 1036.6,577.7 1036.6,580.5 1036.7,583.3 1036.7,585.8 1036.8,588.3 1036.8,590.7 1036.9,592.9 1037.0,595.0 1037.0,597.0 1037.1,599.0 1037.1,600.8 1037.2,602.5
1037.2,604.2 1037.3,605.8 1037.3,607.3 1037.4,608.7 1037.4,610.1 1037.5,611.4 1037.6,612.6 1037.6,613.8 1037.7,614.9 1037.7,616.0 1037.8,617.0 1037.8,618.0 1037.9,618.9 1037.9,619.9 1038.0,620.7 1038.0,621.6
1038.1,622.4 1038.1,623.2 1038.2,623.9 1038.3,624.6 1038.3,625.3 1038.4,626.0 1038.4,626.6 1038.5,627.3 1038.5,627.9 1038.6,628.4 1038.6,629.0 1038.7,629.6 1038.7,630.1 1038.8,630.6 1038.8,631.1 1038.9,631.6
1039.0,632.0 1039.0,632.5 1039.1,632.9 1039.1,633.3 1039.2,633.7 1039.2,634.1 1039.3,634.5 1039.3,634.8 1039.4,635.2 1039.4,635.5 1039.5,635.8 1039.6,636.1 1039.6,636.4 1039.7,636.7 1039.7,636.9 1039.8,637.2
1039.8,637.4 1039.9,637.7 1039.9,637.9 1040.0,638.1 1040.0,638.3 1040.1,638.5 1040.1,638.6 1040.2,638.8 1040.3,639.0 1040.3,639.1 1040.4,639.3 1040.4,639.4 1040.5,639.6 1040.5,639.7 1040.6,639.8 1040.6,640.0
1040.7,640.1 1040.7,640.2 1040.8,640.4 1040.9,640.5 1040.9,640.6 1041.0,640.8 1041.0,640.9 1041.1,641.1 1041.1,641.2 1041.2,641.4 1041.2,641.6 1041.3,641.8 1041.3,642.0 1041.4,642.2 1041.4,642.4 1041.5,642.7
1041.6,642.9 1041.6,643.2 1041.7,643.5 1041.7,643.8 1041.8,644.1 1041.8,644.4 1041.9,644.7 1041.9,645.0 1042.0,645.4 1042.0,645.7 1042.1,646.1 1042.2,646.5 1042.2,646.9 1042.3,647.2 1042.3,647.6 1042.4,648.0
1042.4,648.4 1042.5,648.8 1042.5,649.2 1042.6,649.6 1042.6,650.0 1042.7,650.4 1042.7,650.7 1042.8,651.1 1042.9,651.5 1042.9,651.8 1043.0,652.2 1043.0,652.5 1043.1,652.8 1043.1,653.1 1043.2,653.4 1043.2,653.7
1043.3,654.0 1043.3,654.3 1043.4,654.5 1043.4,654.8 1043.5,655.0 1043.6,655.2 1043.6,655.4 1043.7,655.6 1043.7,655.8 1043.8,656.0 1043.8,656.1 1043.9,656.3 1043.9,656.4 1044.0,656.6 1044.0,656.7 1044.1,656.9
1044.2,657.0 1044.2,657.1 1044.3,657.2 1044.3,657.3 1044.4,657.5 1044.4,657.6 1044.5,657.7 1044.5,657.8 1044.6,657.9 1044.6,658.0 1044.7,658.1 1044.7,658.2 1044.8,658.3 1044.9,658.5 1044.9,658.6 1045.0,658.7
1045.0,658.8 1045.1,658.9 1045.1,659.0 1045.2,659.1 1045.2,659.3 1045.3,659.4 1045.3,659.5 1045.4,659.6 1045.5,659.7 1045.5,659.9 1045.6,660.0 1045.6,660.1 1045.7,660.2 1045.7,660.3 1045.8,660.4 1045.8,660.5
1045.9,660.6 1045.9,660.7 1046.0,660.8 1046.0,660.9 1046.1,661.0 1046.2,661.1 1046.2,661.2 1046.3,661.3 1046.3,661.4 1046.4,661.4 1046.4,661.5 1046.5,661.6 1046.5,661.6 1046.6,661.7 1046.6,661.8 1046.7,661.8
1046.8,661.9 1046.8,661.9 1046.9,662.0 1046.9,662.0 1047.0,662.0 1047.0,662.1 1047.1,662.1 1047.1,662.1 1047.2,662.2 1047.2,662.2 1047.3,662.2 1047.3,662.2 1047.4,662.2 1047.5,662.3 1047.5,662.3 1047.6,662.3
1047.6,662.3 1047.7,662.3 1047.7,662.3 1047.8,662.3 1047.8,662.3 1047.9,662.3 1047.9,662.3 1048.0,662.3 1048.0,662.4 1048.1,662.4 1048.2,662.4 1048.2,662.4 1048.3,662.4 1048.3,662.4 1048.4,662.3 1048.4,662.3
1048.5,662.3 1048.5,662.3 1048.6,662.3 1048.6,662.3 1048.7,662.3 1048.8,662.3 1048.8,662.3 1048.9,662.3 1048.9,662.3 1049.0,662.2 1049.0,662.2 1049.1,662.2 1049.1,662.2 1049.2,662.2 1049.2,662.1 1049.3,662.1
1049.3,662.1 1049.4,662.0 1049.5,662.0 1049.5,662.0 1049.6,661.9 1049.6,661.9 1049.7,661.8 1049.7,661.8 1049.8,661.7 1049.8,661.7 1049.9,661.6 1049.9,661.5 1050.0,661.5 1050.1,661.4 1050.1,661.3 1050.2,661.2
1050.2,661.2 1050.3,661.1 1050.3,661.0 1050.4,660.9 1050.4,660.8 1050.5,660.7 1050.5,660.6 1050.6,660.5 1050.6,660.4 1050.7,660.3 1050.8,660.2 1050.8,660.1 1050.9,660.0 1050.9,659.9 1051.0,659.8 1051.0,659.7
1051.1,659.6 1051.1,659.5 1051.2,659.4 1051.2,659.3 1051.3,659.2 1051.4,659.1 1051.4,659.0 1051.5,659.0 1051.5,658.9 1051.6,658.8 1051.6,658.8 1051.7,658.7 1051.7,658.7 1051.8,658.6 1051.8,658.6 1051.9,658.6
1051.9,658.6 1052.0,658.6 1052.1,658.6 1052.1,658.6 1052.2,658.6 1052.2,658.6 1052.3,658.7 1052.3,658.7 1052.4,658.8 1052.4,658.8 1052.5,658.9 1052.5,659.0 1052.6,659.0 1052.7,659.1 1052.7,659.2 1052.8,659.3
1052.8,659.4 1052.9,659.5 1052.9,659.6 1053.0,659.7 1053.0,659.8 1053.1,659.9 1053.1,660.0 1053.2,660.1 1053.2,660.2 1053.3,660.3 1053.4,660.4 1053.4,660.5 1053.5,660.6 1053.5,660.7 1053.6,660.8 1053.6,660.9
1053.7,661.0 1053.7,661.1 1053.8,661.2 1053.8,661.2 1053.9,661.3 1053.9,661.4 1054.0,661.5 1054.1,661.5 1054.1,661.6 1054.2,661.7 1054.2,661.7 1054.3,661.8 1054.3,661.8 1054.4,661.9 1054.4,661.9 1054.5,662.0
1054.5,662.0 1054.6,662.0 1054.7,662.1 1054.7,662.1 1054.8,662.1 1054.8,662.2 1054.9,662.2 1054.9,662.2 1055.0,662.2 1055.0,662.3 1055.1,662.3 1055.1,662.3 1055.2,662.3 1055.2,662.3 1055.3,662.3 1055.4,662.3
1055.4,662.3 1055.5,662.3 1055.5,662.4 1055.6,662.4 1055.6,662.4 1055.5,662.4 1055.5,662.4 1055.4,662.4 1055.4,662.4 1055.3,662.4 1055.2,662.4 1055.2,662.4 1055.1,662.4 1055.1,662.4 1055.0,662.4 1055.0,662.4
1054.9,662.4 1054.9,662.4 1054.8,662.4 1054.8,662.4 1054.7,662.4 1054.7,662.4 1054.6,662.4 1054.5,662.4 1054.5,662.4 1054.4,662.4 1054.4,662.4 1054.3,662.4 1054.3,662.4 1054.2,662.4 1054.2,662.4 1054.1,662.4
1054.1,662.4 1054.0,662.4 1053.9,662.4 1053.9,662.4 1053.8,662.4 1053.8,662.4 1053.7,662.4 1053.7,662.4 1053.6,662.4 1053.6,662.4 1053.5,662.4 1053.5,662.4 1053.4,662.4 1053.4,662.4 1053.3,662.4 1053.2,662.4
1053.2,662.4 1053.1,662.4 1053.1,662.4 1053.0,662.4 1053.0,662.4 1052.9,662.4 1052.9,662.4 1052.8,662.4 1052.8,662.4 1052.7,662.4 1052.7,662.4 1052.6,662.4 1052.5,662.4 1052.5,662.4 1052.4,662.4 1052.4,662.4
1052.3,662.4 1052.3,662.4 1052.2,662.4 1052.2,662.4 1052.1,662.4 1052.1,662.4 1052.0,662.4 1051.9,662.4 1051.9,662.4 1051.8,662.4 1051.8,662.4 1051.7,662.4 1051.7,662.4 1051.6,662.4 1051.6,662.4 1051.5,662.4
1051.5,662.4 1051.4,662.4 1051.4,662.4 1051.3,662.4 1051.2,662.4 1051.2,662.4 1051.1,662.4 1051.1,662.4 1051.0,662.4 1051.0,662.4 1050.9,662.4 1050.9,662.4 1050.8,662.4 1050.8,662.4 1050.7,662.4 1050.6,662.4
1050.6,662.4 1050.5,662.4 1050.5,662.4 1050.4,662.4 1050.4,662.4 1050.3,662.4 1050.3,662.4 1050.2,662.4 1050.2,662.4 1050.1,662.4 1050.1,662.4 1050.0,662.4 1049.9,662.4 1049.9,662.4 1049.8,662.4 1049.8,662.4
1049.7,662.4 1049.7,662.4 1049.6,662.4 1049.6,662.4 1049.5,662.4 1049.5,662.4 1049.4,662.4 1049.3,662.4 1049.3,662.4 1049.2,662.4 1049.2,662.4 1049.1,662.4 1049.1,662.4 1049.0,662.4 1049.0,662.4 1048.9,662.4
1048.9,662.4 1048.8,662.4 1048.8,662.4 1048.7,662.4 1048.6,662.4 1048.6,662.4 1048.5,662.4 1048.5,662.4 1048.4,662.4 1048.4,662.4 1048.3,662.4 1048.3,662.4 1048.2,662.4 1048.2,662.4 1048.1,662.4 1048.0,662.4
1048.0,662.4 1047.9,662.4 1047.9,662.4 1047.8,662.4 1047.8,662.4 1047.7,662.4 1047.7,662.4 1047.6,662.4 1047.6,662.4 1047.5,662.4 1047.5,662.4 1047.4,662.4 1047.3,662.4 1047.3,662.4 1047.2,662.4 1047.2,662.4
1047.1,662.4 1047.1,662.4 1047.0,662.4 1047.0,662.4 1046.9,662.4 1046.9,662.4 1046.8,662.4 1046.8,662.4 1046.7,662.4 1046.6,662.4 1046.6,662.4 1046.5,662.4 1046.5,662.4 1046.4,662.4 1046.4,662.4 1046.3,662.4
1046.3,662.4 1046.2,662.4 1046.2,662.4 1046.1,662.4 1046.0,662.4 1046.0,662.4 1045.9,662.4 1045.9,662.4 1045.8,662.4 1045.8,662.4 1045.7,662.4 1045.7,662.4 1045.6,662.4 1045.6,662.4 1045.5,662.4 1045.5,662.4
1045.4,662.4 1045.3,662.4 1045.3,662.4 1045.2,662.4 1045.2,662.4 1045.1,662.4 1045.1,662.4 1045.0,662.4 1045.0,662.4 1044.9,662.4 1044.9,662.4 1044.8,662.4 1044.7,662.4 1044.7,662.4 1044.6,662.4 1044.6,662.4
1044.5,662.4 1044.5,662.4 1044.4,662.4 1044.4,662.4 1044.3,662.4 1044.3,662.4 1044.2,662.4 1044.2,662.4 1044.1,662.4 1044.0,662.4 1044.0,662.4 1043.9,662.4 1043.9,662.4 1043.8,662.4 1043.8,662.4 1043.7,662.4
1043.7,662.4 1043.6,662.4 1043.6,662.4 1043.5,662.4 1043.4,662.4 1043.4,662.4 1043.3,662.4 1043.3,662.4 1043.2,662.4 1043.2,662.4 1043.1,662.4 1043.1,662.4 1043.0,662.4 1043.0,662.4 1042.9,662.4 1042.9,662.4
1042.8,662.4 1042.7,662.4 1042.7,662.4 1042.6,662.4 1042.6,662.4 1042.5,662.4 1042.5,662.4 1042.4,662.4 1042.4,662.4 1042.3,662.4 1042.3,662.4 1042.2,662.4 1042.2,662.4 1042.1,662.4 1042.0,662.4 1042.0,662.4
1041.9,662.4 1041.9,662.4 1041.8,662.4 1041.8,662.4 1041.7,662.4 1041.7,662.4 1041.6,662.4 1041.6,662.4 1041.5,662.4 1041.4,662.4 1041.4,662.4 1041.3,662.4 1041.3,662.4 1041.2,662.4 1041.2,662.4 1041.1,662.4
1041.1,662.4 1041.0,662.4 1041.0,662.4 1040.9,662.4 1040.9,662.4 1040.8,662.4 1040.7,662.4 1040.7,662.4 1040.6,662.4 1040.6,662.4 1040.5,662.4 1040.5,662.4 1040.4,662.4 1040.4,662.4 1040.3,662.4 1040.3,662.4
1040.2,662.4 1040.1,662.4 1040.1,662.4 1040.0,662.4 1040.0,662.4 1039.9,662.4 1039.9,662.4 1039.8,662.4 1039.8,662.4 1039.7,662.4 1039.7,662.4 1039.6,662.4 1039.6,662.4 1039.5,662.4 1039.4,662.4 1039.4,662.4
1039.3,662.4 1039.3,662.4 1039.2,662.4 1039.2,662.4 1039.1,662.4 1039.1,662.4 1039.0,662.4 1039.0,662.4 1038.9,662.4 1038.8,662.4 1038.8,662.4 1038.7,662.4 1038.7,662.4 1038.6,662.4 1038.6,662.4 1038.5,662.4
1038.5,662.4 1038.4,662.4 1038.4,662.4 1038.3,662.4 1038.3,662.4 1038.2,662.4 1038.1,662.4 1038.1,662.4 1038.0,662.4 1038.0,662.4 1037.9,662.4 1037.9,662.4 1037.8,662.4 1037.8,662.4 1037.7,662.4 1037.7,662.4
1037.6,662.4 1037.6,662.4 1037.5,662.4 1037.4,662.4 1037.4,662.4 1037.3,662.4 1037.3,662.4 1037.2,662.4 1037.2,662.4 1037.1,662.4 1037.1,662.4 1037.0,662.4 1037.0,662.4 1036.9,662.4 1036.8,662.4 1036.8,662.4
1036.7,662.4 1036.7,662.4 1036.6,662.4 1036.6,662.4 1036.5,662.4 1036.5,662.4 1036.4,662.4 1036.4,662.4 1036.3,662.4 1036.3,662.4 1036.2,662.4 1036.1,662.4 1036.1,662.4 1036.0,662.4 1036.0,662.4 1035.9,662.4
1035.9,662.4 1035.8,662.4 1035.8,662.4 1035.7,662.4 1035.7,662.4 1035.6,662.4 1035.5,662.4 1035.5,662.4 1035.4,662.4 1035.4,662.4 1035.3,662.4 1035.3,662.4 1035.2,662.4 1035.2,662.4 1035.1,662.4 1035.1,662.4
1035.0,662.4 1035.0,662.4 1034.9,662.4 1034.8,662.4 1034.8,662.4 1034.7,662.4 1034.7,662.4 1034.6,662.4 1034.6,662.4 1034.5,662.4 1034.5,662.4 1034.4,662.4 1034.4,662.4 1034.3,662.4 1034.2,662.4 1034.2,662.4
1034.1,662.4 1034.1,662.4 1034.0,662.4 1034.0,662.4 1033.9,662.4 1033.9,662.4 1033.8,662.4 1033.8,662.4 1033.7,662.4 1033.7,662.4 1033.6,662.4 1033.5,662.4 1033.5,662.4 1033.4,662.4 1033.4,662.4 1033.3,662.4
1033.3,662.4 1033.2,662.4 1033.2,662.4 1033.1,662.4 1033.1,662.4 1033.0,662.4 1032.9,662.4 1032.9,662.4 1032.8,662.4 1032.8,662.4 1032.7,662.4 1032.7,662.4 1032.6,662.4 1032.6,662.4 1032.5,662.4 1032.5,662.4
1032.4,662.4 1032.4,662.4 1032.3,662.4 1032.2,662.4 1032.2,662.4 1032.1,662.4 1032.1,662.4 1032.0,662.4 1032.0,662.4 1031.9,662.4 1031.9,662.4 1031.8,662.4 1031.8,662.4 1031.7,662.4 1031.7,662.4 1031.6,662.4
1031.5,662.4 1031.5,662.4 1031.4,662.4 1031.4,662.4 1031.3,662.4 1031.3,662.4 1031.2,662.4 1031.2,662.4 1031.1,662.4 1031.1,662.4 1031.0,662.4 1030.9,662.4 1030.9,662.4 1030.8,662.4 1030.8,662.4 1030.7,662.4
1030.7,662.4 1030.6,662.4 1030.6,662.4 1030.5,662.4 1030.5,662.4 1030.4,662.4 1030.4,662.4 1030.3,662.4 1030.2,662.4 1030.2,662.4 1030.1,662.4 1030.1,662.4 1030.0,662.4 1030.0,662.4 1029.9,662.4 1029.9,662.4
1029.8,662.4 1029.8,662.4 1029.7,662.4 1029.6,662.4 1029.6,662.4 1029.5,662.4 1029.5,662.4 1029.4,662.4 1029.4,662.4 1029.3,662.4 1029.3,662.4 1029.2,662.4 1029.2,662.4 1029.1,662.4 1029.1,662.4 1029.0,662.4
1028.9,662.4 1028.9,662.4 1028.8,662.4 1028.8,662.4 1028.7,662.4 1028.7,662.4 1028.6,662.4 1028.6,662.4 '/>
	</g>
</g>
	</g>
	<g id="gnuplot_plot_2" ><title>Base Mean</title>
<g fill="none" color="white" stroke="rgb(227,  26,  28)" stroke-width="2.00" stroke-linecap="butt" stroke-linejoin="miter">
</g>
<g fill="none" color="black" stroke="currentColor" stroke-width="2.00" stroke-linecap="butt" stroke-linejoin="miter">
	<g transform="translate(1196.9,85.0)" stroke="none" fill="black" font-family="Helvetica" font-size="12.00"  text-anchor="start">
		<text><tspan font-family="Helvetica" >Base Mean</tspan></text>
	</g>
</g>
<g fill="none" color="black" stroke="currentColor" stroke-width="2.00" stroke-linecap="butt" stroke-linejoin="miter">
	<path stroke='rgb(227,  26,  28)'  d='M1146.4,81.1 L1188.6,81.1 M1035.2,662.4 L1035.2,466.9  '/></g>
	</g>
	<g id="gnuplot_plot_3" ><title>New PDF</title>
<g fill="none" color="white" stroke="rgb(227,  26,  28)" stroke-width="1.00" stroke-linecap="butt" stroke-linejoin="miter">
</g>
<g fill="none" color="black" stroke="currentColor" stroke-width="1.00" stroke-linecap="butt" stroke-linejoin="miter">
	<g transform="translate(1196.9,103.0)" stroke="none" fill="black" font-family="Helvetica" font-size="12.00"  text-anchor="start">
		<text><tspan font-family="Helvetica" >New PDF</tspan></text>
	</g>
</g>
<g fill="none" color="black" stroke="currentColor" stroke-width="1.00" stroke-linecap="butt" stroke-linejoin="miter">
	<g stroke='none' shape-rendering='crispEdges'>
		<polygon fill = 'rgb( 31, 120, 180)' fill-opacity = '0.500000' points = '1146.4,103.6 1188.6,103.6 1188.6,94.6 1146.4,94.6 '/>
		<polygon fill = 'rgb( 31, 120, 180)' fill-opacity = '0.500000' points = '213.1,661.9 213.2,661.8 213.2,661.7 213.2,661.5 213.2,661.4 213.3,661.2 213.3,661.0 213.3,660.7 213.4,660.5 213.4,660.1 213.4,659.8 213.5,659.3 213.5,658.8 213.5,658.3 213.5,657.6 213.6,656.9
213.6,656.1 213.6,655.1 213.7,654.0 213.7,652.8 213.7,651.5 213.8,650.0 213.8,648.3 213.8,646.4 213.8,644.3 213.9,642.0 213.9,639.4 213.9,636.6 214.0,633.5 214.0,630.0 214.0,626.3 214.1,622.2
214.1,617.7 214.1,612.8 214.1,607.5 214.2,601.8 214.2,595.6 214.2,589.0 214.3,581.8 214.3,574.2 214.3,566.1 214.4,557.4 214.4,548.2 214.4,538.5 214.4,528.2 214.5,517.4 214.5,506.0 214.5,494.2
214.6,481.8 214.6,468.9 214.6,455.5 214.7,441.7 214.7,427.5 214.7,412.9 214.7,397.9 214.8,382.6 214.8,367.1 214.8,351.3 214.9,335.4 214.9,319.5 214.9,303.5 215.0,287.5 215.0,271.6 215.0,255.9
215.0,240.5 215.1,225.4 215.1,210.6 215.1,196.3 215.2,182.6 215.2,169.4 215.2,157.0 215.3,145.2 215.3,134.2 215.3,124.1 215.3,114.9 215.4,106.7 215.4,99.4 215.4,93.2 215.5,88.0 215.5,83.9
215.5,80.8 215.6,78.9 215.6,78.1 215.6,78.4 215.6,79.8 215.7,82.3 215.7,85.8 215.7,90.4 215.8,95.9 215.8,102.4 215.8,109.8 215.9,118.0 215.9,127.1 215.9,136.8 215.9,147.3 216.0,158.4
216.0,170.0 216.0,182.2 216.1,194.7 216.1,207.6 216.1,220.8 216.2,234.3 216.2,247.8 216.2,261.5 216.2,275.3 216.3,289.0 216.3,302.7 216.3,316.2 216.4,329.6 216.4,342.8 216.4,355.8 216.5,368.5
216.5,380.8 216.5,392.9 216.5,404.5 216.6,415.8 216.6,426.7 216.6,437.2 216.7,447.3 216.7,457.0 216.7,466.3 216.8,475.1 216.8,483.6 216.8,491.6 216.8,499.2 216.9,506.5 216.9,513.4 216.9,519.9
217.0,526.1 217.0,531.9 217.0,537.4 217.1,542.7 217.1,547.6 217.1,552.3 217.1,556.7 217.2,560.9 217.2,564.9 217.2,568.7 217.3,572.3 217.3,575.7 217.3,579.0 217.4,582.1 217.4,585.1 217.4,587.9
217.4,590.7 217.5,593.3 217.5,595.8 217.5,598.2 217.6,600.6 217.6,602.8 217.6,605.0 217.7,607.0 217.7,609.0 217.7,611.0 217.7,612.8 217.8,614.6 217.8,616.3 217.8,618.0 217.9,619.6 217.9,621.1
217.9,622.5 218.0,623.9 218.0,625.3 218.0,626.5 218.0,627.7 218.1,628.9 218.1,630.0 218.1,631.0 218.2,632.0 218.2,632.9 218.2,633.8 218.3,634.6 218.3,635.4 218.3,636.2 218.3,636.9 218.4,637.6
218.4,638.2 218.4,638.8 218.5,639.4 218.5,639.9 218.5,640.5 218.6,641.0 218.6,641.4 218.6,641.9 218.6,642.4 218.7,642.8 218.7,643.2 218.7,643.6 218.8,644.0 218.8,644.4 218.8,644.8 218.9,645.2
218.9,645.5 218.9,645.9 218.9,646.2 219.0,646.5 219.0,646.9 219.0,647.2 219.1,647.5 219.1,647.8 219.1,648.1 219.2,648.3 219.2,648.6 219.2,648.9 219.2,649.1 219.3,649.4 219.3,649.6 219.3,649.8
219.4,650.0 219.4,650.2 219.4,650.4 219.5,650.6 219.5,650.8 219.5,651.0 219.5,651.2 219.6,651.3 219.6,651.5 219.6,651.7 219.7,651.8 219.7,652.0 219.7,652.2 219.8,652.4 219.8,652.5 219.8,652.7
219.8,652.9 219.9,653.1 219.9,653.2 219.9,653.4 220.0,653.6 220.0,653.8 220.0,654.0 220.1,654.1 220.1,654.3 220.1,654.5 220.1,654.7 220.2,654.9 220.2,655.0 220.2,655.2 220.3,655.3 220.3,655.5
220.3,655.6 220.4,655.8 220.4,655.9 220.4,656.0 220.4,656.1 220.5,656.2 220.5,656.2 220.5,656.3 220.6,656.3 220.6,656.3 220.6,656.3 220.7,656.3 220.7,656.3 220.7,656.3 220.7,656.2 220.8,656.2
220.8,656.1 220.8,656.0 220.9,655.9 220.9,655.8 220.9,655.7 221.0,655.6 221.0,655.5 221.0,655.4 221.0,655.3 221.1,655.2 221.1,655.1 221.1,655.0 221.2,654.9 221.2,654.8 221.2,654.7 221.3,654.7
221.3,654.6 221.3,654.6 221.3,654.6 221.4,654.6 221.4,654.6 221.4,654.6 221.5,654.6 221.5,654.7 221.5,654.8 221.6,654.9 221.6,655.0 221.6,655.1 221.6,655.2 221.7,655.4 221.7,655.5 221.7,655.7
221.8,655.9 221.8,656.1 221.8,656.3 221.9,656.5 221.9,656.8 221.9,657.0 221.9,657.2 222.0,657.4 222.0,657.7 222.0,657.9 222.1,658.1 222.1,658.4 222.1,658.6 222.2,658.8 222.2,659.0 222.2,659.3
222.2,659.5 222.3,659.7 222.3,659.9 222.3,660.1 222.4,660.2 222.4,660.4 222.4,660.6 222.5,660.7 222.5,660.9 222.5,661.0 222.5,661.1 222.6,661.2 222.6,661.3 222.6,661.4 222.7,661.5 222.7,661.6
222.7,661.7 222.8,661.8 222.8,661.8 222.8,661.9 222.8,662.0 222.9,662.0 222.9,662.1 222.9,662.1 223.0,662.1 223.0,662.2 223.0,662.2 223.1,662.2 223.1,662.2 223.1,662.3 223.1,662.3 223.2,662.3
223.2,662.3 223.2,662.3 223.3,662.3 223.3,662.3 223.3,662.4 223.4,662.4 223.4,662.4 223.4,662.4 223.4,662.4 223.5,662.4 223.5,662.4 223.5,662.4 223.6,662.4 223.6,662.4 223.6,662.4 223.7,662.4
223.7,662.4 223.7,662.4 223.7,662.4 223.8,662.4 223.8,662.4 223.8,662.4 223.9,662.4 223.9,662.4 223.9,662.4 224.0,662.4 224.0,662.4 224.0,662.4 224.0,662.4 224.1,662.4 224.1,662.4 224.1,662.4
224.2,662.4 224.2,662.4 224.2,662.4 224.3,662.4 224.3,662.4 224.3,662.4 224.3,662.4 224.4,662.4 224.4,662.4 224.4,662.3 224.5,662.3 224.5,662.3 224.5,662.3 224.6,662.3 224.6,662.3 224.6,662.3
224.6,662.2 224.7,662.2 224.7,662.2 224.7,662.2 224.8,662.1 224.8,662.1 224.8,662.1 224.9,662.0 224.9,662.0 224.9,661.9 224.9,661.8 225.0,661.8 225.0,661.7 225.0,661.6 225.1,661.5 225.1,661.4
225.1,661.3 225.2,661.2 225.2,661.1 225.2,661.0 225.2,660.8 225.3,660.7 225.3,660.6 225.3,660.4 225.4,660.2 225.4,660.0 225.4,659.9 225.5,659.7 225.5,659.5 225.5,659.3 225.5,659.0 225.6,658.8
225.6,658.6 225.6,658.4 225.7,658.1 225.7,657.9 225.7,657.7 225.8,657.4 225.8,657.2 225.8,657.0 225.8,656.8 225.9,656.5 225.9,656.3 225.9,656.1 226.0,655.9 226.0,655.7 226.0,655.6 226.1,655.4
226.1,655.3 226.1,655.2 226.1,655.0 226.2,655.0 226.2,654.9 226.2,654.8 226.3,654.8 226.3,654.8 226.3,654.8 226.4,654.8 226.4,654.8 226.4,654.9 226.4,655.0 226.5,655.1 226.5,655.2 226.5,655.3
226.6,655.4 226.6,655.6 226.6,655.8 226.7,656.0 226.7,656.1 226.7,656.3 226.7,656.6 226.8,656.8 226.8,657.0 226.8,657.2 226.9,657.5 226.9,657.7 226.9,657.9 227.0,658.2 227.0,658.4 227.0,658.6
227.0,658.8 227.1,659.1 227.1,659.3 227.1,659.5 227.2,659.7 227.2,659.9 227.2,660.1 227.3,660.2 227.3,660.4 227.3,660.6 227.3,660.7 227.4,660.9 227.4,661.0 227.4,661.1 227.5,661.2 227.5,661.4
227.5,661.5 227.6,661.5 227.6,661.6 227.6,661.7 227.6,661.8 227.7,661.9 227.7,661.9 227.7,662.0 227.8,662.0 227.8,662.1 227.8,662.1 227.9,662.1 227.9,662.2 227.9,662.2 227.9,662.2 228.0,662.2
228.0,662.3 228.0,662.3 228.1,662.3 228.1,662.3 228.1,662.4 228.1,662.4 228.0,662.4 228.0,662.4 228.0,662.4 227.9,662.4 227.9,662.4 227.9,662.4 227.9,662.4 227.8,662.4 227.8,662.4 227.8,662.4
227.7,662.4 227.7,662.4 227.7,662.4 227.6,662.4 227.6,662.4 227.6,662.4 227.6,662.4 227.5,662.4 227.5,662.4 227.5,662.4 227.4,662.4 227.4,662.4 227.4,662.4 227.3,662.4 227.3,662.4 227.3,662.4
227.3,662.4 227.2,662.4 227.2,662.4 227.2,662.4 227.1,662.4 227.1,662.4 227.1,662.4 227.0,662.4 227.0,662.4 227.0,662.4 227.0,662.4 226.9,662.4 226.9,662.4 226.9,662.4 226.8,662.4 226.8,662.4
226.8,662.4 226.7,662.4 226.7,662.4 226.7,662.4 226.7,662.4 226.6,662.4 226.6,662.4 226.6,662.4 226.5,662.4 226.5,662.4 226.5,662.4 226.4,662.4 226.4,662.4 226.4,662.4 226.4,662.4 226.3,662.4
226.3,662.4 226.3,662.4 226.2,662.4 226.2,662.4 226.2,662.4 226.1,662.4 226.1,662.4 226.1,662.4 226.1,662.4 226.0,662.4 226.0,662.4 226.0,662.4 225.9,662.4 225.9,662.4 225.9,662.4 225.8,662.4
225.8,662.4 225.8,662.4 225.8,662.4 225.7,662.4 225.7,662.4 225.7,662.4 225.6,662.4 225.6,662.4 225.6,662.4 225.5,662.4 225.5,662.4 225.5,662.4 225.5,662.4 225.4,662.4 225.4,662.4 225.4,662.4
225.3,662.4 225.3,662.4 225.3,662.4 225.2,662.4 225.2,662.4 225.2,662.4 225.2,662.4 225.1,662.4 225.1,662.4 225.1,662.4 225.0,662.4 225.0,662.4 225.0,662.4 224.9,662.4 224.9,662.4 224.9,662.4
224.9,662.4 224.8,662.4 224.8,662.4 224.8,662.4 224.7,662.4 224.7,662.4 224.7,662.4 224.6,662.4 224.6,662.4 224.6,662.4 224.6,662.4 224.5,662.4 224.5,662.4 224.5,662.4 224.4,662.4 224.4,662.4
224.4,662.4 224.3,662.4 224.3,662.4 224.3,662.4 224.3,662.4 224.2,662.4 224.2,662.4 224.2,662.4 224.1,662.4 224.1,662.4 224.1,662.4 224.0,662.4 224.0,662.4 224.0,662.4 224.0,662.4 223.9,662.4
223.9,662.4 223.9,662.4 223.8,662.4 223.8,662.4 223.8,662.4 223.7,662.4 223.7,662.4 223.7,662.4 223.7,662.4 223.6,662.4 223.6,662.4 223.6,662.4 223.5,662.4 223.5,662.4 223.5,662.4 223.4,662.4
223.4,662.4 223.4,662.4 223.4,662.4 223.3,662.4 223.3,662.4 223.3,662.4 223.2,662.4 223.2,662.4 223.2,662.4 223.1,662.4 223.1,662.4 223.1,662.4 223.1,662.4 223.0,662.4 223.0,662.4 223.0,662.4
222.9,662.4 222.9,662.4 222.9,662.4 222.8,662.4 222.8,662.4 222.8,662.4 222.8,662.4 222.7,662.4 222.7,662.4 222.7,662.4 222.6,662.4 222.6,662.4 222.6,662.4 222.5,662.4 222.5,662.4 222.5,662.4
222.5,662.4 222.4,662.4 222.4,662.4 222.4,662.4 222.3,662.4 222.3,662.4 222.3,662.4 222.2,662.4 222.2,662.4 222.2,662.4 222.2,662.4 222.1,662.4 222.1,662.4 222.1,662.4 222.0,662.4 222.0,662.4
222.0,662.4 221.9,662.4 221.9,662.4 221.9,662.4 221.9,662.4 221.8,662.4 221.8,662.4 221.8,662.4 221.7,662.4 221.7,662.4 221.7,662.4 221.6,662.4 221.6,662.4 221.6,662.4 221.6,662.4 221.5,662.4
221.5,662.4 221.5,662.4 221.4,662.4 221.4,662.4 221.4,662.4 221.3,662.4 221.3,662.4 221.3,662.4 221.3,662.4 221.2,662.4 221.2,662.4 221.2,662.4 221.1,662.4 221.1,662.4 221.1,662.4 221.0,662.4
221.0,662.4 221.0,662.4 221.0,662.4 220.9,662.4 220.9,662.4 220.9,662.4 220.8,662.4 220.8,662.4 220.8,662.4 220.7,662.4 220.7,662.4 220.7,662.4 220.7,662.4 220.6,662.4 220.6,662.4 220.6,662.4
220.5,662.4 220.5,662.4 220.5,662.4 220.4,662.4 220.4,662.4 220.4,662.4 220.4,662.4 220.3,662.4 220.3,662.4 220.3,662.4 220.2,662.4 220.2,662.4 220.2,662.4 220.1,662.4 220.1,662.4 220.1,662.4
220.1,662.4 220.0,662.4 220.0,662.4 220.0,662.4 219.9,662.4 219.9,662.4 219.9,662.4 219.8,662.4 219.8,662.4 219.8,662.4 219.8,662.4 219.7,662.4 219.7,662.4 219.7,662.4 219.6,662.4 219.6,662.4
219.6,662.4 219.5,662.4 219.5,662.4 219.5,662.4 219.5,662.4 219.4,662.4 219.4,662.4 219.4,662.4 219.3,662.4 219.3,662.4 219.3,662.4 219.2,662.4 219.2,662.4 219.2,662.4 219.2,662.4 219.1,662.4
219.1,662.4 219.1,662.4 219.0,662.4 219.0,662.4 219.0,662.4 218.9,662.4 218.9,662.4 218.9,662.4 218.9,662.4 218.8,662.4 218.8,662.4 218.8,662.4 218.7,662.4 218.7,662.4 218.7,662.4 218.6,662.4
218.6,662.4 218.6,662.4 218.6,662.4 218.5,662.4 218.5,662.4 218.5,662.4 218.4,662.4 218.4,662.4 218.4,662.4 218.3,662.4 218.3,662.4 218.3,662.4 218.3,662.4 218.2,662.4 218.2,662.4 218.2,662.4
218.1,662.4 218.1,662.4 218.1,662.4 218.0,662.4 218.0,662.4 218.0,662.4 218.0,662.4 217.9,662.4 217.9,662.4 217.9,662.4 217.8,662.4 217.8,662.4 217.8,662.4 217.7,662.4 217.7,662.4 217.7,662.4
217.7,662.4 217.6,662.4 217.6,662.4 217.6,662.4 217.5,662.4 217.5,662.4 217.5,662.4 217.4,662.4 217.4,662.4 217.4,662.4 217.4,662.4 217.3,662.4 217.3,662.4 217.3,662.4 217.2,662.4 217.2,662.4
217.2,662.4 217.1,662.4 217.1,662.4 217.1,662.4 217.1,662.4 217.0,662.4 217.0,662.4 217.0,662.4 216.9,662.4 216.9,662.4 216.9,662.4 216.8,662.4 216.8,662.4 216.8,662.4 216.8,662.4 216.7,662.4
216.7,662.4 216.7,662.4 216.6,662.4 216.6,662.4 216.6,662.4 216.5,662.4 216.5,662.4 216.5,662.4 216.5,662.4 216.4,662.4 216.4,662.4 216.4,662.4 216.3,662.4 216.3,662.4 216.3,662.4 216.2,662.4
216.2,662.4 216.2,662.4 216.2,662.4 216.1,662.4 216.1,662.4 216.1,662.4 216.0,662.4 216.0,662.4 216.0,662.4 215.9,662.4 215.9,662.4 215.9,662.4 215.9,662.4 215.8,662.4 215.8,662.4 215.8,662.4
215.7,662.4 215.7,662.4 215.7,662.4 215.6,662.4 215.6,662.4 215.6,662.4 215.6,662.4 215.5,662.4 215.5,662.4 215.5,662.4 215.4,662.4 215.4,662.4 215.4,662.4 215.3,662.4 215.3,662.4 215.3,662.4
215.3,662.4 215.2,662.4 215.2,662.4 215.2,662.4 215.1,662.4 215.1,662.4 215.1,662.4 215.0,662.4 215.0,662.4 215.0,662.4 215.0,662.4 214.9,662.4 214.9,662.4 214.9,662.4 214.8,662.4 214.8,662.4
214.8,662.4 214.7,662.4 214.7,662.4 214.7,662.4 214.7,662.4 214.6,662.4 214.6,662.4 214.6,662.4 214.5,662.4 214.5,662.4 214.5,662.4 214.4,662.4 214.4,662.4 214.4,662.4 214.4,662.4 214.3,662.4
214.3,662.4 214.3,662.4 214.2,662.4 214.2,662.4 214.2,662.4 214.1,662.4 214.1,662.4 214.1,662.4 214.1,662.4 214.0,662.4 214.0,662.4 214.0,662.4 213.9,662.4 213.9,662.4 213.9,662.4 213.8,662.4
213.8,662.4 213.8,662.4 213.8,662.4 213.7,662.4 213.7,662.4 213.7,662.4 213.6,662.4 213.6,662.4 213.6,662.4 213.5,662.4 213.5,662.4 213.5,662.4 213.5,662.4 213.4,662.4 213.4,662.4 213.4,662.4
213.3,662.4 213.3,662.4 213.3,662.4 213.2,662.4 213.2,662.4 213.2,662.4 213.2,662.4 213.1,662.4 '/>
	</g>
</g>
	</g>
	<g id="gnuplot_plot_4" ><title>New Mean</title>
<g fill="none" color="white" stroke="rgb( 31, 120, 180)" stroke-width="2.00" stroke-linecap="butt" stroke-linejoin="miter">
</g>
<g fill="none" color="black" stroke="currentColor" stroke-width="2.00" stroke-linecap="butt" stroke-linejoin="miter">
	<g transform="translate(1196.9,121.0)" stroke="none" fill="black" font-family="Helvetica" font-size="12.00"  text-anchor="start">
		<text><tspan font-family="Helvetica" >New Mean</tspan></text>
	</g>
</g>
<g fill="none" color="black" stroke="currentColor" stroke-width="2.00" stroke-linecap="butt" stroke-linejoin="miter">
	<path stroke='rgb( 31, 120, 180)'  d='M1146.4,117.1 L1188.6,117.1 M216.0,662.4 L216.0,168.4  '/></g>
	</g>
<g fill="none" color="black" stroke="currentColor" stroke-width="2.00" stroke-linecap="butt" stroke-linejoin="miter">
</g>
<g fill="none" color="black" stroke="black" stroke-width="1.00" stroke-linecap="butt" stroke-linejoin="miter">
</g>
<g fill="none" color="black" stroke="currentColor" stroke-width="1.00" stroke-linecap="butt" stroke-linejoin="miter">
	<path stroke='black'  d='M71.9,54.1 L71.9,662.4 L1121.5,662.4 L1121.5,54.1 L71.9,54.1 Z  '/></g>
<g fill="none" color="black" stroke="currentColor" stroke-width="1.00" stroke-linecap="butt" stroke-linejoin="miter">
</g>
</g>
</svg>

