<?xml version="1.0" encoding="utf-8"  standalone="no"?>
<svg 
 viewBox="0 0 1280 720"
 xmlns="http://www.w3.org/2000/svg"
 xmlns:xlink="http://www.w3.org/1999/xlink"
>

<title>Gnuplot</title>
<desc>Produced by GNUPLOT 5.2 patchlevel 8 </desc>

<g id="gnuplot_canvas">

<rect x="0" y="0" width="1280" height="720" fill="none"/>
<defs>

	<circle id='gpDot' r='0.5' stroke-width='0.5' stroke='currentColor'/>
	<path id='gpPt0' stroke-width='0.222' stroke='currentColor' d='M-1,0 h2 M0,-1 v2'/>
	<path id='gpPt1' stroke-width='0.222' stroke='currentColor' d='M-1,-1 L1,1 M1,-1 L-1,1'/>
	<path id='gpPt2' stroke-width='0.222' stroke='currentColor' d='M-1,0 L1,0 M0,-1 L0,1 M-1,-1 L1,1 M-1,1 L1,-1'/>
	<rect id='gpPt3' stroke-width='0.222' stroke='currentColor' x='-1' y='-1' width='2' height='2'/>
	<rect id='gpPt4' stroke-width='0.222' stroke='currentColor' fill='currentColor' x='-1' y='-1' width='2' height='2'/>
	<circle id='gpPt5' stroke-width='0.222' stroke='currentColor' cx='0' cy='0' r='1'/>
	<use xlink:href='#gpPt5' id='gpPt6' fill='currentColor' stroke='none'/>
	<path id='gpPt7' stroke-width='0.222' stroke='currentColor' d='M0,-1.33 L-1.33,0.67 L1.33,0.67 z'/>
	<use xlink:href='#gpPt7' id='gpPt8' fill='currentColor' stroke='none'/>
	<use xlink:href='#gpPt7' id='gpPt9' stroke='currentColor' transform='rotate(180)'/>
	<use xlink:href='#gpPt9' id='gpPt10' fill='currentColor' stroke='none'/>
	<use xlink:href='#gpPt3' id='gpPt11' stroke='currentColor' transform='rotate(45)'/>
	<use xlink:href='#gpPt11' id='gpPt12' fill='currentColor' stroke='none'/>
	<path id='gpPt13' stroke-width='0.222' stroke='currentColor' d='M0,1.330 L1.265,0.411 L0.782,-1.067 L-0.782,-1.076 L-1.265,0.411 z'/>
	<use xlink:href='#gpPt13' id='gpPt14' fill='currentColor' stroke='none'/>
	<filter id='textbox' filterUnits='objectBoundingBox' x='0' y='0' height='1' width='1'>
	  <feFlood flood-color='white' flood-opacity='1' result='bgnd'/>
	  <feComposite in='SourceGraphic' in2='bgnd' operator='atop'/>
	</filter>
	<filter id='greybox' filterUnits='objectBoundingBox' x='0' y='0' height='1' width='1'>
	  <feFlood flood-color='lightgrey' flood-opacity='1' result='grey'/>
	  <feComposite in='SourceGraphic' in2='grey' operator='atop'/>
	</filter>
</defs>
<g fill="none" color="white" stroke="currentColor" stroke-width="1.00" stroke-linecap="butt" stroke-linejoin="miter">
</g>
<g fill="none" color="black" stroke="currentColor" stroke-width="1.00" stroke-linecap="butt" stroke-linejoin="miter">
	<path stroke='black'  d='M80.2,662.4 L89.2,662.4  '/>	<g transform="translate(71.9,666.3)" stroke="none" fill="black" font-family="Helvetica" font-size="12.00"  text-anchor="end">
		<text><tspan font-family="Helvetica" > 0</tspan></text>
	</g>
</g>
<g fill="none" color="black" stroke="currentColor" stroke-width="1.00" stroke-linecap="butt" stroke-linejoin="miter">
	<path stroke='black'  d='M80.2,575.5 L89.2,575.5  '/>	<g transform="translate(71.9,579.4)" stroke="none" fill="black" font-family="Helvetica" font-size="12.00"  text-anchor="end">
		<text><tspan font-family="Helvetica" > 0.05</tspan></text>
	</g>
</g>
<g fill="none" color="black" stroke="currentColor" stroke-width="1.00" stroke-linecap="butt" stroke-linejoin="miter">
	<path stroke='black'  d='M80.2,488.6 L89.2,488.6  '/>	<g transform="translate(71.9,492.5)" stroke="none" fill="black" font-family="Helvetica" font-size="12.00"  text-anchor="end">
		<text><tspan font-family="Helvetica" > 0.1</tspan></text>
	</g>
</g>
<g fill="none" color="black" stroke="currentColor" stroke-width="1.00" stroke-linecap="butt" stroke-linejoin="miter">
	<path stroke='black'  d='M80.2,401.7 L89.2,401.7  '/>	<g transform="translate(71.9,405.6)" stroke="none" fill="black" font-family="Helvetica" font-size="12.00"  text-anchor="end">
		<text><tspan font-family="Helvetica" > 0.15</tspan></text>
	</g>
</g>
<g fill="none" color="black" stroke="currentColor" stroke-width="1.00" stroke-linecap="butt" stroke-linejoin="miter">
	<path stroke='black'  d='M80.2,314.8 L89.2,314.8  '/>	<g transform="translate(71.9,318.7)" stroke="none" fill="black" font-family="Helvetica" font-size="12.00"  text-anchor="end">
		<text><tspan font-family="Helvetica" > 0.2</tspan></text>
	</g>
</g>
<g fill="none" color="black" stroke="currentColor" stroke-width="1.00" stroke-linecap="butt" stroke-linejoin="miter">
	<path stroke='black'  d='M80.2,227.9 L89.2,227.9  '/>	<g transform="translate(71.9,231.8)" stroke="none" fill="black" font-family="Helvetica" font-size="12.00"  text-anchor="end">
		<text><tspan font-family="Helvetica" > 0.25</tspan></text>
	</g>
</g>
<g fill="none" color="black" stroke="currentColor" stroke-width="1.00" stroke-linecap="butt" stroke-linejoin="miter">
	<path stroke='black'  d='M80.2,141.0 L89.2,141.0  '/>	<g transform="translate(71.9,144.9)" stroke="none" fill="black" font-family="Helvetica" font-size="12.00"  text-anchor="end">
		<text><tspan font-family="Helvetica" > 0.3</tspan></text>
	</g>
</g>
<g fill="none" color="black" stroke="currentColor" stroke-width="1.00" stroke-linecap="butt" stroke-linejoin="miter">
	<path stroke='black'  d='M80.2,54.1 L89.2,54.1  '/>	<g transform="translate(71.9,58.0)" stroke="none" fill="black" font-family="Helvetica" font-size="12.00"  text-anchor="end">
		<text><tspan font-family="Helvetica" > 0.35</tspan></text>
	</g>
</g>
<g fill="none" color="black" stroke="currentColor" stroke-width="1.00" stroke-linecap="butt" stroke-linejoin="miter">
	<path stroke='black'  d='M131.0,662.4 L131.0,653.4  '/>	<g transform="translate(131.0,684.3)" stroke="none" fill="black" font-family="Helvetica" font-size="12.00"  text-anchor="middle">
		<text><tspan font-family="Helvetica" > 10</tspan></text>
	</g>
</g>
<g fill="none" color="black" stroke="currentColor" stroke-width="1.00" stroke-linecap="butt" stroke-linejoin="miter">
	<path stroke='black'  d='M262.2,662.4 L262.2,653.4  '/>	<g transform="translate(262.2,684.3)" stroke="none" fill="black" font-family="Helvetica" font-size="12.00"  text-anchor="middle">
		<text><tspan font-family="Helvetica" > 11</tspan></text>
	</g>
</g>
<g fill="none" color="black" stroke="currentColor" stroke-width="1.00" stroke-linecap="butt" stroke-linejoin="miter">
	<path stroke='black'  d='M393.4,662.4 L393.4,653.4  '/>	<g transform="translate(393.4,684.3)" stroke="none" fill="black" font-family="Helvetica" font-size="12.00"  text-anchor="middle">
		<text><tspan font-family="Helvetica" > 12</tspan></text>
	</g>
</g>
<g fill="none" color="black" stroke="currentColor" stroke-width="1.00" stroke-linecap="butt" stroke-linejoin="miter">
	<path stroke='black'  d='M524.7,662.4 L524.7,653.4  '/>	<g transform="translate(524.7,684.3)" stroke="none" fill="black" font-family="Helvetica" font-size="12.00"  text-anchor="middle">
		<text><tspan font-family="Helvetica" > 13</tspan></text>
	</g>
</g>
<g fill="none" color="black" stroke="currentColor" stroke-width="1.00" stroke-linecap="butt" stroke-linejoin="miter">
	<path stroke='black'  d='M655.9,662.4 L655.9,653.4  '/>	<g transform="translate(655.9,684.3)" stroke="none" fill="black" font-family="Helvetica" font-size="12.00"  text-anchor="middle">
		<text><tspan font-family="Helvetica" > 14</tspan></text>
	</g>
</g>
<g fill="none" color="black" stroke="currentColor" stroke-width="1.00" stroke-linecap="butt" stroke-linejoin="miter">
	<path stroke='black'  d='M787.1,662.4 L787.1,653.4  '/>	<g transform="translate(787.1,684.3)" stroke="none" fill="black" font-family="Helvetica" font-size="12.00"  text-anchor="middle">
		<text><tspan font-family="Helvetica" > 15</tspan></text>
	</g>
</g>
<g fill="none" color="black" stroke="currentColor" stroke-width="1.00" stroke-linecap="butt" stroke-linejoin="miter">
	<path stroke='black'  d='M918.3,662.4 L918.3,653.4  '/>	<g transform="translate(918.3,684.3)" stroke="none" fill="black" font-family="Helvetica" font-size="12.00"  text-anchor="middle">
		<text><tspan font-family="Helvetica" > 16</tspan></text>
	</g>
</g>
<g fill="none" color="black" stroke="currentColor" stroke-width="1.00" stroke-linecap="butt" stroke-linejoin="miter">
</g>
<g fill="none" color="black" stroke="currentColor" stroke-width="1.00" stroke-linecap="butt" stroke-linejoin="miter">
	<path stroke='black'  d='M80.2,54.1 L80.2,662.4 L1013.6,662.4 L1013.6,54.1 L80.2,54.1 Z  '/></g>
<g fill="none" color="black" stroke="currentColor" stroke-width="1.00" stroke-linecap="butt" stroke-linejoin="miter">
	<g transform="translate(19.0,358.3) rotate(270)" stroke="none" fill="black" font-family="Helvetica" font-size="12.00"  text-anchor="middle">
		<text><tspan font-family="Helvetica" >Density (a.u.)</tspan></text>
	</g>
</g>
<g fill="none" color="black" stroke="currentColor" stroke-width="1.00" stroke-linecap="butt" stroke-linejoin="miter">
	<g transform="translate(546.9,711.3)" stroke="none" fill="black" font-family="Helvetica" font-size="12.00"  text-anchor="middle">
		<text><tspan font-family="Helvetica" >Average time (ns)</tspan></text>
	</g>
</g>
<g fill="none" color="black" stroke="currentColor" stroke-width="1.00" stroke-linecap="butt" stroke-linejoin="miter">
	<g transform="translate(546.9,31.0)" stroke="none" fill="black" font-family="Helvetica" font-size="12.00"  text-anchor="middle">
		<text><tspan font-family="Helvetica" >bench_group/blake3/10240: MAD</tspan></text>
	</g>
</g>
<g fill="none" color="black" stroke="currentColor" stroke-width="1.00" stroke-linecap="butt" stroke-linejoin="miter">
</g>
	<g id="gnuplot_plot_1" ><title>Bootstrap distribution</title>
<g fill="none" color="white" stroke="currentColor" stroke-width="2.00" stroke-linecap="butt" stroke-linejoin="miter">
</g>
<g fill="none" color="black" stroke="currentColor" stroke-width="2.00" stroke-linecap="butt" stroke-linejoin="miter">
	<g transform="translate(1089.0,67.0)" stroke="none" fill="black" font-family="Helvetica" font-size="12.00"  text-anchor="start">
		<text><tspan font-family="Helvetica" >Bootstrap distribution</tspan></text>
	</g>
</g>
<g fill="none" color="black" stroke="currentColor" stroke-width="2.00" stroke-linecap="butt" stroke-linejoin="miter">
	<path stroke='rgb( 31, 120, 180)'  d='M1038.5,63.1 L1080.7,63.1 M80.2,632.6 L82.1,632.1 L83.9,631.6 L85.8,631.2 L87.7,630.6 L89.6,630.1
		L91.4,629.5 L93.3,628.9 L95.2,628.2 L97.0,627.5 L98.9,626.8 L100.8,626.0 L102.6,625.2 L104.5,624.4
		L106.4,623.6 L108.3,622.8 L110.1,622.0 L112.0,621.1 L113.9,620.3 L115.7,619.5 L117.6,618.7 L119.5,618.0
		L121.4,617.2 L123.2,616.4 L125.1,615.7 L127.0,614.9 L128.8,614.1 L130.7,613.3 L132.6,612.5 L134.4,611.6
		L136.3,610.7 L138.2,609.8 L140.1,608.8 L141.9,607.8 L143.8,606.7 L145.7,605.7 L147.5,604.6 L149.4,603.5
		L151.3,602.4 L153.2,601.4 L155.0,600.4 L156.9,599.5 L158.8,598.7 L160.6,598.0 L162.5,597.4 L164.4,596.9
		L166.2,596.5 L168.1,596.2 L170.0,596.0 L171.9,595.9 L173.7,595.9 L175.6,596.0 L177.5,596.0 L179.3,596.1
		L181.2,596.2 L183.1,596.2 L185.0,596.1 L186.8,595.9 L188.7,595.6 L190.6,595.1 L192.4,594.4 L194.3,593.6
		L196.2,592.5 L198.0,591.2 L199.9,589.7 L201.8,588.1 L203.7,586.2 L205.5,584.2 L207.4,582.0 L209.3,579.7
		L211.1,577.2 L213.0,574.7 L214.9,572.1 L216.7,569.5 L218.6,566.9 L220.5,564.3 L222.4,561.8 L224.2,559.3
		L226.1,556.9 L228.0,554.6 L229.8,552.5 L231.7,550.5 L233.6,548.6 L235.5,546.9 L237.3,545.4 L239.2,544.0
		L241.1,542.8 L242.9,541.8 L244.8,540.9 L246.7,540.2 L248.5,539.6 L250.4,539.1 L252.3,538.8 L254.2,538.6
		L256.0,538.4 L257.9,538.3 L259.8,538.3 L261.6,538.3 L263.5,538.4 L265.4,538.4 L267.3,538.4 L269.1,538.3
		L271.0,538.1 L272.9,537.8 L274.7,537.3 L276.6,536.7 L278.5,535.9 L280.3,534.9 L282.2,533.6 L284.1,532.1
		L286.0,530.3 L287.8,528.2 L289.7,525.8 L291.6,523.1 L293.4,520.1 L295.3,516.9 L297.2,513.3 L299.1,509.5
		L300.9,505.5 L302.8,501.2 L304.7,496.7 L306.5,492.0 L308.4,487.1 L310.3,482.1 L312.1,477.0 L314.0,471.8
		L315.9,466.6 L317.8,461.3 L319.6,455.9 L321.5,450.7 L323.4,445.4 L325.2,440.2 L327.1,435.2 L329.0,430.2
		L330.9,425.4 L332.7,420.8 L334.6,416.4 L336.5,412.2 L338.3,408.2 L340.2,404.5 L342.1,401.1 L343.9,397.9
		L345.8,395.0 L347.7,392.3 L349.6,389.9 L351.4,387.8 L353.3,385.8 L355.2,384.1 L357.0,382.5 L358.9,381.1
		L360.8,379.9 L362.7,378.7 L364.5,377.7 L366.4,376.7 L368.3,375.8 L370.1,374.9 L372.0,374.0 L373.9,373.2
		L375.7,372.4 L377.6,371.5 L379.5,370.7 L381.4,369.9 L383.2,369.0 L385.1,368.1 L387.0,367.1 L388.8,366.1
		L390.7,365.0 L392.6,363.8 L394.5,362.5 L396.3,361.0 L398.2,359.4 L400.1,357.6 L401.9,355.5 L403.8,353.2
		L405.7,350.7 L407.5,347.9 L409.4,344.9 L411.3,341.5 L413.2,337.8 L415.0,333.9 L416.9,329.6 L418.8,324.9
		L420.6,319.9 L422.5,314.6 L424.4,308.9 L426.3,302.8 L428.1,296.3 L430.0,289.4 L431.9,282.0 L433.7,274.3
		L435.6,266.1 L437.5,257.5 L439.3,248.5 L441.2,239.2 L443.1,229.7 L445.0,219.9 L446.8,210.0 L448.7,200.1
		L450.6,190.3 L452.4,180.8 L454.3,171.7 L456.2,163.1 L458.0,155.1 L459.9,148.0 L461.8,141.8 L463.7,136.6
		L465.5,132.6 L467.4,129.8 L469.3,128.2 L471.1,127.8 L473.0,128.5 L474.9,130.5 L476.8,133.4 L478.6,137.3
		L480.5,142.0 L482.4,147.4 L484.2,153.2 L486.1,159.4 L488.0,165.7 L489.8,172.1 L491.7,178.3 L493.6,184.3
		L495.5,190.0 L497.3,195.2 L499.2,199.9 L501.1,204.2 L502.9,207.9 L504.8,211.0 L506.7,213.7 L508.6,215.8
		L510.4,217.6 L512.3,218.9 L514.2,219.8 L516.0,220.5 L517.9,220.9 L519.8,221.0 L521.6,221.0 L523.5,220.8
		L525.4,220.4 L527.3,219.9 L529.1,219.2 L531.0,218.4 L532.9,217.4 L534.7,216.3 L536.6,215.1 L538.5,213.6
		L540.4,212.0 L542.2,210.2 L544.1,208.2 L546.0,206.0 L547.8,203.6 L549.7,201.0 L551.6,198.2 L553.4,195.3
		L555.3,192.2 L557.2,189.0 L559.1,185.7 L560.9,182.3 L562.8,178.9 L564.7,175.6 L566.5,172.3 L568.4,169.1
		L570.3,166.0 L572.2,163.2 L574.0,160.6 L575.9,158.4 L577.8,156.6 L579.6,155.1 L581.5,154.1 L583.4,153.7
		L585.2,153.7 L587.1,154.3 L589.0,155.4 L590.9,157.1 L592.7,159.4 L594.6,162.2 L596.5,165.4 L598.3,169.1
		L600.2,173.3 L602.1,177.7 L604.0,182.5 L605.8,187.5 L607.7,192.6 L609.6,197.8 L611.4,203.1 L613.3,208.2
		L615.2,213.3 L617.0,218.1 L618.9,222.8 L620.8,227.1 L622.7,231.0 L624.5,234.6 L626.4,237.8 L628.3,240.5
		L630.1,242.8 L632.0,244.6 L633.9,245.9 L635.8,246.8 L637.6,247.3 L639.5,247.3 L641.4,247.0 L643.2,246.2
		L645.1,245.1 L647.0,243.7 L648.8,241.9 L650.7,239.9 L652.6,237.6 L654.5,235.1 L656.3,232.4 L658.2,229.5
		L660.1,226.4 L661.9,223.2 L663.8,219.9 L665.7,216.6 L667.5,213.2 L669.4,209.8 L671.3,206.4 L673.2,203.2
		L675.0,200.1 L676.9,197.2 L678.8,194.6 L680.6,192.3 L682.5,190.5 L684.4,189.1 L686.3,188.3 L688.1,188.2
		L690.0,188.7 L691.9,189.9 L693.7,191.9 L695.6,194.7 L697.5,198.3 L699.3,202.7 L701.2,207.9 L703.1,213.8
		L705.0,220.5 L706.8,227.8 L708.7,235.7 L710.6,244.1 L712.4,252.9 L714.3,262.1 L716.2,271.5 L718.1,281.1
		L719.9,290.8 L721.8,300.4 L723.7,310.0 L725.5,319.3 L727.4,328.5 L729.3,337.4 L731.1,345.9 L733.0,354.1
		L734.9,362.0 L736.8,369.4 L738.6,376.4 L740.5,383.0 L742.4,389.3 L744.2,395.1 L746.1,400.6 L748.0,405.8
		L749.9,410.6 L751.7,415.1 L753.6,419.4 L755.5,423.4 L757.3,427.2 L759.2,430.9 L761.1,434.3 L762.9,437.7
		L764.8,441.0 L766.7,444.1 L768.6,447.3 L770.4,450.4 L772.3,453.5 L774.2,456.5 L776.0,459.6 L777.9,462.7
		L779.8,465.9 L781.7,469.0 L783.5,472.3 L785.4,475.5 L787.3,478.7 L789.1,482.0 L791.0,485.3 L792.9,488.7
		L794.7,492.0 L796.6,495.3 L798.5,498.6 L800.4,501.9 L802.2,505.2 L804.1,508.4 L806.0,511.5 L807.8,514.6
		L809.7,517.6 L811.6,520.5 L813.5,523.3 L815.3,526.0 L817.2,528.5 L819.1,530.9 L820.9,533.1 L822.8,535.1
		L824.7,536.9 L826.5,538.6 L828.4,540.0 L830.3,541.2 L832.2,542.2 L834.0,543.0 L835.9,543.6 L837.8,544.1
		L839.6,544.3 L841.5,544.4 L843.4,544.3 L845.3,544.2 L847.1,543.9 L849.0,543.6 L850.9,543.2 L852.7,542.8
		L854.6,542.5 L856.5,542.2 L858.3,542.0 L860.2,541.9 L862.1,542.0 L864.0,542.2 L865.8,542.5 L867.7,543.1
		L869.6,543.9 L871.4,544.9 L873.3,546.0 L875.2,547.4 L877.1,549.0 L878.9,550.8 L880.8,552.7 L882.7,554.8
		L884.5,557.0 L886.4,559.4 L888.3,561.7 L890.1,564.2 L892.0,566.6 L893.9,569.1 L895.8,571.5 L897.6,573.8
		L899.5,576.1 L901.4,578.3 L903.2,580.3 L905.1,582.2 L907.0,584.0 L908.8,585.6 L910.7,587.2 L912.6,588.5
		L914.5,589.8 L916.3,590.9 L918.2,592.0 L920.1,593.0 L921.9,593.9 L923.8,594.8 L925.7,595.7 L927.6,596.6
		L929.4,597.5 L931.3,598.4 L933.2,599.4 L935.0,600.5 L936.9,601.6 L938.8,602.7 L940.6,604.0 L942.5,605.3
		L944.4,606.6 L946.3,608.0 L948.1,609.4 L950.0,610.9 L951.9,612.3 L953.7,613.7 L955.6,615.1 L957.5,616.4
		L959.4,617.6 L961.2,618.7 L963.1,619.8 L965.0,620.7 L966.8,621.6 L968.7,622.3 L970.6,623.0 L972.4,623.5
		L974.3,624.0 L976.2,624.4 L978.1,624.7 L979.9,624.9 L981.8,625.1 L983.7,625.3 L985.5,625.5 L987.4,625.7
		L989.3,625.9 L991.2,626.1 L993.0,626.4 L994.9,626.7 L996.8,627.0 L998.6,627.4 L1000.5,627.8 L1002.4,628.3
		L1004.2,628.8 L1006.1,629.3 L1008.0,629.9 L1009.9,630.6 L1011.7,631.2 L1013.6,631.9  '/></g>
	</g>
	<g id="gnuplot_plot_2" ><title>Confidence interval</title>
<g fill="none" color="white" stroke="rgb( 31, 120, 180)" stroke-width="1.00" stroke-linecap="butt" stroke-linejoin="miter">
</g>
<g fill="none" color="black" stroke="currentColor" stroke-width="1.00" stroke-linecap="butt" stroke-linejoin="miter">
	<g transform="translate(1089.0,85.0)" stroke="none" fill="black" font-family="Helvetica" font-size="12.00"  text-anchor="start">
		<text><tspan font-family="Helvetica" >Confidence interval</tspan></text>
	</g>
</g>
<g fill="none" color="black" stroke="currentColor" stroke-width="1.00" stroke-linecap="butt" stroke-linejoin="miter">
	<g stroke='none' shape-rendering='crispEdges'>
		<polygon fill = 'rgb( 31, 120, 180)' fill-opacity = '0.250000' points = '1038.5,85.6 1080.7,85.6 1080.7,76.6 1038.5,76.6 '/>
		<polygon fill = 'rgb( 31, 120, 180)' fill-opacity = '0.250000' points = '166.2,596.5 168.1,596.2 170.0,596.0 171.9,595.9 173.7,595.9 175.6,596.0 177.5,596.0 179.3,596.1 181.2,596.2 183.1,596.2 185.0,596.1 186.8,595.9 188.7,595.6 190.6,595.1 192.4,594.4 194.3,593.6
196.2,592.5 198.0,591.2 199.9,589.7 201.8,588.1 203.7,586.2 205.5,584.2 207.4,582.0 209.3,579.7 211.1,577.2 213.0,574.7 214.9,572.1 216.7,569.5 218.6,566.9 220.5,564.3 222.4,561.8 224.2,559.3
226.1,556.9 228.0,554.6 229.8,552.5 231.7,550.5 233.6,548.6 235.5,546.9 237.3,545.4 239.2,544.0 241.1,542.8 242.9,541.8 244.8,540.9 246.7,540.2 248.5,539.6 250.4,539.1 252.3,538.8 254.2,538.6
256.0,538.4 257.9,538.3 259.8,538.3 261.6,538.3 263.5,538.4 265.4,538.4 267.3,538.4 269.1,538.3 271.0,538.1 272.9,537.8 274.7,537.3 276.6,536.7 278.5,535.9 280.3,534.9 282.2,533.6 284.1,532.1
286.0,530.3 287.8,528.2 289.7,525.8 291.6,523.1 293.4,520.1 295.3,516.9 297.2,513.3 299.1,509.5 300.9,505.5 302.8,501.2 304.7,496.7 306.5,492.0 308.4,487.1 310.3,482.1 312.1,477.0 314.0,471.8
315.9,466.6 317.8,461.3 319.6,455.9 321.5,450.7 323.4,445.4 325.2,440.2 327.1,435.2 329.0,430.2 330.9,425.4 332.7,420.8 334.6,416.4 336.5,412.2 338.3,408.2 340.2,404.5 342.1,401.1 343.9,397.9
345.8,395.0 347.7,392.3 349.6,389.9 351.4,387.8 353.3,385.8 355.2,384.1 357.0,382.5 358.9,381.1 360.8,379.9 362.7,378.7 364.5,377.7 366.4,376.7 368.3,375.8 370.1,374.9 372.0,374.0 373.9,373.2
375.7,372.4 377.6,371.5 379.5,370.7 381.4,369.9 383.2,369.0 385.1,368.1 387.0,367.1 388.8,366.1 390.7,365.0 392.6,363.8 394.5,362.5 396.3,361.0 398.2,359.4 400.1,357.6 401.9,355.5 403.8,353.2
405.7,350.7 407.5,347.9 409.4,344.9 411.3,341.5 413.2,337.8 415.0,333.9 416.9,329.6 418.8,324.9 420.6,319.9 422.5,314.6 424.4,308.9 426.3,302.8 428.1,296.3 430.0,289.4 431.9,282.0 433.7,274.3
435.6,266.1 437.5,257.5 439.3,248.5 441.2,239.2 443.1,229.7 445.0,219.9 446.8,210.0 448.7,200.1 450.6,190.3 452.4,180.8 454.3,171.7 456.2,163.1 458.0,155.1 459.9,148.0 461.8,141.8 463.7,136.6
465.5,132.6 467.4,129.8 469.3,128.2 471.1,127.8 473.0,128.5 474.9,130.5 476.8,133.4 478.6,137.3 480.5,142.0 482.4,147.4 484.2,153.2 486.1,159.4 488.0,165.7 489.8,172.1 491.7,178.3 493.6,184.3
495.5,190.0 497.3,195.2 499.2,199.9 501.1,204.2 502.9,207.9 504.8,211.0 506.7,213.7 508.6,215.8 510.4,217.6 512.3,218.9 514.2,219.8 516.0,220.5 517.9,220.9 519.8,221.0 521.6,221.0 523.5,220.8
525.4,220.4 527.3,219.9 529.1,219.2 531.0,218.4 532.9,217.4 534.7,216.3 536.6,215.1 538.5,213.6 540.4,212.0 542.2,210.2 544.1,208.2 546.0,206.0 547.8,203.6 549.7,201.0 551.6,198.2 553.4,195.3
555.3,192.2 557.2,189.0 559.1,185.7 560.9,182.3 562.8,178.9 564.7,175.6 566.5,172.3 568.4,169.1 570.3,166.0 572.2,163.2 574.0,160.6 575.9,158.4 577.8,156.6 579.6,155.1 581.5,154.1 583.4,153.7
585.2,153.7 587.1,154.3 589.0,155.4 590.9,157.1 592.7,159.4 594.6,162.2 596.5,165.4 598.3,169.1 600.2,173.3 602.1,177.7 604.0,182.5 605.8,187.5 607.7,192.6 609.6,197.8 611.4,203.1 613.3,208.2
615.2,213.3 617.0,218.1 618.9,222.8 620.8,227.1 622.7,231.0 624.5,234.6 626.4,237.8 628.3,240.5 630.1,242.8 632.0,244.6 633.9,245.9 635.8,246.8 637.6,247.3 639.5,247.3 641.4,247.0 643.2,246.2
645.1,245.1 647.0,243.7 648.8,241.9 650.7,239.9 652.6,237.6 654.5,235.1 656.3,232.4 658.2,229.5 660.1,226.4 661.9,223.2 663.8,219.9 665.7,216.6 667.5,213.2 669.4,209.8 671.3,206.4 673.2,203.2
675.0,200.1 676.9,197.2 678.8,194.6 680.6,192.3 682.5,190.5 684.4,189.1 686.3,188.3 688.1,188.2 690.0,188.7 691.9,189.9 693.7,191.9 695.6,194.7 697.5,198.3 699.3,202.7 701.2,207.9 703.1,213.8
705.0,220.5 706.8,227.8 708.7,235.7 710.6,244.1 712.4,252.9 714.3,262.1 716.2,271.5 718.1,281.1 719.9,290.8 721.8,300.4 723.7,310.0 725.5,319.3 727.4,328.5 729.3,337.4 731.1,345.9 733.0,354.1
734.9,362.0 736.8,369.4 738.6,376.4 740.5,383.0 742.4,389.3 744.2,395.1 746.1,400.6 748.0,405.8 749.9,410.6 751.7,415.1 753.6,419.4 755.5,423.4 757.3,427.2 759.2,430.9 761.1,434.3 762.9,437.7
764.8,441.0 766.7,444.1 768.6,447.3 770.4,450.4 772.3,453.5 774.2,456.5 776.0,459.6 777.9,462.7 779.8,465.9 781.7,469.0 783.5,472.3 785.4,475.5 787.3,478.7 789.1,482.0 791.0,485.3 792.9,488.7
794.7,492.0 796.6,495.3 798.5,498.6 800.4,501.9 802.2,505.2 804.1,508.4 806.0,511.5 807.8,514.6 809.7,517.6 811.6,520.5 813.5,523.3 815.3,526.0 817.2,528.5 819.1,530.9 820.9,533.1 822.8,535.1
824.7,536.9 826.5,538.6 828.4,540.0 830.3,541.2 832.2,542.2 834.0,543.0 835.9,543.6 837.8,544.1 839.6,544.3 841.5,544.4 843.4,544.3 845.3,544.2 847.1,543.9 849.0,543.6 850.9,543.2 852.7,542.8
854.6,542.5 856.5,542.2 858.3,542.0 860.2,541.9 862.1,542.0 864.0,542.2 865.8,542.5 867.7,543.1 869.6,543.9 871.4,544.9 873.3,546.0 875.2,547.4 877.1,549.0 878.9,550.8 880.8,552.7 882.7,554.8
884.5,557.0 886.4,559.4 888.3,561.7 890.1,564.2 892.0,566.6 893.9,569.1 895.8,571.5 897.6,573.8 899.5,576.1 901.4,578.3 903.2,580.3 905.1,582.2 907.0,584.0 908.8,585.6 910.7,587.2 912.6,588.5
914.5,589.8 916.3,590.9 918.2,592.0 920.1,593.0 921.9,593.9 923.8,594.8 925.7,595.7 925.7,662.4 923.8,662.4 921.9,662.4 920.1,662.4 918.2,662.4 916.3,662.4 914.5,662.4 912.6,662.4 910.7,662.4
908.8,662.4 907.0,662.4 905.1,662.4 903.2,662.4 901.4,662.4 899.5,662.4 897.6,662.4 895.8,662.4 893.9,662.4 892.0,662.4 890.1,662.4 888.3,662.4 886.4,662.4 884.5,662.4 882.7,662.4 880.8,662.4
878.9,662.4 877.1,662.4 875.2,662.4 873.3,662.4 871.4,662.4 869.6,662.4 867.7,662.4 865.8,662.4 864.0,662.4 862.1,662.4 860.2,662.4 858.3,662.4 856.5,662.4 854.6,662.4 852.7,662.4 850.9,662.4
849.0,662.4 847.1,662.4 845.3,662.4 843.4,662.4 841.5,662.4 839.6,662.4 837.8,662.4 835.9,662.4 834.0,662.4 832.2,662.4 830.3,662.4 828.4,662.4 826.5,662.4 824.7,662.4 822.8,662.4 820.9,662.4
819.1,662.4 817.2,662.4 815.3,662.4 813.5,662.4 811.6,662.4 809.7,662.4 807.8,662.4 806.0,662.4 804.1,662.4 802.2,662.4 800.4,662.4 798.5,662.4 796.6,662.4 794.7,662.4 792.9,662.4 791.0,662.4
789.1,662.4 787.3,662.4 785.4,662.4 783.5,662.4 781.7,662.4 779.8,662.4 777.9,662.4 776.0,662.4 774.2,662.4 772.3,662.4 770.4,662.4 768.6,662.4 766.7,662.4 764.8,662.4 762.9,662.4 761.1,662.4
759.2,662.4 757.3,662.4 755.5,662.4 753.6,662.4 751.7,662.4 749.9,662.4 748.0,662.4 746.1,662.4 744.2,662.4 742.4,662.4 740.5,662.4 738.6,662.4 736.8,662.4 734.9,662.4 733.0,662.4 731.1,662.4
729.3,662.4 727.4,662.4 725.5,662.4 723.7,662.4 721.8,662.4 719.9,662.4 718.1,662.4 716.2,662.4 714.3,662.4 712.4,662.4 710.6,662.4 708.7,662.4 706.8,662.4 705.0,662.4 703.1,662.4 701.2,662.4
699.3,662.4 697.5,662.4 695.6,662.4 693.7,662.4 691.9,662.4 690.0,662.4 688.1,662.4 686.3,662.4 684.4,662.4 682.5,662.4 680.6,662.4 678.8,662.4 676.9,662.4 675.0,662.4 673.2,662.4 671.3,662.4
669.4,662.4 667.5,662.4 665.7,662.4 663.8,662.4 661.9,662.4 660.1,662.4 658.2,662.4 656.3,662.4 654.5,662.4 652.6,662.4 650.7,662.4 648.8,662.4 647.0,662.4 645.1,662.4 643.2,662.4 641.4,662.4
639.5,662.4 637.6,662.4 635.8,662.4 633.9,662.4 632.0,662.4 630.1,662.4 628.3,662.4 626.4,662.4 624.5,662.4 622.7,662.4 620.8,662.4 618.9,662.4 617.0,662.4 615.2,662.4 613.3,662.4 611.4,662.4
609.6,662.4 607.7,662.4 605.8,662.4 604.0,662.4 602.1,662.4 600.2,662.4 598.3,662.4 596.5,662.4 594.6,662.4 592.7,662.4 590.9,662.4 589.0,662.4 587.1,662.4 585.2,662.4 583.4,662.4 581.5,662.4
579.6,662.4 577.8,662.4 575.9,662.4 574.0,662.4 572.2,662.4 570.3,662.4 568.4,662.4 566.5,662.4 564.7,662.4 562.8,662.4 560.9,662.4 559.1,662.4 557.2,662.4 555.3,662.4 553.4,662.4 551.6,662.4
549.7,662.4 547.8,662.4 546.0,662.4 544.1,662.4 542.2,662.4 540.4,662.4 538.5,662.4 536.6,662.4 534.7,662.4 532.9,662.4 531.0,662.4 529.1,662.4 527.3,662.4 525.4,662.4 523.5,662.4 521.6,662.4
519.8,662.4 517.9,662.4 516.0,662.4 514.2,662.4 512.3,662.4 510.4,662.4 508.6,662.4 506.7,662.4 504.8,662.4 502.9,662.4 501.1,662.4 499.2,662.4 497.3,662.4 495.5,662.4 493.6,662.4 491.7,662.4
489.8,662.4 488.0,662.4 486.1,662.4 484.2,662.4 482.4,662.4 480.5,662.4 478.6,662.4 476.8,662.4 474.9,662.4 473.0,662.4 471.1,662.4 469.3,662.4 467.4,662.4 465.5,662.4 463.7,662.4 461.8,662.4
459.9,662.4 458.0,662.4 456.2,662.4 454.3,662.4 452.4,662.4 450.6,662.4 448.7,662.4 446.8,662.4 445.0,662.4 443.1,662.4 441.2,662.4 439.3,662.4 437.5,662.4 435.6,662.4 433.7,662.4 431.9,662.4
430.0,662.4 428.1,662.4 426.3,662.4 424.4,662.4 422.5,662.4 420.6,662.4 418.8,662.4 416.9,662.4 415.0,662.4 413.2,662.4 411.3,662.4 409.4,662.4 407.5,662.4 405.7,662.4 403.8,662.4 401.9,662.4
400.1,662.4 398.2,662.4 396.3,662.4 394.5,662.4 392.6,662.4 390.7,662.4 388.8,662.4 387.0,662.4 385.1,662.4 383.2,662.4 381.4,662.4 379.5,662.4 377.6,662.4 375.7,662.4 373.9,662.4 372.0,662.4
370.1,662.4 368.3,662.4 366.4,662.4 364.5,662.4 362.7,662.4 360.8,662.4 358.9,662.4 357.0,662.4 355.2,662.4 353.3,662.4 351.4,662.4 349.6,662.4 347.7,662.4 345.8,662.4 343.9,662.4 342.1,662.4
340.2,662.4 338.3,662.4 336.5,662.4 334.6,662.4 332.7,662.4 330.9,662.4 329.0,662.4 327.1,662.4 325.2,662.4 323.4,662.4 321.5,662.4 319.6,662.4 317.8,662.4 315.9,662.4 314.0,662.4 312.1,662.4
310.3,662.4 308.4,662.4 306.5,662.4 304.7,662.4 302.8,662.4 300.9,662.4 299.1,662.4 297.2,662.4 295.3,662.4 293.4,662.4 291.6,662.4 289.7,662.4 287.8,662.4 286.0,662.4 284.1,662.4 282.2,662.4
280.3,662.4 278.5,662.4 276.6,662.4 274.7,662.4 272.9,662.4 271.0,662.4 269.1,662.4 267.3,662.4 265.4,662.4 263.5,662.4 261.6,662.4 259.8,662.4 257.9,662.4 256.0,662.4 254.2,662.4 252.3,662.4
250.4,662.4 248.5,662.4 246.7,662.4 244.8,662.4 242.9,662.4 241.1,662.4 239.2,662.4 237.3,662.4 235.5,662.4 233.6,662.4 231.7,662.4 229.8,662.4 228.0,662.4 226.1,662.4 224.2,662.4 222.4,662.4
220.5,662.4 218.6,662.4 216.7,662.4 214.9,662.4 213.0,662.4 211.1,662.4 209.3,662.4 207.4,662.4 205.5,662.4 203.7,662.4 201.8,662.4 199.9,662.4 198.0,662.4 196.2,662.4 194.3,662.4 192.4,662.4
190.6,662.4 188.7,662.4 186.8,662.4 185.0,662.4 183.1,662.4 181.2,662.4 179.3,662.4 177.5,662.4 175.6,662.4 173.7,662.4 171.9,662.4 170.0,662.4 168.1,662.4 166.2,662.4 '/>
	</g>
</g>
	</g>
	<g id="gnuplot_plot_3" ><title>Point estimate</title>
<g fill="none" color="white" stroke="rgb( 31, 120, 180)" stroke-width="2.00" stroke-linecap="butt" stroke-linejoin="miter">
</g>
<g fill="none" color="black" stroke="currentColor" stroke-width="2.00" stroke-linecap="butt" stroke-linejoin="miter">
	<g transform="translate(1089.0,103.0)" stroke="none" fill="black" font-family="Helvetica" font-size="12.00"  text-anchor="start">
		<text><tspan font-family="Helvetica" >Point estimate</tspan></text>
	</g>
</g>
<g fill="none" color="black" stroke="currentColor" stroke-width="2.00" stroke-linecap="butt" stroke-linejoin="miter">
	<path stroke='rgb( 31, 120, 180)'  d='M1038.5,99.1 L1080.7,99.1 M617.0,662.4 L617.0,218.0  '/></g>
	</g>
<g fill="none" color="black" stroke="currentColor" stroke-width="2.00" stroke-linecap="butt" stroke-linejoin="miter">
</g>
<g fill="none" color="black" stroke="black" stroke-width="1.00" stroke-linecap="butt" stroke-linejoin="miter">
</g>
<g fill="none" color="black" stroke="currentColor" stroke-width="1.00" stroke-linecap="butt" stroke-linejoin="miter">
	<path stroke='black'  d='M80.2,54.1 L80.2,662.4 L1013.6,662.4 L1013.6,54.1 L80.2,54.1 Z  '/></g>
<g fill="none" color="black" stroke="currentColor" stroke-width="1.00" stroke-linecap="butt" stroke-linejoin="miter">
</g>
</g>
</svg>

