<?xml version="1.0" encoding="utf-8"  standalone="no"?>
<svg 
 viewBox="0 0 1280 720"
 xmlns="http://www.w3.org/2000/svg"
 xmlns:xlink="http://www.w3.org/1999/xlink"
>

<title>Gnuplot</title>
<desc>Produced by GNUPLOT 5.2 patchlevel 8 </desc>

<g id="gnuplot_canvas">

<rect x="0" y="0" width="1280" height="720" fill="none"/>
<defs>

	<circle id='gpDot' r='0.5' stroke-width='0.5' stroke='currentColor'/>
	<path id='gpPt0' stroke-width='0.222' stroke='currentColor' d='M-1,0 h2 M0,-1 v2'/>
	<path id='gpPt1' stroke-width='0.222' stroke='currentColor' d='M-1,-1 L1,1 M1,-1 L-1,1'/>
	<path id='gpPt2' stroke-width='0.222' stroke='currentColor' d='M-1,0 L1,0 M0,-1 L0,1 M-1,-1 L1,1 M-1,1 L1,-1'/>
	<rect id='gpPt3' stroke-width='0.222' stroke='currentColor' x='-1' y='-1' width='2' height='2'/>
	<rect id='gpPt4' stroke-width='0.222' stroke='currentColor' fill='currentColor' x='-1' y='-1' width='2' height='2'/>
	<circle id='gpPt5' stroke-width='0.222' stroke='currentColor' cx='0' cy='0' r='1'/>
	<use xlink:href='#gpPt5' id='gpPt6' fill='currentColor' stroke='none'/>
	<path id='gpPt7' stroke-width='0.222' stroke='currentColor' d='M0,-1.33 L-1.33,0.67 L1.33,0.67 z'/>
	<use xlink:href='#gpPt7' id='gpPt8' fill='currentColor' stroke='none'/>
	<use xlink:href='#gpPt7' id='gpPt9' stroke='currentColor' transform='rotate(180)'/>
	<use xlink:href='#gpPt9' id='gpPt10' fill='currentColor' stroke='none'/>
	<use xlink:href='#gpPt3' id='gpPt11' stroke='currentColor' transform='rotate(45)'/>
	<use xlink:href='#gpPt11' id='gpPt12' fill='currentColor' stroke='none'/>
	<path id='gpPt13' stroke-width='0.222' stroke='currentColor' d='M0,1.330 L1.265,0.411 L0.782,-1.067 L-0.782,-1.076 L-1.265,0.411 z'/>
	<use xlink:href='#gpPt13' id='gpPt14' fill='currentColor' stroke='none'/>
	<filter id='textbox' filterUnits='objectBoundingBox' x='0' y='0' height='1' width='1'>
	  <feFlood flood-color='white' flood-opacity='1' result='bgnd'/>
	  <feComposite in='SourceGraphic' in2='bgnd' operator='atop'/>
	</filter>
	<filter id='greybox' filterUnits='objectBoundingBox' x='0' y='0' height='1' width='1'>
	  <feFlood flood-color='lightgrey' flood-opacity='1' result='grey'/>
	  <feComposite in='SourceGraphic' in2='grey' operator='atop'/>
	</filter>
</defs>
<g fill="none" color="white" stroke="currentColor" stroke-width="1.00" stroke-linecap="butt" stroke-linejoin="miter">
</g>
<g fill="none" color="black" stroke="currentColor" stroke-width="1.00" stroke-linecap="butt" stroke-linejoin="miter">
	<path stroke='black'  d='M88.5,662.4 L97.5,662.4  '/>	<g transform="translate(80.2,666.3)" stroke="none" fill="black" font-family="Helvetica" font-size="12.00"  text-anchor="end">
		<text><tspan font-family="Helvetica" > 0</tspan></text>
	</g>
</g>
<g fill="none" color="black" stroke="currentColor" stroke-width="1.00" stroke-linecap="butt" stroke-linejoin="miter">
	<path stroke='black'  d='M88.5,601.6 L97.5,601.6  '/>	<g transform="translate(80.2,605.5)" stroke="none" fill="black" font-family="Helvetica" font-size="12.00"  text-anchor="end">
		<text><tspan font-family="Helvetica" > 1000</tspan></text>
	</g>
</g>
<g fill="none" color="black" stroke="currentColor" stroke-width="1.00" stroke-linecap="butt" stroke-linejoin="miter">
	<path stroke='black'  d='M88.5,540.7 L97.5,540.7  '/>	<g transform="translate(80.2,544.6)" stroke="none" fill="black" font-family="Helvetica" font-size="12.00"  text-anchor="end">
		<text><tspan font-family="Helvetica" > 2000</tspan></text>
	</g>
</g>
<g fill="none" color="black" stroke="currentColor" stroke-width="1.00" stroke-linecap="butt" stroke-linejoin="miter">
	<path stroke='black'  d='M88.5,479.9 L97.5,479.9  '/>	<g transform="translate(80.2,483.8)" stroke="none" fill="black" font-family="Helvetica" font-size="12.00"  text-anchor="end">
		<text><tspan font-family="Helvetica" > 3000</tspan></text>
	</g>
</g>
<g fill="none" color="black" stroke="currentColor" stroke-width="1.00" stroke-linecap="butt" stroke-linejoin="miter">
	<path stroke='black'  d='M88.5,419.1 L97.5,419.1  '/>	<g transform="translate(80.2,423.0)" stroke="none" fill="black" font-family="Helvetica" font-size="12.00"  text-anchor="end">
		<text><tspan font-family="Helvetica" > 4000</tspan></text>
	</g>
</g>
<g fill="none" color="black" stroke="currentColor" stroke-width="1.00" stroke-linecap="butt" stroke-linejoin="miter">
	<path stroke='black'  d='M88.5,358.3 L97.5,358.3  '/>	<g transform="translate(80.2,362.2)" stroke="none" fill="black" font-family="Helvetica" font-size="12.00"  text-anchor="end">
		<text><tspan font-family="Helvetica" > 5000</tspan></text>
	</g>
</g>
<g fill="none" color="black" stroke="currentColor" stroke-width="1.00" stroke-linecap="butt" stroke-linejoin="miter">
	<path stroke='black'  d='M88.5,297.4 L97.5,297.4  '/>	<g transform="translate(80.2,301.3)" stroke="none" fill="black" font-family="Helvetica" font-size="12.00"  text-anchor="end">
		<text><tspan font-family="Helvetica" > 6000</tspan></text>
	</g>
</g>
<g fill="none" color="black" stroke="currentColor" stroke-width="1.00" stroke-linecap="butt" stroke-linejoin="miter">
	<path stroke='black'  d='M88.5,236.6 L97.5,236.6  '/>	<g transform="translate(80.2,240.5)" stroke="none" fill="black" font-family="Helvetica" font-size="12.00"  text-anchor="end">
		<text><tspan font-family="Helvetica" > 7000</tspan></text>
	</g>
</g>
<g fill="none" color="black" stroke="currentColor" stroke-width="1.00" stroke-linecap="butt" stroke-linejoin="miter">
	<path stroke='black'  d='M88.5,175.8 L97.5,175.8  '/>	<g transform="translate(80.2,179.7)" stroke="none" fill="black" font-family="Helvetica" font-size="12.00"  text-anchor="end">
		<text><tspan font-family="Helvetica" > 8000</tspan></text>
	</g>
</g>
<g fill="none" color="black" stroke="currentColor" stroke-width="1.00" stroke-linecap="butt" stroke-linejoin="miter">
	<path stroke='black'  d='M88.5,114.9 L97.5,114.9  '/>	<g transform="translate(80.2,118.8)" stroke="none" fill="black" font-family="Helvetica" font-size="12.00"  text-anchor="end">
		<text><tspan font-family="Helvetica" > 9000</tspan></text>
	</g>
</g>
<g fill="none" color="black" stroke="currentColor" stroke-width="1.00" stroke-linecap="butt" stroke-linejoin="miter">
	<path stroke='black'  d='M88.5,54.1 L97.5,54.1  '/>	<g transform="translate(80.2,58.0)" stroke="none" fill="black" font-family="Helvetica" font-size="12.00"  text-anchor="end">
		<text><tspan font-family="Helvetica" > 10000</tspan></text>
	</g>
</g>
<g fill="none" color="black" stroke="currentColor" stroke-width="1.00" stroke-linecap="butt" stroke-linejoin="miter">
	<path stroke='black'  d='M155.0,662.4 L155.0,653.4  '/>	<g transform="translate(155.0,684.3)" stroke="none" fill="black" font-family="Helvetica" font-size="12.00"  text-anchor="middle">
		<text><tspan font-family="Helvetica" > 0.96</tspan></text>
	</g>
</g>
<g fill="none" color="black" stroke="currentColor" stroke-width="1.00" stroke-linecap="butt" stroke-linejoin="miter">
	<path stroke='black'  d='M301.7,662.4 L301.7,653.4  '/>	<g transform="translate(301.7,684.3)" stroke="none" fill="black" font-family="Helvetica" font-size="12.00"  text-anchor="middle">
		<text><tspan font-family="Helvetica" > 0.965</tspan></text>
	</g>
</g>
<g fill="none" color="black" stroke="currentColor" stroke-width="1.00" stroke-linecap="butt" stroke-linejoin="miter">
	<path stroke='black'  d='M448.4,662.4 L448.4,653.4  '/>	<g transform="translate(448.4,684.3)" stroke="none" fill="black" font-family="Helvetica" font-size="12.00"  text-anchor="middle">
		<text><tspan font-family="Helvetica" > 0.97</tspan></text>
	</g>
</g>
<g fill="none" color="black" stroke="currentColor" stroke-width="1.00" stroke-linecap="butt" stroke-linejoin="miter">
	<path stroke='black'  d='M595.2,662.4 L595.2,653.4  '/>	<g transform="translate(595.2,684.3)" stroke="none" fill="black" font-family="Helvetica" font-size="12.00"  text-anchor="middle">
		<text><tspan font-family="Helvetica" > 0.975</tspan></text>
	</g>
</g>
<g fill="none" color="black" stroke="currentColor" stroke-width="1.00" stroke-linecap="butt" stroke-linejoin="miter">
	<path stroke='black'  d='M741.9,662.4 L741.9,653.4  '/>	<g transform="translate(741.9,684.3)" stroke="none" fill="black" font-family="Helvetica" font-size="12.00"  text-anchor="middle">
		<text><tspan font-family="Helvetica" > 0.98</tspan></text>
	</g>
</g>
<g fill="none" color="black" stroke="currentColor" stroke-width="1.00" stroke-linecap="butt" stroke-linejoin="miter">
	<path stroke='black'  d='M888.6,662.4 L888.6,653.4  '/>	<g transform="translate(888.6,684.3)" stroke="none" fill="black" font-family="Helvetica" font-size="12.00"  text-anchor="middle">
		<text><tspan font-family="Helvetica" > 0.985</tspan></text>
	</g>
</g>
<g fill="none" color="black" stroke="currentColor" stroke-width="1.00" stroke-linecap="butt" stroke-linejoin="miter">
</g>
<g fill="none" color="black" stroke="currentColor" stroke-width="1.00" stroke-linecap="butt" stroke-linejoin="miter">
	<path stroke='black'  d='M88.5,54.1 L88.5,662.4 L1013.6,662.4 L1013.6,54.1 L88.5,54.1 Z  '/></g>
<g fill="none" color="black" stroke="currentColor" stroke-width="1.00" stroke-linecap="butt" stroke-linejoin="miter">
	<g transform="translate(19.0,358.3) rotate(270)" stroke="none" fill="black" font-family="Helvetica" font-size="12.00"  text-anchor="middle">
		<text><tspan font-family="Helvetica" >Density (a.u.)</tspan></text>
	</g>
</g>
<g fill="none" color="black" stroke="currentColor" stroke-width="1.00" stroke-linecap="butt" stroke-linejoin="miter">
	<g transform="translate(551.0,711.3)" stroke="none" fill="black" font-family="Helvetica" font-size="12.00"  text-anchor="middle">
		<text><tspan font-family="Helvetica" >Relative change (%)</tspan></text>
	</g>
</g>
<g fill="none" color="black" stroke="currentColor" stroke-width="1.00" stroke-linecap="butt" stroke-linejoin="miter">
	<g transform="translate(551.0,31.0)" stroke="none" fill="black" font-family="Helvetica" font-size="12.00"  text-anchor="middle">
		<text><tspan font-family="Helvetica" >bench_group/blake3/96: median</tspan></text>
	</g>
</g>
<g fill="none" color="black" stroke="currentColor" stroke-width="1.00" stroke-linecap="butt" stroke-linejoin="miter">
</g>
	<g id="gnuplot_plot_1" ><title>Bootstrap distribution</title>
<g fill="none" color="white" stroke="currentColor" stroke-width="2.00" stroke-linecap="butt" stroke-linejoin="miter">
</g>
<g fill="none" color="black" stroke="currentColor" stroke-width="2.00" stroke-linecap="butt" stroke-linejoin="miter">
	<g transform="translate(1089.0,67.0)" stroke="none" fill="black" font-family="Helvetica" font-size="12.00"  text-anchor="start">
		<text><tspan font-family="Helvetica" >Bootstrap distribution</tspan></text>
	</g>
</g>
<g fill="none" color="black" stroke="currentColor" stroke-width="2.00" stroke-linecap="butt" stroke-linejoin="miter">
	<path stroke='rgb( 31, 120, 180)'  d='M1038.5,63.1 L1080.7,63.1 M88.5,639.1 L90.4,638.6 L92.2,638.2 L94.1,637.7 L95.9,637.2 L97.8,636.6
		L99.6,636.1 L101.5,635.6 L103.3,635.1 L105.2,634.6 L107.0,634.1 L108.9,633.6 L110.7,633.1 L112.6,632.7
		L114.5,632.2 L116.3,631.8 L118.2,631.3 L120.0,630.9 L121.9,630.5 L123.7,630.1 L125.6,629.7 L127.4,629.4
		L129.3,629.0 L131.1,628.7 L133.0,628.4 L134.8,628.1 L136.7,627.8 L138.6,627.5 L140.4,627.3 L142.3,627.0
		L144.1,626.8 L146.0,626.5 L147.8,626.3 L149.7,626.0 L151.5,625.7 L153.4,625.5 L155.2,625.2 L157.1,624.8
		L158.9,624.5 L160.8,624.1 L162.7,623.7 L164.5,623.2 L166.4,622.6 L168.2,622.0 L170.1,621.3 L171.9,620.5
		L173.8,619.6 L175.6,618.6 L177.5,617.6 L179.3,616.4 L181.2,615.1 L183.0,613.6 L184.9,612.1 L186.8,610.4
		L188.6,608.5 L190.5,606.6 L192.3,604.5 L194.2,602.2 L196.0,599.9 L197.9,597.3 L199.7,594.7 L201.6,591.9
		L203.4,589.1 L205.3,586.1 L207.2,583.0 L209.0,579.8 L210.9,576.6 L212.7,573.3 L214.6,569.9 L216.4,566.5
		L218.3,563.1 L220.1,559.7 L222.0,556.3 L223.8,552.9 L225.7,549.5 L227.5,546.2 L229.4,543.0 L231.3,539.8
		L233.1,536.6 L235.0,533.6 L236.8,530.6 L238.7,527.8 L240.5,525.0 L242.4,522.4 L244.2,519.8 L246.1,517.3
		L247.9,515.0 L249.8,512.7 L251.6,510.6 L253.5,508.5 L255.4,506.5 L257.2,504.5 L259.1,502.7 L260.9,500.9
		L262.8,499.1 L264.6,497.4 L266.5,495.7 L268.3,494.1 L270.2,492.4 L272.0,490.8 L273.9,489.1 L275.7,487.4
		L277.6,485.7 L279.5,483.9 L281.3,482.1 L283.2,480.2 L285.0,478.2 L286.9,476.1 L288.7,473.9 L290.6,471.6
		L292.4,469.3 L294.3,466.8 L296.1,464.2 L298.0,461.6 L299.8,458.9 L301.7,456.0 L303.6,453.2 L305.4,450.3
		L307.3,447.4 L309.1,444.4 L311.0,441.5 L312.8,438.7 L314.7,435.9 L316.5,433.2 L318.4,430.6 L320.2,428.1
		L322.1,425.8 L323.9,423.6 L325.8,421.7 L327.7,419.9 L329.5,418.4 L331.4,417.2 L333.2,416.2 L335.1,415.4
		L336.9,415.0 L338.8,414.9 L340.6,415.0 L342.5,415.5 L344.3,416.3 L346.2,417.5 L348.0,419.0 L349.9,420.8
		L351.8,422.9 L353.6,425.3 L355.5,428.0 L357.3,430.9 L359.2,434.1 L361.0,437.4 L362.9,440.9 L364.7,444.5
		L366.6,448.2 L368.4,452.0 L370.3,455.7 L372.1,459.4 L374.0,463.0 L375.9,466.4 L377.7,469.7 L379.6,472.8
		L381.4,475.8 L383.3,478.5 L385.1,480.9 L387.0,483.1 L388.8,485.1 L390.7,486.8 L392.5,488.3 L394.4,489.5
		L396.2,490.5 L398.1,491.3 L400.0,491.9 L401.8,492.3 L403.7,492.6 L405.5,492.7 L407.4,492.6 L409.2,492.5
		L411.1,492.3 L412.9,491.9 L414.8,491.6 L416.6,491.1 L418.5,490.6 L420.3,490.1 L422.2,489.6 L424.1,489.0
		L425.9,488.4 L427.8,487.7 L429.6,487.0 L431.5,486.3 L433.3,485.5 L435.2,484.5 L437.0,483.5 L438.9,482.3
		L440.7,481.0 L442.6,479.4 L444.5,477.7 L446.3,475.8 L448.2,473.6 L450.0,471.1 L451.9,468.4 L453.7,465.4
		L455.6,462.1 L457.4,458.5 L459.3,454.7 L461.1,450.7 L463.0,446.4 L464.8,441.9 L466.7,437.2 L468.6,432.3
		L470.4,427.3 L472.3,422.2 L474.1,417.0 L476.0,411.7 L477.8,406.4 L479.7,401.0 L481.5,395.7 L483.4,390.4
		L485.2,385.1 L487.1,379.9 L488.9,374.8 L490.8,369.8 L492.7,364.8 L494.5,359.9 L496.4,355.2 L498.2,350.6
		L500.1,346.0 L501.9,341.6 L503.8,337.3 L505.6,333.2 L507.5,329.1 L509.3,325.1 L511.2,321.2 L513.0,317.4
		L514.9,313.7 L516.8,310.0 L518.6,306.3 L520.5,302.6 L522.3,299.0 L524.2,295.3 L526.0,291.5 L527.9,287.6
		L529.7,283.7 L531.6,279.6 L533.4,275.4 L535.3,271.1 L537.1,266.5 L539.0,261.8 L540.9,256.9 L542.7,251.8
		L544.6,246.5 L546.4,241.0 L548.3,235.4 L550.1,229.6 L552.0,223.6 L553.8,217.5 L555.7,211.4 L557.5,205.1
		L559.4,198.8 L561.2,192.5 L563.1,186.2 L565.0,179.9 L566.8,173.7 L568.7,167.6 L570.5,161.6 L572.4,155.8
		L574.2,150.1 L576.1,144.8 L577.9,139.7 L579.8,134.8 L581.6,130.4 L583.5,126.3 L585.3,122.5 L587.2,119.3
		L589.1,116.5 L590.9,114.1 L592.8,112.3 L594.6,111.1 L596.5,110.3 L598.3,110.2 L600.2,110.6 L602.0,111.5
		L603.9,113.0 L605.7,115.1 L607.6,117.6 L609.4,120.6 L611.3,124.1 L613.2,127.9 L615.0,132.0 L616.9,136.5
		L618.7,141.1 L620.6,145.9 L622.4,150.8 L624.3,155.8 L626.1,160.7 L628.0,165.7 L629.8,170.5 L631.7,175.3
		L633.5,179.9 L635.4,184.4 L637.3,188.7 L639.1,192.8 L641.0,196.8 L642.8,200.7 L644.7,204.5 L646.5,208.1
		L648.4,211.7 L650.2,215.2 L652.1,218.8 L653.9,222.3 L655.8,226.0 L657.6,229.7 L659.5,233.6 L661.4,237.6
		L663.2,241.9 L665.1,246.4 L666.9,251.2 L668.8,256.2 L670.6,261.7 L672.5,267.4 L674.3,273.6 L676.2,280.1
		L678.0,287.0 L679.9,294.3 L681.8,301.9 L683.6,309.9 L685.5,318.1 L687.3,326.7 L689.2,335.5 L691.0,344.5
		L692.9,353.6 L694.7,362.7 L696.6,371.9 L698.4,381.0 L700.3,390.1 L702.1,398.9 L704.0,407.5 L705.9,415.8
		L707.7,423.8 L709.6,431.4 L711.4,438.6 L713.3,445.4 L715.1,451.7 L717.0,457.6 L718.8,463.1 L720.7,468.1
		L722.5,472.8 L724.4,477.0 L726.2,480.9 L728.1,484.5 L730.0,487.9 L731.8,491.0 L733.7,493.9 L735.5,496.7
		L737.4,499.4 L739.2,502.0 L741.1,504.7 L742.9,507.3 L744.8,510.0 L746.6,512.8 L748.5,515.7 L750.3,518.6
		L752.2,521.7 L754.1,524.8 L755.9,528.1 L757.8,531.4 L759.6,534.8 L761.5,538.3 L763.3,541.7 L765.2,545.2
		L767.0,548.7 L768.9,552.0 L770.7,555.3 L772.6,558.5 L774.4,561.6 L776.3,564.5 L778.2,567.2 L780.0,569.7
		L781.9,571.9 L783.7,574.0 L785.6,575.8 L787.4,577.4 L789.3,578.8 L791.1,579.9 L793.0,580.9 L794.8,581.6
		L796.7,582.2 L798.5,582.6 L800.4,582.8 L802.3,583.0 L804.1,583.0 L806.0,583.0 L807.8,583.0 L809.7,582.9
		L811.5,582.8 L813.4,582.8 L815.2,582.8 L817.1,582.8 L818.9,583.0 L820.8,583.2 L822.6,583.6 L824.5,584.0
		L826.4,584.6 L828.2,585.3 L830.1,586.1 L831.9,587.1 L833.8,588.1 L835.6,589.3 L837.5,590.5 L839.3,591.8
		L841.2,593.2 L843.0,594.6 L844.9,596.0 L846.7,597.4 L848.6,598.9 L850.5,600.3 L852.3,601.6 L854.2,602.9
		L856.0,604.2 L857.9,605.3 L859.7,606.4 L861.6,607.4 L863.4,608.3 L865.3,609.0 L867.1,609.7 L869.0,610.3
		L870.8,610.8 L872.7,611.1 L874.6,611.4 L876.4,611.6 L878.3,611.8 L880.1,611.9 L882.0,611.9 L883.8,611.9
		L885.7,611.8 L887.5,611.8 L889.4,611.7 L891.2,611.6 L893.1,611.6 L894.9,611.5 L896.8,611.5 L898.7,611.5
		L900.5,611.6 L902.4,611.7 L904.2,611.9 L906.1,612.1 L907.9,612.3 L909.8,612.7 L911.6,613.1 L913.5,613.6
		L915.3,614.1 L917.2,614.7 L919.1,615.3 L920.9,616.0 L922.8,616.8 L924.6,617.6 L926.5,618.5 L928.3,619.4
		L930.2,620.3 L932.0,621.3 L933.9,622.3 L935.7,623.3 L937.6,624.3 L939.4,625.3 L941.3,626.3 L943.2,627.3
		L945.0,628.3 L946.9,629.3 L948.7,630.2 L950.6,631.1 L952.4,632.0 L954.3,632.8 L956.1,633.6 L958.0,634.3
		L959.8,635.0 L961.7,635.7 L963.5,636.4 L965.4,637.0 L967.3,637.6 L969.1,638.2 L971.0,638.7 L972.8,639.2
		L974.7,639.7 L976.5,640.2 L978.4,640.7 L980.2,641.2 L982.1,641.7 L983.9,642.2 L985.8,642.7 L987.6,643.1
		L989.5,643.6 L991.4,644.0 L993.2,644.5 L995.1,644.9 L996.9,645.3 L998.8,645.6 L1000.6,646.0 L1002.5,646.3
		L1004.3,646.6 L1006.2,646.8 L1008.0,647.1 L1009.9,647.2 L1011.7,647.4 L1013.6,647.5  '/></g>
	</g>
	<g id="gnuplot_plot_2" ><title>Confidence interval</title>
<g fill="none" color="white" stroke="rgb( 31, 120, 180)" stroke-width="1.00" stroke-linecap="butt" stroke-linejoin="miter">
</g>
<g fill="none" color="black" stroke="currentColor" stroke-width="1.00" stroke-linecap="butt" stroke-linejoin="miter">
	<g transform="translate(1089.0,85.0)" stroke="none" fill="black" font-family="Helvetica" font-size="12.00"  text-anchor="start">
		<text><tspan font-family="Helvetica" >Confidence interval</tspan></text>
	</g>
</g>
<g fill="none" color="black" stroke="currentColor" stroke-width="1.00" stroke-linecap="butt" stroke-linejoin="miter">
	<g stroke='none' shape-rendering='crispEdges'>
		<polygon fill = 'rgb( 31, 120, 180)' fill-opacity = '0.250000' points = '1038.5,85.6 1080.7,85.6 1080.7,76.6 1038.5,76.6 '/>
		<polygon fill = 'rgb( 31, 120, 180)' fill-opacity = '0.250000' points = '173.8,619.6 175.6,618.6 177.5,617.6 179.3,616.4 181.2,615.1 183.0,613.6 184.9,612.1 186.8,610.4 188.6,608.5 190.5,606.6 192.3,604.5 194.2,602.2 196.0,599.9 197.9,597.3 199.7,594.7 201.6,591.9
203.4,589.1 205.3,586.1 207.2,583.0 209.0,579.8 210.9,576.6 212.7,573.3 214.6,569.9 216.4,566.5 218.3,563.1 220.1,559.7 222.0,556.3 223.8,552.9 225.7,549.5 227.5,546.2 229.4,543.0 231.3,539.8
233.1,536.6 235.0,533.6 236.8,530.6 238.7,527.8 240.5,525.0 242.4,522.4 244.2,519.8 246.1,517.3 247.9,515.0 249.8,512.7 251.6,510.6 253.5,508.5 255.4,506.5 257.2,504.5 259.1,502.7 260.9,500.9
262.8,499.1 264.6,497.4 266.5,495.7 268.3,494.1 270.2,492.4 272.0,490.8 273.9,489.1 275.7,487.4 277.6,485.7 279.5,483.9 281.3,482.1 283.2,480.2 285.0,478.2 286.9,476.1 288.7,473.9 290.6,471.6
292.4,469.3 294.3,466.8 296.1,464.2 298.0,461.6 299.8,458.9 301.7,456.0 303.6,453.2 305.4,450.3 307.3,447.4 309.1,444.4 311.0,441.5 312.8,438.7 314.7,435.9 316.5,433.2 318.4,430.6 320.2,428.1
322.1,425.8 323.9,423.6 325.8,421.7 327.7,419.9 329.5,418.4 331.4,417.2 333.2,416.2 335.1,415.4 336.9,415.0 338.8,414.9 340.6,415.0 342.5,415.5 344.3,416.3 346.2,417.5 348.0,419.0 349.9,420.8
351.8,422.9 353.6,425.3 355.5,428.0 357.3,430.9 359.2,434.1 361.0,437.4 362.9,440.9 364.7,444.5 366.6,448.2 368.4,452.0 370.3,455.7 372.1,459.4 374.0,463.0 375.9,466.4 377.7,469.7 379.6,472.8
381.4,475.8 383.3,478.5 385.1,480.9 387.0,483.1 388.8,485.1 390.7,486.8 392.5,488.3 394.4,489.5 396.2,490.5 398.1,491.3 400.0,491.9 401.8,492.3 403.7,492.6 405.5,492.7 407.4,492.6 409.2,492.5
411.1,492.3 412.9,491.9 414.8,491.6 416.6,491.1 418.5,490.6 420.3,490.1 422.2,489.6 424.1,489.0 425.9,488.4 427.8,487.7 429.6,487.0 431.5,486.3 433.3,485.5 435.2,484.5 437.0,483.5 438.9,482.3
440.7,481.0 442.6,479.4 444.5,477.7 446.3,475.8 448.2,473.6 450.0,471.1 451.9,468.4 453.7,465.4 455.6,462.1 457.4,458.5 459.3,454.7 461.1,450.7 463.0,446.4 464.8,441.9 466.7,437.2 468.6,432.3
470.4,427.3 472.3,422.2 474.1,417.0 476.0,411.7 477.8,406.4 479.7,401.0 481.5,395.7 483.4,390.4 485.2,385.1 487.1,379.9 488.9,374.8 490.8,369.8 492.7,364.8 494.5,359.9 496.4,355.2 498.2,350.6
500.1,346.0 501.9,341.6 503.8,337.3 505.6,333.2 507.5,329.1 509.3,325.1 511.2,321.2 513.0,317.4 514.9,313.7 516.8,310.0 518.6,306.3 520.5,302.6 522.3,299.0 524.2,295.3 526.0,291.5 527.9,287.6
529.7,283.7 531.6,279.6 533.4,275.4 535.3,271.1 537.1,266.5 539.0,261.8 540.9,256.9 542.7,251.8 544.6,246.5 546.4,241.0 548.3,235.4 550.1,229.6 552.0,223.6 553.8,217.5 555.7,211.4 557.5,205.1
559.4,198.8 561.2,192.5 563.1,186.2 565.0,179.9 566.8,173.7 568.7,167.6 570.5,161.6 572.4,155.8 574.2,150.1 576.1,144.8 577.9,139.7 579.8,134.8 581.6,130.4 583.5,126.3 585.3,122.5 587.2,119.3
589.1,116.5 590.9,114.1 592.8,112.3 594.6,111.1 596.5,110.3 598.3,110.2 600.2,110.6 602.0,111.5 603.9,113.0 605.7,115.1 607.6,117.6 609.4,120.6 611.3,124.1 613.2,127.9 615.0,132.0 616.9,136.5
618.7,141.1 620.6,145.9 622.4,150.8 624.3,155.8 626.1,160.7 628.0,165.7 629.8,170.5 631.7,175.3 633.5,179.9 635.4,184.4 637.3,188.7 639.1,192.8 641.0,196.8 642.8,200.7 644.7,204.5 646.5,208.1
648.4,211.7 650.2,215.2 652.1,218.8 653.9,222.3 655.8,226.0 657.6,229.7 659.5,233.6 661.4,237.6 663.2,241.9 665.1,246.4 666.9,251.2 668.8,256.2 670.6,261.7 672.5,267.4 674.3,273.6 676.2,280.1
678.0,287.0 679.9,294.3 681.8,301.9 683.6,309.9 685.5,318.1 687.3,326.7 689.2,335.5 691.0,344.5 692.9,353.6 694.7,362.7 696.6,371.9 698.4,381.0 700.3,390.1 702.1,398.9 704.0,407.5 705.9,415.8
707.7,423.8 709.6,431.4 711.4,438.6 713.3,445.4 715.1,451.7 717.0,457.6 718.8,463.1 720.7,468.1 722.5,472.8 724.4,477.0 726.2,480.9 728.1,484.5 730.0,487.9 731.8,491.0 733.7,493.9 735.5,496.7
737.4,499.4 739.2,502.0 741.1,504.7 742.9,507.3 744.8,510.0 746.6,512.8 748.5,515.7 750.3,518.6 752.2,521.7 754.1,524.8 755.9,528.1 757.8,531.4 759.6,534.8 761.5,538.3 763.3,541.7 765.2,545.2
767.0,548.7 768.9,552.0 770.7,555.3 772.6,558.5 774.4,561.6 776.3,564.5 778.2,567.2 780.0,569.7 781.9,571.9 783.7,574.0 785.6,575.8 787.4,577.4 789.3,578.8 791.1,579.9 793.0,580.9 794.8,581.6
796.7,582.2 798.5,582.6 800.4,582.8 802.3,583.0 804.1,583.0 806.0,583.0 807.8,583.0 809.7,582.9 811.5,582.8 813.4,582.8 815.2,582.8 817.1,582.8 818.9,583.0 820.8,583.2 822.6,583.6 824.5,584.0
826.4,584.6 828.2,585.3 830.1,586.1 831.9,587.1 833.8,588.1 835.6,589.3 837.5,590.5 839.3,591.8 841.2,593.2 843.0,594.6 844.9,596.0 846.7,597.4 848.6,598.9 850.5,600.3 852.3,601.6 854.2,602.9
856.0,604.2 857.9,605.3 859.7,606.4 861.6,607.4 863.4,608.3 865.3,609.0 867.1,609.7 869.0,610.3 870.8,610.8 872.7,611.1 874.6,611.4 876.4,611.6 878.3,611.8 880.1,611.9 882.0,611.9 883.8,611.9
885.7,611.8 887.5,611.8 889.4,611.7 891.2,611.6 893.1,611.6 894.9,611.5 896.8,611.5 898.7,611.5 900.5,611.6 902.4,611.7 904.2,611.9 906.1,612.1 907.9,612.3 909.8,612.7 911.6,613.1 913.5,613.6
915.3,614.1 917.2,614.7 919.1,615.3 920.9,616.0 922.8,616.8 924.6,617.6 926.5,618.5 926.5,662.4 924.6,662.4 922.8,662.4 920.9,662.4 919.1,662.4 917.2,662.4 915.3,662.4 913.5,662.4 911.6,662.4
909.8,662.4 907.9,662.4 906.1,662.4 904.2,662.4 902.4,662.4 900.5,662.4 898.7,662.4 896.8,662.4 894.9,662.4 893.1,662.4 891.2,662.4 889.4,662.4 887.5,662.4 885.7,662.4 883.8,662.4 882.0,662.4
880.1,662.4 878.3,662.4 876.4,662.4 874.6,662.4 872.7,662.4 870.8,662.4 869.0,662.4 867.1,662.4 865.3,662.4 863.4,662.4 861.6,662.4 859.7,662.4 857.9,662.4 856.0,662.4 854.2,662.4 852.3,662.4
850.5,662.4 848.6,662.4 846.7,662.4 844.9,662.4 843.0,662.4 841.2,662.4 839.3,662.4 837.5,662.4 835.6,662.4 833.8,662.4 831.9,662.4 830.1,662.4 828.2,662.4 826.4,662.4 824.5,662.4 822.6,662.4
820.8,662.4 818.9,662.4 817.1,662.4 815.2,662.4 813.4,662.4 811.5,662.4 809.7,662.4 807.8,662.4 806.0,662.4 804.1,662.4 802.3,662.4 800.4,662.4 798.5,662.4 796.7,662.4 794.8,662.4 793.0,662.4
791.1,662.4 789.3,662.4 787.4,662.4 785.6,662.4 783.7,662.4 781.9,662.4 780.0,662.4 778.2,662.4 776.3,662.4 774.4,662.4 772.6,662.4 770.7,662.4 768.9,662.4 767.0,662.4 765.2,662.4 763.3,662.4
761.5,662.4 759.6,662.4 757.8,662.4 755.9,662.4 754.1,662.4 752.2,662.4 750.3,662.4 748.5,662.4 746.6,662.4 744.8,662.4 742.9,662.4 741.1,662.4 739.2,662.4 737.4,662.4 735.5,662.4 733.7,662.4
731.8,662.4 730.0,662.4 728.1,662.4 726.2,662.4 724.4,662.4 722.5,662.4 720.7,662.4 718.8,662.4 717.0,662.4 715.1,662.4 713.3,662.4 711.4,662.4 709.6,662.4 707.7,662.4 705.9,662.4 704.0,662.4
702.1,662.4 700.3,662.4 698.4,662.4 696.6,662.4 694.7,662.4 692.9,662.4 691.0,662.4 689.2,662.4 687.3,662.4 685.5,662.4 683.6,662.4 681.8,662.4 679.9,662.4 678.0,662.4 676.2,662.4 674.3,662.4
672.5,662.4 670.6,662.4 668.8,662.4 666.9,662.4 665.1,662.4 663.2,662.4 661.4,662.4 659.5,662.4 657.6,662.4 655.8,662.4 653.9,662.4 652.1,662.4 650.2,662.4 648.4,662.4 646.5,662.4 644.7,662.4
642.8,662.4 641.0,662.4 639.1,662.4 637.3,662.4 635.4,662.4 633.5,662.4 631.7,662.4 629.8,662.4 628.0,662.4 626.1,662.4 624.3,662.4 622.4,662.4 620.6,662.4 618.7,662.4 616.9,662.4 615.0,662.4
613.2,662.4 611.3,662.4 609.4,662.4 607.6,662.4 605.7,662.4 603.9,662.4 602.0,662.4 600.2,662.4 598.3,662.4 596.5,662.4 594.6,662.4 592.8,662.4 590.9,662.4 589.1,662.4 587.2,662.4 585.3,662.4
583.5,662.4 581.6,662.4 579.8,662.4 577.9,662.4 576.1,662.4 574.2,662.4 572.4,662.4 570.5,662.4 568.7,662.4 566.8,662.4 565.0,662.4 563.1,662.4 561.2,662.4 559.4,662.4 557.5,662.4 555.7,662.4
553.8,662.4 552.0,662.4 550.1,662.4 548.3,662.4 546.4,662.4 544.6,662.4 542.7,662.4 540.9,662.4 539.0,662.4 537.1,662.4 535.3,662.4 533.4,662.4 531.6,662.4 529.7,662.4 527.9,662.4 526.0,662.4
524.2,662.4 522.3,662.4 520.5,662.4 518.6,662.4 516.8,662.4 514.9,662.4 513.0,662.4 511.2,662.4 509.3,662.4 507.5,662.4 505.6,662.4 503.8,662.4 501.9,662.4 500.1,662.4 498.2,662.4 496.4,662.4
494.5,662.4 492.7,662.4 490.8,662.4 488.9,662.4 487.1,662.4 485.2,662.4 483.4,662.4 481.5,662.4 479.7,662.4 477.8,662.4 476.0,662.4 474.1,662.4 472.3,662.4 470.4,662.4 468.6,662.4 466.7,662.4
464.8,662.4 463.0,662.4 461.1,662.4 459.3,662.4 457.4,662.4 455.6,662.4 453.7,662.4 451.9,662.4 450.0,662.4 448.2,662.4 446.3,662.4 444.5,662.4 442.6,662.4 440.7,662.4 438.9,662.4 437.0,662.4
435.2,662.4 433.3,662.4 431.5,662.4 429.6,662.4 427.8,662.4 425.9,662.4 424.1,662.4 422.2,662.4 420.3,662.4 418.5,662.4 416.6,662.4 414.8,662.4 412.9,662.4 411.1,662.4 409.2,662.4 407.4,662.4
405.5,662.4 403.7,662.4 401.8,662.4 400.0,662.4 398.1,662.4 396.2,662.4 394.4,662.4 392.5,662.4 390.7,662.4 388.8,662.4 387.0,662.4 385.1,662.4 383.3,662.4 381.4,662.4 379.6,662.4 377.7,662.4
375.9,662.4 374.0,662.4 372.1,662.4 370.3,662.4 368.4,662.4 366.6,662.4 364.7,662.4 362.9,662.4 361.0,662.4 359.2,662.4 357.3,662.4 355.5,662.4 353.6,662.4 351.8,662.4 349.9,662.4 348.0,662.4
346.2,662.4 344.3,662.4 342.5,662.4 340.6,662.4 338.8,662.4 336.9,662.4 335.1,662.4 333.2,662.4 331.4,662.4 329.5,662.4 327.7,662.4 325.8,662.4 323.9,662.4 322.1,662.4 320.2,662.4 318.4,662.4
316.5,662.4 314.7,662.4 312.8,662.4 311.0,662.4 309.1,662.4 307.3,662.4 305.4,662.4 303.6,662.4 301.7,662.4 299.8,662.4 298.0,662.4 296.1,662.4 294.3,662.4 292.4,662.4 290.6,662.4 288.7,662.4
286.9,662.4 285.0,662.4 283.2,662.4 281.3,662.4 279.5,662.4 277.6,662.4 275.7,662.4 273.9,662.4 272.0,662.4 270.2,662.4 268.3,662.4 266.5,662.4 264.6,662.4 262.8,662.4 260.9,662.4 259.1,662.4
257.2,662.4 255.4,662.4 253.5,662.4 251.6,662.4 249.8,662.4 247.9,662.4 246.1,662.4 244.2,662.4 242.4,662.4 240.5,662.4 238.7,662.4 236.8,662.4 235.0,662.4 233.1,662.4 231.3,662.4 229.4,662.4
227.5,662.4 225.7,662.4 223.8,662.4 222.0,662.4 220.1,662.4 218.3,662.4 216.4,662.4 214.6,662.4 212.7,662.4 210.9,662.4 209.0,662.4 207.2,662.4 205.3,662.4 203.4,662.4 201.6,662.4 199.7,662.4
197.9,662.4 196.0,662.4 194.2,662.4 192.3,662.4 190.5,662.4 188.6,662.4 186.8,662.4 184.9,662.4 183.0,662.4 181.2,662.4 179.3,662.4 177.5,662.4 175.6,662.4 173.8,662.4 '/>
	</g>
</g>
	</g>
	<g id="gnuplot_plot_3" ><title>Point estimate</title>
<g fill="none" color="white" stroke="rgb( 31, 120, 180)" stroke-width="2.00" stroke-linecap="butt" stroke-linejoin="miter">
</g>
<g fill="none" color="black" stroke="currentColor" stroke-width="2.00" stroke-linecap="butt" stroke-linejoin="miter">
	<g transform="translate(1089.0,103.0)" stroke="none" fill="black" font-family="Helvetica" font-size="12.00"  text-anchor="start">
		<text><tspan font-family="Helvetica" >Point estimate</tspan></text>
	</g>
</g>
<g fill="none" color="black" stroke="currentColor" stroke-width="2.00" stroke-linecap="butt" stroke-linejoin="miter">
	<path stroke='rgb( 31, 120, 180)'  d='M1038.5,99.1 L1080.7,99.1 M577.1,662.4 L577.1,142.0  '/></g>
	</g>
	<g id="gnuplot_plot_4" ><title>Noise threshold</title>
<g fill="none" color="white" stroke="rgb( 31, 120, 180)" stroke-width="1.00" stroke-linecap="butt" stroke-linejoin="miter">
</g>
<g fill="none" color="black" stroke="currentColor" stroke-width="1.00" stroke-linecap="butt" stroke-linejoin="miter">
	<g transform="translate(1089.0,121.0)" stroke="none" fill="black" font-family="Helvetica" font-size="12.00"  text-anchor="start">
		<text><tspan font-family="Helvetica" >Noise threshold</tspan></text>
	</g>
</g>
<g fill="none" color="black" stroke="currentColor" stroke-width="1.00" stroke-linecap="butt" stroke-linejoin="miter">
	<g stroke='none' shape-rendering='crispEdges'>
		<polygon fill = 'rgb(227,  26,  28)' fill-opacity = '0.100000' points = '1038.5,121.6 1080.7,121.6 1080.7,112.6 1038.5,112.6 '/>
		<polygon fill = 'rgb(227,  26,  28)' fill-opacity = '0.100000' points = '88.5,54.1 1013.6,54.1 1013.6,662.4 88.5,662.4 '/>
	</g>
</g>
	</g>
<g fill="none" color="white" stroke="rgb(227,  26,  28)" stroke-width="2.00" stroke-linecap="butt" stroke-linejoin="miter">
</g>
<g fill="none" color="black" stroke="currentColor" stroke-width="2.00" stroke-linecap="butt" stroke-linejoin="miter">
</g>
<g fill="none" color="black" stroke="black" stroke-width="1.00" stroke-linecap="butt" stroke-linejoin="miter">
</g>
<g fill="none" color="black" stroke="currentColor" stroke-width="1.00" stroke-linecap="butt" stroke-linejoin="miter">
	<path stroke='black'  d='M88.5,54.1 L88.5,662.4 L1013.6,662.4 L1013.6,54.1 L88.5,54.1 Z  '/></g>
<g fill="none" color="black" stroke="currentColor" stroke-width="1.00" stroke-linecap="butt" stroke-linejoin="miter">
</g>
</g>
</svg>

