group,function,value,throughput_num,throughput_type,sample_measured_value,unit,iteration_count
bench_group,blake3,229376,229376,bytes,1034804.0,ns,5
bench_group,blake3,229376,229376,bytes,2102374.0,ns,10
bench_group,blake3,229376,229376,bytes,3082265.0,ns,15
bench_group,blake3,229376,229376,bytes,4114814.0,ns,20
bench_group,blake3,229376,229376,bytes,5174207.0,ns,25
bench_group,blake3,229376,229376,bytes,6202571.0,ns,30
bench_group,blake3,229376,229376,bytes,7225656.0,ns,35
bench_group,blake3,229376,229376,bytes,8256826.0,ns,40
bench_group,blake3,229376,229376,bytes,9274584.0,ns,45
bench_group,blake3,229376,229376,bytes,10306367.0,ns,50
bench_group,blake3,229376,229376,bytes,11325907.0,ns,55
bench_group,blake3,229376,229376,bytes,12366185.0,ns,60
bench_group,blake3,229376,229376,bytes,13422128.0,ns,65
bench_group,blake3,229376,229376,bytes,14434214.0,ns,70
bench_group,blake3,229376,229376,bytes,15427858.0,ns,75
bench_group,blake3,229376,229376,bytes,16516959.0,ns,80
bench_group,blake3,229376,229376,bytes,17503147.0,ns,85
bench_group,blake3,229376,229376,bytes,18561629.0,ns,90
bench_group,blake3,229376,229376,bytes,19587426.0,ns,95
bench_group,blake3,229376,229376,bytes,20608162.0,ns,100
bench_group,blake3,229376,229376,bytes,21657572.0,ns,105
bench_group,blake3,229376,229376,bytes,22687924.0,ns,110
bench_group,blake3,229376,229376,bytes,23659872.0,ns,115
bench_group,blake3,229376,229376,bytes,24741184.0,ns,120
bench_group,blake3,229376,229376,bytes,25776295.0,ns,125
bench_group,blake3,229376,229376,bytes,26702480.0,ns,130
bench_group,blake3,229376,229376,bytes,27772817.0,ns,135
bench_group,blake3,229376,229376,bytes,28832857.0,ns,140
bench_group,blake3,229376,229376,bytes,29888710.0,ns,145
bench_group,blake3,229376,229376,bytes,30889333.0,ns,150
bench_group,blake3,229376,229376,bytes,31979035.0,ns,155
bench_group,blake3,229376,229376,bytes,32977046.0,ns,160
bench_group,blake3,229376,229376,bytes,33977416.0,ns,165
bench_group,blake3,229376,229376,bytes,35046215.0,ns,170
bench_group,blake3,229376,229376,bytes,36118196.0,ns,175
bench_group,blake3,229376,229376,bytes,37103286.0,ns,180
bench_group,blake3,229376,229376,bytes,38114213.0,ns,185
bench_group,blake3,229376,229376,bytes,39130097.0,ns,190
bench_group,blake3,229376,229376,bytes,40262861.0,ns,195
bench_group,blake3,229376,229376,bytes,41258925.0,ns,200
bench_group,blake3,229376,229376,bytes,42327204.0,ns,205
bench_group,blake3,229376,229376,bytes,43247551.0,ns,210
bench_group,blake3,229376,229376,bytes,44263259.0,ns,215
bench_group,blake3,229376,229376,bytes,45282626.0,ns,220
bench_group,blake3,229376,229376,bytes,46337370.0,ns,225
bench_group,blake3,229376,229376,bytes,47458531.0,ns,230
bench_group,blake3,229376,229376,bytes,48390246.0,ns,235
bench_group,blake3,229376,229376,bytes,49483303.0,ns,240
bench_group,blake3,229376,229376,bytes,50488239.0,ns,245
bench_group,blake3,229376,229376,bytes,51544948.0,ns,250
bench_group,blake3,229376,229376,bytes,52558126.0,ns,255
bench_group,blake3,229376,229376,bytes,53600370.0,ns,260
bench_group,blake3,229376,229376,bytes,54638738.0,ns,265
bench_group,blake3,229376,229376,bytes,55652092.0,ns,270
bench_group,blake3,229376,229376,bytes,56697179.0,ns,275
bench_group,blake3,229376,229376,bytes,57730804.0,ns,280
bench_group,blake3,229376,229376,bytes,58772319.0,ns,285
bench_group,blake3,229376,229376,bytes,59720437.0,ns,290
bench_group,blake3,229376,229376,bytes,60864109.0,ns,295
bench_group,blake3,229376,229376,bytes,61783380.0,ns,300
bench_group,blake3,229376,229376,bytes,62867623.0,ns,305
bench_group,blake3,229376,229376,bytes,63885015.0,ns,310
bench_group,blake3,229376,229376,bytes,64886458.0,ns,315
bench_group,blake3,229376,229376,bytes,65926034.0,ns,320
bench_group,blake3,229376,229376,bytes,66830167.0,ns,325
bench_group,blake3,229376,229376,bytes,67848551.0,ns,330
bench_group,blake3,229376,229376,bytes,68963596.0,ns,335
bench_group,blake3,229376,229376,bytes,70116058.0,ns,340
bench_group,blake3,229376,229376,bytes,71024265.0,ns,345
bench_group,blake3,229376,229376,bytes,72100558.0,ns,350
bench_group,blake3,229376,229376,bytes,73210528.0,ns,355
bench_group,blake3,229376,229376,bytes,74242847.0,ns,360
bench_group,blake3,229376,229376,bytes,75218729.0,ns,365
bench_group,blake3,229376,229376,bytes,76305233.0,ns,370
bench_group,blake3,229376,229376,bytes,77242155.0,ns,375
bench_group,blake3,229376,229376,bytes,78292003.0,ns,380
bench_group,blake3,229376,229376,bytes,79338317.0,ns,385
bench_group,blake3,229376,229376,bytes,80400012.0,ns,390
bench_group,blake3,229376,229376,bytes,81392318.0,ns,395
bench_group,blake3,229376,229376,bytes,82378016.0,ns,400
bench_group,blake3,229376,229376,bytes,83506757.0,ns,405
bench_group,blake3,229376,229376,bytes,84485734.0,ns,410
bench_group,blake3,229376,229376,bytes,85517712.0,ns,415
bench_group,blake3,229376,229376,bytes,86551764.0,ns,420
bench_group,blake3,229376,229376,bytes,87636120.0,ns,425
bench_group,blake3,229376,229376,bytes,88670198.0,ns,430
bench_group,blake3,229376,229376,bytes,89920093.0,ns,435
bench_group,blake3,229376,229376,bytes,90692345.0,ns,440
bench_group,blake3,229376,229376,bytes,91745348.0,ns,445
bench_group,blake3,229376,229376,bytes,92746827.0,ns,450
bench_group,blake3,229376,229376,bytes,93780033.0,ns,455
bench_group,blake3,229376,229376,bytes,94821961.0,ns,460
bench_group,blake3,229376,229376,bytes,95860712.0,ns,465
bench_group,blake3,229376,229376,bytes,96961534.0,ns,470
bench_group,blake3,229376,229376,bytes,98078100.0,ns,475
bench_group,blake3,229376,229376,bytes,98945657.0,ns,480
bench_group,blake3,229376,229376,bytes,99978456.0,ns,485
bench_group,blake3,229376,229376,bytes,101000131.0,ns,490
bench_group,blake3,229376,229376,bytes,101830325.0,ns,495
bench_group,blake3,229376,229376,bytes,103084612.0,ns,500
