group,function,value,throughput_num,throughput_type,sample_measured_value,unit,iteration_count
bench_group,blake3,256,256,bytes,986878.0,ns,1300
bench_group,blake3,256,256,bytes,1975183.0,ns,2600
bench_group,blake3,256,256,bytes,2996933.0,ns,3900
bench_group,blake3,256,256,bytes,3946477.0,ns,5200
bench_group,blake3,256,256,bytes,4932703.0,ns,6500
bench_group,blake3,256,256,bytes,5967867.0,ns,7800
bench_group,blake3,256,256,bytes,6913068.0,ns,9100
bench_group,blake3,256,256,bytes,7985307.0,ns,10400
bench_group,blake3,256,256,bytes,8927049.0,ns,11700
bench_group,blake3,256,256,bytes,9934771.0,ns,13000
bench_group,blake3,256,256,bytes,10914717.0,ns,14300
bench_group,blake3,256,256,bytes,11873786.0,ns,15600
bench_group,blake3,256,256,bytes,12919531.0,ns,16900
bench_group,blake3,256,256,bytes,13848669.0,ns,18200
bench_group,blake3,256,256,bytes,14873998.0,ns,19500
bench_group,blake3,256,256,bytes,15823249.0,ns,20800
bench_group,blake3,256,256,bytes,16848166.0,ns,22100
bench_group,blake3,256,256,bytes,17842902.0,ns,23400
bench_group,blake3,256,256,bytes,18811239.0,ns,24700
bench_group,blake3,256,256,bytes,19818560.0,ns,26000
bench_group,blake3,256,256,bytes,20788658.0,ns,27300
bench_group,blake3,256,256,bytes,21830869.0,ns,28600
bench_group,blake3,256,256,bytes,22762292.0,ns,29900
bench_group,blake3,256,256,bytes,23754514.0,ns,31200
bench_group,blake3,256,256,bytes,24762497.0,ns,32500
bench_group,blake3,256,256,bytes,25754203.0,ns,33800
bench_group,blake3,256,256,bytes,26752161.0,ns,35100
bench_group,blake3,256,256,bytes,27730606.0,ns,36400
bench_group,blake3,256,256,bytes,28733202.0,ns,37700
bench_group,blake3,256,256,bytes,29729677.0,ns,39000
bench_group,blake3,256,256,bytes,30689893.0,ns,40300
bench_group,blake3,256,256,bytes,31687138.0,ns,41600
bench_group,blake3,256,256,bytes,32706602.0,ns,42900
bench_group,blake3,256,256,bytes,33688530.0,ns,44200
bench_group,blake3,256,256,bytes,34683194.0,ns,45500
bench_group,blake3,256,256,bytes,35672726.0,ns,46800
bench_group,blake3,256,256,bytes,36617299.0,ns,48100
bench_group,blake3,256,256,bytes,37647955.0,ns,49400
bench_group,blake3,256,256,bytes,38628320.0,ns,50700
bench_group,blake3,256,256,bytes,39705598.0,ns,52000
bench_group,blake3,256,256,bytes,40598635.0,ns,53300
bench_group,blake3,256,256,bytes,41583114.0,ns,54600
bench_group,blake3,256,256,bytes,42610809.0,ns,55900
bench_group,blake3,256,256,bytes,43552652.0,ns,57200
bench_group,blake3,256,256,bytes,44586564.0,ns,58500
bench_group,blake3,256,256,bytes,45600350.0,ns,59800
bench_group,blake3,256,256,bytes,46556901.0,ns,61100
bench_group,blake3,256,256,bytes,47539165.0,ns,62400
bench_group,blake3,256,256,bytes,48521475.0,ns,63700
bench_group,blake3,256,256,bytes,49506700.0,ns,65000
bench_group,blake3,256,256,bytes,50501037.0,ns,66300
bench_group,blake3,256,256,bytes,51525666.0,ns,67600
bench_group,blake3,256,256,bytes,52466634.0,ns,68900
bench_group,blake3,256,256,bytes,53490326.0,ns,70200
bench_group,blake3,256,256,bytes,54477939.0,ns,71500
bench_group,blake3,256,256,bytes,55465102.0,ns,72800
bench_group,blake3,256,256,bytes,56414341.0,ns,74100
bench_group,blake3,256,256,bytes,57487258.0,ns,75400
bench_group,blake3,256,256,bytes,58421027.0,ns,76700
bench_group,blake3,256,256,bytes,59421084.0,ns,78000
bench_group,blake3,256,256,bytes,60402537.0,ns,79300
bench_group,blake3,256,256,bytes,61432368.0,ns,80600
bench_group,blake3,256,256,bytes,62373049.0,ns,81900
bench_group,blake3,256,256,bytes,63411822.0,ns,83200
bench_group,blake3,256,256,bytes,64392958.0,ns,84500
bench_group,blake3,256,256,bytes,65376869.0,ns,85800
bench_group,blake3,256,256,bytes,66363061.0,ns,87100
bench_group,blake3,256,256,bytes,67380245.0,ns,88400
bench_group,blake3,256,256,bytes,68356424.0,ns,89700
bench_group,blake3,256,256,bytes,69308938.0,ns,91000
bench_group,blake3,256,256,bytes,70296915.0,ns,92300
bench_group,blake3,256,256,bytes,71353868.0,ns,93600
bench_group,blake3,256,256,bytes,72282684.0,ns,94900
bench_group,blake3,256,256,bytes,73308904.0,ns,96200
bench_group,blake3,256,256,bytes,74273448.0,ns,97500
bench_group,blake3,256,256,bytes,75324291.0,ns,98800
bench_group,blake3,256,256,bytes,76258542.0,ns,100100
bench_group,blake3,256,256,bytes,77243274.0,ns,101400
bench_group,blake3,256,256,bytes,78230894.0,ns,102700
bench_group,blake3,256,256,bytes,79260162.0,ns,104000
bench_group,blake3,256,256,bytes,80202899.0,ns,105300
bench_group,blake3,256,256,bytes,81205152.0,ns,106600
bench_group,blake3,256,256,bytes,82212591.0,ns,107900
bench_group,blake3,256,256,bytes,83225349.0,ns,109200
bench_group,blake3,256,256,bytes,84193875.0,ns,110500
bench_group,blake3,256,256,bytes,85175448.0,ns,111800
bench_group,blake3,256,256,bytes,86365876.0,ns,113100
bench_group,blake3,256,256,bytes,87476042.0,ns,114400
bench_group,blake3,256,256,bytes,88174154.0,ns,115700
bench_group,blake3,256,256,bytes,89189890.0,ns,117000
bench_group,blake3,256,256,bytes,90217506.0,ns,118300
bench_group,blake3,256,256,bytes,91255903.0,ns,119600
bench_group,blake3,256,256,bytes,92072591.0,ns,120900
bench_group,blake3,256,256,bytes,93131961.0,ns,122200
bench_group,blake3,256,256,bytes,94084429.0,ns,123500
bench_group,blake3,256,256,bytes,95080161.0,ns,124800
bench_group,blake3,256,256,bytes,96107941.0,ns,126100
bench_group,blake3,256,256,bytes,97066209.0,ns,127400
bench_group,blake3,256,256,bytes,98084005.0,ns,128700
bench_group,blake3,256,256,bytes,99042506.0,ns,130000
