group,function,value,throughput_num,throughput_type,sample_measured_value,unit,iteration_count
bench_group,blake3,163840,163840,bytes,1027328.0,ns,7
bench_group,blake3,163840,163840,bytes,2052204.0,ns,14
bench_group,blake3,163840,163840,bytes,3077562.0,ns,21
bench_group,blake3,163840,163840,bytes,4155655.0,ns,28
bench_group,blake3,163840,163840,bytes,5142864.0,ns,35
bench_group,blake3,163840,163840,bytes,6203279.0,ns,42
bench_group,blake3,163840,163840,bytes,7225802.0,ns,49
bench_group,blake3,163840,163840,bytes,8202675.0,ns,56
bench_group,blake3,163840,163840,bytes,9243402.0,ns,63
bench_group,blake3,163840,163840,bytes,10307831.0,ns,70
bench_group,blake3,163840,163840,bytes,11331237.0,ns,77
bench_group,blake3,163840,163840,bytes,12349247.0,ns,84
bench_group,blake3,163840,163840,bytes,13422357.0,ns,91
bench_group,blake3,163840,163840,bytes,14415413.0,ns,98
bench_group,blake3,163840,163840,bytes,15468270.0,ns,105
bench_group,blake3,163840,163840,bytes,16495367.0,ns,112
bench_group,blake3,163840,163840,bytes,17487869.0,ns,119
bench_group,blake3,163840,163840,bytes,18551362.0,ns,126
bench_group,blake3,163840,163840,bytes,19628628.0,ns,133
bench_group,blake3,163840,163840,bytes,20619166.0,ns,140
bench_group,blake3,163840,163840,bytes,21633499.0,ns,147
bench_group,blake3,163840,163840,bytes,22693330.0,ns,154
bench_group,blake3,163840,163840,bytes,23691633.0,ns,161
bench_group,blake3,163840,163840,bytes,24753430.0,ns,168
bench_group,blake3,163840,163840,bytes,25759450.0,ns,175
bench_group,blake3,163840,163840,bytes,26765316.0,ns,182
bench_group,blake3,163840,163840,bytes,27831509.0,ns,189
bench_group,blake3,163840,163840,bytes,28860036.0,ns,196
bench_group,blake3,163840,163840,bytes,29913215.0,ns,203
bench_group,blake3,163840,163840,bytes,30915173.0,ns,210
bench_group,blake3,163840,163840,bytes,31945198.0,ns,217
bench_group,blake3,163840,163840,bytes,33011257.0,ns,224
bench_group,blake3,163840,163840,bytes,33994406.0,ns,231
bench_group,blake3,163840,163840,bytes,35053206.0,ns,238
bench_group,blake3,163840,163840,bytes,36111371.0,ns,245
bench_group,blake3,163840,163840,bytes,37121707.0,ns,252
bench_group,blake3,163840,163840,bytes,38130037.0,ns,259
bench_group,blake3,163840,163840,bytes,39173322.0,ns,266
bench_group,blake3,163840,163840,bytes,40307488.0,ns,273
bench_group,blake3,163840,163840,bytes,41236830.0,ns,280
bench_group,blake3,163840,163840,bytes,42293095.0,ns,287
bench_group,blake3,163840,163840,bytes,43324169.0,ns,294
bench_group,blake3,163840,163840,bytes,44326674.0,ns,301
bench_group,blake3,163840,163840,bytes,45344838.0,ns,308
bench_group,blake3,163840,163840,bytes,46385458.0,ns,315
bench_group,blake3,163840,163840,bytes,47414798.0,ns,322
bench_group,blake3,163840,163840,bytes,48463033.0,ns,329
bench_group,blake3,163840,163840,bytes,49506326.0,ns,336
bench_group,blake3,163840,163840,bytes,50511972.0,ns,343
bench_group,blake3,163840,163840,bytes,51545281.0,ns,350
bench_group,blake3,163840,163840,bytes,52570643.0,ns,357
bench_group,blake3,163840,163840,bytes,53692761.0,ns,364
bench_group,blake3,163840,163840,bytes,54747894.0,ns,371
bench_group,blake3,163840,163840,bytes,55595263.0,ns,378
bench_group,blake3,163840,163840,bytes,56697007.0,ns,385
bench_group,blake3,163840,163840,bytes,57735455.0,ns,392
bench_group,blake3,163840,163840,bytes,58777290.0,ns,399
bench_group,blake3,163840,163840,bytes,59788927.0,ns,406
bench_group,blake3,163840,163840,bytes,60824625.0,ns,413
bench_group,blake3,163840,163840,bytes,61822391.0,ns,420
bench_group,blake3,163840,163840,bytes,62887405.0,ns,427
bench_group,blake3,163840,163840,bytes,64002042.0,ns,434
bench_group,blake3,163840,163840,bytes,64779762.0,ns,441
bench_group,blake3,163840,163840,bytes,65844977.0,ns,448
bench_group,blake3,163840,163840,bytes,66913424.0,ns,455
bench_group,blake3,163840,163840,bytes,67922266.0,ns,462
bench_group,blake3,163840,163840,bytes,69056146.0,ns,469
bench_group,blake3,163840,163840,bytes,70010395.0,ns,476
bench_group,blake3,163840,163840,bytes,70967768.0,ns,483
bench_group,blake3,163840,163840,bytes,72022303.0,ns,490
bench_group,blake3,163840,163840,bytes,73164137.0,ns,497
bench_group,blake3,163840,163840,bytes,74246695.0,ns,504
bench_group,blake3,163840,163840,bytes,75267681.0,ns,511
bench_group,blake3,163840,163840,bytes,76297299.0,ns,518
bench_group,blake3,163840,163840,bytes,77323939.0,ns,525
bench_group,blake3,163840,163840,bytes,78406445.0,ns,532
bench_group,blake3,163840,163840,bytes,79374071.0,ns,539
bench_group,blake3,163840,163840,bytes,80382321.0,ns,546
bench_group,blake3,163840,163840,bytes,81449893.0,ns,553
bench_group,blake3,163840,163840,bytes,82484058.0,ns,560
bench_group,blake3,163840,163840,bytes,83489702.0,ns,567
bench_group,blake3,163840,163840,bytes,84447949.0,ns,574
bench_group,blake3,163840,163840,bytes,85510942.0,ns,581
bench_group,blake3,163840,163840,bytes,86524898.0,ns,588
bench_group,blake3,163840,163840,bytes,87579577.0,ns,595
bench_group,blake3,163840,163840,bytes,88599116.0,ns,602
bench_group,blake3,163840,163840,bytes,89766829.0,ns,609
bench_group,blake3,163840,163840,bytes,90715591.0,ns,616
bench_group,blake3,163840,163840,bytes,91746492.0,ns,623
bench_group,blake3,163840,163840,bytes,92812374.0,ns,630
bench_group,blake3,163840,163840,bytes,93799968.0,ns,637
bench_group,blake3,163840,163840,bytes,94814109.0,ns,644
bench_group,blake3,163840,163840,bytes,95936254.0,ns,651
bench_group,blake3,163840,163840,bytes,96986185.0,ns,658
bench_group,blake3,163840,163840,bytes,98067235.0,ns,665
bench_group,blake3,163840,163840,bytes,98979410.0,ns,672
bench_group,blake3,163840,163840,bytes,100005626.0,ns,679
bench_group,blake3,163840,163840,bytes,100991817.0,ns,686
bench_group,blake3,163840,163840,bytes,102066268.0,ns,693
bench_group,blake3,163840,163840,bytes,103114818.0,ns,700
